cromosoma	start	end	ref	alt	sample	cancer_type
X	74295467	74295467	-	AACA	CPN8_SF_T	adrenal_gland
20	47614882	47614890	TCCGCTGGC	-	CPN4_SF_T	adrenal_gland
20	47614882	47614890	TCCGCTGGC	-	CPN4_FFPE_T	adrenal_gland
X	129148970	129148970	-	C	CPN8_SF_T	adrenal_gland
X	129148970	129148970	-	C	CPN8_FFPE_T	adrenal_gland
1	200730024	200730024	A	-	CPN4_SF_T	adrenal_gland
1	200730026	200730039	ATCAAACCACCTGT	-	CPN4_SF_T	adrenal_gland
5	96098061	96098061	-	GG	CPN7_SF_T	adrenal_gland
18	28739409	28739409	T	-	CPN6_FFPE_T	adrenal_gland
4	36340757	36340757	A	-	CPN6_SF_T	adrenal_gland
4	36340757	36340757	A	-	CPN6_FFPE_T	adrenal_gland
18	33718320	33718324	TTATG	-	CPN5_SF_T	adrenal_gland
18	33718320	33718324	TTATG	-	CPN5_FFPE_T	adrenal_gland
7	50663203	50663203	-	TG	CPN5_SF_T	adrenal_gland
7	50663203	50663203	-	TG	CPN5_FFPE_T	adrenal_gland
3	49066750	49066763	AGGACGTGCCCCCA	-	CPN3_SF_T	adrenal_gland
4	123270347	123270347	-	T	CPN6_FFPE_T	adrenal_gland
15	31515509	31515511	GTC	-	CPN6_SF_T	adrenal_gland
15	31515513	31515519	TGTGGAG	-	CPN6_SF_T	adrenal_gland
1	82433753	82433753	-	AG	CPN3_FFPE_T	adrenal_gland
17	29683535	29683535	A	-	CPN1_SF_T	adrenal_gland
17	29683535	29683535	A	-	CPN1_FFPE_T	adrenal_gland
8	110257547	110257554	ATACCTAA	-	CPN6_SF_T	adrenal_gland
8	110257557	110257571	CATTGAAAGTTGCGA	-	CPN6_SF_T	adrenal_gland
7	82584456	82584456	T	-	CPN6_FFPE_T	adrenal_gland
8	48869749	48869750	AG	-	CPN3_FFPE_T	adrenal_gland
3	9495512	9495536	TGAGAATAGTAGCTCTTCTAGTATC	-	CPN4_SF_T	adrenal_gland
5	147470731	147470731	A	-	CPN5_SF_T	adrenal_gland
5	147470731	147470731	A	-	CPN5_FFPE_T	adrenal_gland
1	115576804	115576804	T	-	CPN7_SF_T	adrenal_gland
2	179439946	179439946	A	-	CPN3_SF_T	adrenal_gland
10	75834635	75834649	TGGGATGAAGATGCC	-	CPN7_SF_T	adrenal_gland
