cromosoma	start	ref	alt	sample	cancer_type	end
chr5	128301997	T	A	0812027.Primary	kidney_papilary_renal_cell	128301997
chr12	132334398	G	A	0812027.Primary	kidney_papilary_renal_cell	132334398
chr8	97312013	G	T	0812027.Primary	kidney_papilary_renal_cell	97312013
chr1	114948097	G	-	0812027.Primary	kidney_papilary_renal_cell	114948097
chr8	26366252	T	C	0812027.Primary	kidney_papilary_renal_cell	26366252
chr8	117778889	T	C	0812027.Primary	kidney_papilary_renal_cell	117778889
chr19	49206820	G	A	0812027.Primary	kidney_papilary_renal_cell	49206820
chr12	49176779	T	C	0812027.Primary	kidney_papilary_renal_cell	49176779
chr12	102158125	T	G	0812027.Primary	kidney_papilary_renal_cell	102158125
chr10	129690972	G	C	0812027.Primary	kidney_papilary_renal_cell	129690972
chr22	28426287	T	C	0812027.Primary	kidney_papilary_renal_cell	28426287
chr2	77745634	A	T	0812027.Primary	kidney_papilary_renal_cell	77745634
chr12	105388312	AG	-	0812027.Primary	kidney_papilary_renal_cell	105388313
chr14	33293086	G	-	0812027.Primary	kidney_papilary_renal_cell	33293086
chr1	228404801	C	G	0812027.Primary	kidney_papilary_renal_cell	228404801
chr7	120969668	C	T	0812027.Primary	kidney_papilary_renal_cell	120969668
chr12	121154756	ACTTTG	-	0812027.Primary	kidney_papilary_renal_cell	121154761
chr10	73461954	TC	-	0812027.Primary	kidney_papilary_renal_cell	73461955
chr6	34826292	C	-	0812027.Primary	kidney_papilary_renal_cell	34826292
chr1	109242283	A	G	0812027.Primary	kidney_papilary_renal_cell	109242283
chr14	47120524	C	T	0812027.Primary	kidney_papilary_renal_cell	47120524
chr2	10262930	T	A	0812027.Primary	kidney_papilary_renal_cell	10262930
chr11	63486584	AG	-	0812027.Primary	kidney_papilary_renal_cell	63486585
chr19	643516	C	T	0812027.Primary	kidney_papilary_renal_cell	643516
chr14	95571528	T	C	0812027.Primary	kidney_papilary_renal_cell	95571528
chr12	21624556	CT	-	0812027.Primary	kidney_papilary_renal_cell	21624557
chr6	125366486	C	T	0812027.Primary	kidney_papilary_renal_cell	125366486
chr11	69482683	-	G	0812027.Primary	kidney_papilary_renal_cell	69482683
chr3	132186107	G	A	0812027.Primary	kidney_papilary_renal_cell	132186107
chr10	26310439	C	T	0812027.Primary	kidney_papilary_renal_cell	26310439
chr12	99042419	AG	-	0812027.Primary	kidney_papilary_renal_cell	99042420
chr1	55518408	G	A	0812027.Primary	kidney_papilary_renal_cell	55518408
chr7	18625031	A	C	0812027.Primary	kidney_papilary_renal_cell	18625031
chr7	92147046	TT	-	0812027.Primary	kidney_papilary_renal_cell	92147047
chr10	120917389	TC	-	0812027.Primary	kidney_papilary_renal_cell	120917390
chr11	17632642	C	G	0812027.Primary	kidney_papilary_renal_cell	17632642
chr5	127705021	T	C	0812027.Primary	kidney_papilary_renal_cell	127705021
chr21	35895951	T	C	0812027.Primary	kidney_papilary_renal_cell	35895951
chr4	27004616	A	G	0812027.Primary	kidney_papilary_renal_cell	27004616
chr17	79225026	C	T	0812027.Primary	kidney_papilary_renal_cell	79225026
chr11	1017045	G	T	0812027.Primary	kidney_papilary_renal_cell	1017045
chr4	170618566	G	T	0812027.Primary	kidney_papilary_renal_cell	170618566
chr17	57762550	AG	-	0812027.Primary	kidney_papilary_renal_cell	57762551
chr18	19418328	C	T	0812027.Primary	kidney_papilary_renal_cell	19418328
chr10	13167556	AG	-	0812027.Primary	kidney_papilary_renal_cell	13167557
chr17	43906608	G	A	0812027.Primary	kidney_papilary_renal_cell	43906608
chr7	47892782	T	C	0812027.Primary	kidney_papilary_renal_cell	47892782
chr14	58917452	T	C	0812027.Primary	kidney_papilary_renal_cell	58917452
chr1	55620352	TGAG	-	0812027.Primary	kidney_papilary_renal_cell	55620355
chr13	77870783	TTC	-	0812027.Primary	kidney_papilary_renal_cell	77870785
chr14	20978869	G	A	0812027.Primary	kidney_papilary_renal_cell	20978869
chr11	18318468	A	T	0812027.Primary	kidney_papilary_renal_cell	18318468
chr2	113067715	AG	-	0812027.Primary	kidney_papilary_renal_cell	113067716
chrX	57936122	C	T	0812027.Primary	kidney_papilary_renal_cell	57936122
chr6	150713522	G	A	0812027.Primary	kidney_papilary_renal_cell	150713522
chr2	39156130	C	A	0812027.Primary	kidney_papilary_renal_cell	39156130
chr7	117250578	ATTA	-	0812027.Primary	kidney_papilary_renal_cell	117250581
chr15	66794248	G	A	0812027.Primary	kidney_papilary_renal_cell	66794248
chr3	142084204	C	A	0812027.Primary	kidney_papilary_renal_cell	142084204
chr3	56694766	TC	-	0812027.Primary	kidney_papilary_renal_cell	56694767
chr17	48433351	C	T	0812027.Ovary	kidney_papilary_renal_cell	48433351
chr3	5229969	G	A	0812027.Ovary	kidney_papilary_renal_cell	5229969
chr8	97312013	G	T	0812027.Ovary	kidney_papilary_renal_cell	97312013
chr8	26366252	T	C	0812027.Ovary	kidney_papilary_renal_cell	26366252
chr8	117778889	T	C	0812027.Ovary	kidney_papilary_renal_cell	117778889
chr19	49206820	G	A	0812027.Ovary	kidney_papilary_renal_cell	49206820
chr12	49176779	T	C	0812027.Ovary	kidney_papilary_renal_cell	49176779
chr12	102158125	T	G	0812027.Ovary	kidney_papilary_renal_cell	102158125
chr3	184766304	A	T	0812027.Ovary	kidney_papilary_renal_cell	184766304
chr10	129690972	G	C	0812027.Ovary	kidney_papilary_renal_cell	129690972
chr18	40850395	C	-	0812027.Ovary	kidney_papilary_renal_cell	40850395
chr22	28426287	T	C	0812027.Ovary	kidney_papilary_renal_cell	28426287
chr2	77745634	A	T	0812027.Ovary	kidney_papilary_renal_cell	77745634
chr1	158449759	A	T	0812027.Ovary	kidney_papilary_renal_cell	158449759
chr12	105388312	AG	-	0812027.Ovary	kidney_papilary_renal_cell	105388313
chr14	33293086	G	-	0812027.Ovary	kidney_papilary_renal_cell	33293086
chr1	228404801	C	G	0812027.Ovary	kidney_papilary_renal_cell	228404801
chr7	120969668	C	T	0812027.Ovary	kidney_papilary_renal_cell	120969668
chr12	121154756	ACTTTG	-	0812027.Ovary	kidney_papilary_renal_cell	121154761
chr10	73461954	TC	-	0812027.Ovary	kidney_papilary_renal_cell	73461955
chr6	34826292	C	-	0812027.Ovary	kidney_papilary_renal_cell	34826292
chr1	109242283	A	G	0812027.Ovary	kidney_papilary_renal_cell	109242283
chr14	47120524	C	T	0812027.Ovary	kidney_papilary_renal_cell	47120524
chr17	27011891	A	G	0812027.Ovary	kidney_papilary_renal_cell	27011891
chr2	10262930	T	A	0812027.Ovary	kidney_papilary_renal_cell	10262930
chr11	63486584	AG	-	0812027.Ovary	kidney_papilary_renal_cell	63486585
chr11	56000162	T	G	0812027.Ovary	kidney_papilary_renal_cell	56000162
chr19	643516	C	T	0812027.Ovary	kidney_papilary_renal_cell	643516
chr14	95571528	T	C	0812027.Ovary	kidney_papilary_renal_cell	95571528
chr4	156618236	A	T	0812027.Ovary	kidney_papilary_renal_cell	156618236
chr12	21624556	CT	-	0812027.Ovary	kidney_papilary_renal_cell	21624557
chr8	38840072	GCCGTAA	-	0812027.Ovary	kidney_papilary_renal_cell	38840078
chr6	125366486	C	T	0812027.Ovary	kidney_papilary_renal_cell	125366486
chr11	69482683	-	G	0812027.Ovary	kidney_papilary_renal_cell	69482683
chr7	83689810	G	C	0812027.Ovary	kidney_papilary_renal_cell	83689810
chr3	132186107	G	A	0812027.Ovary	kidney_papilary_renal_cell	132186107
chr10	26310439	C	T	0812027.Ovary	kidney_papilary_renal_cell	26310439
chr12	99042419	AG	-	0812027.Ovary	kidney_papilary_renal_cell	99042420
chr1	55518408	G	A	0812027.Ovary	kidney_papilary_renal_cell	55518408
chr7	18625031	A	C	0812027.Ovary	kidney_papilary_renal_cell	18625031
chr7	92147046	TT	-	0812027.Ovary	kidney_papilary_renal_cell	92147047
chr10	120917389	TC	-	0812027.Ovary	kidney_papilary_renal_cell	120917390
chr11	17632642	C	G	0812027.Ovary	kidney_papilary_renal_cell	17632642
chr1	154989081	-	A	0812027.Ovary	kidney_papilary_renal_cell	154989081
chr5	127705021	T	C	0812027.Ovary	kidney_papilary_renal_cell	127705021
chr21	35895951	T	C	0812027.Ovary	kidney_papilary_renal_cell	35895951
chr1	160324032	A	C	0812027.Ovary	kidney_papilary_renal_cell	160324032
chr4	27004616	A	G	0812027.Ovary	kidney_papilary_renal_cell	27004616
chr17	79225026	C	T	0812027.Ovary	kidney_papilary_renal_cell	79225026
chr4	170618566	G	T	0812027.Ovary	kidney_papilary_renal_cell	170618566
chr17	57762550	AG	-	0812027.Ovary	kidney_papilary_renal_cell	57762551
chr12	133635124	T	A	0812027.Ovary	kidney_papilary_renal_cell	133635124
chr17	40129326	TT	-	0812027.Ovary	kidney_papilary_renal_cell	40129327
chr3	186383858	T	C	0812027.Ovary	kidney_papilary_renal_cell	186383858
chr1	173476040	CT	-	0812027.Ovary	kidney_papilary_renal_cell	173476041
chr8	100533197	C	G	0812027.Ovary	kidney_papilary_renal_cell	100533197
chr18	19418328	C	T	0812027.Ovary	kidney_papilary_renal_cell	19418328
chr10	13167556	AG	-	0812027.Ovary	kidney_papilary_renal_cell	13167557
chr19	35989780	GAA	-	0812027.Ovary	kidney_papilary_renal_cell	35989782
chrX	135047253	G	A	0812027.Ovary	kidney_papilary_renal_cell	135047253
chr17	43906608	G	A	0812027.Ovary	kidney_papilary_renal_cell	43906608
chr7	47892782	T	C	0812027.Ovary	kidney_papilary_renal_cell	47892782
chr14	58917452	T	C	0812027.Ovary	kidney_papilary_renal_cell	58917452
chr4	184930736	AA	-	0812027.Ovary	kidney_papilary_renal_cell	184930737
chr5	74135904	AG	-	0812027.Ovary	kidney_papilary_renal_cell	74135905
chr1	55620352	TGAG	-	0812027.Ovary	kidney_papilary_renal_cell	55620355
chr13	77870783	TTC	-	0812027.Ovary	kidney_papilary_renal_cell	77870785
chr16	70993604	G	T	0812027.Ovary	kidney_papilary_renal_cell	70993604
chr14	20978869	G	A	0812027.Ovary	kidney_papilary_renal_cell	20978869
chr11	18318468	A	T	0812027.Ovary	kidney_papilary_renal_cell	18318468
chr2	113067715	AG	-	0812027.Ovary	kidney_papilary_renal_cell	113067716
chr15	75782565	C	T	0812027.Ovary	kidney_papilary_renal_cell	75782565
chrX	57936122	C	T	0812027.Ovary	kidney_papilary_renal_cell	57936122
chr6	150713522	G	A	0812027.Ovary	kidney_papilary_renal_cell	150713522
chr2	39156130	C	A	0812027.Ovary	kidney_papilary_renal_cell	39156130
chr7	117250578	ATTA	-	0812027.Ovary	kidney_papilary_renal_cell	117250581
chr15	66794248	G	A	0812027.Ovary	kidney_papilary_renal_cell	66794248
chr3	142084204	C	A	0812027.Ovary	kidney_papilary_renal_cell	142084204
chr22	46712295	C	T	0812027.Ovary	kidney_papilary_renal_cell	46712295
chr20	33762628	C	G	0812027.Ovary	kidney_papilary_renal_cell	33762628
chr3	56694766	TC	-	0812027.Ovary	kidney_papilary_renal_cell	56694767
chrX	44035580	C	A	0425141.Primary	kidney_papilary_renal_cell	44035580
chr3	52439266	G	-	0425141.Primary	kidney_papilary_renal_cell	52439266
chrX	123184137	T	A	0425141.Primary	kidney_papilary_renal_cell	123184137
chr3	153840341	C	A	0425141.Primary	kidney_papilary_renal_cell	153840341
chr5	125967436	G	C	0425141.Primary	kidney_papilary_renal_cell	125967436
chr4	106157376	TT	-	0425141.Primary	kidney_papilary_renal_cell	106157377
chr2	63834033	A	G	0425141.Primary	kidney_papilary_renal_cell	63834033
chr1	24201662	C	A	0425141.Primary	kidney_papilary_renal_cell	24201662
chr4	57897145	G	T	0425141.Primary	kidney_papilary_renal_cell	57897145
chr3	183818201	C	A	0425141.Primary	kidney_papilary_renal_cell	183818201
chr11	121358896	C	G	0425141.Primary	kidney_papilary_renal_cell	121358896
chr7	83610718	C	A	0425141.Primary	kidney_papilary_renal_cell	83610718
chr11	108013277	G	C	0425141.Primary	kidney_papilary_renal_cell	108013277
chr5	128301997	T	A	0425141.Primary	kidney_papilary_renal_cell	128301997
chr7	106524642	T	G	0425141.Primary	kidney_papilary_renal_cell	106524642
chr1	174418197	A	G	0425141.Primary	kidney_papilary_renal_cell	174418197
chr16	58706091	A	G	0425141.Primary	kidney_papilary_renal_cell	58706091
chr16	1395075	C	T	0425141.Primary	kidney_papilary_renal_cell	1395075
chr15	93524633	GA	-	0425141.Primary	kidney_papilary_renal_cell	93524634
chr5	65321801	C	T	0425141.Primary	kidney_papilary_renal_cell	65321801
chr6	89871978	A	G	0425141.Primary	kidney_papilary_renal_cell	89871978
chr11	9499998	C	G	0425141.Primary	kidney_papilary_renal_cell	9499998
chr6	150004926	C	T	0425141.Primary	kidney_papilary_renal_cell	150004926
chr1	158532847	G	T	0425141.Primary	kidney_papilary_renal_cell	158532847
chr6	111543353	AG	-	0425141.Primary	kidney_papilary_renal_cell	111543354
chr14	31828017	A	C	0425141.Primary	kidney_papilary_renal_cell	31828017
chr6	43029127	C	G	0425141.Primary	kidney_papilary_renal_cell	43029127
chr6	146125722	C	G	0425141.Primary	kidney_papilary_renal_cell	146125722
chr14	105208263	T	C	0425141.Primary	kidney_papilary_renal_cell	105208263
chr2	131103218	A	G	0425141.Primary	kidney_papilary_renal_cell	131103218
chr17	53120639	C	T	0425141.Primary	kidney_papilary_renal_cell	53120639
chr9	130206839	G	T	0425141.Primary	kidney_papilary_renal_cell	130206839
chr11	94278699	C	T	0425141.Primary	kidney_papilary_renal_cell	94278699
chr10	114164501	G	T	0425141.Primary	kidney_papilary_renal_cell	114164501
chr6	10697635	G	-	0425141.Primary	kidney_papilary_renal_cell	10697635
chr12	132334398	G	A	0425141.Primary	kidney_papilary_renal_cell	132334398
chr16	53501011	C	A	0425141.Primary	kidney_papilary_renal_cell	53501011
chr5	71493732	C	T	0425141.Primary	kidney_papilary_renal_cell	71493732
chr10	28884710	TT	-	0425141.Primary	kidney_papilary_renal_cell	28884711
chr3	10145955	C	A	0425141.Primary	kidney_papilary_renal_cell	10145955
chr11	63885020	C	A	0425141.Primary	kidney_papilary_renal_cell	63885020
chr8	123966117	C	G	0425141.Primary	kidney_papilary_renal_cell	123966117
chr21	38862731	G	A	0425141.Primary	kidney_papilary_renal_cell	38862731
chr9	91994096	G	-	0425141.Primary	kidney_papilary_renal_cell	91994096
chr17	48433351	C	T	0425141.Primary	kidney_papilary_renal_cell	48433351
chr15	35275146	T	C	0425141.Primary	kidney_papilary_renal_cell	35275146
chr3	5229969	G	A	0425141.Primary	kidney_papilary_renal_cell	5229969
chr5	138715991	G	A	0425141.Primary	kidney_papilary_renal_cell	138715991
chr7	87530087	C	T	0425141.Primary	kidney_papilary_renal_cell	87530087
chr7	155604799	T	-	0425141.Primary	kidney_papilary_renal_cell	155604799
chr19	30020834	G	T	0425141.Primary	kidney_papilary_renal_cell	30020834
chr10	105218406	A	T	0425141.Primary	kidney_papilary_renal_cell	105218406
chr22	39035669	C	T	0425141.Primary	kidney_papilary_renal_cell	39035669
chr9	130684296	C	T	0425141.Primary	kidney_papilary_renal_cell	130684296
chr13	28862177	T	G	0425141.Primary	kidney_papilary_renal_cell	28862177
chr2	188245302	T	G	0425141.Primary	kidney_papilary_renal_cell	188245302
chr7	103276725	G	A	0425141.Primary	kidney_papilary_renal_cell	103276725
chr12	72094722	C	A	0425141.Primary	kidney_papilary_renal_cell	72094722
chr5	122361509	AT	-	0425141.Primary	kidney_papilary_renal_cell	122361510
chr6	31702031	C	G	0425141.Primary	kidney_papilary_renal_cell	31702031
chr5	140772564	C	T	0425141.Primary	kidney_papilary_renal_cell	140772564
chr17	74006604	G	C	0425141.Primary	kidney_papilary_renal_cell	74006604
chr2	54859805	G	A	0425141.Primary	kidney_papilary_renal_cell	54859805
chr1	67109341	C	A	0425141.Primary	kidney_papilary_renal_cell	67109341
chr5	180622569	C	T	0425141.Primary	kidney_papilary_renal_cell	180622569
chr1	186327748	G	A	0425141.Primary	kidney_papilary_renal_cell	186327748
chr6	74492369	G	A	0425141.Primary	kidney_papilary_renal_cell	74492369
chr12	129283837	C	A	0425141.Primary	kidney_papilary_renal_cell	129283837
chr10	3824061	-	T	0425141.Primary	kidney_papilary_renal_cell	3824061
chr10	75533289	C	A	0425141.Primary	kidney_papilary_renal_cell	75533289
chr21	45819286	G	T	0425141.Primary	kidney_papilary_renal_cell	45819286
chr6	155578157	C	G	0425141.Primary	kidney_papilary_renal_cell	155578157
chr1	182869129	C	T	0425141.Primary	kidney_papilary_renal_cell	182869129
chr20	2633508	T	A	0425141.Primary	kidney_papilary_renal_cell	2633508
chr20	2633498	A	T	0425141.Primary	kidney_papilary_renal_cell	2633498
chr8	97312013	G	T	0425141.Primary	kidney_papilary_renal_cell	97312013
chr8	20068098	C	-	0425141.Primary	kidney_papilary_renal_cell	20068098
chr18	39542519	T	G	0425141.Primary	kidney_papilary_renal_cell	39542519
chr8	66963808	G	C	0425141.Primary	kidney_papilary_renal_cell	66963808
chr8	26366252	T	C	0425141.Primary	kidney_papilary_renal_cell	26366252
chr8	117778889	T	C	0425141.Primary	kidney_papilary_renal_cell	117778889
chr19	49206820	G	A	0425141.Primary	kidney_papilary_renal_cell	49206820
chr7	41739794	T	C	0425141.Primary	kidney_papilary_renal_cell	41739794
chr1	1222270	A	C	0425141.Primary	kidney_papilary_renal_cell	1222270
chr2	136669002	C	A	0425141.Primary	kidney_papilary_renal_cell	136669002
chr8	28625680	A	T	0425141.Primary	kidney_papilary_renal_cell	28625680
chr7	27824785	C	G	0425141.Primary	kidney_papilary_renal_cell	27824785
chr11	6592292	C	T	0425141.Primary	kidney_papilary_renal_cell	6592292
chr21	34926428	T	C	0425141.Primary	kidney_papilary_renal_cell	34926428
chr5	146763981	G	T	0425141.Primary	kidney_papilary_renal_cell	146763981
chr17	43893859	T	A	0425141.Primary	kidney_papilary_renal_cell	43893859
chr13	101795543	C	T	0425141.Primary	kidney_papilary_renal_cell	101795543
chr6	30297513	T	-	0425141.Primary	kidney_papilary_renal_cell	30297513
chr2	97530769	T	A	0425141.Primary	kidney_papilary_renal_cell	97530769
chr9	130152937	G	A	0425141.Primary	kidney_papilary_renal_cell	130152937
chr12	1005445	C	G	0425141.Primary	kidney_papilary_renal_cell	1005445
chr6	36075275	G	C	0425141.Primary	kidney_papilary_renal_cell	36075275
chr2	136608992	G	A	0425141.Primary	kidney_papilary_renal_cell	136608992
chr3	100413715	T	C	0425141.Primary	kidney_papilary_renal_cell	100413715
chr5	128302113	G	T	0425141.Primary	kidney_papilary_renal_cell	128302113
chr2	677330	A	T	0425141.Primary	kidney_papilary_renal_cell	677330
chr4	148984343	A	C	0425141.Primary	kidney_papilary_renal_cell	148984343
chr3	178916891	G	T	0425141.Primary	kidney_papilary_renal_cell	178916891
chr3	46501174	G	A	0819171.Primary	kidney_papilary_renal_cell	46501174
chr7	106524642	T	G	0819171.Primary	kidney_papilary_renal_cell	106524642
chr17	53120639	C	T	0819171.Primary	kidney_papilary_renal_cell	53120639
chr9	130206839	G	T	0819171.Primary	kidney_papilary_renal_cell	130206839
chr21	38862731	G	A	0819171.Primary	kidney_papilary_renal_cell	38862731
chr22	39035669	C	T	0819171.Primary	kidney_papilary_renal_cell	39035669
chr12	72094722	C	A	0819171.Primary	kidney_papilary_renal_cell	72094722
chr8	97312013	G	T	0819171.Primary	kidney_papilary_renal_cell	97312013
chr8	117778889	T	C	0819171.Primary	kidney_papilary_renal_cell	117778889
chr19	49206820	G	A	0819171.Primary	kidney_papilary_renal_cell	49206820
chr14	67382767	G	A	0819171.Primary	kidney_papilary_renal_cell	67382767
chr2	77745634	A	T	0819171.Primary	kidney_papilary_renal_cell	77745634
chr1	158449759	A	T	0819171.Primary	kidney_papilary_renal_cell	158449759
chr7	120969668	C	T	0819171.Primary	kidney_papilary_renal_cell	120969668
chr14	47120524	C	T	0819171.Primary	kidney_papilary_renal_cell	47120524
chr2	10262930	T	A	0819171.Primary	kidney_papilary_renal_cell	10262930
chr11	63486584	AG	-	0819171.Primary	kidney_papilary_renal_cell	63486585
chr1	1222270	A	C	0819171.Primary	kidney_papilary_renal_cell	1222270
chr4	156618236	A	T	0819171.Primary	kidney_papilary_renal_cell	156618236
chr7	83689810	G	C	0819171.Primary	kidney_papilary_renal_cell	83689810
chr3	132186107	G	A	0819171.Primary	kidney_papilary_renal_cell	132186107
chr10	26310439	C	T	0819171.Primary	kidney_papilary_renal_cell	26310439
chr1	55518408	G	A	0819171.Primary	kidney_papilary_renal_cell	55518408
chr7	92147046	TT	-	0819171.Primary	kidney_papilary_renal_cell	92147047
chr1	154989081	-	A	0819171.Primary	kidney_papilary_renal_cell	154989081
chr4	27004616	A	G	0819171.Primary	kidney_papilary_renal_cell	27004616
chr17	79225026	C	T	0819171.Primary	kidney_papilary_renal_cell	79225026
chr2	27801060	G	C	0819171.Primary	kidney_papilary_renal_cell	27801060
chr4	170618566	G	T	0819171.Primary	kidney_papilary_renal_cell	170618566
chr17	40129326	TT	-	0819171.Primary	kidney_papilary_renal_cell	40129327
chr1	173476040	CT	-	0819171.Primary	kidney_papilary_renal_cell	173476041
chr17	43906608	G	A	0819171.Primary	kidney_papilary_renal_cell	43906608
chr7	47892782	T	C	0819171.Primary	kidney_papilary_renal_cell	47892782
chr13	77870783	TTC	-	0819171.Primary	kidney_papilary_renal_cell	77870785
chr14	20978869	G	A	0819171.Primary	kidney_papilary_renal_cell	20978869
chr7	117250578	ATTA	-	0819171.Primary	kidney_papilary_renal_cell	117250581
chr15	66794248	G	A	0819171.Primary	kidney_papilary_renal_cell	66794248
chr22	46712295	C	T	0819171.Primary	kidney_papilary_renal_cell	46712295
chr20	33762628	C	G	0819171.Primary	kidney_papilary_renal_cell	33762628
chr3	101384515	T	A	0918196.Primary	kidney_papilary_renal_cell	101384515
chr3	46501174	G	A	0918196.Primary	kidney_papilary_renal_cell	46501174
chr22	29629401	C	A	0918196.Primary	kidney_papilary_renal_cell	29629401
chr3	120130796	C	G	0918196.Primary	kidney_papilary_renal_cell	120130796
chr3	47125832	T	-	0918196.Primary	kidney_papilary_renal_cell	47125832
chrX	8565162	CG	-	0918196.Primary	kidney_papilary_renal_cell	8565163
chr22	39035669	C	T	0918196.Primary	kidney_papilary_renal_cell	39035669
chr2	238277737	C	T	0918196.Primary	kidney_papilary_renal_cell	238277737
chr10	61835343	C	T	0918196.Primary	kidney_papilary_renal_cell	61835343
chr5	1320819	A	C	0918196.Primary	kidney_papilary_renal_cell	1320819
chr5	80562069	A	-	0918196.Primary	kidney_papilary_renal_cell	80562069
chr5	178489079	G	A	0918196.Primary	kidney_papilary_renal_cell	178489079
chr2	152423877	TC	-	0918196.Primary	kidney_papilary_renal_cell	152423878
chr5	14504558	-	CCC	0918196.Primary	kidney_papilary_renal_cell	14504558
chr8	97312013	G	T	0918196.Primary	kidney_papilary_renal_cell	97312013
chr10	31133906	C	T	0918196.Primary	kidney_papilary_renal_cell	31133906
chr1	114948097	G	-	0918196.Primary	kidney_papilary_renal_cell	114948097
chr17	66992041	-	A	0918196.Primary	kidney_papilary_renal_cell	66992041
chr2	106739493	C	T	0918196.Primary	kidney_papilary_renal_cell	106739493
chr14	30100215	A	T	0918196.Primary	kidney_papilary_renal_cell	30100215
chr12	89995147	G	C	0918196.Primary	kidney_papilary_renal_cell	89995147
chr6	20152871	T	C	0918196.Primary	kidney_papilary_renal_cell	20152871
chr7	16913420	A	T	0918196.Primary	kidney_papilary_renal_cell	16913420
chr8	117778889	T	C	0918196.Primary	kidney_papilary_renal_cell	117778889
chr7	120969668	C	T	0918196.Primary	kidney_papilary_renal_cell	120969668
chr3	132186107	G	A	0918196.Primary	kidney_papilary_renal_cell	132186107
chr17	79225026	C	T	0918196.Primary	kidney_papilary_renal_cell	79225026
chr3	100413715	T	C	0918196.Primary	kidney_papilary_renal_cell	100413715
chr8	123966117	C	G	1003680.Primary	kidney_papilary_renal_cell	123966117
chr15	23931705	C	-	1003680.Primary	kidney_papilary_renal_cell	23931705
chr1	186327748	G	A	1003680.Primary	kidney_papilary_renal_cell	186327748
chr8	97312013	G	T	1003680.Primary	kidney_papilary_renal_cell	97312013
chr8	117778889	T	C	1003680.Primary	kidney_papilary_renal_cell	117778889
chr19	10398768	G	A	1003680.Primary	kidney_papilary_renal_cell	10398768
chr12	102158125	T	G	1003680.Primary	kidney_papilary_renal_cell	102158125
chr19	11143994	G	A	1003680.Primary	kidney_papilary_renal_cell	11143994
chr14	67382767	G	A	1003680.Primary	kidney_papilary_renal_cell	67382767
chr14	77272835	T	G	1003680.Primary	kidney_papilary_renal_cell	77272835
chr2	77745634	A	T	1003680.Primary	kidney_papilary_renal_cell	77745634
chr7	41739794	T	C	1003680.Primary	kidney_papilary_renal_cell	41739794
chr6	54219377	C	T	1003680.Primary	kidney_papilary_renal_cell	54219377
chr10	7621902	C	T	1003680.Primary	kidney_papilary_renal_cell	7621902
chr3	47164939	G	-	1003680.Primary	kidney_papilary_renal_cell	47164939
chr1	1222270	A	C	1003680.Primary	kidney_papilary_renal_cell	1222270
chr19	643516	C	T	1003680.Primary	kidney_papilary_renal_cell	643516
chr6	125366486	C	T	1003680.Primary	kidney_papilary_renal_cell	125366486
chr11	6592292	C	T	1003680.Primary	kidney_papilary_renal_cell	6592292
chr10	26310439	C	T	1003680.Primary	kidney_papilary_renal_cell	26310439
chr17	43893859	T	A	1003680.Primary	kidney_papilary_renal_cell	43893859
chr10	28899747	C	T	1003680.Primary	kidney_papilary_renal_cell	28899747
chr16	4431903	T	C	1003680.Primary	kidney_papilary_renal_cell	4431903
chr1	158532847	G	T	1124091.Primary	kidney_papilary_renal_cell	158532847
chr9	130206839	G	T	1124091.Primary	kidney_papilary_renal_cell	130206839
chr11	94278699	C	T	1124091.Primary	kidney_papilary_renal_cell	94278699
chr10	105218406	A	T	1124091.Primary	kidney_papilary_renal_cell	105218406
chr6	31702031	C	G	1124091.Primary	kidney_papilary_renal_cell	31702031
chr8	97312013	G	T	1124091.Primary	kidney_papilary_renal_cell	97312013
chr8	117778889	T	C	1124091.Primary	kidney_papilary_renal_cell	117778889
chr1	8420977	G	A	1124091.Primary	kidney_papilary_renal_cell	8420977
chr14	47120524	C	T	1124091.Primary	kidney_papilary_renal_cell	47120524
chr10	16882484	A	G	1124091.Primary	kidney_papilary_renal_cell	16882484
chr11	56000162	T	G	1124091.Primary	kidney_papilary_renal_cell	56000162
chr5	79086870	G	C	1124091.Primary	kidney_papilary_renal_cell	79086870
chr2	136669002	C	A	1124091.Primary	kidney_papilary_renal_cell	136669002
chr4	156618236	A	T	1124091.Primary	kidney_papilary_renal_cell	156618236
chr16	58313662	A	G	1124091.Primary	kidney_papilary_renal_cell	58313662
chr8	28625680	A	T	1124091.Primary	kidney_papilary_renal_cell	28625680
chr17	42084020	T	C	1124091.Primary	kidney_papilary_renal_cell	42084020
chr6	125366486	C	T	1124091.Primary	kidney_papilary_renal_cell	125366486
chr7	27824785	C	G	1124091.Primary	kidney_papilary_renal_cell	27824785
chr9	74305080	G	T	1124091.Primary	kidney_papilary_renal_cell	74305080
chr11	6592292	C	T	1124091.Primary	kidney_papilary_renal_cell	6592292
chr21	34926428	T	C	1124091.Primary	kidney_papilary_renal_cell	34926428
chrX	128631969	G	C	1124091.Primary	kidney_papilary_renal_cell	128631969
chr19	21719778	C	T	1124091.Primary	kidney_papilary_renal_cell	21719778
chr3	51993613	C	A	1124091.Primary	kidney_papilary_renal_cell	51993613
chr10	13779888	C	G	1124091.Primary	kidney_papilary_renal_cell	13779888
chr5	146763981	G	T	1124091.Primary	kidney_papilary_renal_cell	146763981
chr17	43893859	T	A	1124091.Primary	kidney_papilary_renal_cell	43893859
chr13	101795543	C	T	1124091.Primary	kidney_papilary_renal_cell	101795543
chr5	86668005	T	C	1124091.Primary	kidney_papilary_renal_cell	86668005
chr6	30297513	T	-	1124091.Primary	kidney_papilary_renal_cell	30297513
chr2	97530769	T	A	1124091.Primary	kidney_papilary_renal_cell	97530769
chr3	58107102	G	A	1124091.Primary	kidney_papilary_renal_cell	58107102
chr2	179733981	C	A	1124091.Primary	kidney_papilary_renal_cell	179733981
chr18	21736187	T	C	1124091.Primary	kidney_papilary_renal_cell	21736187
chr9	130152937	G	A	1124091.Primary	kidney_papilary_renal_cell	130152937
chr12	1005445	C	G	1124091.Primary	kidney_papilary_renal_cell	1005445
chr11	1017045	G	T	1124091.Primary	kidney_papilary_renal_cell	1017045
chr2	225376252	TATATA	-	1124091.Primary	kidney_papilary_renal_cell	225376257
chr2	27801060	G	C	1124091.Primary	kidney_papilary_renal_cell	27801060
chr6	36075275	G	C	1124091.Primary	kidney_papilary_renal_cell	36075275
chr16	19722697	G	T	1124091.Primary	kidney_papilary_renal_cell	19722697
chr9	73235076	C	G	1124091.Primary	kidney_papilary_renal_cell	73235076
chr2	136608992	G	A	1124091.Primary	kidney_papilary_renal_cell	136608992
chr3	100413715	T	C	1124091.Primary	kidney_papilary_renal_cell	100413715
chr5	128302113	G	T	1124091.Primary	kidney_papilary_renal_cell	128302113
chr12	40745534	A	G	1124091.Primary	kidney_papilary_renal_cell	40745534
chr1	62914267	A	C	1124091.Primary	kidney_papilary_renal_cell	62914267
chr6	70873271	G	A	1124091.Primary	kidney_papilary_renal_cell	70873271
chr2	230678958	A	C	1124091.Primary	kidney_papilary_renal_cell	230678958
chr10	28899747	C	T	1124091.Primary	kidney_papilary_renal_cell	28899747
chr2	677330	A	T	1124091.Primary	kidney_papilary_renal_cell	677330
chr4	148984343	A	C	1124091.Primary	kidney_papilary_renal_cell	148984343
chr2	120834549	G	A	1124091.Primary	kidney_papilary_renal_cell	120834549
chr16	4431903	T	C	1124091.Primary	kidney_papilary_renal_cell	4431903
chr12	132403165	C	A	1124091.Primary	kidney_papilary_renal_cell	132403165
chr3	178916891	G	T	1124091.Primary	kidney_papilary_renal_cell	178916891
chr5	31541059	G	C	1124091.Primary	kidney_papilary_renal_cell	31541059
