sample	cromosoma	start	end	ref	alt	cancer_type
#1	chr1	27100849	27100849	T	G	stomach
#1	chr1	46745184	46745184	C	T	stomach
#1	chr1	67861597	67861597	T	C	stomach
#1	chr1	114225789	114225789	A	G	stomach
#1	chr1	152083844	152083844	C	G	stomach
#1	chr1	176564531	176564531	C	G	stomach
#1	chr1	240492418	240492418	C	T	stomach
#1	chr2	1437218	1437218	A	G	stomach
#1	chr2	1926189	1926189	T	G	stomach
#1	chr2	37267654	37267654	G	C	stomach
#1	chr2	42553357	42553357	C	T	stomach
#1	chr2	44586763	44586763	T	C	stomach
#1	chr2	110920675	110920675	G	A	stomach
#1	chr2	141773442	141773442	G	T	stomach
#1	chr2	152528984	152528984	C	A	stomach
#1	chr2	179450018	179450018	G	A	stomach
#1	chr2	190327359	190327359	T	G	stomach
#1	chr3	65367672	65367672	T	C	stomach
#1	chr3	101080637	101080637	C	A	stomach
#1	chr3	120977966	120977966	G	A	stomach
#1	chr3	121659777	121659777	C	T	stomach
#1	chr4	25026467	25026467	G	A	stomach
#1	chr4	76715043	76715043	A	G	stomach
#1	chr4	104511051	104511051	G	A	stomach
#1	chr4	184938360	184938360	G	A	stomach
#1	chr5	37169335	37169335	G	A	stomach
#1	chr5	64966113	64966113	C	T	stomach
#1	chr5	178416382	178416382	C	T	stomach
#1	chr6	7880304	7880304	T	A	stomach
#1	chr6	7880306	7880306	C	G	stomach
#1	chr6	43479967	43479967	G	T	stomach
#1	chr6	89891737	89891737	C	T	stomach
#1	chr6	146268735	146268735	C	T	stomach
#1	chr7	48559703	48559703	C	A	stomach
#1	chr7	82585273	82585273	G	A	stomach
#1	chr7	94989411	94989411	C	A	stomach
#1	chr7	103835675	103835675	G	A	stomach
#1	chr7	141730274	141730274	A	G	stomach
#1	chr7	150389869	150389869	C	A	stomach
#1	chr8	11612604	11612604	G	A	stomach
#1	chr8	73939199	73939199	A	T	stomach
#1	chr8	104447955	104447955	A	T	stomach
#1	chr8	110461684	110461684	C	A	stomach
#1	chr8	116632144	116632144	G	T	stomach
#1	chr9	94985661	94985661	T	C	stomach
#1	chr9	102988353	102988353	C	T	stomach
#1	chr11	1018471	1018471	G	T	stomach
#1	chr11	4615289	4615289	C	G	stomach
#1	chr11	21556055	21556055	G	T	stomach
#1	chr11	26663480	26663480	C	T	stomach
#1	chr11	71847161	71847161	G	T	stomach
#1	chr12	81657028	81657028	T	C	stomach
#1	chr14	53184962	53184962	A	T	stomach
#1	chr14	54417103	54417103	G	A	stomach
#1	chr16	101638	101638	T	C	stomach
#1	chr16	68842471	68842471	G	A	stomach
#1	chr16	77334193	77334193	C	T	stomach
#1	chr17	71443757	71443757	C	T	stomach
#1	chr19	12576528	12576528	G	A	stomach
#1	chr19	19414190	19414190	C	G	stomach
#1	chr19	31767575	31767575	G	A	stomach
#1	chr19	37101606	37101606	T	C	stomach
#1	chr19	46915121	46915121	G	T	stomach
#1	chr19	55106402	55106402	G	T	stomach
#1	chr20	13605878	13605878	G	A	stomach
#1	chr20	47768259	47768259	G	A	stomach
#1	chr21	32589893	32589893	C	A	stomach
#1	chrX	41073916	41073916	T	A	stomach
#1	chrX	64721839	64721839	G	T	stomach
#1	chrX	152857971	152857971	C	T	stomach
#1	chr9	103066083	103066085	AAG	A	stomach
#1	chr11	1018464	1018470	TGAGTGG	T	stomach
#1	chr21	38537929	38537930	TC	T	stomach
#2	chr2	20511403	20511403	C	G	stomach
#2	chr11	118342625	118342625	G	A	stomach
#2	chrX	12720059	12720059	G	A	stomach
#2	chrX	56591444	56591444	C	T	stomach
#3	chr5	83402566	83402566	A	T	stomach
#3	chr12	11546358	11546358	T	TGGA	stomach
#4	chr1	159043284	159043284	C	A	stomach
#4	chr1	163138130	163138130	T	A	stomach
#4	chr1	201338976	201338976	G	A	stomach
#4	chr2	197122583	197122583	C	T	stomach
#4	chr3	53757464	53757464	T	C	stomach
#4	chr3	138116204	138116204	C	T	stomach
#4	chr7	4026879	4026879	G	A	stomach
#4	chr8	120581595	120581595	C	T	stomach
#4	chr8	122626809	122626809	C	T	stomach
#4	chr9	71155469	71155469	C	T	stomach
#4	chr11	84245750	84245750	C	T	stomach
#4	chr13	35747697	35747697	T	A	stomach
#4	chr16	25258060	25258060	T	C	stomach
#4	chr16	89757002	89757002	A	T	stomach
#4	chr17	42476831	42476831	T	C	stomach
#4	chr19	8808202	8808202	C	T	stomach
#4	chr19	57647364	57647364	G	A	stomach
#4	chrX	130408638	130408638	C	T	stomach
#4	chr4	79410070	79410073	GAGA	G	stomach
#5	chr1	152282198	152282198	T	A	stomach
#5	chr9	115422114	115422114	T	C	stomach
#5	chr17	42335951	42335951	T	C	stomach
#6	chr3	40573566	40573566	A	G	stomach
#6	chr11	64609322	64609322	T	C	stomach
#6	chr12	44782037	44782037	A	G	stomach
#6	chr12	49422940	49422940	C	T	stomach
#6	chr22	50436619	50436619	G	C	stomach
#6	chrX	17744028	17744028	A	G	stomach
#6	chr12	11546358	11546358	T	TGGA	stomach
#7	chr1	6696284	6696284	T	C	stomach
#7	chr1	27426917	27426917	C	T	stomach
#7	chr1	226040374	226040374	C	T	stomach
#7	chr2	18758092	18758092	G	A	stomach
#7	chr2	86756356	86756356	T	C	stomach
#7	chr3	78666967	78666967	G	A	stomach
#7	chr7	44270638	44270638	C	T	stomach
#7	chr7	50070797	50070797	G	T	stomach
#7	chr8	3443732	3443732	C	A	stomach
#7	chr9	125315468	125315468	G	A	stomach
#7	chr12	130926426	130926426	C	A	stomach
#7	chr13	115008755	115008755	C	T	stomach
#7	chr15	27222288	27222288	G	T	stomach
#7	chr16	68842705	68842705	T	G	stomach
#7	chr21	34166585	34166585	G	A	stomach
#7	chr22	32352162	32352162	C	T	stomach
#7	chrX	20195149	20195149	C	T	stomach
#7	chrX	54159146	54159146	G	A	stomach
#7	chrX	105142690	105142690	C	T	stomach
#8	chr1	183514424	183514424	C	T	stomach
#8	chr2	131672928	131672928	C	T	stomach
#8	chr11	5221216	5221216	A	G	stomach
#8	chr20	36641395	36641395	C	T	stomach
#8	chr9	43818049	43818049	T	TG	stomach
#9	chr1	54605320	54605320	G	C	stomach
#9	chr1	225211320	225211320	G	A	stomach
#9	chr3	49412898	49412898	T	C	stomach
#9	chr4	56755053	56755053	G	A	stomach
#9	chr4	86491708	86491708	A	G	stomach
#9	chr4	187560887	187560887	G	A	stomach
#9	chr5	63257413	63257413	G	A	stomach
#9	chr6	41121534	41121534	T	G	stomach
#9	chr8	55540841	55540841	T	A	stomach
#9	chr9	40715924	40715924	A	G	stomach
#9	chr10	49612981	49612981	C	T	stomach
#9	chr10	96100100	96100100	A	T	stomach
#9	chr11	43464934	43464934	A	G	stomach
#9	chr11	104900457	104900457	T	A	stomach
#9	chr11	133795783	133795783	C	A	stomach
#9	chr12	126135227	126135227	A	G	stomach
#9	chr13	25283931	25283931	G	A	stomach
#9	chr14	61441901	61441901	C	A	stomach
#9	chr17	4805977	4805977	C	T	stomach
#9	chr17	7577538	7577538	C	T	stomach
#9	chr17	26099450	26099450	G	A	stomach
#9	chr17	79671278	79671278	C	T	stomach
#9	chr20	31973520	31973520	C	T	stomach
#9	chrX	70643870	70643870	A	G	stomach
#10	chr20	48503418	48503418	C	T	stomach
#10	chr1	152083817	152083820	CCGG	C	stomach
#10	chr11	60971044	60971047	GGCT	G	stomach
#10	chr17	7165395	7165396	CG	C	stomach
#10	chrX	142605148	142605149	AT	A	stomach
#11	chr1	51439916	51439916	G	A	stomach
#11	chr20	32996490	32996490	A	G	stomach
#11	chr3	195511461	195511461	G	GGAT	stomach
#11	chr21	46228429	46228430	CA	C	stomach
#12	chr1	6188582	6188582	T	C	stomach
#12	chr1	159922255	159922255	A	G	stomach
#12	chr11	120331434	120331434	A	G	stomach
#12	chr17	71389821	71389821	C	T	stomach
#12	chrX	106844459	106844459	T	C	stomach
#12	chr7	6085739	6085740	AT	A	stomach
#13	chr1	148252089	148252089	T	A	stomach
#13	chr3	108677889	108677889	T	C	stomach
#13	chr8	101724624	101724624	T	A	stomach
#13	chr8	101724627	101724627	T	C	stomach
#13	chr16	48141282	48141282	G	A	stomach
#13	chr5	114557540	114557541	CA	C	stomach
#13	chr8	101724624	101724625	TC	T	stomach
