cromosoma	start	ref	alt	sample	cancer_type	end
17	61898291	-	TGTT	MT_002-T	kidney_clear_renal_cell	61898291
5	140563079	-	A	MT_002-T	kidney_clear_renal_cell	140563079
12	121687799	A	C	MT_002-T	kidney_clear_renal_cell	121687799
20	34051434	A	C	MT_002-T	kidney_clear_renal_cell	34051434
3	52620471	A	-	MT_002-T	kidney_clear_renal_cell	52620471
10	55700683	A	C	MT_002-T	kidney_clear_renal_cell	55700683
21	17191106	A	G	MT_002-T	kidney_clear_renal_cell	17191106
13	51957802	AAGG	-	MT_002-T	kidney_clear_renal_cell	51957805
18	10468619	C	G	MT_002-T	kidney_clear_renal_cell	10468619
3	52436384	C	-	MT_002-T	kidney_clear_renal_cell	52436384
X	154344416	C	G	MT_002-T	kidney_clear_renal_cell	154344416
10	75671584	C	T	MT_002-T	kidney_clear_renal_cell	75671584
17	49710996	C	T	MT_002-T	kidney_clear_renal_cell	49710996
12	10131655	C	T	MT_002-T	kidney_clear_renal_cell	10131655
2	36740797	C	T	MT_002-T	kidney_clear_renal_cell	36740797
4	36310076	C	A	MT_002-T	kidney_clear_renal_cell	36310076
19	57665850	C	T	MT_002-T	kidney_clear_renal_cell	57665850
19	35718939	C	T	MT_002-T	kidney_clear_renal_cell	35718939
2	216236845	C	T	MT_002-T	kidney_clear_renal_cell	216236845
22	31324032	C	T	MT_002-T	kidney_clear_renal_cell	31324032
3	113325926	C	G	MT_002-T	kidney_clear_renal_cell	113325926
11	67399869	C	G	MT_002-T	kidney_clear_renal_cell	67399869
10	114919708	C	T	MT_002-T	kidney_clear_renal_cell	114919708
17	48941100	C	G	MT_002-T	kidney_clear_renal_cell	48941100
16	15165094	A	G	MT_002-T	kidney_clear_renal_cell	15165094
5	145435703	C	T	MT_002-T	kidney_clear_renal_cell	145435703
9	125827654	C	T	MT_002-T	kidney_clear_renal_cell	125827654
6	128388794	C		MT_002-T	kidney_clear_renal_cell	128388794
5	36257154	T	C	MT_002-T	kidney_clear_renal_cell	36257154
22	51142337	CTCCTACGACAGCCT	-	MT_002-T	kidney_clear_renal_cell	51142351
15	84561605	G	T	MT_002-T	kidney_clear_renal_cell	84561605
1	145474234	G	A	MT_002-T	kidney_clear_renal_cell	145474234
20	31022836	G	C	MT_002-T	kidney_clear_renal_cell	31022836
8	143625004	G	A	MT_002-T	kidney_clear_renal_cell	143625004
10	73521398	G	A	MT_002-T	kidney_clear_renal_cell	73521398
2	27460670	G	A	MT_002-T	kidney_clear_renal_cell	27460670
9	21971120	G	A	MT_002-T	kidney_clear_renal_cell	21971120
6	97058632	G	A	MT_002-T	kidney_clear_renal_cell	97058632
17	42991406	G	A	MT_002-T	kidney_clear_renal_cell	42991406
2	85822905	G	A	MT_002-T	kidney_clear_renal_cell	85822905
1	32256280	G	A	MT_002-T	kidney_clear_renal_cell	32256280
9	135778013	G	C	MT_002-T	kidney_clear_renal_cell	135778013
19	37240342	G	A	MT_002-T	kidney_clear_renal_cell	37240342
16	20871450	GC	CA	MT_002-T	kidney_clear_renal_cell	20871451
12	26647117	GC	TT	MT_002-T	kidney_clear_renal_cell	26647118
18	21106675	T	C	MT_002-T	kidney_clear_renal_cell	21106675
6	94120822	T	C	MT_002-T	kidney_clear_renal_cell	94120822
11	92577867	T	C	MT_002-T	kidney_clear_renal_cell	92577867
3	121341012	T	A	MT_002-T	kidney_clear_renal_cell	121341012
X	107037520	T	A	MT_002-T	kidney_clear_renal_cell	107037520
7	150499348	T	C	MT_002-T	kidney_clear_renal_cell	150499348
3	10188261	T	A	MT_002-T	kidney_clear_renal_cell	10188261
17	61898291	-	TGTT	MT_002-T2	kidney_clear_renal_cell	61898291
5	140563079	-	A	MT_002-T2	kidney_clear_renal_cell	140563079
12	121687799	A	C	MT_002-T2	kidney_clear_renal_cell	121687799
20	34051434	A	C	MT_002-T2	kidney_clear_renal_cell	34051434
1	166962063	A	C	MT_002-T2	kidney_clear_renal_cell	166962063
3	52620471	A	-	MT_002-T2	kidney_clear_renal_cell	52620471
10	55700683	A	C	MT_002-T2	kidney_clear_renal_cell	55700683
4	128807241	A	C	MT_002-T2	kidney_clear_renal_cell	128807241
21	17191106	A	G	MT_002-T2	kidney_clear_renal_cell	17191106
13	51957802	AAGG	-	MT_002-T2	kidney_clear_renal_cell	51957805
18	10468619	C	G	MT_002-T2	kidney_clear_renal_cell	10468619
3	52436384	C	-	MT_002-T2	kidney_clear_renal_cell	52436384
10	75671584	C	T	MT_002-T2	kidney_clear_renal_cell	75671584
12	10131655	C	T	MT_002-T2	kidney_clear_renal_cell	10131655
2	36740797	C	T	MT_002-T2	kidney_clear_renal_cell	36740797
4	36310076	C	A	MT_002-T2	kidney_clear_renal_cell	36310076
22	31324032	C	T	MT_002-T2	kidney_clear_renal_cell	31324032
3	113325926	C	G	MT_002-T2	kidney_clear_renal_cell	113325926
11	67399869	C	G	MT_002-T2	kidney_clear_renal_cell	67399869
17	48941100	C	G	MT_002-T2	kidney_clear_renal_cell	48941100
11	92577867	T	C	MT_002-T2	kidney_clear_renal_cell	92577867
16	15165094	A	G	MT_002-T2	kidney_clear_renal_cell	15165094
8	28385579	T	C	MT_002-T2	kidney_clear_renal_cell	28385579
5	145435703	C	T	MT_002-T2	kidney_clear_renal_cell	145435703
6	128388794	C		MT_002-T2	kidney_clear_renal_cell	128388794
1	92647947	C	T	MT_002-T2	kidney_clear_renal_cell	92647947
19	47440657	A	C	MT_002-T2	kidney_clear_renal_cell	47440657
19	35718939	C	T	MT_002-T2	kidney_clear_renal_cell	35718939
2	216236845	C	T	MT_002-T2	kidney_clear_renal_cell	216236845
16	88783268	C	T	MT_002-T2	kidney_clear_renal_cell	88783268
X	154344416	C	G	MT_002-T2	kidney_clear_renal_cell	154344416
X	107037520	T	A	MT_002-T2	kidney_clear_renal_cell	107037520
5	36257154	T	C	MT_002-T2	kidney_clear_renal_cell	36257154
17	49710996	C	T	MT_002-T2	kidney_clear_renal_cell	49710996
1	145474234	G	A	MT_002-T2	kidney_clear_renal_cell	145474234
22	51142337	CTCCTACGACAGCCT	-	MT_002-T2	kidney_clear_renal_cell	51142351
15	84561605	G	T	MT_002-T2	kidney_clear_renal_cell	84561605
20	31022836	G	C	MT_002-T2	kidney_clear_renal_cell	31022836
8	143625004	G	A	MT_002-T2	kidney_clear_renal_cell	143625004
2	27460670	G	A	MT_002-T2	kidney_clear_renal_cell	27460670
9	21971120	G	A	MT_002-T2	kidney_clear_renal_cell	21971120
6	97058632	G	A	MT_002-T2	kidney_clear_renal_cell	97058632
17	42991406	G	A	MT_002-T2	kidney_clear_renal_cell	42991406
2	85822905	G	A	MT_002-T2	kidney_clear_renal_cell	85822905
1	32256280	G	A	MT_002-T2	kidney_clear_renal_cell	32256280
9	135778013	G	C	MT_002-T2	kidney_clear_renal_cell	135778013
19	37240342	G	A	MT_002-T2	kidney_clear_renal_cell	37240342
16	20871450	GC	CA	MT_002-T2	kidney_clear_renal_cell	20871451
12	26647117	GC	TT	MT_002-T2	kidney_clear_renal_cell	26647118
17	12853043	T	A	MT_002-T2	kidney_clear_renal_cell	12853043
18	21106675	T	C	MT_002-T2	kidney_clear_renal_cell	21106675
6	94120822	T	C	MT_002-T2	kidney_clear_renal_cell	94120822
3	121341012	T	A	MT_002-T2	kidney_clear_renal_cell	121341012
7	150499348	T	C	MT_002-T2	kidney_clear_renal_cell	150499348
3	10188261	T	A	MT_002-T2	kidney_clear_renal_cell	10188261
X	53224544	-	AGCT	MT_003-T	kidney_clear_renal_cell	53224544
6	101100649	A	G	MT_003-T	kidney_clear_renal_cell	101100649
2	24005768	A	T	MT_003-T	kidney_clear_renal_cell	24005768
1	172400226	A	C	MT_003-T	kidney_clear_renal_cell	172400226
9	98766899	A	G	MT_003-T	kidney_clear_renal_cell	98766899
7	8043619	A	C	MT_003-T	kidney_clear_renal_cell	8043619
14	20295975	A	C	MT_003-T	kidney_clear_renal_cell	20295975
7	95761136	A	T	MT_003-T	kidney_clear_renal_cell	95761136
3	100025324	A	C	MT_003-T	kidney_clear_renal_cell	100025324
2	179736218	C	A	MT_003-T	kidney_clear_renal_cell	179736218
5	157244522	C	T	MT_003-T	kidney_clear_renal_cell	157244522
20	238429	C	T	MT_003-T	kidney_clear_renal_cell	238429
17	72295902	C	G	MT_003-T	kidney_clear_renal_cell	72295902
5	94749776	C	G	MT_003-T	kidney_clear_renal_cell	94749776
1	152323649	C	T	MT_003-T	kidney_clear_renal_cell	152323649
1	118449182	C	G	MT_003-T	kidney_clear_renal_cell	118449182
11	58979361	C	T	MT_003-T	kidney_clear_renal_cell	58979361
2	152447929	C	A	MT_003-T	kidney_clear_renal_cell	152447929
1	24782650	C	T	MT_003-T	kidney_clear_renal_cell	24782650
1	52344098	C	G	MT_003-T	kidney_clear_renal_cell	52344098
5	180582875	C	T	MT_003-T	kidney_clear_renal_cell	180582875
11	626450	C	T	MT_003-T	kidney_clear_renal_cell	626450
11	60708718	C	A	MT_003-T	kidney_clear_renal_cell	60708718
8	22267571	C	T	MT_003-T	kidney_clear_renal_cell	22267571
20	35422672	C	G	MT_003-T	kidney_clear_renal_cell	35422672
2	228884216	C	T	MT_003-T	kidney_clear_renal_cell	228884216
19	2852770	C	G	MT_003-T	kidney_clear_renal_cell	2852770
2	103324745	-	C	MT_003-T	kidney_clear_renal_cell	103324745
X	153039484	-	CA	MT_003-T	kidney_clear_renal_cell	153039484
2	219131278	CAGGACAGGTGCC	-	MT_003-T	kidney_clear_renal_cell	219131290
10	99341104	G	T	MT_003-T	kidney_clear_renal_cell	99341104
20	58645824	G	C	MT_003-T	kidney_clear_renal_cell	58645824
16	602314	G	T	MT_003-T	kidney_clear_renal_cell	602314
1	16375615	G	A	MT_003-T	kidney_clear_renal_cell	16375615
5	64077823	G	T	MT_003-T	kidney_clear_renal_cell	64077823
1	109270578	G	A	MT_003-T	kidney_clear_renal_cell	109270578
11	61732297	G	T	MT_003-T	kidney_clear_renal_cell	61732297
4	843477	G	T	MT_003-T	kidney_clear_renal_cell	843477
19	49244572	G	A	MT_003-T	kidney_clear_renal_cell	49244572
1	900362	G	A	MT_003-T	kidney_clear_renal_cell	900362
18	2951230	G	A	MT_003-T	kidney_clear_renal_cell	2951230
2	232320233	G	T	MT_003-T	kidney_clear_renal_cell	232320233
1	111965668	G	C	MT_003-T	kidney_clear_renal_cell	111965668
1	183866976	G	C	MT_003-T	kidney_clear_renal_cell	183866976
3	47147534	G	A	MT_003-T	kidney_clear_renal_cell	47147534
5	75427849	G	A	MT_003-T	kidney_clear_renal_cell	75427849
19	39694580	G	C	MT_003-T	kidney_clear_renal_cell	39694580
9	32634324	G	A	MT_003-T	kidney_clear_renal_cell	32634324
11	58477399	GTCACAAG	-	MT_003-T	kidney_clear_renal_cell	58477406
9	38595592	T	G	MT_003-T	kidney_clear_renal_cell	38595592
16	69199336	T	C	MT_003-T	kidney_clear_renal_cell	69199336
22	50882672	T	C	MT_003-T	kidney_clear_renal_cell	50882672
21	38539924	T	-	MT_003-T	kidney_clear_renal_cell	38539924
3	10188240	T	C	MT_003-T	kidney_clear_renal_cell	10188240
6	101100649	A	G	MT_003-T2	kidney_clear_renal_cell	101100649
1	172400226	A	C	MT_003-T2	kidney_clear_renal_cell	172400226
18	30518007	A	C	MT_003-T2	kidney_clear_renal_cell	30518007
7	8043619	A	C	MT_003-T2	kidney_clear_renal_cell	8043619
7	104747975	A	C	MT_003-T2	kidney_clear_renal_cell	104747975
14	20295975	A	C	MT_003-T2	kidney_clear_renal_cell	20295975
3	52588861	A	G	MT_003-T2	kidney_clear_renal_cell	52588861
7	95761136	A	T	MT_003-T2	kidney_clear_renal_cell	95761136
3	100025324	A	C	MT_003-T2	kidney_clear_renal_cell	100025324
14	105411335	C	A	MT_003-T2	kidney_clear_renal_cell	105411335
2	179736218	C	A	MT_003-T2	kidney_clear_renal_cell	179736218
20	238429	C	T	MT_003-T2	kidney_clear_renal_cell	238429
1	152323649	C	T	MT_003-T2	kidney_clear_renal_cell	152323649
11	58979361	C	T	MT_003-T2	kidney_clear_renal_cell	58979361
2	152447929	C	A	MT_003-T2	kidney_clear_renal_cell	152447929
1	24782650	C	T	MT_003-T2	kidney_clear_renal_cell	24782650
1	52344098	C	G	MT_003-T2	kidney_clear_renal_cell	52344098
5	180582875	C	T	MT_003-T2	kidney_clear_renal_cell	180582875
11	626450	C	T	MT_003-T2	kidney_clear_renal_cell	626450
11	60708718	C	A	MT_003-T2	kidney_clear_renal_cell	60708718
8	22267571	C	T	MT_003-T2	kidney_clear_renal_cell	22267571
20	35422672	C	G	MT_003-T2	kidney_clear_renal_cell	35422672
19	2852770	C	G	MT_003-T2	kidney_clear_renal_cell	2852770
1	151261061	C	T	MT_003-T2	kidney_clear_renal_cell	151261061
2	103324745	-	C	MT_003-T2	kidney_clear_renal_cell	103324745
X	53224544	-	AGCT	MT_003-T2	kidney_clear_renal_cell	53224544
X	153039484	-	CA	MT_003-T2	kidney_clear_renal_cell	153039484
2	219131278	CAGGACAGGTGCC	-	MT_003-T2	kidney_clear_renal_cell	219131290
10	99341104	G	T	MT_003-T2	kidney_clear_renal_cell	99341104
2	28210894	G	A	MT_003-T2	kidney_clear_renal_cell	28210894
16	602314	G	T	MT_003-T2	kidney_clear_renal_cell	602314
5	10254818	G	T	MT_003-T2	kidney_clear_renal_cell	10254818
1	16375615	G	A	MT_003-T2	kidney_clear_renal_cell	16375615
2	55435773	G	C	MT_003-T2	kidney_clear_renal_cell	55435773
5	64077823	G	T	MT_003-T2	kidney_clear_renal_cell	64077823
3	128126978	G	A	MT_003-T2	kidney_clear_renal_cell	128126978
1	109270578	G	A	MT_003-T2	kidney_clear_renal_cell	109270578
11	61732297	G	T	MT_003-T2	kidney_clear_renal_cell	61732297
4	843477	G	T	MT_003-T2	kidney_clear_renal_cell	843477
7	86415745	G	A	MT_003-T2	kidney_clear_renal_cell	86415745
19	49244572	G	A	MT_003-T2	kidney_clear_renal_cell	49244572
1	900362	G	A	MT_003-T2	kidney_clear_renal_cell	900362
12	49425870	G	T	MT_003-T2	kidney_clear_renal_cell	49425870
2	232320233	G	T	MT_003-T2	kidney_clear_renal_cell	232320233
11	67376939	G	C	MT_003-T2	kidney_clear_renal_cell	67376939
4	48036954	G	T	MT_003-T2	kidney_clear_renal_cell	48036954
1	111965668	G	C	MT_003-T2	kidney_clear_renal_cell	111965668
16	88799715	G	T	MT_003-T2	kidney_clear_renal_cell	88799715
1	183866976	G	C	MT_003-T2	kidney_clear_renal_cell	183866976
5	75427849	G	A	MT_003-T2	kidney_clear_renal_cell	75427849
19	39694580	G	C	MT_003-T2	kidney_clear_renal_cell	39694580
9	32634324	G	A	MT_003-T2	kidney_clear_renal_cell	32634324
1	205238322	G	A	MT_003-T2	kidney_clear_renal_cell	205238322
17	534832	G	A	MT_003-T2	kidney_clear_renal_cell	534832
11	58477399	GTCACAAG	-	MT_003-T2	kidney_clear_renal_cell	58477406
9	38595592	T	G	MT_003-T2	kidney_clear_renal_cell	38595592
2	28210905	T	G	MT_003-T2	kidney_clear_renal_cell	28210905
16	69199336	T	C	MT_003-T2	kidney_clear_renal_cell	69199336
22	50882672	T	C	MT_003-T2	kidney_clear_renal_cell	50882672
3	47103730	T	-	MT_003-T2	kidney_clear_renal_cell	47103730
21	38539924	T	-	MT_003-T2	kidney_clear_renal_cell	38539924
3	10188240	T	C	MT_003-T2	kidney_clear_renal_cell	10188240
14	23533645	A	T	MT_004-T	kidney_clear_renal_cell	23533645
4	77003542	A	T	MT_004-T	kidney_clear_renal_cell	77003542
1	169528464	A	T	MT_004-T	kidney_clear_renal_cell	169528464
12	57894140	A	G	MT_004-T	kidney_clear_renal_cell	57894140
17	38347566	A	T	MT_004-T	kidney_clear_renal_cell	38347566
1	26607380	A	G	MT_004-T	kidney_clear_renal_cell	26607380
7	43918490	A	C	MT_004-T	kidney_clear_renal_cell	43918490
8	143958575	AGCG	GGCC	MT_004-T	kidney_clear_renal_cell	143958578
2	220081414	C	A	MT_004-T	kidney_clear_renal_cell	220081414
1	247065843	C	T	MT_004-T	kidney_clear_renal_cell	247065843
6	26392898	C	-	MT_004-T	kidney_clear_renal_cell	26392898
14	86088883	C	G	MT_004-T	kidney_clear_renal_cell	86088883
6	12120450	C	A	MT_004-T	kidney_clear_renal_cell	12120450
X	132090988	C	T	MT_004-T	kidney_clear_renal_cell	132090988
15	41275246	C	A	MT_004-T	kidney_clear_renal_cell	41275246
16	87636863	C	G	MT_004-T	kidney_clear_renal_cell	87636863
7	32909247	C	A	MT_004-T	kidney_clear_renal_cell	32909247
14	63417164	C	A	MT_004-T	kidney_clear_renal_cell	63417164
1	3412502	C	G	MT_004-T	kidney_clear_renal_cell	3412502
3	52696199	C	A	MT_004-T	kidney_clear_renal_cell	52696199
2	120373256	C	-	MT_004-T	kidney_clear_renal_cell	120373256
6	43487516	C	T	MT_004-T	kidney_clear_renal_cell	43487516
5	176731640	C	T	MT_004-T	kidney_clear_renal_cell	176731640
1	154941294	C	G	MT_004-T	kidney_clear_renal_cell	154941294
12	117486878	C	T	MT_004-T	kidney_clear_renal_cell	117486878
9	135797317	C	-	MT_004-T	kidney_clear_renal_cell	135797317
15	43067497	C	A	MT_004-T	kidney_clear_renal_cell	43067497
10	73056385	C	T	MT_004-T	kidney_clear_renal_cell	73056385
19	9271437	C	T	MT_004-T	kidney_clear_renal_cell	9271437
20	47870202	C	A	MT_004-T	kidney_clear_renal_cell	47870202
1	150528654	G	T	MT_004-T	kidney_clear_renal_cell	150528654
6	131602713	G	T	MT_004-T	kidney_clear_renal_cell	131602713
19	50302967	G	A	MT_004-T	kidney_clear_renal_cell	50302967
1	160100271	G	T	MT_004-T	kidney_clear_renal_cell	160100271
13	26116184	G	C	MT_004-T	kidney_clear_renal_cell	26116184
12	111890633	G	A	MT_004-T	kidney_clear_renal_cell	111890633
11	43964985	G	T	MT_004-T	kidney_clear_renal_cell	43964985
19	8319498	G	T	MT_004-T	kidney_clear_renal_cell	8319498
21	32007611	G	T	MT_004-T	kidney_clear_renal_cell	32007611
17	25944332	G	A	MT_004-T	kidney_clear_renal_cell	25944332
19	19737413	G	C	MT_004-T	kidney_clear_renal_cell	19737413
1	26090411	G	T	MT_004-T	kidney_clear_renal_cell	26090411
5	109202646	G	C	MT_004-T	kidney_clear_renal_cell	109202646
6	90437662	G	A	MT_004-T	kidney_clear_renal_cell	90437662
19	8997162	G	A	MT_004-T	kidney_clear_renal_cell	8997162
17	56232956	G	A	MT_004-T	kidney_clear_renal_cell	56232956
7	102212961	G	A	MT_004-T	kidney_clear_renal_cell	102212961
11	65124211	G	A	MT_004-T	kidney_clear_renal_cell	65124211
14	77810128	G	C	MT_004-T	kidney_clear_renal_cell	77810128
17	19689305	G	T	MT_004-T	kidney_clear_renal_cell	19689305
7	5265476	G	A	MT_004-T	kidney_clear_renal_cell	5265476
21	45555993	T	C	MT_004-T	kidney_clear_renal_cell	45555993
10	85903850	T	C	MT_004-T	kidney_clear_renal_cell	85903850
5	70931060	T	G	MT_004-T	kidney_clear_renal_cell	70931060
14	32030683	T	C	MT_004-T	kidney_clear_renal_cell	32030683
1	43778057	T	C	MT_004-T	kidney_clear_renal_cell	43778057
20	25062663	T	A	MT_004-T	kidney_clear_renal_cell	25062663
19	50549517	T	G	MT_004-T	kidney_clear_renal_cell	50549517
3	10183752	TCATCTTCT	-	MT_004-T	kidney_clear_renal_cell	10183760
19	6733011	TCTCTCT	CCTCTCC	MT_004-T	kidney_clear_renal_cell	6733017
2	179514942	TTTCCTCTTCAGGAGCAA	-	MT_004-T	kidney_clear_renal_cell	179514959
14	23533645	A	T	MT_004-T2	kidney_clear_renal_cell	23533645
4	77003542	A	T	MT_004-T2	kidney_clear_renal_cell	77003542
1	169528464	A	T	MT_004-T2	kidney_clear_renal_cell	169528464
12	57894140	A	G	MT_004-T2	kidney_clear_renal_cell	57894140
17	38347566	A	T	MT_004-T2	kidney_clear_renal_cell	38347566
1	26607380	A	G	MT_004-T2	kidney_clear_renal_cell	26607380
7	43918490	A	C	MT_004-T2	kidney_clear_renal_cell	43918490
10	105926372	A	G	MT_004-T2	kidney_clear_renal_cell	105926372
8	143958575	AGCG	GGCC	MT_004-T2	kidney_clear_renal_cell	143958578
2	220081414	C	A	MT_004-T2	kidney_clear_renal_cell	220081414
1	247065843	C	T	MT_004-T2	kidney_clear_renal_cell	247065843
6	26392898	C	-	MT_004-T2	kidney_clear_renal_cell	26392898
14	86088883	C	G	MT_004-T2	kidney_clear_renal_cell	86088883
2	26432671	C	T	MT_004-T2	kidney_clear_renal_cell	26432671
6	27841078	C	A	MT_004-T2	kidney_clear_renal_cell	27841078
6	12120450	C	A	MT_004-T2	kidney_clear_renal_cell	12120450
15	41275246	C	A	MT_004-T2	kidney_clear_renal_cell	41275246
16	87636863	C	G	MT_004-T2	kidney_clear_renal_cell	87636863
7	32909247	C	A	MT_004-T2	kidney_clear_renal_cell	32909247
1	3412502	C	G	MT_004-T2	kidney_clear_renal_cell	3412502
3	52696199	C	A	MT_004-T2	kidney_clear_renal_cell	52696199
2	120373256	C	-	MT_004-T2	kidney_clear_renal_cell	120373256
6	43487516	C	T	MT_004-T2	kidney_clear_renal_cell	43487516
5	176731640	C	T	MT_004-T2	kidney_clear_renal_cell	176731640
1	154941294	C	G	MT_004-T2	kidney_clear_renal_cell	154941294
12	117486878	C	T	MT_004-T2	kidney_clear_renal_cell	117486878
9	135797317	C	-	MT_004-T2	kidney_clear_renal_cell	135797317
15	43067497	C	A	MT_004-T2	kidney_clear_renal_cell	43067497
10	73056385	C	T	MT_004-T2	kidney_clear_renal_cell	73056385
19	9271437	C	T	MT_004-T2	kidney_clear_renal_cell	9271437
20	47870202	C	A	MT_004-T2	kidney_clear_renal_cell	47870202
X	132090988	C	T	MT_004-T2	kidney_clear_renal_cell	132090988
1	150528654	G	T	MT_004-T2	kidney_clear_renal_cell	150528654
6	131602713	G	T	MT_004-T2	kidney_clear_renal_cell	131602713
19	50302967	G	A	MT_004-T2	kidney_clear_renal_cell	50302967
1	160100271	G	T	MT_004-T2	kidney_clear_renal_cell	160100271
13	26116184	G	C	MT_004-T2	kidney_clear_renal_cell	26116184
12	111890633	G	A	MT_004-T2	kidney_clear_renal_cell	111890633
11	43964985	G	T	MT_004-T2	kidney_clear_renal_cell	43964985
19	8319498	G	T	MT_004-T2	kidney_clear_renal_cell	8319498
21	32007611	G	T	MT_004-T2	kidney_clear_renal_cell	32007611
17	25944332	G	A	MT_004-T2	kidney_clear_renal_cell	25944332
19	19737413	G	C	MT_004-T2	kidney_clear_renal_cell	19737413
1	26090411	G	T	MT_004-T2	kidney_clear_renal_cell	26090411
5	109202646	G	C	MT_004-T2	kidney_clear_renal_cell	109202646
6	90437662	G	A	MT_004-T2	kidney_clear_renal_cell	90437662
19	8997162	G	A	MT_004-T2	kidney_clear_renal_cell	8997162
1	247886535	G	T	MT_004-T2	kidney_clear_renal_cell	247886535
17	56232956	G	A	MT_004-T2	kidney_clear_renal_cell	56232956
4	30725796	G	C	MT_004-T2	kidney_clear_renal_cell	30725796
7	102212961	G	A	MT_004-T2	kidney_clear_renal_cell	102212961
11	65124211	G	A	MT_004-T2	kidney_clear_renal_cell	65124211
14	77810128	G	C	MT_004-T2	kidney_clear_renal_cell	77810128
17	19689305	G	T	MT_004-T2	kidney_clear_renal_cell	19689305
7	5265476	G	A	MT_004-T2	kidney_clear_renal_cell	5265476
1	22850834	G	A	MT_004-T2	kidney_clear_renal_cell	22850834
3	147128691	G	A	MT_004-T2	kidney_clear_renal_cell	147128691
21	45555993	T	C	MT_004-T2	kidney_clear_renal_cell	45555993
10	85903850	T	C	MT_004-T2	kidney_clear_renal_cell	85903850
5	70931060	T	G	MT_004-T2	kidney_clear_renal_cell	70931060
14	32030683	T	C	MT_004-T2	kidney_clear_renal_cell	32030683
2	45235876	T	A	MT_004-T2	kidney_clear_renal_cell	45235876
1	43778057	T	C	MT_004-T2	kidney_clear_renal_cell	43778057
20	25062663	T	A	MT_004-T2	kidney_clear_renal_cell	25062663
19	50549517	T	G	MT_004-T2	kidney_clear_renal_cell	50549517
3	10183752	TCATCTTCT	-	MT_004-T2	kidney_clear_renal_cell	10183760
19	6733011	TCTCTCT	CCTCTCC	MT_004-T2	kidney_clear_renal_cell	6733017
1	115275367	TCTTTGTCTC	-	MT_004-T2	kidney_clear_renal_cell	115275376
2	179514942	TTTCCTCTTCAGGAGCAA	-	MT_004-T2	kidney_clear_renal_cell	179514959
12	53877474	-	T	MT_005-T	kidney_clear_renal_cell	53877474
3	10188277	-	A	MT_005-T	kidney_clear_renal_cell	10188277
2	237489863	A	T	MT_005-T	kidney_clear_renal_cell	237489863
1	190067803	A	T	MT_005-T	kidney_clear_renal_cell	190067803
1	26581827	A	C	MT_005-T	kidney_clear_renal_cell	26581827
16	1506127	A	-	MT_005-T	kidney_clear_renal_cell	1506127
10	115608937	A	C	MT_005-T	kidney_clear_renal_cell	115608937
2	74782495	A	T	MT_005-T	kidney_clear_renal_cell	74782495
3	122471449	A	T	MT_005-T	kidney_clear_renal_cell	122471449
11	62414744	A	T	MT_005-T	kidney_clear_renal_cell	62414744
4	146560666	A	C	MT_005-T	kidney_clear_renal_cell	146560666
17	73258640	A	-	MT_005-T	kidney_clear_renal_cell	73258640
5	140256736	A	-	MT_005-T	kidney_clear_renal_cell	140256736
7	135390878	A	G	MT_005-T	kidney_clear_renal_cell	135390878
9	77442779	A	G	MT_005-T	kidney_clear_renal_cell	77442779
2	220116732	A	G	MT_005-T	kidney_clear_renal_cell	220116732
8	1812555	AGA	-	MT_005-T	kidney_clear_renal_cell	1812557
14	69392329	C	A	MT_005-T	kidney_clear_renal_cell	69392329
21	46624591	C	T	MT_005-T	kidney_clear_renal_cell	46624591
10	49658917	C	A	MT_005-T	kidney_clear_renal_cell	49658917
19	15133688	C	A	MT_005-T	kidney_clear_renal_cell	15133688
5	176011240	C	T	MT_005-T	kidney_clear_renal_cell	176011240
1	86246955	C	A	MT_005-T	kidney_clear_renal_cell	86246955
8	125107239	C	G	MT_005-T	kidney_clear_renal_cell	125107239
22	29707906	C	G	MT_005-T	kidney_clear_renal_cell	29707906
1	155823373	C	A	MT_005-T	kidney_clear_renal_cell	155823373
14	88477463	C	T	MT_005-T	kidney_clear_renal_cell	88477463
7	154863024	C	T	MT_005-T	kidney_clear_renal_cell	154863024
1	43916952	C	A	MT_005-T	kidney_clear_renal_cell	43916952
8	126062844	C	T	MT_005-T	kidney_clear_renal_cell	126062844
7	97823213	C	G	MT_005-T	kidney_clear_renal_cell	97823213
19	43965596	C	G	MT_005-T	kidney_clear_renal_cell	43965596
10	84745220	C	T	MT_005-T	kidney_clear_renal_cell	84745220
11	5462321	C	T	MT_005-T	kidney_clear_renal_cell	5462321
21	47333889	C	T	MT_005-T	kidney_clear_renal_cell	47333889
7	4841463	C	T	MT_005-T	kidney_clear_renal_cell	4841463
15	93616209	C	T	MT_005-T	kidney_clear_renal_cell	93616209
17	7578534	C	A	MT_005-T	kidney_clear_renal_cell	7578534
2	202272267	C	G	MT_005-T	kidney_clear_renal_cell	202272267
X	50376866	C	T	MT_005-T	kidney_clear_renal_cell	50376866
2	89036071	G	C	MT_005-T	kidney_clear_renal_cell	89036071
3	125849094	G	-	MT_005-T	kidney_clear_renal_cell	125849094
2	38536594	G	A	MT_005-T	kidney_clear_renal_cell	38536594
6	132270550	G	T	MT_005-T	kidney_clear_renal_cell	132270550
7	21657291	G	A	MT_005-T	kidney_clear_renal_cell	21657291
1	241661136	G	A	MT_005-T	kidney_clear_renal_cell	241661136
1	186099657	G	T	MT_005-T	kidney_clear_renal_cell	186099657
12	6761563	G	A	MT_005-T	kidney_clear_renal_cell	6761563
1	200977984	G	A	MT_005-T	kidney_clear_renal_cell	200977984
21	31744278	G	T	MT_005-T	kidney_clear_renal_cell	31744278
16	1812404	G	A	MT_005-T	kidney_clear_renal_cell	1812404
3	168806877	G	T	MT_005-T	kidney_clear_renal_cell	168806877
13	58207008	G	C	MT_005-T	kidney_clear_renal_cell	58207008
19	15574983	G	T	MT_005-T	kidney_clear_renal_cell	15574983
19	51206886	G	A	MT_005-T	kidney_clear_renal_cell	51206886
9	139277986	G	A	MT_005-T	kidney_clear_renal_cell	139277986
2	220334019	G	A	MT_005-T	kidney_clear_renal_cell	220334019
3	127294856	G	A	MT_005-T	kidney_clear_renal_cell	127294856
18	56246366	T	C	MT_005-T	kidney_clear_renal_cell	56246366
12	133810876	T	A	MT_005-T	kidney_clear_renal_cell	133810876
8	62479746	T	A	MT_005-T	kidney_clear_renal_cell	62479746
X	3240937	T	A	MT_005-T	kidney_clear_renal_cell	3240937
16	15841428	T	C	MT_005-T	kidney_clear_renal_cell	15841428
22	41980559	T	C	MT_005-T	kidney_clear_renal_cell	41980559
9	135158781	T	C	MT_005-T	kidney_clear_renal_cell	135158781
8	30700466	T	A	MT_005-T	kidney_clear_renal_cell	30700466
19	53057180	T	A	MT_005-T	kidney_clear_renal_cell	53057180
12	53877474	-	T	MT_005-T2	kidney_clear_renal_cell	53877474
3	10188277	-	A	MT_005-T2	kidney_clear_renal_cell	10188277
2	237489863	A	T	MT_005-T2	kidney_clear_renal_cell	237489863
1	190067803	A	T	MT_005-T2	kidney_clear_renal_cell	190067803
1	26581827	A	C	MT_005-T2	kidney_clear_renal_cell	26581827
16	1506127	A	-	MT_005-T2	kidney_clear_renal_cell	1506127
10	115608937	A	C	MT_005-T2	kidney_clear_renal_cell	115608937
2	74782495	A	T	MT_005-T2	kidney_clear_renal_cell	74782495
4	71495262	A	G	MT_005-T2	kidney_clear_renal_cell	71495262
3	122471449	A	T	MT_005-T2	kidney_clear_renal_cell	122471449
11	62414744	A	T	MT_005-T2	kidney_clear_renal_cell	62414744
4	146560666	A	C	MT_005-T2	kidney_clear_renal_cell	146560666
17	73258640	A	-	MT_005-T2	kidney_clear_renal_cell	73258640
7	135390878	A	G	MT_005-T2	kidney_clear_renal_cell	135390878
14	65235814	A	G	MT_005-T2	kidney_clear_renal_cell	65235814
1	172558046	A	T	MT_005-T2	kidney_clear_renal_cell	172558046
2	105912862	A	-	MT_005-T2	kidney_clear_renal_cell	105912862
2	220116732	A	G	MT_005-T2	kidney_clear_renal_cell	220116732
8	1812555	AGA	-	MT_005-T2	kidney_clear_renal_cell	1812557
14	69392329	C	A	MT_005-T2	kidney_clear_renal_cell	69392329
21	46624591	C	T	MT_005-T2	kidney_clear_renal_cell	46624591
4	114203843	C	A	MT_005-T2	kidney_clear_renal_cell	114203843
10	49658917	C	A	MT_005-T2	kidney_clear_renal_cell	49658917
13	50204685	C	G	MT_005-T2	kidney_clear_renal_cell	50204685
19	15133688	C	A	MT_005-T2	kidney_clear_renal_cell	15133688
1	86246955	C	A	MT_005-T2	kidney_clear_renal_cell	86246955
8	125107239	C	G	MT_005-T2	kidney_clear_renal_cell	125107239
1	155823373	C	A	MT_005-T2	kidney_clear_renal_cell	155823373
14	88477463	C	T	MT_005-T2	kidney_clear_renal_cell	88477463
16	9857494	C	G	MT_005-T2	kidney_clear_renal_cell	9857494
8	126062844	C	T	MT_005-T2	kidney_clear_renal_cell	126062844
10	100022769	C	G	MT_005-T2	kidney_clear_renal_cell	100022769
19	43965596	C	G	MT_005-T2	kidney_clear_renal_cell	43965596
12	102040589	C	G	MT_005-T2	kidney_clear_renal_cell	102040589
2	178098960	C	G	MT_005-T2	kidney_clear_renal_cell	178098960
10	84745220	C	T	MT_005-T2	kidney_clear_renal_cell	84745220
2	50573989	C	G	MT_005-T2	kidney_clear_renal_cell	50573989
21	47333889	C	T	MT_005-T2	kidney_clear_renal_cell	47333889
13	100925506	C	G	MT_005-T2	kidney_clear_renal_cell	100925506
7	99023102	C	A	MT_005-T2	kidney_clear_renal_cell	99023102
7	4841463	C	T	MT_005-T2	kidney_clear_renal_cell	4841463
7	150069434	C	T	MT_005-T2	kidney_clear_renal_cell	150069434
15	93616209	C	T	MT_005-T2	kidney_clear_renal_cell	93616209
6	166571970	C	T	MT_005-T2	kidney_clear_renal_cell	166571970
9	104238691	C	A	MT_005-T2	kidney_clear_renal_cell	104238691
2	202272267	C	G	MT_005-T2	kidney_clear_renal_cell	202272267
X	138619286	G	T	MT_005-T2	kidney_clear_renal_cell	138619286
18	51889262	CAGATCATGG	-	MT_005-T2	kidney_clear_renal_cell	51889271
9	38395790	G	C	MT_005-T2	kidney_clear_renal_cell	38395790
3	125849094	G	-	MT_005-T2	kidney_clear_renal_cell	125849094
12	5672669	G	A	MT_005-T2	kidney_clear_renal_cell	5672669
2	38536594	G	A	MT_005-T2	kidney_clear_renal_cell	38536594
17	3844928	G	A	MT_005-T2	kidney_clear_renal_cell	3844928
18	77474505	G	T	MT_005-T2	kidney_clear_renal_cell	77474505
21	42080533	G	A	MT_005-T2	kidney_clear_renal_cell	42080533
5	176966146	G	A	MT_005-T2	kidney_clear_renal_cell	176966146
1	241661136	G	A	MT_005-T2	kidney_clear_renal_cell	241661136
10	121190976	G	T	MT_005-T2	kidney_clear_renal_cell	121190976
1	186099657	G	T	MT_005-T2	kidney_clear_renal_cell	186099657
12	6761563	G	A	MT_005-T2	kidney_clear_renal_cell	6761563
5	75991425	G	C	MT_005-T2	kidney_clear_renal_cell	75991425
5	133871551	G	T	MT_005-T2	kidney_clear_renal_cell	133871551
1	200977984	G	A	MT_005-T2	kidney_clear_renal_cell	200977984
16	1812404	G	A	MT_005-T2	kidney_clear_renal_cell	1812404
19	45766626	G	A	MT_005-T2	kidney_clear_renal_cell	45766626
3	168806877	G	T	MT_005-T2	kidney_clear_renal_cell	168806877
2	16085729	G	A	MT_005-T2	kidney_clear_renal_cell	16085729
4	75937991	G	A	MT_005-T2	kidney_clear_renal_cell	75937991
3	52702606	G	A	MT_005-T2	kidney_clear_renal_cell	52702606
16	2314229	G	A	MT_005-T2	kidney_clear_renal_cell	2314229
9	127762231	G	A	MT_005-T2	kidney_clear_renal_cell	127762231
19	51206886	G	A	MT_005-T2	kidney_clear_renal_cell	51206886
9	139277986	G	A	MT_005-T2	kidney_clear_renal_cell	139277986
2	220334019	G	A	MT_005-T2	kidney_clear_renal_cell	220334019
19	41025348	G	T	MT_005-T2	kidney_clear_renal_cell	41025348
20	36769781	G	C	MT_005-T2	kidney_clear_renal_cell	36769781
4	56283332	G	A	MT_005-T2	kidney_clear_renal_cell	56283332
13	108955641	G	T	MT_005-T2	kidney_clear_renal_cell	108955641
3	127294856	G	A	MT_005-T2	kidney_clear_renal_cell	127294856
4	177100707	G	T	MT_005-T2	kidney_clear_renal_cell	177100707
8	77775801	G	A	MT_005-T2	kidney_clear_renal_cell	77775801
8	55538588	GA	TG	MT_005-T2	kidney_clear_renal_cell	55538589
14	45650671	GAGATTTTCCGAAGAAAAGTTAAAA	-	MT_005-T2	kidney_clear_renal_cell	45650695
18	56246366	T	C	MT_005-T2	kidney_clear_renal_cell	56246366
8	62479746	T	A	MT_005-T2	kidney_clear_renal_cell	62479746
4	13603359	T	A	MT_005-T2	kidney_clear_renal_cell	13603359
19	3532523	T	C	MT_005-T2	kidney_clear_renal_cell	3532523
4	123175403	T	G	MT_005-T2	kidney_clear_renal_cell	123175403
16	15841428	T	C	MT_005-T2	kidney_clear_renal_cell	15841428
11	4616052	T	A	MT_005-T2	kidney_clear_renal_cell	4616052
22	41980559	T	C	MT_005-T2	kidney_clear_renal_cell	41980559
11	65034964	T	A	MT_005-T2	kidney_clear_renal_cell	65034964
8	18623036	T	G	MT_005-T2	kidney_clear_renal_cell	18623036
8	104897643	T	-	MT_005-T2	kidney_clear_renal_cell	104897643
9	135158781	T	C	MT_005-T2	kidney_clear_renal_cell	135158781
18	43223145	T	C	MT_005-T2	kidney_clear_renal_cell	43223145
8	30700466	T	A	MT_005-T2	kidney_clear_renal_cell	30700466
10	25313684	T	G	MT_005-T2	kidney_clear_renal_cell	25313684
19	53057180	T	A	MT_005-T2	kidney_clear_renal_cell	53057180
6	28358859	T	A	MT_005-T2	kidney_clear_renal_cell	28358859
3	49152994	-	T	MT_006-T	kidney_clear_renal_cell	49152994
14	75269265	-	AA	MT_006-T	kidney_clear_renal_cell	75269265
6	107391467	A	C	MT_006-T	kidney_clear_renal_cell	107391467
19	13363815	A	C	MT_006-T	kidney_clear_renal_cell	13363815
1	86047172	A	G	MT_006-T	kidney_clear_renal_cell	86047172
19	9490249	A	G	MT_006-T	kidney_clear_renal_cell	9490249
2	127826559	C	T	MT_006-T	kidney_clear_renal_cell	127826559
10	11330411	C	T	MT_006-T	kidney_clear_renal_cell	11330411
16	84623858	C	T	MT_006-T	kidney_clear_renal_cell	84623858
20	18445992	C	G	MT_006-T	kidney_clear_renal_cell	18445992
2	17962646	C	A	MT_006-T	kidney_clear_renal_cell	17962646
16	31426268	C	T	MT_006-T	kidney_clear_renal_cell	31426268
3	4725191	C	T	MT_006-T	kidney_clear_renal_cell	4725191
17	2929370	C	A	MT_006-T	kidney_clear_renal_cell	2929370
1	182551379	C	A	MT_006-T	kidney_clear_renal_cell	182551379
20	35545439	C	G	MT_006-T	kidney_clear_renal_cell	35545439
11	65733245	C	T	MT_006-T	kidney_clear_renal_cell	65733245
12	52082616	C	G	MT_006-T	kidney_clear_renal_cell	52082616
10	29762821	C	T	MT_006-T	kidney_clear_renal_cell	29762821
16	74908182	C	G	MT_006-T	kidney_clear_renal_cell	74908182
X	84502629	G		MT_006-T	kidney_clear_renal_cell	84502629
3	10191614	CAGGAGCG	-	MT_006-T	kidney_clear_renal_cell	10191621
8	22473013	G	A	MT_006-T	kidney_clear_renal_cell	22473013
7	21826340	G	T	MT_006-T	kidney_clear_renal_cell	21826340
12	10659765	G	A	MT_006-T	kidney_clear_renal_cell	10659765
19	48205457	G	A	MT_006-T	kidney_clear_renal_cell	48205457
12	110630449	G	T	MT_006-T	kidney_clear_renal_cell	110630449
11	111414769	G	C	MT_006-T	kidney_clear_renal_cell	111414769
12	124968300	G	A	MT_006-T	kidney_clear_renal_cell	124968300
11	55681668	G	A	MT_006-T	kidney_clear_renal_cell	55681668
X	48814448	G	C	MT_006-T	kidney_clear_renal_cell	48814448
14	105859594	G	A	MT_006-T	kidney_clear_renal_cell	105859594
14	68044830	G	C	MT_006-T	kidney_clear_renal_cell	68044830
12	11420573	G	A	MT_006-T	kidney_clear_renal_cell	11420573
19	11130302	G	C	MT_006-T	kidney_clear_renal_cell	11130302
1	183514258	G	T	MT_006-T	kidney_clear_renal_cell	183514258
14	61747626	G	A	MT_006-T	kidney_clear_renal_cell	61747626
19	2396585	G	A	MT_006-T	kidney_clear_renal_cell	2396585
19	22154966	G	A	MT_006-T	kidney_clear_renal_cell	22154966
3	52436388	T	-	MT_006-T	kidney_clear_renal_cell	52436388
12	8211575	T	C	MT_006-T	kidney_clear_renal_cell	8211575
6	168708973	T	G	MT_006-T	kidney_clear_renal_cell	168708973
5	38493876	T	C	MT_006-T	kidney_clear_renal_cell	38493876
1	23418770	T	C	MT_006-T	kidney_clear_renal_cell	23418770
4	23830033	T	-	MT_006-T	kidney_clear_renal_cell	23830033
8	121644706	T	C	MT_006-T	kidney_clear_renal_cell	121644706
9	77411766	T	G	MT_006-T	kidney_clear_renal_cell	77411766
3	49152994	-	T	MT_006-T2	kidney_clear_renal_cell	49152994
14	75269265	-	AA	MT_006-T2	kidney_clear_renal_cell	75269265
6	107391467	A	C	MT_006-T2	kidney_clear_renal_cell	107391467
19	13363815	A	C	MT_006-T2	kidney_clear_renal_cell	13363815
15	51974724	A	G	MT_006-T2	kidney_clear_renal_cell	51974724
17	7578191	A	G	MT_006-T2	kidney_clear_renal_cell	7578191
19	11728631	A	C	MT_006-T2	kidney_clear_renal_cell	11728631
15	86278795	C	T	MT_006-T2	kidney_clear_renal_cell	86278795
13	64321046	C	T	MT_006-T2	kidney_clear_renal_cell	64321046
10	33067921	C	G	MT_006-T2	kidney_clear_renal_cell	33067921
10	11330411	C	T	MT_006-T2	kidney_clear_renal_cell	11330411
20	18445992	C	G	MT_006-T2	kidney_clear_renal_cell	18445992
2	17962646	C	A	MT_006-T2	kidney_clear_renal_cell	17962646
4	94411866	C	T	MT_006-T2	kidney_clear_renal_cell	94411866
16	31426268	C	T	MT_006-T2	kidney_clear_renal_cell	31426268
17	39912095	C	T	MT_006-T2	kidney_clear_renal_cell	39912095
21	39671351	C	T	MT_006-T2	kidney_clear_renal_cell	39671351
19	10610105	C	T	MT_006-T2	kidney_clear_renal_cell	10610105
7	7613115	C	T	MT_006-T2	kidney_clear_renal_cell	7613115
3	52643360	C	A	MT_006-T2	kidney_clear_renal_cell	52643360
2	27632260	C	A	MT_006-T2	kidney_clear_renal_cell	27632260
1	182551379	C	A	MT_006-T2	kidney_clear_renal_cell	182551379
12	52082616	C	G	MT_006-T2	kidney_clear_renal_cell	52082616
5	128368903	C	A	MT_006-T2	kidney_clear_renal_cell	128368903
5	168151454	C	A	MT_006-T2	kidney_clear_renal_cell	168151454
2	179511275	C	T	MT_006-T2	kidney_clear_renal_cell	179511275
19	38383386	C	T	MT_006-T2	kidney_clear_renal_cell	38383386
X	36156469	A	C	MT_006-T2	kidney_clear_renal_cell	36156469
X	48814448	G	C	MT_006-T2	kidney_clear_renal_cell	48814448
6	44281058	G	A	MT_006-T2	kidney_clear_renal_cell	44281058
2	127826559	C	T	MT_006-T2	kidney_clear_renal_cell	127826559
X	135432456	C	T	MT_006-T2	kidney_clear_renal_cell	135432456
3	10191614	CAGGAGCG	-	MT_006-T2	kidney_clear_renal_cell	10191621
16	84482166	G	A	MT_006-T2	kidney_clear_renal_cell	84482166
8	22473013	G	A	MT_006-T2	kidney_clear_renal_cell	22473013
17	28789387	G	A	MT_006-T2	kidney_clear_renal_cell	28789387
12	110630449	G	T	MT_006-T2	kidney_clear_renal_cell	110630449
2	213872650	G	A	MT_006-T2	kidney_clear_renal_cell	213872650
11	111414769	G	C	MT_006-T2	kidney_clear_renal_cell	111414769
4	62383194	G	T	MT_006-T2	kidney_clear_renal_cell	62383194
6	74155344	G	A	MT_006-T2	kidney_clear_renal_cell	74155344
6	43646302	G	C	MT_006-T2	kidney_clear_renal_cell	43646302
12	78511903	G	A	MT_006-T2	kidney_clear_renal_cell	78511903
11	55681668	G	A	MT_006-T2	kidney_clear_renal_cell	55681668
14	105859594	G	A	MT_006-T2	kidney_clear_renal_cell	105859594
14	68044830	G	C	MT_006-T2	kidney_clear_renal_cell	68044830
8	70981632	G	T	MT_006-T2	kidney_clear_renal_cell	70981632
7	157341689	G	A	MT_006-T2	kidney_clear_renal_cell	157341689
22	21385810	G	A	MT_006-T2	kidney_clear_renal_cell	21385810
5	147693665	G	A	MT_006-T2	kidney_clear_renal_cell	147693665
14	61747626	G	A	MT_006-T2	kidney_clear_renal_cell	61747626
19	2396585	G	A	MT_006-T2	kidney_clear_renal_cell	2396585
9	135797269	G	-	MT_006-T2	kidney_clear_renal_cell	135797269
19	29704008	G	T	MT_006-T2	kidney_clear_renal_cell	29704008
12	8211575	T	C	MT_006-T2	kidney_clear_renal_cell	8211575
6	111281779	T	G	MT_006-T2	kidney_clear_renal_cell	111281779
5	38493876	T	C	MT_006-T2	kidney_clear_renal_cell	38493876
1	23418770	T	C	MT_006-T2	kidney_clear_renal_cell	23418770
4	23830033	T	-	MT_006-T2	kidney_clear_renal_cell	23830033
10	89653789	-	CCAA	MT_007-T	kidney_renal_cell_mix	89653789
12	18891819	C	T	MT_007-T	kidney_renal_cell_mix	18891819
9	90254322	C	T	MT_007-T	kidney_renal_cell_mix	90254322
9	34996513	C	T	MT_007-T	kidney_renal_cell_mix	34996513
1	222920384	C	T	MT_007-T	kidney_renal_cell_mix	222920384
11	62397415	C	T	MT_007-T	kidney_renal_cell_mix	62397415
15	51696536	C	A	MT_007-T	kidney_renal_cell_mix	51696536
12	56092631	C	T	MT_007-T	kidney_renal_cell_mix	56092631
7	150706582	C	T	MT_007-T	kidney_renal_cell_mix	150706582
7	128413825	C	T	MT_007-T	kidney_renal_cell_mix	128413825
11	5068125	C	T	MT_007-T	kidney_renal_cell_mix	5068125
1	237947435	C	T	MT_007-T	kidney_renal_cell_mix	237947435
2	233412901	C	T	MT_007-T	kidney_renal_cell_mix	233412901
1	33797964	AAG		MT_007-T	kidney_renal_cell_mix	33797966
3	62189440	C	T	MT_007-T	kidney_renal_cell_mix	62189440
7	157997958	G	A	MT_007-T	kidney_renal_cell_mix	157997958
8	38133958	C	T	MT_007-T	kidney_renal_cell_mix	38133958
19	6454590	C	T	MT_007-T	kidney_renal_cell_mix	6454590
10	116067634	G	A	MT_007-T	kidney_renal_cell_mix	116067634
16	28898545	G	A	MT_007-T	kidney_renal_cell_mix	28898545
3	39373903	G	A	MT_007-T	kidney_renal_cell_mix	39373903
17	7483210	G	A	MT_007-T	kidney_renal_cell_mix	7483210
7	42088288	G	A	MT_007-T	kidney_renal_cell_mix	42088288
2	217142568	G	A	MT_007-T	kidney_renal_cell_mix	217142568
15	52725392	G	-	MT_007-T	kidney_renal_cell_mix	52725392
19	56369929	G	A	MT_007-T	kidney_renal_cell_mix	56369929
17	7574018	G	A	MT_007-T	kidney_renal_cell_mix	7574018
7	72733044	G	A	MT_007-T	kidney_renal_cell_mix	72733044
3	42700637	G	A	MT_007-T	kidney_renal_cell_mix	42700637
8	81599532	G	C	MT_007-T	kidney_renal_cell_mix	81599532
5	137347553	T	A	MT_007-T	kidney_renal_cell_mix	137347553
19	11976991	T	C	MT_007-T	kidney_renal_cell_mix	11976991
10	89653789	-	CCAA	MT_007-T2	kidney_renal_cell_mix	89653789
9	90254322	C	T	MT_007-T2	kidney_renal_cell_mix	90254322
9	34996513	C	T	MT_007-T2	kidney_renal_cell_mix	34996513
1	222920384	C	T	MT_007-T2	kidney_renal_cell_mix	222920384
7	128413825	C	T	MT_007-T2	kidney_renal_cell_mix	128413825
19	56369929	G	A	MT_007-T2	kidney_renal_cell_mix	56369929
15	51696536	G	A	MT_007-T2	kidney_renal_cell_mix	51696536
5	149584133	C	T	MT_007-T2	kidney_renal_cell_mix	149584133
11	62397415	C	T	MT_007-T2	kidney_renal_cell_mix	62397415
3	62189440	C	T	MT_007-T2	kidney_renal_cell_mix	62189440
16	67262469	G	A	MT_007-T2	kidney_renal_cell_mix	67262469
7	157997958	G	A	MT_007-T2	kidney_renal_cell_mix	157997958
8	38133958	C	T	MT_007-T2	kidney_renal_cell_mix	38133958
16	28898545	G	A	MT_007-T2	kidney_renal_cell_mix	28898545
12	18891819	C	T	MT_007-T2	kidney_renal_cell_mix	18891819
19	6454590	C	T	MT_007-T2	kidney_renal_cell_mix	6454590
12	56092631	C	T	MT_007-T2	kidney_renal_cell_mix	56092631
10	116067634	G	A	MT_007-T2	kidney_renal_cell_mix	116067634
3	39373903	G	A	MT_007-T2	kidney_renal_cell_mix	39373903
17	7483210	G	A	MT_007-T2	kidney_renal_cell_mix	7483210
2	217142568	G	A	MT_007-T2	kidney_renal_cell_mix	217142568
15	52725392	G	-	MT_007-T2	kidney_renal_cell_mix	52725392
17	7574018	G	A	MT_007-T2	kidney_renal_cell_mix	7574018
7	72733044	G	A	MT_007-T2	kidney_renal_cell_mix	72733044
3	42700637	G	A	MT_007-T2	kidney_renal_cell_mix	42700637
8	81599532	G	C	MT_007-T2	kidney_renal_cell_mix	81599532
5	137347553	T	A	MT_007-T2	kidney_renal_cell_mix	137347553
19	11976991	T	C	MT_007-T2	kidney_renal_cell_mix	11976991
