sample	cromosoma	start	ref	alt	cancer_type
SJMB010936	chr3	9781353	G	T	CNS_medulloblastoma
SJMB010936	chr1	115258745	C	A	CNS_medulloblastoma
SJMB010936	chr10	99123631	C	A	CNS_medulloblastoma
SJMB010936	chr1	237870446	C	T	CNS_medulloblastoma
SJMB010936	chr4	87687606	A	G	CNS_medulloblastoma
SJMB010936	chr15	43571362	G	T	CNS_medulloblastoma
SJMB010936	chr11	108302557	A	T	CNS_medulloblastoma
SJMB010936	chr19	13264528	C	T	CNS_medulloblastoma
SJMB010936	chr11	55563737	C	T	CNS_medulloblastoma
SJMB010936	chr16	49823410	C	T	CNS_medulloblastoma
SJMB010936	chr7	87765308	C	T	CNS_medulloblastoma
SJMB010936	chr17	38512270	G	A	CNS_medulloblastoma
SJMB010936	chrX	100667550	C	A	CNS_medulloblastoma
SJMB010936	chr14	105173868	CCCCCACCCCCA	-	CNS_medulloblastoma
SJMB010936	chr3	160395465	G	T	CNS_medulloblastoma
SJMB010936	chr17	5009376	C	T	CNS_medulloblastoma
SJMB010936	chr2	202093784	G	A	CNS_medulloblastoma
SJMB010936	chr10	92654633	A	G	CNS_medulloblastoma
SJMB010936	chr6	152679525	T	A	CNS_medulloblastoma
SJMB010936	chr6	34495241	C	T	CNS_medulloblastoma
SJMB010936	chr1	180135707	C	-	CNS_medulloblastoma
SJMB010936	chr3	113179498	G	A	CNS_medulloblastoma
SJMB010936	chr16	89784002	A	T	CNS_medulloblastoma
SJMB010936	chr8	80976811	G	T	CNS_medulloblastoma
SJMB010936	chr16	2129361	C	T	CNS_medulloblastoma
SJMB010936	chr9	100372691	C	T	CNS_medulloblastoma
SJMB010936	chr2	39095461	G	A	CNS_medulloblastoma
SJMB010936	chr16	3265836	A	T	CNS_medulloblastoma
SJMB010936	chrX	39913279	A	C	CNS_medulloblastoma
SJMB010936	chrX	39913278	C	A	CNS_medulloblastoma
SJMB010936	chr12	90596	C	A	CNS_medulloblastoma
SJMB010936	chr17	72308221	C	T	CNS_medulloblastoma
SJMB010936	chrX	63410987	A	T	CNS_medulloblastoma
SJMB010936	chr17	28890343	G	A	CNS_medulloblastoma
SJMB010936	chr18	28980905	C	A	CNS_medulloblastoma
SJMB010936	chr19	12757442	C	A	CNS_medulloblastoma
SJMB010936	chr3	126226869	G	A	CNS_medulloblastoma
SJMB010936	chr17	7851579	C	T	CNS_medulloblastoma
SJMB010936	chrX	150885857	C	A	CNS_medulloblastoma
SJMB010936	chrX	69424309	G	T	CNS_medulloblastoma
SJMB010936	chr6	39859184	G	A	CNS_medulloblastoma
SJMB010936	chr5	96430574	G	A	CNS_medulloblastoma
SJMB010936	chr19	12812428	C	T	CNS_medulloblastoma
SJMB010936	chr14	105411126	C	A	CNS_medulloblastoma
SJMB010936	chr2	220108245	G	T	CNS_medulloblastoma
SJMB010936	chr15	48053888	A	-	CNS_medulloblastoma
SJMB010936	chr13	42457612	T	A	CNS_medulloblastoma
SJMB010936	chr18	30275480	C	T	CNS_medulloblastoma
SJMB010936	chr12	95604392	G	C	CNS_medulloblastoma
SJMB010936	chr8	145537535	CGACA	-	CNS_medulloblastoma
SJMB010936	chr20	62328420	-	C	CNS_medulloblastoma
SJMB010936	chr5	140502173	C	-	CNS_medulloblastoma
SJMB010936	chr18	29453425	A	-	CNS_medulloblastoma
SJMB010937	chr16	3799627	-	GGAA	CNS_medulloblastoma
SJMB010937	chr10	104356997	-	TTT	CNS_medulloblastoma
SJMB010937	chrX	41204458	C	T	CNS_medulloblastoma
SJMB010937	chr18	52896125	A	G	CNS_medulloblastoma
SJMB010937	chr10	7218054	G	A	CNS_medulloblastoma
SJMB010937	chr3	33623399	C	T	CNS_medulloblastoma
SJMB010937	chr1	247151349	A	G	CNS_medulloblastoma
SJMB010937	chr5	447696	C	A	CNS_medulloblastoma
SJMB010937	chr3	62216909	A	G	CNS_medulloblastoma
SJMB010937	chr22	44319939	G	T	CNS_medulloblastoma
SJMB010937	chr11	46784699	C	A	CNS_medulloblastoma
SJMB010937	chr21	34697312	G	A	CNS_medulloblastoma
SJMB010937	chr14	105609028	G	A	CNS_medulloblastoma
SJMB010937	chr11	5172681	C	T	CNS_medulloblastoma
SJMB010937	chr6	42713146	G	A	CNS_medulloblastoma
SJMB010937	chr1	193050509	G	A	CNS_medulloblastoma
SJMB010937	chr11	55595552	C	T	CNS_medulloblastoma
SJMB010937	chr6	12296344	C	T	CNS_medulloblastoma
SJMB010937	chr3	4776946	GA	-	CNS_medulloblastoma
SJMB010937	chr17	73774963	C	A	CNS_medulloblastoma
SJMB010937	chr20	40743915	T	C	CNS_medulloblastoma
SJMB010937	chr2	29092971	T	A	CNS_medulloblastoma
SJMB010937	chr2	186660060	TC	-	CNS_medulloblastoma
SJMB010937	chr1	180063037	G	C	CNS_medulloblastoma
SJMB010937	chr11	63072346	A	G	CNS_medulloblastoma
SJMB010937	chr16	48382131	T	A	CNS_medulloblastoma
SJMB010937	chr3	178952085	A	G	CNS_medulloblastoma
SJMB010937	chr13	32313774	C	T	CNS_medulloblastoma
SJMB010937	chr5	60448856	T	C	CNS_medulloblastoma
SJMB010937	chr10	52603769	-	AA	CNS_medulloblastoma
SJMB010937	chr3	122634685	G	A	CNS_medulloblastoma
SJMB010937	chr12	2061698	G	A	CNS_medulloblastoma
SJMB010937	chr22	39445485	C	T	CNS_medulloblastoma
SJMB010937	chr12	49298865	G	A	CNS_medulloblastoma
SJMB010937	chr11	61290653	T	C	CNS_medulloblastoma
SJMB010937	chr17	59878715	G	T	CNS_medulloblastoma
SJMB010937	chr5	10250009	T	A	CNS_medulloblastoma
SJMB010937	chr1	110152656	A	G	CNS_medulloblastoma
SJMB010937	chr3	121200475	A	G	CNS_medulloblastoma
SJMB010937	chr3	127325024	ACTTCC	-	CNS_medulloblastoma
SJMB010937	chr7	51094235	C	A	CNS_medulloblastoma
SJMB010937	chr3	121200476	G	T	CNS_medulloblastoma
SJMB010937	chr10	116032527	C	A	CNS_medulloblastoma
SJMB010937	chr11	9496126	C	A	CNS_medulloblastoma
SJMB010937	chr11	78433851	T	C	CNS_medulloblastoma
SJMB010937	chr6	102337523	C	A	CNS_medulloblastoma
SJMB010937	chr17	4789833	C	G	CNS_medulloblastoma
SJMB010937	chr12	117426607	TAGAC	-	CNS_medulloblastoma
SJMB010937	chr18	3116370	G	A	CNS_medulloblastoma
SJMB010937	chr12	123477125	C	A	CNS_medulloblastoma
SJMB010937	chr11	26484630	C	T	CNS_medulloblastoma
SJMB010937	chr16	31439446	C	A	CNS_medulloblastoma
SJMB010937	chrX	52842197	C	A	CNS_medulloblastoma
SJMB010937	chr19	39281406	C	T	CNS_medulloblastoma
SJMB010937	chr10	7608128	C	T	CNS_medulloblastoma
SJMB010937	chr14	56130752	C	A	CNS_medulloblastoma
SJMB010937	chr2	201437408	C	A	CNS_medulloblastoma
SJMB010937	chr3	194080767	C	A	CNS_medulloblastoma
SJMB010937	chr1	172013516	C	A	CNS_medulloblastoma
SJMB010937	chr1	118693984	C	T	CNS_medulloblastoma
SJMB010938	chr17	7578454	G	T	CNS_medulloblastoma
SJMB010938	chr17	1584855	C	A	CNS_medulloblastoma
SJMB010938	chr10	104269032	G	T	CNS_medulloblastoma
SJMB010938	chr10	89717699	G	T	CNS_medulloblastoma
SJMB010938	chr21	45759110	C	T	CNS_medulloblastoma
SJMB010938	chr1	182443491	T	G	CNS_medulloblastoma
SJMB010938	chr1	237947648	C	T	CNS_medulloblastoma
SJMB010938	chr9	126133340	T	C	CNS_medulloblastoma
SJMB010938	chr22	44892710	C	A	CNS_medulloblastoma
SJMB010938	chrX	50377138	T	A	CNS_medulloblastoma
SJMB010938	chr14	21793410	C	T	CNS_medulloblastoma
SJMB010938	chr8	3326237	G	C	CNS_medulloblastoma
SJMB010938	chr22	31501001	C	T	CNS_medulloblastoma
SJMB010938	chr17	46670930	C	G	CNS_medulloblastoma
SJMB010938	chr17	46670928	G	T	CNS_medulloblastoma
SJMB010938	chr16	89857867	G	A	CNS_medulloblastoma
SJMB010938	chr8	17188800	G	C	CNS_medulloblastoma
SJMB010938	chr4	7811383	C	T	CNS_medulloblastoma
SJMB010938	chrX	41205866	G	A	CNS_medulloblastoma
SJMB010938	chr6	119252849	C	A	CNS_medulloblastoma
SJMB010938	chr2	233347867	A	G	CNS_medulloblastoma
SJMB010938	chr7	21765563	A	C	CNS_medulloblastoma
SJMB010938	chr19	1043105	C	A	CNS_medulloblastoma
SJMB010938	chr2	186603517	G	A	CNS_medulloblastoma
SJMB010938	chr18	59221508	C	T	CNS_medulloblastoma
SJMB010938	chr19	1043106	C	A	CNS_medulloblastoma
SJMB010938	chr1	17081546	G	A	CNS_medulloblastoma
SJMB010938	chr17	37825944	A	T	CNS_medulloblastoma
SJMB010938	chr5	153429413	T	G	CNS_medulloblastoma
SJMB010938	chr5	178359094	T	C	CNS_medulloblastoma
SJMB010938	chr4	71509329	C	G	CNS_medulloblastoma
SJMB010938	chr7	127015011	G	A	CNS_medulloblastoma
SJMB010938	chr9	139912264	G	A	CNS_medulloblastoma
SJMB010938	chr18	46385834	C	T	CNS_medulloblastoma
SJMB010938	chr2	209116165	C	T	CNS_medulloblastoma
SJMB010938	chr16	28900153	G	A	CNS_medulloblastoma
SJMB010938	chr19	56473565	C	T	CNS_medulloblastoma
SJMB010938	chr7	106509311	C	T	CNS_medulloblastoma
SJMB010938	chr14	104001268	G	A	CNS_medulloblastoma
SJMB010938	chr20	30452782	C	T	CNS_medulloblastoma
SJMB010938	chr12	27628509	C	A	CNS_medulloblastoma
SJMB010938	chr11	5602349	A	G	CNS_medulloblastoma
SJMB010938	chrX	107978152	G	T	CNS_medulloblastoma
SJMB010938	chr13	46288098	G	A	CNS_medulloblastoma
SJMB010938	chrX	152991235	C	A	CNS_medulloblastoma
SJMB010938	chr14	23249162	C	T	CNS_medulloblastoma
SJMB010938	chr13	28979945	C	T	CNS_medulloblastoma
SJMB010938	chr11	1857752	C	G	CNS_medulloblastoma
SJMB010938	chr15	67636536	T	C	CNS_medulloblastoma
SJMB010938	chr8	27922167	-	A	CNS_medulloblastoma
SJMB010938	chr4	106194028	C	G	CNS_medulloblastoma
SJMB010938	chr16	20348050	C	A	CNS_medulloblastoma
SJMB010938	chr7	43982615	G	A	CNS_medulloblastoma
SJMB010938	chr8	27922165	G	A	CNS_medulloblastoma
SJMB010938	chr3	52088241	G	A	CNS_medulloblastoma
SJMB010938	chr12	57589899	C	-	CNS_medulloblastoma
SJMB010938	chrX	147018036	A	T	CNS_medulloblastoma
SJMB010938	chrX	147018035	G	T	CNS_medulloblastoma
SJMB010938	chr12	112690289	C	A	CNS_medulloblastoma
SJMB010938	chr12	52470625	A	C	CNS_medulloblastoma
SJMB010938	chr19	56390205	G	A	CNS_medulloblastoma
SJMB010938	chr11	92523389	GACCAAAATCCTAATTAG	-	CNS_medulloblastoma
SJMB010938	chr19	52084764	G	A	CNS_medulloblastoma
SJMB010938	chr18	31326014	A	C	CNS_medulloblastoma
SJMB010938	chr3	49570668	G	A	CNS_medulloblastoma
SJMB010938	chr2	27703981	C	T	CNS_medulloblastoma
SJMB010938	chr11	118186308	C	T	CNS_medulloblastoma
SJMB010938	chr19	40741861	G	A	CNS_medulloblastoma
SJMB010938	chr8	61533287	G	A	CNS_medulloblastoma
SJMB010938	chrX	150067138	G	A	CNS_medulloblastoma
SJMB010938	chr11	63533486	G	C	CNS_medulloblastoma
SJMB010938	chr8	61533288	G	T	CNS_medulloblastoma
SJMB010938	chrX	106091461	G	T	CNS_medulloblastoma
SJMB010938	chr12	122359227	G	C	CNS_medulloblastoma
SJMB010938	chrX	153678436	GAG	-	CNS_medulloblastoma
SJMB010938	chr19	47593313	T	-	CNS_medulloblastoma
SJMB010938	chr20	60901765	G	C	CNS_medulloblastoma
SJMB010938	chr17	6909263	C	T	CNS_medulloblastoma
SJMB010938	chr21	46074507	C	T	CNS_medulloblastoma
SJMB010938	chr5	177546631	G	A	CNS_medulloblastoma
SJMB010938	chrX	48681523	T	A	CNS_medulloblastoma
SJMB010938	chr1	152277826	A	C	CNS_medulloblastoma
SJMB010938	chrX	100503161	G	T	CNS_medulloblastoma
SJMB010938	chr1	248039702	T	A	CNS_medulloblastoma
SJMB010938	chrX	44938587	A	-	CNS_medulloblastoma
SJMB010938	chrX	24580569	C	G	CNS_medulloblastoma
SJMB010938	chr20	60913280	C	A	CNS_medulloblastoma
SJMB010938	chr11	551795	C	A	CNS_medulloblastoma
SJMB010938	chr6	160328155	C	T	CNS_medulloblastoma
SJMB010938	chr3	108133218	G	A	CNS_medulloblastoma
SJMB010938	chr20	42198135	C	A	CNS_medulloblastoma
SJMB010938	chr12	13828748	A	G	CNS_medulloblastoma
SJMB010938	chr1	185153477	G	A	CNS_medulloblastoma
SJMB010938	chr17	76968042	G	A	CNS_medulloblastoma
SJMB010938	chr19	18375909	C	A	CNS_medulloblastoma
SJMB010938	chr2	234775641	G	A	CNS_medulloblastoma
SJMB010938	chr2	179473007	A	G	CNS_medulloblastoma
SJMB010938	chr5	176072989	C	A	CNS_medulloblastoma
SJMB010938	chr9	140458911	C	A	CNS_medulloblastoma
SJMB010938	chr1	78178976	T	-	CNS_medulloblastoma
SJMB010939	chr17	35297976	C	A	CNS_medulloblastoma
SJMB010939	chr5	137756425	AA	-	CNS_medulloblastoma
SJMB010939	chr9	90746751	A	G	CNS_medulloblastoma
SJMB010939	chr20	31196543	C	G	CNS_medulloblastoma
SJMB010939	chr13	60407365	G	A	CNS_medulloblastoma
SJMB010939	chr17	74289542	C	A	CNS_medulloblastoma
SJMB010939	chr8	33354149	G	A	CNS_medulloblastoma
SJMB010939	chr16	18860614	G	A	CNS_medulloblastoma
SJMB010939	chr11	592603	G	T	CNS_medulloblastoma
SJMB010939	chr21	45547999	A	C	CNS_medulloblastoma
SJMB010939	chr7	69755553	G	T	CNS_medulloblastoma
SJMB010939	chr20	61867662	G	A	CNS_medulloblastoma
SJMB010939	chr6	154732189	G	T	CNS_medulloblastoma
SJMB010939	chr6	128134299	G	A	CNS_medulloblastoma
SJMB010939	chr6	154732190	G	T	CNS_medulloblastoma
SJMB010939	chr14	105848912	G	A	CNS_medulloblastoma
SJMB010939	chr11	10064463	G	A	CNS_medulloblastoma
SJMB010939	chr22	50753049	G	C	CNS_medulloblastoma
SJMB010939	chr7	45719342	A	T	CNS_medulloblastoma
SJMB010939	chr2	74460610	G	A	CNS_medulloblastoma
SJMB010939	chr19	4302367	T	-	CNS_medulloblastoma
SJMB010939	chr19	46324707	C	G	CNS_medulloblastoma
SJMB010939	chr11	46389264	C	T	CNS_medulloblastoma
SJMB010939	chr3	1415744	A	G	CNS_medulloblastoma
SJMB010939	chr18	3193944	G	A	CNS_medulloblastoma
SJMB010939	chr21	30303592	C	T	CNS_medulloblastoma
SJMB010939	chr11	62295048	C	T	CNS_medulloblastoma
SJMB010939	chr19	54312946	C	T	CNS_medulloblastoma
SJMB010939	chr17	7320419	G	T	CNS_medulloblastoma
SJMB010939	chr19	4110556	T	C	CNS_medulloblastoma
SJMB010939	chr11	69465915	C	G	CNS_medulloblastoma
SJMB010939	chr3	49200347	T	G	CNS_medulloblastoma
SJMB010939	chr14	92357580	C	T	CNS_medulloblastoma
SJMB010939	chr11	47306647	A	G	CNS_medulloblastoma
SJMB010939	chr4	108566127	C	T	CNS_medulloblastoma
SJMB010939	chr3	46712494	G	A	CNS_medulloblastoma
SJMB010939	chr4	169208354	C	T	CNS_medulloblastoma
SJMB010939	chr16	2077065	G	T	CNS_medulloblastoma
SJMB010939	chr10	55912876	G	A	CNS_medulloblastoma
SJMB010939	chr11	67120256	G	A	CNS_medulloblastoma
SJMB010939	chr16	746998	G	A	CNS_medulloblastoma
SJMB010939	chr19	9236792	T	C	CNS_medulloblastoma
SJMB010939	chr16	67470993	C	T	CNS_medulloblastoma
SJMB010939	chr1	89599070	T	C	CNS_medulloblastoma
SJMB010939	chr19	10220699	G	A	CNS_medulloblastoma
SJMB010939	chr4	186066349	C	A	CNS_medulloblastoma
SJMB010939	chr8	38260123	G	A	CNS_medulloblastoma
SJMB010939	chr7	158664234	G	A	CNS_medulloblastoma
SJMB010939	chr8	38260116	G	A	CNS_medulloblastoma
SJMB010939	chr9	139740151	G	A	CNS_medulloblastoma
SJMB010939	chr17	7474779	G	T	CNS_medulloblastoma
SJMB010939	chr19	5957950	AAACACAAAGACGGG	-	CNS_medulloblastoma
SJMB010939	chr3	52523450	C	-	CNS_medulloblastoma
SJMB010939	chr12	9231895	CATAGTGTT	-	CNS_medulloblastoma
SJMB010939	chr9	130826149	TCC	-	CNS_medulloblastoma
SJMB010939	chr10	70728785	GTATTTAATGTTGCCAAGAAA	-	CNS_medulloblastoma
SJMB010939	chr14	23884889	C	T	CNS_medulloblastoma
SJMB010939	chr2	74041281	C	A	CNS_medulloblastoma
SJMB010939	chr22	50722039	C	A	CNS_medulloblastoma
SJMB010940	chr9	98238374	G	C	CNS_medulloblastoma
SJMB010940	chr9	98268827	-	A	CNS_medulloblastoma
SJMB010940	chr10	98744282	G	A	CNS_medulloblastoma
SJMB010940	chr5	24593601	G	T	CNS_medulloblastoma
SJMB010940	chrX	10417676	C	T	CNS_medulloblastoma
SJMB010940	chr2	238296418	G	A	CNS_medulloblastoma
SJMB010940	chr1	31440034	C	A	CNS_medulloblastoma
SJMB010940	chr6	40400037	C	T	CNS_medulloblastoma
SJMB010940	chr4	48147477	G	A	CNS_medulloblastoma
SJMB010940	chr19	10943760	C	A	CNS_medulloblastoma
SJMB010940	chr2	97351706	C	A	CNS_medulloblastoma
SJMB010940	chr22	40642052	G	C	CNS_medulloblastoma
SJMB010940	chr3	164906295	G	C	CNS_medulloblastoma
SJMB010940	chr1	109839796	G	A	CNS_medulloblastoma
SJMB010940	chr1	192998397	T	A	CNS_medulloblastoma
SJMB010940	chr13	114088095	C	A	CNS_medulloblastoma
SJMB010940	chr3	135871556	G	A	CNS_medulloblastoma
SJMB010940	chr9	139008555	C	A	CNS_medulloblastoma
SJMB010940	chr17	40738782	C	A	CNS_medulloblastoma
SJMB010940	chr20	57486197	G	T	CNS_medulloblastoma
SJMB010940	chr15	43812904	G	A	CNS_medulloblastoma
SJMB010940	chr2	203974870	T	-	CNS_medulloblastoma
SJMB010940	chr2	96957591	C	A	CNS_medulloblastoma
SJMB011828	chr9	98232118	CA	-	CNS_medulloblastoma
SJMB011828	chrX	55046756	G	T	CNS_medulloblastoma
SJMB011828	chr2	68691505	G	A	CNS_medulloblastoma
SJMB011828	chr11	110126046	A	C	CNS_medulloblastoma
SJMB011828	chr2	190597879	T	C	CNS_medulloblastoma
SJMB011828	chr2	190597880	-	C	CNS_medulloblastoma
SJMB011828	chr16	89761141	A	-	CNS_medulloblastoma
SJMB011828	chr11	63585692	G	A	CNS_medulloblastoma
SJMB011828	chr6	96976413	A	G	CNS_medulloblastoma
SJMB011828	chr5	80736377	C	T	CNS_medulloblastoma
SJMB011828	chr10	89720789	G	T	CNS_medulloblastoma
SJMB011828	chr7	66703573	T	A	CNS_medulloblastoma
SJMB011828	chr7	148768576	A	G	CNS_medulloblastoma
SJMB011828	chr1	46659546	G	A	CNS_medulloblastoma
SJMB011828	chr17	80541953	C	A	CNS_medulloblastoma
SJMB011828	chr11	116744215	C	T	CNS_medulloblastoma
SJMB011828	chr19	8807832	C	A	CNS_medulloblastoma
SJMB011828	chr17	53798008	C	A	CNS_medulloblastoma
SJMB011828	chr22	34157361	C	T	CNS_medulloblastoma
SJMB011828	chr8	32453531	T	G	CNS_medulloblastoma
SJMB011828	chr3	38805040	G	A	CNS_medulloblastoma
SJMB011828	chr7	128485212	C	-	CNS_medulloblastoma
SJMB011828	chr15	24923525	G	A	CNS_medulloblastoma
SJMB011828	chr4	94032042	G	A	CNS_medulloblastoma
SJMB011828	chr12	113865860	G	C	CNS_medulloblastoma
SJMB011828	chr10	80968197	C	A	CNS_medulloblastoma
SJMB011828	chr9	38396298	T	A	CNS_medulloblastoma
SJMB011828	chr3	184102362	C	A	CNS_medulloblastoma
SJMB011828	chr6	31783454	C	A	CNS_medulloblastoma
SJMB011828	chr6	139170541	G	A	CNS_medulloblastoma
SJMB011828	chr6	39282831	C	A	CNS_medulloblastoma
SJMB011828	chr15	90208215	C	A	CNS_medulloblastoma
SJMB011828	chr3	124048713	G	A	CNS_medulloblastoma
SJMB011828	chr2	70187807	C	A	CNS_medulloblastoma
SJMB011828	chr19	10897308	C	G	CNS_medulloblastoma
SJMB011828	chr19	10943659	C	A	CNS_medulloblastoma
SJMB011828	chr14	104571716	C	A	CNS_medulloblastoma
SJMB011828	chr22	20100979	C	A	CNS_medulloblastoma
SJMB011828	chr11	121474907	C	A	CNS_medulloblastoma
SJMB011828	chrX	64771995	C	A	CNS_medulloblastoma
SJMB011828	chr5	141385728	C	A	CNS_medulloblastoma
SJMB011828	chr11	800650	C	A	CNS_medulloblastoma
SJMB011828	chr22	39479728	C	A	CNS_medulloblastoma
SJMB011828	chr19	41700533	C	A	CNS_medulloblastoma
SJMB011828	chr19	42351868	A	G	CNS_medulloblastoma
SJMB011828	chrX	54951419	C	A	CNS_medulloblastoma
SJMB011828	chr3	195453220	G	C	CNS_medulloblastoma
SJMB011828	chr9	138378222	C	A	CNS_medulloblastoma
SJMB011828	chr11	64597455	C	A	CNS_medulloblastoma
SJMB011828	chr15	40661409	C	A	CNS_medulloblastoma
SJMB011828	chrX	129765546	C	A	CNS_medulloblastoma
SJMB011828	chr17	76472686	C	T	CNS_medulloblastoma
SJMB011828	chr16	20352615	G	A	CNS_medulloblastoma
SJMB011828	chr1	245704215	C	A	CNS_medulloblastoma
SJMB011828	chr7	99085084	C	A	CNS_medulloblastoma
SJMB011828	chr11	20414552	T	C	CNS_medulloblastoma
SJMB011828	chr18	1276034	G	A	CNS_medulloblastoma
SJMB011830	chr10	104377161	-	A	CNS_medulloblastoma
SJMB011830	chr10	59976071	G	A	CNS_medulloblastoma
SJMB011830	chr22	23523850	T	A	CNS_medulloblastoma
SJMB011830	chr15	43552661	G	A	CNS_medulloblastoma
SJMB011830	chr1	64058966	C	A	CNS_medulloblastoma
SJMB011830	chr5	41000926	C	A	CNS_medulloblastoma
SJMB011830	chr12	122845702	C	A	CNS_medulloblastoma
SJMB011830	chr7	106836368	C	T	CNS_medulloblastoma
SJMB011830	chr21	46911157	G	A	CNS_medulloblastoma
SJMB011830	chr11	12315362	C	A	CNS_medulloblastoma
SJMB011830	chr12	49441775	G	T	CNS_medulloblastoma
SJMB011830	chr6	150063707	C	A	CNS_medulloblastoma
SJMB011830	chr20	62421980	G	A	CNS_medulloblastoma
SJMB011830	chr15	40751242	C	A	CNS_medulloblastoma
SJMB011830	chr11	14536021	C	A	CNS_medulloblastoma
SJMB011830	chr3	42732489	C	A	CNS_medulloblastoma
SJMB011830	chr22	45691675	C	A	CNS_medulloblastoma
SJMB011830	chr20	31606472	C	A	CNS_medulloblastoma
SJMB011830	chr20	21687600	C	A	CNS_medulloblastoma
SJMB011830	chr7	150883500	C	A	CNS_medulloblastoma
SJMB011830	chr4	123167315	C	A	CNS_medulloblastoma
SJMB011830	chr7	288303	C	A	CNS_medulloblastoma
SJMB011830	chr6	56481926	C	A	CNS_medulloblastoma
SJMB011830	chr1	214814331	C	A	CNS_medulloblastoma
SJMB011830	chr8	11708370	C	A	CNS_medulloblastoma
SJMB011830	chr14	105172363	C	A	CNS_medulloblastoma
SJMB011830	chr19	45477715	C	A	CNS_medulloblastoma
SJMB011830	chr21	37650644	C	A	CNS_medulloblastoma
SJMB011830	chr9	5361098	G	T	CNS_medulloblastoma
SJMB011830	chr3	197541912	C	A	CNS_medulloblastoma
SJMB011830	chr22	50688400	C	A	CNS_medulloblastoma
SJMB011830	chr10	121557143	C	A	CNS_medulloblastoma
SJMB011830	chr20	4864308	C	A	CNS_medulloblastoma
SJMB011830	chr2	233028170	C	A	CNS_medulloblastoma
SJMB011830	chr17	45895656	C	A	CNS_medulloblastoma
SJMB011830	chr11	118406239	C	A	CNS_medulloblastoma
SJMB011830	chr3	148858215	C	A	CNS_medulloblastoma
SJMB011830	chr21	15352094	G	A	CNS_medulloblastoma
SJMB011830	chr16	310010	C	A	CNS_medulloblastoma
SJMB011830	chr1	1288569	C	A	CNS_medulloblastoma
SJMB011830	chr5	141325312	C	A	CNS_medulloblastoma
SJMB011830	chr9	139370792	C	A	CNS_medulloblastoma
SJMB011830	chr11	64606950	C	A	CNS_medulloblastoma
SJMB011830	chr16	70513590	C	A	CNS_medulloblastoma
SJMB011830	chr22	41226852	C	A	CNS_medulloblastoma
SJMB011830	chr11	62445559	C	A	CNS_medulloblastoma
SJMB011830	chr17	62493157	C	A	CNS_medulloblastoma
SJMB011830	chr16	4934282	C	A	CNS_medulloblastoma
SJMB011830	chr16	30995332	C	A	CNS_medulloblastoma
SJMB011830	chr19	43920036	C	A	CNS_medulloblastoma
SJMB011829	chr4	46099328	G	A	CNS_medulloblastoma
SJMB011829	chr2	10567053	C	T	CNS_medulloblastoma
SJMB011829	chr6	79707122	T	G	CNS_medulloblastoma
SJMB011829	chr3	36897637	C	A	CNS_medulloblastoma
SJMB011829	chrX	79286151	C	A	CNS_medulloblastoma
SJMB011829	chr20	60902421	C	A	CNS_medulloblastoma
SJMB011829	chr19	12807452	A	G	CNS_medulloblastoma
SJMB011829	chr2	111691190	C	T	CNS_medulloblastoma
SJMB011829	chr7	45697481	C	A	CNS_medulloblastoma
SJMB011829	chr2	25039659	C	A	CNS_medulloblastoma
SJMB011829	chr11	24750827	C	A	CNS_medulloblastoma
SJMB011829	chr1	33745776	C	A	CNS_medulloblastoma
SJMB011829	chr5	172518051	T	C	CNS_medulloblastoma
SJMB011829	chr5	14488366	C	A	CNS_medulloblastoma
SJMB011829	chr7	105187758	C	G	CNS_medulloblastoma
SJMB011829	chr19	8651052	G	T	CNS_medulloblastoma
SJMB011829	chr1	155035019	C	A	CNS_medulloblastoma
SJMB011829	chr19	11517167	G	A	CNS_medulloblastoma
SJMB011829	chr2	61118821	C	A	CNS_medulloblastoma
SJMB011829	chr3	49690628	C	A	CNS_medulloblastoma
SJMB011829	chr5	10650044	C	A	CNS_medulloblastoma
SJMB011829	chr5	11199639	C	A	CNS_medulloblastoma
SJMB011829	chr1	167096311	C	A	CNS_medulloblastoma
SJMB011829	chr19	23835954	T	A	CNS_medulloblastoma
SJMB011829	chr20	6031601	C	T	CNS_medulloblastoma
SJMB011829	chr7	5347757	C	A	CNS_medulloblastoma
SJMB011829	chr1	179562835	C	G	CNS_medulloblastoma
SJMB011829	chr15	85164354	G	A	CNS_medulloblastoma
SJMB011829	chr10	135123306	C	T	CNS_medulloblastoma
SJMB011829	chr3	196737618	C	T	CNS_medulloblastoma
SJMB011829	chr6	161807855	C	T	CNS_medulloblastoma
SJMB011829	chr9	116838890	C	A	CNS_medulloblastoma
SJMB011829	chrX	46521570	C	A	CNS_medulloblastoma
SJMB011829	chrX	48121199	A	T	CNS_medulloblastoma
SJMB011829	chr10	94714494	C	A	CNS_medulloblastoma
SJMB011829	chr18	29046556	G	T	CNS_medulloblastoma
SJMB011829	chr17	56386404	C	A	CNS_medulloblastoma
SJMB011829	chr17	46135950	C	A	CNS_medulloblastoma
SJMB011829	chr17	46247980	G	A	CNS_medulloblastoma
SJMB011829	chr17	4686188	C	A	CNS_medulloblastoma
SJMB011829	chr1	186277341	C	A	CNS_medulloblastoma
SJMB011829	chr11	65143925	C	A	CNS_medulloblastoma
SJMB011829	chr10	105963451	C	A	CNS_medulloblastoma
SJMB011829	chr6	106553036	C	A	CNS_medulloblastoma
SJMB011829	chr3	4699930	C	A	CNS_medulloblastoma
SJMB011829	chr17	10406145	G	A	CNS_medulloblastoma
SJMB011829	chr1	247835458	C	A	CNS_medulloblastoma
SJMB011829	chr6	79707140	C	A	CNS_medulloblastoma
SJMB011829	chr11	119230244	C	A	CNS_medulloblastoma
SJMB011829	chr14	101349957	C	A	CNS_medulloblastoma
SJMB011829	chr7	109600054	T	C	CNS_medulloblastoma
SJMB011829	chr16	66949972	C	A	CNS_medulloblastoma
SJMB011829	chr2	37594509	G	A	CNS_medulloblastoma
SJMB011829	chr14	33014819	C	A	CNS_medulloblastoma
SJMB011829	chr4	1803142	C	A	CNS_medulloblastoma
SJMB011829	chr17	42882999	C	A	CNS_medulloblastoma
SJMB011829	chr11	76371973	C	A	CNS_medulloblastoma
SJMB011829	chr6	44253730	C	A	CNS_medulloblastoma
SJMB011829	chr19	45476341	C	A	CNS_medulloblastoma
SJMB011829	chr13	50279748	C	A	CNS_medulloblastoma
SJMB011829	chr9	37020743	C	T	CNS_medulloblastoma
SJMB011829	chr7	105190556	C	T	CNS_medulloblastoma
