sample	cromosoma	start	ref	alt	cancer_type
SJEPD003_D	chr19	35790676	G	T	CNS_glioma
SJEPD003_D	chr6	38138729	C	G	CNS_glioma
SJEPD003_D	chr19	46717251	G	A	CNS_glioma
SJEPD003_D	chr11	65810554	G	A	CNS_glioma
SJEPD003_D	chr10	6627157	G	T	CNS_glioma
SJEPD003_D	chr19	56347722	C	T	CNS_glioma
SJEPD003_D	chr19	56539089	C	T	CNS_glioma
SJEPD003_D	chr19	48558276	G	A	CNS_glioma
SJEPD003_D	chr1	205056124	A	C	CNS_glioma
SJEPD003_D	chr14	77844677	G	C	CNS_glioma
SJEPD003_D	chr1	10238845	C	T	CNS_glioma
SJEPD003_D	chr19	4511001	T	-	CNS_glioma
SJEPD003_D	chrX	118603710	-	G	CNS_glioma
SJEPD003_D	chr2	179315737	GC	-	CNS_glioma
SJEPD003_D	chr18	44543101	-	GC	CNS_glioma
SJEPD003_D	chrX	44101459	A	-	CNS_glioma
SJEPD003_D	chr17	39553725	G	-	CNS_glioma
SJEPD003_D	chr17	7251718	G	-	CNS_glioma
SJEPD003_D	chr14	89629162	AGG	-	CNS_glioma
SJEPD003_D	chr15	90171914	C	-	CNS_glioma
SJEPD003_D	chr9	75355047	A	-	CNS_glioma
SJEPD003_D	chr11	102487565	T	-	CNS_glioma
SJEPD003_D	chr7	144098502	G	-	CNS_glioma
SJEPD003_D	chrX	54578347	AGA	-	CNS_glioma
SJEPD003_D	chrX	102004428	GAG	-	CNS_glioma
SJEPD003_D	chr17	39262156	-	ATGCTGCTGCCGCCC	CNS_glioma
SJEPD003_D	chr1	45298012	C	-	CNS_glioma
SJEPD003_D	chrX	92928168	TGC	-	CNS_glioma
SJEPD003_D	chr15	90190215	C	-	CNS_glioma
SJEPD003_D	chr4	3257712	GGC	-	CNS_glioma
SJEPD003_D	chr9	139840378	C	-	CNS_glioma
SJETV092_D	chr4	47525207	C	A	lymphoid_neoplasm
SJETV092_D	chr20	13782291	C	A	lymphoid_neoplasm
SJETV092_D	chr20	44803082	G	T	lymphoid_neoplasm
SJETV092_D	chr6	25726606	C	A	lymphoid_neoplasm
SJETV092_D	chr3	4687062	G	T	lymphoid_neoplasm
SJETV092_D	chr6	109837788	C	T	lymphoid_neoplasm
SJETV092_D	chr2	73717006	C	T	lymphoid_neoplasm
SJETV092_D	chr12	50350866	G	A	lymphoid_neoplasm
SJETV092_D	chr12	67703935	G	C	lymphoid_neoplasm
SJETV092_D	chr12	82751044	T	G	lymphoid_neoplasm
SJETV092_D	chr17	20484024	G	C	lymphoid_neoplasm
SJETV092_D	chr16	66978471	G	T	lymphoid_neoplasm
SJETV092_D	chr1	10521936	G	C	lymphoid_neoplasm
SJETV092_D	chr11	111895887	C	G	lymphoid_neoplasm
SJETV092_D	chr18	28937283	A	G	lymphoid_neoplasm
SJETV092_D	chr7	55273941	G	A	lymphoid_neoplasm
SJETV092_D	chr11	65769450	G	C	lymphoid_neoplasm
SJETV092_D	chr6	46133158	C	A	lymphoid_neoplasm
SJETV092_D	chr4	155525380	G	T	lymphoid_neoplasm
SJETV092_D	chr2	49210063	C	A	lymphoid_neoplasm
SJETV092_D	chr12	54333148	A	G	lymphoid_neoplasm
SJETV092_D	chr20	3732932	C	A	lymphoid_neoplasm
SJETV092_D	chr15	41313219	C	G	lymphoid_neoplasm
SJETV092_D	chr1	62702119	C	A	lymphoid_neoplasm
SJETV092_D	chr12	25380285	G	A	lymphoid_neoplasm
SJETV092_D	chr12	52841672	C	T	lymphoid_neoplasm
SJETV092_D	chr6	119501110	T	C	lymphoid_neoplasm
SJETV092_D	chr22	42195303	A	T	lymphoid_neoplasm
SJETV092_D	chr10	37891228	C	A	lymphoid_neoplasm
SJETV092_D	chr18	3215234	G	C	lymphoid_neoplasm
SJETV092_D	chr8	102381345	C	T	lymphoid_neoplasm
SJETV092_D	chr9	14087981	T	A	lymphoid_neoplasm
SJETV092_D	chr9	102609790	G	A	lymphoid_neoplasm
SJETV092_D	chr1	205683076	G	A	lymphoid_neoplasm
SJETV092_D	chr10	105639790	G	A	lymphoid_neoplasm
SJETV092_D	chr1	20235279	C	G	lymphoid_neoplasm
SJETV092_D	chr6	51771079	C	T	lymphoid_neoplasm
SJETV092_D	chr16	8942566	C	T	lymphoid_neoplasm
SJETV092_D	chr7	155493638	G	A	lymphoid_neoplasm
SJETV092_D	chr2	227729452	C	G	lymphoid_neoplasm
SJETV092_D	chr17	5329566	A	G	lymphoid_neoplasm
SJETV092_D	chr6	84418834	C	G	lymphoid_neoplasm
SJETV092_D	chr12	85430004	C	T	lymphoid_neoplasm
SJETV092_D	chr7	138992207	C	G	lymphoid_neoplasm
SJETV092_D	chr7	138992925	C	G	lymphoid_neoplasm
SJETV092_D	chr8	144332125	G	A	lymphoid_neoplasm
SJETV092_D	chr11	67051733	-	CCCCCCGGGCG	lymphoid_neoplasm
SJETV092_D	chr12	14650816	ACTGTGCC	-	lymphoid_neoplasm
SJETV092_D	chr2	227729453	-	GG	lymphoid_neoplasm
SJETV092_D	chr17	45234667	GTGTT	-	lymphoid_neoplasm
SJETV092_D	chr2	107084685	C	-	lymphoid_neoplasm
SJETV092_D	chr4	8398770	A	-	lymphoid_neoplasm
SJETV092_D	chr12	6128170	C	-	lymphoid_neoplasm
SJETV092_D	chr14	74824469	G	-	lymphoid_neoplasm
SJETV092_D	chr1	26514784	C	-	lymphoid_neoplasm
SJETV092_D	chr3	50655086	G	-	lymphoid_neoplasm
SJETV092_D	chr21	46276210	CAG	-	lymphoid_neoplasm
SJETV092_D	chr13	114542724	C	-	lymphoid_neoplasm
SJETV092_D	chr22	20922863	AGC	-	lymphoid_neoplasm
SJETV092_D	chr19	4491831	A	-	lymphoid_neoplasm
SJETV092_D	chr17	76128563	C	-	lymphoid_neoplasm
SJETV092_D	chr18	77475205	AGG	-	lymphoid_neoplasm
SJETV092_D	chr19	51961638	GCA	-	lymphoid_neoplasm
SJETV092_D	chr3	51696649	C	-	lymphoid_neoplasm
SJETV092_D	chr11	129780451	TGC	-	lymphoid_neoplasm
SJETV092_D	chr11	128840826	G	-	lymphoid_neoplasm
SJETV092_D	chr16	4827856	G	-	lymphoid_neoplasm
SJETV092_D	chr21	47545376	C	-	lymphoid_neoplasm
SJETV092_D	chr7	142562315	G	-	lymphoid_neoplasm
SJETV092_D	chr7	114271601	CAG	-	lymphoid_neoplasm
SJETV092_D	chr17	48148717	A	-	lymphoid_neoplasm
SJETV092_D	chr1	147091508	C	-	lymphoid_neoplasm
SJETV092_D	chr3	49051388	G	-	lymphoid_neoplasm
SJETV092_D	chr6	30569340	G	-	lymphoid_neoplasm
SJETV092_D	chr17	71281595	CCT	-	lymphoid_neoplasm
SJETV092_D	chr22	19373148	GCT	-	lymphoid_neoplasm
SJETV092_D	chr19	12812581	C	-	lymphoid_neoplasm
SJETV092_D	chr6	161560595	G	-	lymphoid_neoplasm
SJETV092_D	chr3	150127971	GCC	-	lymphoid_neoplasm
SJETV092_D	chr20	45174836	AGC	-	lymphoid_neoplasm
SJETV093_D	chr5	80655733	C	A	lymphoid_neoplasm
SJETV093_D	chr14	33291411	G	T	lymphoid_neoplasm
SJETV093_D	chr19	51986328	C	A	lymphoid_neoplasm
SJETV093_D	chr10	11372450	C	A	lymphoid_neoplasm
SJETV093_D	chr4	10492229	A	T	lymphoid_neoplasm
SJETV093_D	chr17	40761371	C	A	lymphoid_neoplasm
SJETV093_D	chr7	128498454	G	T	lymphoid_neoplasm
SJETV093_D	chr2	231973256	G	T	lymphoid_neoplasm
SJETV093_D	chr9	27016977	C	T	lymphoid_neoplasm
SJETV093_D	chr12	39726120	C	A	lymphoid_neoplasm
SJETV093_D	chr19	40172070	C	A	lymphoid_neoplasm
SJETV093_D	chr9	36669401	G	T	lymphoid_neoplasm
SJETV093_D	chr1	186370411	C	A	lymphoid_neoplasm
SJETV093_D	chr9	107457578	G	T	lymphoid_neoplasm
SJETV093_D	chr11	59425020	G	T	lymphoid_neoplasm
SJETV093_D	chr4	120419764	G	T	lymphoid_neoplasm
SJETV093_D	chr7	47927611	G	T	lymphoid_neoplasm
SJETV093_D	chr3	38945406	G	T	lymphoid_neoplasm
SJETV093_D	chr3	142776692	A	G	lymphoid_neoplasm
SJETV093_D	chr1	119428075	A	T	lymphoid_neoplasm
SJETV093_D	chr7	1595947	G	T	lymphoid_neoplasm
SJETV093_D	chr7	141176941	C	T	lymphoid_neoplasm
SJETV093_D	chr12	8543314	C	T	lymphoid_neoplasm
SJETV093_D	chr6	36076881	A	G	lymphoid_neoplasm
SJETV093_D	chr12	43847848	C	T	lymphoid_neoplasm
SJETV093_D	chr10	23326380	G	A	lymphoid_neoplasm
SJETV093_D	chr6	133090847	G	T	lymphoid_neoplasm
SJETV093_D	chr6	118887317	G	T	lymphoid_neoplasm
SJETV093_D	chr6	75884827	G	A	lymphoid_neoplasm
SJETV093_D	chr2	228178960	G	C	lymphoid_neoplasm
SJETV093_D	chr13	60240738	C	T	lymphoid_neoplasm
SJETV093_D	chr5	174869160	C	T	lymphoid_neoplasm
SJETV093_D	chr19	40324702	C	G	lymphoid_neoplasm
SJETV093_D	chr14	29237338	G	T	lymphoid_neoplasm
SJETV093_D	chr6	55192339	G	A	lymphoid_neoplasm
SJETV093_D	chr7	124386340	C	T	lymphoid_neoplasm
SJETV093_D	chr1	22172974	G	A	lymphoid_neoplasm
SJETV093_D	chr2	191235847	T	C	lymphoid_neoplasm
SJETV093_D	chr6	154520992	C	T	lymphoid_neoplasm
SJETV093_D	chrX	44870231	G	T	lymphoid_neoplasm
SJETV093_D	chr4	57193889	C	T	lymphoid_neoplasm
SJETV093_D	chr19	10664761	G	C	lymphoid_neoplasm
SJETV093_D	chr16	34714654	C	T	lymphoid_neoplasm
SJETV093_D	chr15	98417418	G	A	lymphoid_neoplasm
SJETV093_D	chr2	140989507	G	A	lymphoid_neoplasm
SJETV093_D	chr1	53732158	G	A	lymphoid_neoplasm
SJETV093_D	chr5	112359252	A	G	lymphoid_neoplasm
SJETV093_D	chr14	23902827	C	T	lymphoid_neoplasm
SJETV093_D	chr1	115258747	C	T	lymphoid_neoplasm
SJETV093_D	chr9	125512888	G	T	lymphoid_neoplasm
SJETV093_D	chr22	21369580	C	T	lymphoid_neoplasm
SJETV093_D	chr9	119161624	G	A	lymphoid_neoplasm
SJETV093_D	chr7	139763232	T	C	lymphoid_neoplasm
SJETV093_D	chr4	134071276	T	G	lymphoid_neoplasm
SJETV093_D	chr12	20766407	G	A	lymphoid_neoplasm
SJETV093_D	chr4	87655928	G	A	lymphoid_neoplasm
SJETV093_D	chr5	147261015	C	A	lymphoid_neoplasm
SJETV093_D	chr3	170185161	C	A	lymphoid_neoplasm
SJETV093_D	chr12	20848566	C	G	lymphoid_neoplasm
SJETV093_D	chr17	33591401	G	A	lymphoid_neoplasm
SJETV093_D	chr17	36704804	C	T	lymphoid_neoplasm
SJETV093_D	chr5	65454692	A	G	lymphoid_neoplasm
SJETV093_D	chr17	56659020	G	A	lymphoid_neoplasm
SJETV093_D	chr7	11419318	T	A	lymphoid_neoplasm
SJETV093_D	chr21	10914452	C	A	lymphoid_neoplasm
SJETV093_D	chr6	30080376	C	T	lymphoid_neoplasm
SJETV093_D	chr19	35175639	G	A	lymphoid_neoplasm
SJETV093_D	chr19	35176444	G	C	lymphoid_neoplasm
SJETV093_D	chr19	35176537	G	C	lymphoid_neoplasm
SJETV093_D	chr19	35176931	G	A	lymphoid_neoplasm
SJETV093_D	chr12	56118156	A	-	lymphoid_neoplasm
SJETV093_D	chr12	49319176	CAG	-	lymphoid_neoplasm
SJETV093_D	chr9	33395133	-	ATCTTCCTCGCA	lymphoid_neoplasm
SJETV093_D	chr1	156761543	C	-	lymphoid_neoplasm
SJETV093_D	chr14	100795729	G	-	lymphoid_neoplasm
SJETV093_D	chr7	136938341	AC	-	lymphoid_neoplasm
SJETV093_D	chr17	17394718	AGC	-	lymphoid_neoplasm
SJETV093_D	chr16	57486743	GGA	-	lymphoid_neoplasm
SJETV093_D	chr5	131530676	-	T	lymphoid_neoplasm
SJETV093_D	chr12	57603947	C	-	lymphoid_neoplasm
SJETV093_D	chr19	11546965	-	GCT	lymphoid_neoplasm
SJETV093_D	chr10	102762418	G	-	lymphoid_neoplasm
SJETV093_D	chr10	103345142	AGG	-	lymphoid_neoplasm
SJETV093_D	chr21	46047211	C	-	lymphoid_neoplasm
SJETV093_D	chr5	6755024	CA	-	lymphoid_neoplasm
SJETV093_D	chr9	140327676	G	-	lymphoid_neoplasm
SJETV093_D	chr5	140474597	A	-	lymphoid_neoplasm
SJETV093_D	chr10	81070799	CTC	-	lymphoid_neoplasm
SJETV093_D	chr19	1578388	TCC	-	lymphoid_neoplasm
SJETV093_D	chr16	15729993	ACC	-	lymphoid_neoplasm
SJETV093_D	chr11	19901488	GCA	-	lymphoid_neoplasm
SJETV093_D	chr10	46965894	G	-	lymphoid_neoplasm
SJETV093_D	chr19	4488757	G	-	lymphoid_neoplasm
SJETV093_D	chr3	138121046	AAG	-	lymphoid_neoplasm
SJETV093_D	chr1	22211648	G	-	lymphoid_neoplasm
SJETV093_D	chr17	60757572	CGA	-	lymphoid_neoplasm
SJETV093_D	chr19	3633466	G	-	lymphoid_neoplasm
SJETV093_D	chr17	36887673	GT	-	lymphoid_neoplasm
SJETV093_D	chr20	30584939	C	-	lymphoid_neoplasm
SJETV093_D	chr19	54675761	CTC	-	lymphoid_neoplasm
SJETV093_D	chr10	390986	GCC	-	lymphoid_neoplasm
SJETV093_D	chr11	533314	G	-	lymphoid_neoplasm
SJETV093_D	chr10	75560471	C	-	lymphoid_neoplasm
SJETV093_D	chr14	74824469	G	-	lymphoid_neoplasm
SJETV093_D	chr12	55039046	T	-	lymphoid_neoplasm
SJETV093_D	chr9	136226890	GAG	-	lymphoid_neoplasm
SJETV093_D	chr19	498676	AGG	-	lymphoid_neoplasm
SJETV093_D	chr1	981868	C	-	lymphoid_neoplasm
SJETV093_D	chr16	4796966	AGG	-	lymphoid_neoplasm
SJETV093_D	chr9	139887833	C	-	lymphoid_neoplasm
SJEWS001303_D1	chr1	36788669	C	A	bone
SJEWS001303_D1	chr16	70972620	G	C	bone
SJEWS001303_D1	chr16	71101270	C	T	bone
SJEWS001303_D1	chr15	40268998	G	C	bone
SJEWS001303_D1	chr1	210026944	C	T	bone
SJEWS001303_D1	chr19	11660849	G	A	bone
SJEWS001303_D1	chr12	111787051	C	T	bone
SJEWS001303_D1	chr19	8180466	C	T	bone
SJEWS001303_D1	chr20	34170034	C	T	bone
SJEWS001303_D1	chr1	152283060	G	T	bone
SJEWS001303_D1	chr7	27203369	C	G	bone
SJEWS001303_D1	chr12	9394095	G	A	bone
SJEWS001303_D1	chr2	33413865	G	A	bone
SJEWS001303_D1	chr11	25102829	C	A	bone
SJEWS001303_D1	chr3	132535584	A	T	bone
SJEWS001303_D1	chr5	140202972	G	A	bone
SJEWS001303_D1	chr1	203452596	G	A	bone
SJEWS001303_D1	chr15	33923432	C	T	bone
SJEWS001303_D1	chr2	219513853	C	T	bone
SJEWS001303_D1	chr5	121488396	T	A	bone
SJEWS001303_D1	chr19	53013867	G	A	bone
SJEWS001303_D1	chrX	123184135	-	A	bone
SJEWS001303_D1	chr4	1388614	CCGCCTGCTCACGTGCCCATGTGGAGTGC	-	bone
SJEWS001303_D1	chr1	204168382	A	-	bone
SJEWS001303_D1	chr8	146033453	GCT	-	bone
SJEWS001303_D1	chrX	72433687	CTC	-	bone
SJEWS001303_D1	chr14	24803771	GCA	-	bone
SJEWS001303_D1	chr2	114257068	-	GGC	bone
SJEWS001303_D1	chr14	52481924	G	-	bone
SJEWS001303_D1	chrX	155239821	GCA	-	bone
SJEWS001303_D1	chr12	49444938	G	-	bone
SJEWS001303_D1	chr5	140032606	AG	-	bone
SJEWS001303_D1	chrX	11316747	C	-	bone
SJEWS001303_D1	chr11	111904190	A	-	bone
SJEWS001303_D1	chr19	49657913	CTC	-	bone
SJEWS001303_D1	chr7	100482053	GGA	-	bone
SJEWS001303_D1	chr15	81592179	TCC	-	bone
SJEWS001303_D1	chr14	36005063	T	-	bone
SJEWS001303_D1	chr9	124536644	C	-	bone
SJEWS001303_D1	chr15	29346369	GGA	-	bone
SJEWS001303_D1	chr4	5810002	AGC	-	bone
SJEWS001303_D1	chr1	204135386	CAG	-	bone
SJEWS001303_D1	chr6	144224207	A	-	bone
SJEWS001303_D1	chr6	16279119	-	ATC	bone
SJHGG001_A	chr4	25419825	G	T	CNS_glioma
SJHGG001_A	chr15	40916146	G	T	CNS_glioma
SJHGG001_A	chr1	207534066	A	G	CNS_glioma
SJHGG001_A	chr1	241795744	G	T	CNS_glioma
SJHGG001_A	chr17	57754331	C	A	CNS_glioma
SJHGG001_A	chr6	75794056	G	T	CNS_glioma
SJHGG001_A	chr22	32215161	C	A	CNS_glioma
SJHGG001_A	chr21	34953805	G	T	CNS_glioma
SJHGG001_A	chr8	127568102	A	C	CNS_glioma
SJHGG001_A	chr22	29707567	A	T	CNS_glioma
SJHGG001_A	chr17	63049649	C	A	CNS_glioma
SJHGG001_A	chr15	58009517	C	T	CNS_glioma
SJHGG001_A	chr6	158617870	C	T	CNS_glioma
SJHGG001_A	chr17	65174928	T	A	CNS_glioma
SJHGG001_A	chr16	70917855	A	G	CNS_glioma
SJHGG001_A	chr16	71098649	T	C	CNS_glioma
SJHGG001_A	chr2	227598606	C	A	CNS_glioma
SJHGG001_A	chr19	39087095	G	T	CNS_glioma
SJHGG001_A	chrX	99549967	C	T	CNS_glioma
SJHGG001_A	chrX	19364640	G	T	CNS_glioma
SJHGG001_A	chr12	70911432	C	A	CNS_glioma
SJHGG001_A	chr18	29693829	C	A	CNS_glioma
SJHGG001_A	chr9	92002473	C	A	CNS_glioma
SJHGG001_A	chr4	52889804	C	A	CNS_glioma
SJHGG001_A	chr9	113209331	C	A	CNS_glioma
SJHGG001_A	chr5	177021259	G	T	CNS_glioma
SJHGG001_A	chr9	139902197	C	T	CNS_glioma
SJHGG001_A	chr16	46504183	G	T	CNS_glioma
SJHGG001_A	chr1	180915116	A	C	CNS_glioma
SJHGG001_A	chrX	119570939	A	C	CNS_glioma
SJHGG001_A	chr4	73013287	C	T	CNS_glioma
SJHGG001_A	chr19	8842331	G	A	CNS_glioma
SJHGG001_A	chr19	43512045	A	G	CNS_glioma
SJHGG001_A	chrX	135961560	C	G	CNS_glioma
SJHGG001_A	chr6	7247248	T	C	CNS_glioma
SJHGG001_A	chr6	45517805	G	A	CNS_glioma
SJHGG001_A	chr2	200135893	G	A	CNS_glioma
SJHGG001_A	chr22	30189622	G	A	CNS_glioma
SJHGG001_A	chr20	31022592	C	T	CNS_glioma
SJHGG001_A	chr5	70861059	G	A	CNS_glioma
SJHGG001_A	chr13	100544748	G	A	CNS_glioma
SJHGG001_A	chr2	208463134	C	T	CNS_glioma
SJHGG001_A	chrX	31138910	A	G	CNS_glioma
SJHGG001_A	chr10	104111070	A	T	CNS_glioma
SJHGG001_A	chr10	125434452	G	A	CNS_glioma
SJHGG001_A	chr1	226252135	A	T	CNS_glioma
SJHGG001_A	chr10	100218755	G	A	CNS_glioma
SJHGG001_A	chr21	33375848	C	T	CNS_glioma
SJHGG001_A	chr2	206858628	C	A	CNS_glioma
SJHGG001_A	chr13	70281865	A	G	CNS_glioma
SJHGG001_A	chr2	80531327	G	A	CNS_glioma
SJHGG001_A	chr14	71197173	G	A	CNS_glioma
SJHGG001_A	chr5	151784174	G	T	CNS_glioma
SJHGG001_A	chr20	1460599	C	T	CNS_glioma
SJHGG001_A	chr1	234459615	G	C	CNS_glioma
SJHGG001_A	chr17	7577121	G	A	CNS_glioma
SJHGG001_A	chr19	36706106	C	T	CNS_glioma
SJHGG001_A	chr19	56703223	C	T	CNS_glioma
SJHGG001_A	chrX	54836258	AGGT	-	CNS_glioma
SJHGG001_A	chr3	18435976	CGTGCAA	-	CNS_glioma
SJHGG001_A	chr7	76911890	G	-	CNS_glioma
SJHGG001_A	chr12	26868355	A	-	CNS_glioma
SJHGG001_A	chr12	73014978	C	-	CNS_glioma
SJHGG001_A	chr2	220073727	GCACA	-	CNS_glioma
SJHGG001_A	chr22	36696961	TCC	-	CNS_glioma
SJHGG001_A	chr7	144098502	G	-	CNS_glioma
SJHGG001_A	chr17	79766941	TGC	-	CNS_glioma
SJHGG001_A	chrX	109561216	GGA	-	CNS_glioma
SJHGG001_A	chr9	139840378	C	-	CNS_glioma
SJHGG003_A	chr5	178699955	T	G	CNS_glioma
SJHGG003_A	chr6	109837099	G	T	CNS_glioma
SJHGG003_A	chr1	159170866	C	T	CNS_glioma
SJHGG003_A	chr5	66479218	T	A	CNS_glioma
SJHGG003_A	chr22	19220118	C	A	CNS_glioma
SJHGG003_A	chr6	74062832	G	A	CNS_glioma
SJHGG003_A	chr6	119281224	G	T	CNS_glioma
SJHGG003_A	chr19	54866138	A	T	CNS_glioma
SJHGG003_A	chr17	41455080	C	A	CNS_glioma
SJHGG003_A	chr14	65550989	G	T	CNS_glioma
SJHGG003_A	chr11	132526985	G	T	CNS_glioma
SJHGG003_A	chr1	64644675	G	T	CNS_glioma
SJHGG003_A	chrX	74494122	G	T	CNS_glioma
SJHGG003_A	chr1	1421916	T	C	CNS_glioma
SJHGG003_A	chr6	136610937	C	T	CNS_glioma
SJHGG003_A	chr11	119178174	G	T	CNS_glioma
SJHGG003_A	chr1	43199937	C	A	CNS_glioma
SJHGG003_A	chr9	34557988	G	T	CNS_glioma
SJHGG003_A	chr7	148106477	C	G	CNS_glioma
SJHGG003_A	chr19	6466722	C	T	CNS_glioma
SJHGG003_A	chr11	17396835	T	C	CNS_glioma
SJHGG003_A	chr6	43418746	C	A	CNS_glioma
SJHGG003_A	chr16	3705524	G	T	CNS_glioma
SJHGG003_A	chr15	76029910	G	T	CNS_glioma
SJHGG003_A	chr10	128974598	G	A	CNS_glioma
SJHGG003_A	chr1	1263653	C	A	CNS_glioma
SJHGG003_A	chr10	134540416	G	T	CNS_glioma
SJHGG003_A	chr3	197409334	C	A	CNS_glioma
SJHGG003_A	chr1	109746985	A	C	CNS_glioma
SJHGG003_A	chr11	66029654	C	A	CNS_glioma
SJHGG003_A	chr11	71238745	C	A	CNS_glioma
SJHGG003_A	chr14	56104089	T	C	CNS_glioma
SJHGG003_A	chr20	18550131	A	T	CNS_glioma
SJHGG003_A	chr11	76853853	G	T	CNS_glioma
SJHGG003_A	chr5	141336088	C	A	CNS_glioma
SJHGG003_A	chr5	148746959	G	T	CNS_glioma
SJHGG003_A	chr21	46686849	C	A	CNS_glioma
SJHGG003_A	chr7	142459667	G	A	CNS_glioma
SJHGG003_A	chr9	37917480	G	T	CNS_glioma
SJHGG003_A	chr7	76019663	G	T	CNS_glioma
SJHGG003_A	chr17	5037195	G	A	CNS_glioma
SJHGG003_A	chr4	10090350	C	A	CNS_glioma
SJHGG003_A	chr13	21949180	G	T	CNS_glioma
SJHGG003_A	chr3	75790427	C	T	CNS_glioma
SJHGG003_A	chr3	75790448	T	C	CNS_glioma
SJHGG003_A	chr16	75142828	C	A	CNS_glioma
SJHGG003_A	chr4	73280522	A	G	CNS_glioma
SJHGG003_A	chr1	159043177	C	T	CNS_glioma
SJHGG003_A	chr1	70766514	G	A	CNS_glioma
SJHGG003_A	chr5	55407600	A	G	CNS_glioma
SJHGG003_A	chr12	6030365	G	A	CNS_glioma
SJHGG003_A	chr19	17444017	G	A	CNS_glioma
SJHGG003_A	chr9	72045478	A	T	CNS_glioma
SJHGG003_A	chr19	45434272	G	C	CNS_glioma
SJHGG003_A	chr18	24433123	G	A	CNS_glioma
SJHGG003_A	chr20	47652714	C	T	CNS_glioma
SJHGG003_A	chr8	62538785	G	A	CNS_glioma
SJHGG003_A	chr11	108115753	G	T	CNS_glioma
SJHGG003_A	chr19	19764812	G	A	CNS_glioma
SJHGG003_A	chr3	194180258	T	C	CNS_glioma
SJHGG003_A	chr12	111948362	T	C	CNS_glioma
SJHGG003_A	chr9	96715075	A	G	CNS_glioma
SJHGG003_A	chr19	49311281	G	A	CNS_glioma
SJHGG003_A	chrX	129139269	G	A	CNS_glioma
SJHGG003_A	chr4	81967383	G	T	CNS_glioma
SJHGG003_A	chr10	11913883	A	G	CNS_glioma
SJHGG003_A	chr11	93495162	A	G	CNS_glioma
SJHGG003_A	chr19	3611214	G	A	CNS_glioma
SJHGG003_A	chr19	1014187	T	G	CNS_glioma
SJHGG003_A	chr1	67558384	C	A	CNS_glioma
SJHGG003_A	chr1	47137583	G	A	CNS_glioma
SJHGG003_A	chr1	34667690	G	A	CNS_glioma
SJHGG003_A	chr20	35240867	C	T	CNS_glioma
SJHGG003_A	chr2	200790688	G	A	CNS_glioma
SJHGG003_A	chr9	140175142	G	A	CNS_glioma
SJHGG003_A	chr9	86554535	C	T	CNS_glioma
SJHGG003_A	chr16	24267050	T	C	CNS_glioma
SJHGG003_A	chr19	54416214	G	A	CNS_glioma
SJHGG003_A	chr3	12844986	G	T	CNS_glioma
SJHGG003_A	chr19	39229259	C	A	CNS_glioma
SJHGG003_A	chr20	55021061	A	T	CNS_glioma
SJHGG003_A	chr16	57546427	C	T	CNS_glioma
SJHGG003_A	chr11	27360360	C	A	CNS_glioma
SJHGG003_A	chr11	60618103	A	G	CNS_glioma
SJHGG003_A	chr11	69466275	A	G	CNS_glioma
SJHGG003_A	chr17	33288274	A	G	CNS_glioma
SJHGG003_A	chr16	28950295	G	A	CNS_glioma
SJHGG003_A	chr20	3783628	C	T	CNS_glioma
SJHGG003_A	chr14	103410386	G	A	CNS_glioma
SJHGG003_A	chr16	64981225	C	T	CNS_glioma
SJHGG003_A	chr16	80642108	G	A	CNS_glioma
SJHGG003_A	chr22	17619184	C	T	CNS_glioma
SJHGG003_A	chr2	182402525	A	T	CNS_glioma
SJHGG003_A	chr12	6696982	C	T	CNS_glioma
SJHGG003_A	chr2	101009200	C	T	CNS_glioma
SJHGG003_A	chr16	66600618	C	T	CNS_glioma
SJHGG003_A	chr5	79025342	T	C	CNS_glioma
SJHGG003_A	chr5	79025630	A	G	CNS_glioma
SJHGG003_A	chr16	58572139	A	G	CNS_glioma
SJHGG003_A	chr17	71197411	A	G	CNS_glioma
SJHGG003_A	chr6	70878546	G	T	CNS_glioma
SJHGG003_A	chr6	70917236	T	G	CNS_glioma
SJHGG003_A	chr6	70917239	G	T	CNS_glioma
SJHGG003_A	chr6	70917244	T	G	CNS_glioma
SJHGG003_A	chr17	48271525	C	T	CNS_glioma
SJHGG003_A	chr7	1006935	G	A	CNS_glioma
SJHGG003_A	chr1	17297260	G	T	CNS_glioma
SJHGG003_A	chr11	1774534	G	A	CNS_glioma
SJHGG003_A	chr10	16955916	C	T	CNS_glioma
SJHGG003_A	chr19	41712337	G	A	CNS_glioma
SJHGG003_A	chr5	176884247	A	T	CNS_glioma
SJHGG003_A	chr4	155411235	G	C	CNS_glioma
SJHGG003_A	chr13	36413279	G	A	CNS_glioma
SJHGG003_A	chr6	49976868	T	C	CNS_glioma
SJHGG003_A	chr6	49976871	T	A	CNS_glioma
SJHGG003_A	chr11	71146096	C	T	CNS_glioma
SJHGG003_A	chr10	12164781	C	T	CNS_glioma
SJHGG003_A	chr11	6524107	A	G	CNS_glioma
SJHGG003_A	chr3	183873548	A	G	CNS_glioma
SJHGG003_A	chr16	66783105	C	T	CNS_glioma
SJHGG003_A	chr1	184662072	T	C	CNS_glioma
SJHGG003_A	chr6	12296463	G	T	CNS_glioma
SJHGG003_A	chr5	38465255	G	A	CNS_glioma
SJHGG003_A	chr9	140672470	A	G	CNS_glioma
SJHGG003_A	chr12	53434260	C	T	CNS_glioma
SJHGG003_A	chr3	170610406	C	A	CNS_glioma
SJHGG003_A	chr8	28047595	A	T	CNS_glioma
SJHGG003_A	chr19	46124461	G	A	CNS_glioma
SJHGG003_A	chr19	48832621	C	T	CNS_glioma
SJHGG003_A	chr5	73932169	C	T	CNS_glioma
SJHGG003_A	chr22	41573817	C	T	CNS_glioma
SJHGG003_A	chr4	66361200	A	G	CNS_glioma
SJHGG003_A	chr6	93951141	A	G	CNS_glioma
SJHGG003_A	chr3	184298235	C	T	CNS_glioma
SJHGG003_A	chr1	220160498	A	G	CNS_glioma
SJHGG003_A	chr11	44219445	G	A	CNS_glioma
SJHGG003_A	chr13	113803629	C	T	CNS_glioma
SJHGG003_A	chr5	175934072	A	T	CNS_glioma
SJHGG003_A	chr8	144808543	C	T	CNS_glioma
SJHGG003_A	chr9	97355947	T	C	CNS_glioma
SJHGG003_A	chr12	133102311	C	G	CNS_glioma
SJHGG003_A	chr9	37541443	C	T	CNS_glioma
SJHGG003_A	chr3	14862136	G	A	CNS_glioma
SJHGG003_A	chr4	81211645	C	A	CNS_glioma
SJHGG003_A	chr17	17119806	G	A	CNS_glioma
SJHGG003_A	chr1	213037219	A	G	CNS_glioma
SJHGG003_A	chr3	172080533	C	G	CNS_glioma
SJHGG003_A	chr7	4806405	C	T	CNS_glioma
SJHGG003_A	chr7	4807515	G	A	CNS_glioma
SJHGG003_A	chr9	108296863	A	G	CNS_glioma
SJHGG003_A	chr21	47558787	G	T	CNS_glioma
SJHGG003_A	chr19	3534485	G	A	CNS_glioma
SJHGG003_A	chr4	46039684	A	G	CNS_glioma
SJHGG003_A	chr9	74867003	G	A	CNS_glioma
SJHGG003_A	chr1	118430396	A	C	CNS_glioma
SJHGG003_A	chr5	154268935	G	T	CNS_glioma
SJHGG003_A	chr6	16295580	G	A	CNS_glioma
SJHGG003_A	chr11	64055232	C	T	CNS_glioma
SJHGG003_A	chr7	74564098	C	T	CNS_glioma
SJHGG003_A	chr3	120363287	G	A	CNS_glioma
SJHGG003_A	chr19	37855134	T	C	CNS_glioma
SJHGG003_A	chr21	38309069	G	A	CNS_glioma
SJHGG003_A	chr1	79128453	C	T	CNS_glioma
SJHGG003_A	chr1	159907618	C	T	CNS_glioma
SJHGG003_A	chr2	242667171	A	G	CNS_glioma
SJHGG003_A	chr10	121586986	G	A	CNS_glioma
SJHGG003_A	chr19	50167858	C	A	CNS_glioma
SJHGG003_A	chr19	44093363	C	T	CNS_glioma
SJHGG003_A	chr19	44097155	C	T	CNS_glioma
SJHGG003_A	chr13	102250494	A	G	CNS_glioma
SJHGG003_A	chr17	39911582	C	T	CNS_glioma
SJHGG003_A	chr11	105923879	T	C	CNS_glioma
SJHGG003_A	chr11	17797624	C	A	CNS_glioma
SJHGG003_A	chr2	155711542	G	C	CNS_glioma
SJHGG003_A	chrX	53223862	C	T	CNS_glioma
SJHGG003_A	chr10	24836241	T	C	CNS_glioma
SJHGG003_A	chr3	128712111	C	T	CNS_glioma
SJHGG003_A	chr20	36845832	C	A	CNS_glioma
SJHGG003_A	chr20	16485134	A	G	CNS_glioma
SJHGG003_A	chr1	241755290	G	C	CNS_glioma
SJHGG003_A	chr2	211302452	C	T	CNS_glioma
SJHGG003_A	chr22	33670514	G	A	CNS_glioma
SJHGG003_A	chr22	30637979	G	A	CNS_glioma
SJHGG003_A	chr14	98152768	G	A	CNS_glioma
SJHGG003_A	chr1	2282528	C	A	CNS_glioma
SJHGG003_A	chr7	128511800	G	A	CNS_glioma
SJHGG003_A	chr12	54473085	T	C	CNS_glioma
SJHGG003_A	chr15	29033825	G	A	CNS_glioma
SJHGG003_A	chr9	99839449	C	T	CNS_glioma
SJHGG003_A	chr10	30658543	C	T	CNS_glioma
SJHGG003_A	chr19	34718565	T	A	CNS_glioma
SJHGG003_A	chr1	39775943	C	T	CNS_glioma
SJHGG003_A	chr6	161519427	G	A	CNS_glioma
SJHGG003_A	chr1	206905737	C	T	CNS_glioma
SJHGG003_A	chr18	48474389	G	A	CNS_glioma
SJHGG003_A	chr22	20937202	G	A	CNS_glioma
SJHGG003_A	chr19	50332236	G	A	CNS_glioma
SJHGG003_A	chr15	90321965	A	C	CNS_glioma
SJHGG003_A	chr1	12072169	G	A	CNS_glioma
SJHGG003_A	chr3	158547210	G	A	CNS_glioma
SJHGG003_A	chr2	99237145	A	G	CNS_glioma
SJHGG003_A	chr11	12229576	G	A	CNS_glioma
SJHGG003_A	chr18	33484885	C	A	CNS_glioma
SJHGG003_A	chr12	122628744	G	T	CNS_glioma
SJHGG003_A	chr16	77233098	A	G	CNS_glioma
SJHGG003_A	chr17	56357737	G	A	CNS_glioma
SJHGG003_A	chr1	156707140	A	G	CNS_glioma
SJHGG003_A	chr6	24424310	G	T	CNS_glioma
SJHGG003_A	chr11	60535050	C	T	CNS_glioma
SJHGG003_A	chr11	60059846	A	G	CNS_glioma
SJHGG003_A	chr3	49940837	G	T	CNS_glioma
SJHGG003_A	chr21	42780165	C	T	CNS_glioma
SJHGG003_A	chr16	46764545	A	G	CNS_glioma
SJHGG003_A	chr11	113145995	C	T	CNS_glioma
SJHGG003_A	chr18	2585137	C	T	CNS_glioma
SJHGG003_A	chr2	152467054	C	A	CNS_glioma
SJHGG003_A	chr2	152495818	T	C	CNS_glioma
SJHGG003_A	chr17	7231067	C	T	CNS_glioma
SJHGG003_A	chr2	182541470	G	A	CNS_glioma
SJHGG003_A	chr2	182545303	G	A	CNS_glioma
SJHGG003_A	chr14	24843013	G	A	CNS_glioma
SJHGG003_A	chr5	36971044	C	A	CNS_glioma
SJHGG003_A	chr8	23536621	G	A	CNS_glioma
SJHGG003_A	chr7	30464521	A	G	CNS_glioma
SJHGG003_A	chr12	117651990	G	A	CNS_glioma
SJHGG003_A	chr9	87636881	A	G	CNS_glioma
SJHGG003_A	chr7	135276194	T	C	CNS_glioma
SJHGG003_A	chr17	47660276	A	G	CNS_glioma
SJHGG003_A	chr12	113382382	C	T	CNS_glioma
SJHGG003_A	chr10	105640538	G	A	CNS_glioma
SJHGG003_A	chr1	228538598	G	A	CNS_glioma
SJHGG003_A	chr15	76017485	C	T	CNS_glioma
SJHGG003_A	chr6	29408484	C	T	CNS_glioma
SJHGG003_A	chr5	180582782	G	A	CNS_glioma
SJHGG003_A	chr12	48919779	G	A	CNS_glioma
SJHGG003_A	chr20	16731988	G	A	CNS_glioma
SJHGG003_A	chr3	16306721	A	G	CNS_glioma
SJHGG003_A	chr1	17563957	C	T	CNS_glioma
SJHGG003_A	chr22	31722414	G	A	CNS_glioma
SJHGG003_A	chr5	141324734	T	A	CNS_glioma
SJHGG003_A	chr5	141336976	G	A	CNS_glioma
SJHGG003_A	chr19	10572214	C	T	CNS_glioma
SJHGG003_A	chr15	85657259	C	A	CNS_glioma
SJHGG003_A	chr4	55133559	A	G	CNS_glioma
SJHGG003_A	chr2	216903841	T	C	CNS_glioma
SJHGG003_A	chr19	18474896	T	G	CNS_glioma
SJHGG003_A	chr1	28800182	A	G	CNS_glioma
SJHGG003_A	chr11	45953888	C	T	CNS_glioma
SJHGG003_A	chr1	120286528	C	T	CNS_glioma
SJHGG003_A	chr3	138417835	G	A	CNS_glioma
SJHGG003_A	chr22	32021968	C	T	CNS_glioma
SJHGG003_A	chr19	14562802	C	T	CNS_glioma
SJHGG003_A	chr12	33003690	T	C	CNS_glioma
SJHGG003_A	chr15	42285035	C	T	CNS_glioma
SJHGG003_A	chr2	160804035	C	A	CNS_glioma
SJHGG003_A	chr7	131814112	G	A	CNS_glioma
SJHGG003_A	chr19	50912061	G	A	CNS_glioma
SJHGG003_A	chr12	106848366	A	C	CNS_glioma
SJHGG003_A	chr14	60759507	C	T	CNS_glioma
SJHGG003_A	chr11	64011998	G	A	CNS_glioma
SJHGG003_A	chr1	12856502	A	G	CNS_glioma
SJHGG003_A	chr17	74328471	T	A	CNS_glioma
SJHGG003_A	chr5	139219716	C	T	CNS_glioma
SJHGG003_A	chr18	23773067	A	G	CNS_glioma
SJHGG003_A	chr3	47452797	G	T	CNS_glioma
SJHGG003_A	chr1	44019312	C	T	CNS_glioma
SJHGG003_A	chr8	30889689	G	A	CNS_glioma
SJHGG003_A	chr6	163987756	C	T	CNS_glioma
SJHGG003_A	chr11	36600145	T	C	CNS_glioma
SJHGG003_A	chr4	160260313	C	T	CNS_glioma
SJHGG003_A	chr22	35942889	G	A	CNS_glioma
SJHGG003_A	chr5	80364007	C	T	CNS_glioma
SJHGG003_A	chr5	80364008	A	T	CNS_glioma
SJHGG003_A	chr2	33774712	T	C	CNS_glioma
SJHGG003_A	chr17	34062357	G	A	CNS_glioma
SJHGG003_A	chr14	103148301	T	G	CNS_glioma
SJHGG003_A	chr12	123968797	G	A	CNS_glioma
SJHGG003_A	chr12	113229558	G	T	CNS_glioma
SJHGG003_A	chr6	7231779	G	A	CNS_glioma
SJHGG003_A	chr13	78218669	T	C	CNS_glioma
SJHGG003_A	chr3	38590138	C	T	CNS_glioma
SJHGG003_A	chr16	23197750	G	T	CNS_glioma
SJHGG003_A	chr20	18511454	T	C	CNS_glioma
SJHGG003_A	chr15	44088919	T	A	CNS_glioma
SJHGG003_A	chr17	11145350	G	A	CNS_glioma
SJHGG003_A	chr1	115316266	A	C	CNS_glioma
SJHGG003_A	chr2	228550870	G	A	CNS_glioma
SJHGG003_A	chr20	62375102	G	A	CNS_glioma
SJHGG003_A	chrX	115590158	A	T	CNS_glioma
SJHGG003_A	chr12	85276592	G	T	CNS_glioma
SJHGG003_A	chr2	40657003	T	G	CNS_glioma
SJHGG003_A	chr1	183521035	G	T	CNS_glioma
SJHGG003_A	chr7	17831142	A	G	CNS_glioma
SJHGG003_A	chr1	99164438	G	A	CNS_glioma
SJHGG003_A	chr14	55511876	C	T	CNS_glioma
SJHGG003_A	chr11	16117533	C	T	CNS_glioma
SJHGG003_A	chr12	53806766	G	A	CNS_glioma
SJHGG003_A	chr20	3758245	G	A	CNS_glioma
SJHGG003_A	chr1	16202717	G	A	CNS_glioma
SJHGG003_A	chr2	120022359	T	C	CNS_glioma
SJHGG003_A	chr6	32796627	G	T	CNS_glioma
SJHGG003_A	chrX	106108849	A	G	CNS_glioma
SJHGG003_A	chr14	96176560	G	A	CNS_glioma
SJHGG003_A	chr19	14674822	T	C	CNS_glioma
SJHGG003_A	chr2	242541364	C	T	CNS_glioma
SJHGG003_A	chr2	137814658	A	G	CNS_glioma
SJHGG003_A	chr17	21101828	G	T	CNS_glioma
SJHGG003_A	chr2	220412754	C	T	CNS_glioma
SJHGG003_A	chr9	136379886	G	T	CNS_glioma
SJHGG003_A	chr1	175365785	C	A	CNS_glioma
SJHGG003_A	chr8	95938288	A	G	CNS_glioma
SJHGG003_A	chr13	50588280	C	T	CNS_glioma
SJHGG003_A	chr7	100076488	G	A	CNS_glioma
SJHGG003_A	chr7	130038801	G	A	CNS_glioma
SJHGG003_A	chr7	129497380	A	G	CNS_glioma
SJHGG003_A	chr1	20517986	C	T	CNS_glioma
SJHGG003_A	chr1	26609233	C	T	CNS_glioma
SJHGG003_A	chr10	12006056	C	T	CNS_glioma
SJHGG003_A	chr13	27690731	G	A	CNS_glioma
SJHGG003_A	chr5	72874921	C	T	CNS_glioma
SJHGG003_A	chr1	171707535	C	T	CNS_glioma
SJHGG003_A	chr15	42470652	C	T	CNS_glioma
SJHGG003_A	chr12	993818	C	A	CNS_glioma
SJHGG003_A	chr3	149235521	T	C	CNS_glioma
SJHGG003_A	chr17	57474912	C	T	CNS_glioma
SJHGG003_A	chr3	101395871	C	A	CNS_glioma
SJHGG003_A	chr14	77600075	A	C	CNS_glioma
SJHGG003_A	chr13	100616377	A	T	CNS_glioma
SJHGG003_A	chr19	44933417	C	T	CNS_glioma
SJHGG003_A	chrX	152613348	C	T	CNS_glioma
SJHGG003_A	chr19	37881198	T	C	CNS_glioma
SJHGG003_A	chr19	53958916	T	C	CNS_glioma
SJHGG003_A	chr7	149152997	A	C	CNS_glioma
SJHGG003_A	chr19	53058246	T	C	CNS_glioma
SJHGG003_A	chr19	37398849	T	C	CNS_glioma
SJHGG003_A	chr1	71530234	T	C	CNS_glioma
SJHGG003_A	chrX	57622749	T	A	CNS_glioma
SJHGG003_A	chr7	40899969	-	C	CNS_glioma
SJHGG003_A	chr16	85682297	C	-	CNS_glioma
SJHGG003_A	chr17	4927374	-	C	CNS_glioma
SJHGG003_A	chr1	237013707	-	A	CNS_glioma
SJHGG003_A	chr11	45955614	-	G	CNS_glioma
SJHGG003_A	chr10	103899316	-	G	CNS_glioma
SJHGG003_A	chr8	67579096	-	C	CNS_glioma
SJHGG003_A	chr13	100635037	-	ACC	CNS_glioma
SJHGG003_A	chr12	54971067	-	C	CNS_glioma
SJHGG003_A	chr7	91709416	-	A	CNS_glioma
SJHGG003_A	chr11	107325207	T	-	CNS_glioma
SJHGG003_A	chr6	22570365	GGC	-	CNS_glioma
SJHGG003_A	chr2	163139096	A	-	CNS_glioma
SJHGG003_A	chr17	40315710	G	-	CNS_glioma
SJHGG003_A	chr19	44085732	-	TT	CNS_glioma
SJHGG003_A	chrX	118726457	-	T	CNS_glioma
SJHGG003_A	chr1	158646056	C	-	CNS_glioma
SJHGG003_A	chr12	6657981	-	C	CNS_glioma
SJHGG003_A	chr9	107646846	-	A	CNS_glioma
SJHGG003_A	chr2	207460868	-	C	CNS_glioma
SJHGG003_A	chr4	74347539	T	-	CNS_glioma
SJHGG003_A	chr1	981868	C	-	CNS_glioma
SJHGG003_A	chr11	62295772	AACATCCACATCTGG	-	CNS_glioma
SJHGG003_A	chr17	46970781	-	A	CNS_glioma
SJHGG003_A	chr14	60591370	T	-	CNS_glioma
SJHGG003_A	chr3	55021705	C	-	CNS_glioma
SJHGG003_A	chr20	40118662	-	T	CNS_glioma
SJHGG003_A	chr6	84634238	A	-	CNS_glioma
SJHGG003_A	chr5	118445843	T	-	CNS_glioma
SJHGG003_A	chr3	52423475	-	C	CNS_glioma
SJHGG003_A	chr2	84942761	-	A	CNS_glioma
SJHGG003_A	chr7	102964999	T	-	CNS_glioma
SJHGG003_A	chr3	108407743	T	-	CNS_glioma
SJHGG003_A	chr1	55081764	-	G	CNS_glioma
SJHGG003_A	chr1	190195436	A	-	CNS_glioma
SJHGG003_A	chr19	13041110	-	C	CNS_glioma
SJHGG003_A	chr1	240256047	-	AGC	CNS_glioma
SJHGG003_A	chr6	13486876	-	G	CNS_glioma
SJHGG003_A	chr2	10101246	A	-	CNS_glioma
SJHGG003_A	chr6	114264525	-	T	CNS_glioma
SJHGG003_A	chr6	12125484	-	T	CNS_glioma
SJHGG003_A	chr11	93439909	-	C	CNS_glioma
SJHGG003_A	chr21	46086616	-	CA	CNS_glioma
SJHGG003_A	chr17	8701344	G	-	CNS_glioma
SJHGG003_A	chr16	77228322	-	G	CNS_glioma
SJHGG003_A	chr7	24705673	A	-	CNS_glioma
SJHGG003_A	chr1	248366941	A	-	CNS_glioma
SJHGG003_A	chr5	78938664	-	T	CNS_glioma
SJHGG003_A	chr3	121206932	-	T	CNS_glioma
SJHGG003_A	chr13	38154039	-	A	CNS_glioma
SJHGG003_A	chr7	44924080	-	AA	CNS_glioma
SJHGG003_A	chr17	78263604	-	A	CNS_glioma
SJHGG003_A	chr5	176825204	-	C	CNS_glioma
SJHGG003_A	chr7	123594044	-	T	CNS_glioma
SJHGG003_A	chr3	48362561	-	G	CNS_glioma
SJHGG003_A	chr17	7579526	AACCATTGTTCAATATCGTCCGG	-	CNS_glioma
SJHGG003_A	chr12	48238697	-	G	CNS_glioma
SJHGG003_A	chr3	124952724	-	T	CNS_glioma
SJHGG003_A	chr7	149544832	-	A	CNS_glioma
SJHGG003_A	chr12	109858802	-	A	CNS_glioma
SJHGG003_A	chr20	39990836	-	C	CNS_glioma
SJHGG003_A	chr15	59182538	-	CT	CNS_glioma
SJHGG003_A	chr20	62193258	G	-	CNS_glioma
SJHGG003_A	chr4	1389335	-	AC	CNS_glioma
SJHGG003_A	chr14	89629163	GGA	-	CNS_glioma
SJHGG003_A	chr20	21493019	C	-	CNS_glioma
SJHGG003_A	chr12	57960903	-	T	CNS_glioma
SJHGG003_A	chr21	46066494	-	G	CNS_glioma
SJHGG003_A	chr5	140474597	A	-	CNS_glioma
SJHGG003_A	chr17	45234669	GTTGT	-	CNS_glioma
SJHYPO120_D	chr17	67250582	A	T	lymphoid_neoplasm
SJHYPO120_D	chr3	182590161	G	T	lymphoid_neoplasm
SJHYPO120_D	chr3	107526900	C	A	lymphoid_neoplasm
SJHYPO120_D	chr19	18699560	G	T	lymphoid_neoplasm
SJHYPO120_D	chr2	97482946	G	T	lymphoid_neoplasm
SJHYPO120_D	chr1	64022822	G	T	lymphoid_neoplasm
SJHYPO120_D	chr7	133692530	C	G	lymphoid_neoplasm
SJHYPO120_D	chr3	112713983	G	T	lymphoid_neoplasm
SJHYPO120_D	chr3	3111662	G	T	lymphoid_neoplasm
SJHYPO120_D	chr7	131176004	C	A	lymphoid_neoplasm
SJHYPO120_D	chr15	80189211	C	A	lymphoid_neoplasm
SJHYPO120_D	chr1	19029595	C	A	lymphoid_neoplasm
SJHYPO120_D	chr2	20512168	C	A	lymphoid_neoplasm
SJHYPO120_D	chr5	80376608	G	T	lymphoid_neoplasm
SJHYPO120_D	chr8	144885561	C	A	lymphoid_neoplasm
SJHYPO120_D	chr17	27899593	C	A	lymphoid_neoplasm
SJHYPO120_D	chr3	69104153	G	T	lymphoid_neoplasm
SJHYPO120_D	chr17	30216297	C	A	lymphoid_neoplasm
SJHYPO120_D	chr3	122133765	G	T	lymphoid_neoplasm
SJHYPO120_D	chr7	149133714	C	A	lymphoid_neoplasm
SJHYPO120_D	chr9	72064549	C	G	lymphoid_neoplasm
SJHYPO120_D	chr8	42623552	C	T	lymphoid_neoplasm
SJHYPO120_D	chr8	113235493	C	A	lymphoid_neoplasm
SJHYPO120_D	chr6	30918351	G	A	lymphoid_neoplasm
SJHYPO120_D	chr6	56418061	T	A	lymphoid_neoplasm
SJHYPO120_D	chr5	161117359	G	C	lymphoid_neoplasm
SJHYPO120_D	chr11	93837868	C	T	lymphoid_neoplasm
SJHYPO120_D	chr1	47162243	T	C	lymphoid_neoplasm
SJHYPO120_D	chr2	170099992	G	A	lymphoid_neoplasm
SJHYPO120_D	chr2	149247190	G	T	lymphoid_neoplasm
SJHYPO120_D	chr13	102029261	C	T	lymphoid_neoplasm
SJHYPO120_D	chr5	36985671	C	T	lymphoid_neoplasm
SJHYPO120_D	chr1	158669739	C	T	lymphoid_neoplasm
SJHYPO120_D	chr19	4852187	G	A	lymphoid_neoplasm
SJHYPO120_D	chr6	147888340	T	G	lymphoid_neoplasm
SJHYPO120_D	chr5	168244392	C	T	lymphoid_neoplasm
SJHYPO120_D	chr20	2290344	C	T	lymphoid_neoplasm
SJHYPO120_D	chr21	32502600	AGTCCTCATAAATG	-	lymphoid_neoplasm
SJHYPO120_D	chr7	151880219	G	-	lymphoid_neoplasm
SJHYPO120_D	chr1	246810970	-	GATC	lymphoid_neoplasm
SJHYPO120_D	chr1	20680644	GCC	-	lymphoid_neoplasm
SJHYPO120_D	chr1	202097543	CTG	-	lymphoid_neoplasm
SJHYPO120_D	chr7	149474089	G	-	lymphoid_neoplasm
SJHYPO120_D	chr1	40770043	G	-	lymphoid_neoplasm
SJHYPO120_D	chr1	161059040	AGC	-	lymphoid_neoplasm
SJHYPO120_D	chr7	98547128	G	-	lymphoid_neoplasm
SJHYPO120_D	chr6	33263972	C	-	lymphoid_neoplasm
SJHYPO120_D	chr5	140953593	AGG	-	lymphoid_neoplasm
SJHYPO120_D	chr12	123475211	G	-	lymphoid_neoplasm
SJHYPO120_D	chr6	91296580	GAG	-	lymphoid_neoplasm
SJHYPO120_D	chr7	102119258	TTC	-	lymphoid_neoplasm
SJHYPO120_D	chr9	137693835	C	-	lymphoid_neoplasm
SJHYPO120_D	chr1	153924679	-	C	lymphoid_neoplasm
SJHYPO120_D	chr1	1356356	CTC	-	lymphoid_neoplasm
SJHYPO120_D	chr2	220348882	C	-	lymphoid_neoplasm
SJHYPO120_D	chr10	135233650	C	-	lymphoid_neoplasm
SJHYPO120_D	chr5	175306976	GGA	-	lymphoid_neoplasm
SJHYPO120_D	chr2	110373196	A	-	lymphoid_neoplasm
SJHYPO120_D	chr11	71277152	TGTCCCCGTGTGCTG	-	lymphoid_neoplasm
SJHYPO120_D	chr17	74015648	G	-	lymphoid_neoplasm
SJHYPO120_D	chr4	25678160	GCT	-	lymphoid_neoplasm
SJHYPO120_D	chr11	1008057	G	-	lymphoid_neoplasm
SJLGG020_D	chr17	72540980	C	A	CNS_glioma
SJLGG020_D	chr7	134882737	C	T	CNS_glioma
SJLGG020_D	chr10	63964650	-	T	CNS_glioma
SJLGG020_D	chr19	54649671	T	-	CNS_glioma
SJLGG020_D	chr16	88504858	G	-	CNS_glioma
SJLGG020_D	chr8	145999677	T	-	CNS_glioma
SJLGG020_D	chr3	42679493	A	-	CNS_glioma
SJLGG020_D	chr5	175306975	AGG	-	CNS_glioma
SJLGG020_D	chr9	136226890	GAG	-	CNS_glioma
SJLGG020_D	chr19	49218113	G	-	CNS_glioma
SJLGG020_D	chr22	42159255	C	-	CNS_glioma
SJLGG020_D	chr3	42700760	GAG	-	CNS_glioma
SJLGG020_D	chr12	57603947	C	-	CNS_glioma
SJLGG020_D	chr17	30264438	CCT	-	CNS_glioma
SJLGG020_D	chr5	139947197	TGC	-	CNS_glioma
SJLGG020_D	chr19	3028811	G	-	CNS_glioma
SJLGG020_D	chr22	28194959	GCT	-	CNS_glioma
SJLGG020_D	chr17	39593749	G	-	CNS_glioma
SJLGG020_D	chr6	99856021	T	-	CNS_glioma
SJLGG020_D	chr1	167095410	GAG	-	CNS_glioma
SJLGG020_D	chr10	81072452	C	-	CNS_glioma
SJLGG020_D	chr16	2048984	GTG	-	CNS_glioma
SJLGG020_D	chr12	49319175	GCA	-	CNS_glioma
SJLGG020_D	chr6	144081703	A	-	CNS_glioma
SJLGG020_D	chr11	45948379	C	-	CNS_glioma
SJLGG020_D	chr1	153507807	G	-	CNS_glioma
SJLGG020_D	chr5	140049109	A	-	CNS_glioma
SJLGG020_D	chr12	6711222	CTT	-	CNS_glioma
SJLGG020_D	chr1	981868	C	-	CNS_glioma
SJLGG020_D	chr7	99654924	C	-	CNS_glioma
SJLGG020_D	chr11	6578631	GGA	-	CNS_glioma
SJLGG020_D	chr22	29708279	G	-	CNS_glioma
SJLGG020_D	chr5	154173397	C	-	CNS_glioma
SJLGG020_D	chr9	124536644	C	-	CNS_glioma
SJLGG020_D	chr1	145562120	A	-	CNS_glioma
SJLGG020_D	chr16	30409316	C	-	CNS_glioma
SJLGG020_D	chr2	97890541	-	T	CNS_glioma
SJLGG020_D	chr4	7044523	TCC	-	CNS_glioma
SJLGG022_D	chr17	29665754	TTAC	-	CNS_glioma
SJLGG022_D	chrX	71360419	A	-	CNS_glioma
SJLGG022_D	chrX	154157693	T	-	CNS_glioma
SJLGG022_D	chr3	42679493	A	-	CNS_glioma
SJLGG022_D	chrX	48759678	AG	-	CNS_glioma
SJLGG022_D	chr9	137687171	T	-	CNS_glioma
SJLGG022_D	chr2	26693570	TTC	-	CNS_glioma
SJLGG022_D	chr20	23065528	C	-	CNS_glioma
SJLGG022_D	chr2	96992807	GGA	-	CNS_glioma
SJLGG022_D	chr16	89598377	C	-	CNS_glioma
SJLGG022_D	chr6	41621181	CTG	-	CNS_glioma
SJLGG026_D	chr8	101730037	-	C	CNS_glioma
SJLGG026_D	chr7	76112249	A	-	CNS_glioma
SJLGG026_D	chr12	49319176	CAG	-	CNS_glioma
SJLGG026_D	chr21	47863774	C	-	CNS_glioma
SJLGG026_D	chr14	65520047	G	-	CNS_glioma
SJLGG026_D	chr2	227661671	C	-	CNS_glioma
SJLGG026_D	chr12	11546508	GTT	-	CNS_glioma
SJLGG026_D	chr13	79176509	GGT	-	CNS_glioma
SJLGG026_D	chr22	20918910	CAG	-	CNS_glioma
SJLGG026_D	chr14	103599796	AGC	-	CNS_glioma
SJLGG026_D	chr2	220502419	C	-	CNS_glioma
SJLGG026_D	chr1	202097541	TGC	-	CNS_glioma
SJLGG026_D	chr14	93712203	CTG	-	CNS_glioma
SJLGG026_D	chr19	36583677	AGC	-	CNS_glioma
SJLGG026_D	chr1	155297999	G	-	CNS_glioma
SJLGG026_D	chr11	64564475	G	-	CNS_glioma
SJLGG026_D	chr9	137710738	C	-	CNS_glioma
SJLGG035_D	chr18	32917269	C	A	CNS_glioma
SJLGG035_D	chr2	74600063	G	A	CNS_glioma
SJLGG035_D	chr1	202155773	C	T	CNS_glioma
SJLGG035_D	chr3	193311199	G	-	CNS_glioma
SJLGG035_D	chr20	29960679	A	-	CNS_glioma
SJLGG035_D	chr1	151735576	T	-	CNS_glioma
SJLGG035_D	chrX	99662511	G	-	CNS_glioma
SJLGG035_D	chr7	72721728	T	-	CNS_glioma
SJLGG035_D	chr13	28367937	GCG	-	CNS_glioma
SJLGG035_D	chr6	16327829	G	-	CNS_glioma
SJLGG035_D	chr21	46330651	G	-	CNS_glioma
SJLGG035_D	chr12	50727786	T	-	CNS_glioma
SJLGG035_D	chr4	153897221	G	-	CNS_glioma
SJLGG035_D	chr15	31253242	TCC	-	CNS_glioma
SJLGG035_D	chr9	130587560	G	-	CNS_glioma
SJLGG035_D	chr16	88499030	C	-	CNS_glioma
SJLGG035_D	chr22	20922864	GCA	-	CNS_glioma
SJLGG035_D	chr2	227660275	C	-	CNS_glioma
SJLGG035_D	chr3	129546699	CAG	-	CNS_glioma
SJLGG035_D	chr17	36485530	T	-	CNS_glioma
SJLGG035_D	chr1	36935329	G	-	CNS_glioma
SJLGG035_D	chrX	53285056	CCT	-	CNS_glioma
SJLGG035_D	chr22	46793734	C	-	CNS_glioma
SJLGG035_D	chr7	156743222	AGG	-	CNS_glioma
SJLGG035_D	chr10	103345144	GAG	-	CNS_glioma
SJLGG035_D	chr9	117027727	C	-	CNS_glioma
SJLGG035_D	chr11	1266108	CAC	-	CNS_glioma
SJLGG035_D	chr3	49051813	C	-	CNS_glioma
SJLGG035_D	chr14	23845067	TG	-	CNS_glioma
SJLGG035_D	chr15	49776651	A	-	CNS_glioma
SJLGG035_D	chr19	17039890	C	-	CNS_glioma
SJLGG035_D	chr3	51929027	C	-	CNS_glioma
SJLGG035_D	chr22	31331157	A	-	CNS_glioma
SJLGG035_D	chr7	150721407	GGA	-	CNS_glioma
SJLGG035_D	chr11	1856607	GCT	-	CNS_glioma
SJLGG035_D	chr9	18680357	G	-	CNS_glioma
SJLGG035_D	chr15	65918060	C	-	CNS_glioma
SJLGG035_D	chr2	218696264	G	-	CNS_glioma
SJLGG035_D	chr19	10108080	G	-	CNS_glioma
SJLGG035_D	chr9	70176738	AGC	-	CNS_glioma
SJLGG035_D	chr20	18163936	T	-	CNS_glioma
SJLGG035_D	chr11	64940411	A	-	CNS_glioma
SJLGG035_D	chr19	42408404	TGC	-	CNS_glioma
SJLGG035_D	chr21	47851940	A	-	CNS_glioma
SJLGG035_D	chr7	149191324	G	-	CNS_glioma
SJLGG035_D	chr9	139273624	G	-	CNS_glioma
SJLGG035_D	chr22	29708279	G	-	CNS_glioma
SJLGG035_D	chr1	155948232	G	-	CNS_glioma
SJLGG035_D	chr20	31644481	T	-	CNS_glioma
SJLGG035_D	chr16	19725897	T	-	CNS_glioma
SJLGG036_D	chr6	1612468	C	A	CNS_glioma
SJLGG036_D	chr14	65261340	C	A	CNS_glioma
SJLGG036_D	chr7	140453136	A	T	CNS_glioma
SJLGG036_D	chrX	53652214	G	T	CNS_glioma
SJLGG036_D	chr19	5223190	G	A	CNS_glioma
SJLGG036_D	chr2	204305093	T	C	CNS_glioma
SJLGG036_D	chr17	40717293	C	T	CNS_glioma
SJLGG036_D	chr6	33263972	C	-	CNS_glioma
SJLGG036_D	chr2	74763931	C	-	CNS_glioma
SJLGG036_D	chr8	145541494	G	-	CNS_glioma
SJLGG036_D	chr12	31237918	GAA	-	CNS_glioma
SJLGG036_D	chr11	77920863	C	-	CNS_glioma
SJLGG036_D	chr11	67200658	G	-	CNS_glioma
SJLGG036_D	chrX	53264151	GTG	-	CNS_glioma
SJLGG036_D	chr5	140953593	AGG	-	CNS_glioma
SJLGG036_D	chr3	46759243	-	CAG	CNS_glioma
SJLGG036_D	chr14	24619945	C	-	CNS_glioma
SJLGG036_D	chr22	40803322	A	-	CNS_glioma
SJLGG036_D	chr2	220348882	C	-	CNS_glioma
SJLGG036_D	chr21	47851971	AG	-	CNS_glioma
SJLGG036_D	chr12	133158022	C	-	CNS_glioma
SJLGG036_D	chr3	51624525	AGG	-	CNS_glioma
SJLGG038_D	chr3	20210366	C	T	CNS_glioma
SJLGG038_D	chr3	118865071	-	GGCTGAAC	CNS_glioma
SJLGG038_D	chr4	1389335	-	AC	CNS_glioma
SJLGG038_D	chr17	16335504	CTG	-	CNS_glioma
SJLGG038_D	chr1	981868	C	-	CNS_glioma
SJLGG038_D	chr19	58385715	T	-	CNS_glioma
SJLGG038_D	chr4	190903693	-	TCCTCCTC	CNS_glioma
SJOS001_M	chr16	85123772	A	C	bone
SJOS001_M	chr1	153651190	A	T	bone
SJOS001_M	chr12	58112069	A	G	bone
SJOS001_M	chr14	34398399	C	T	bone
SJOS001_M	chr10	81273251	T	C	bone
SJOS001_M	chr11	70052333	C	T	bone
SJOS001_M	chr15	59149301	A	G	bone
SJOS001_M	chr16	74486706	T	A	bone
SJOS001_M	chr7	27166569	T	G	bone
SJOS001_M	chr11	2688668	T	C	bone
SJOS001_M	chr4	3679221	G	T	bone
SJOS001_M	chr20	25129080	G	A	bone
SJOS001_M	chr18	2943440	G	A	bone
SJOS001_M	chr15	89398101	C	T	bone
SJOS001_M	chr8	26613924	C	T	bone
SJOS001_M	chrX	119515987	C	G	bone
SJOS001_M	chrX	76939950	G	T	bone
SJOS001_M	chr10	134755101	T	C	bone
SJOS001_M	chr12	31812676	T	G	bone
SJOS001_M	chr12	31812677	G	T	bone
SJOS001_M	chr14	24403474	T	G	bone
SJOS001_M	chr19	41949120	G	A	bone
SJOS001_M	chr12	8212511	C	T	bone
SJOS001_M	chr3	20042671	G	A	bone
SJOS001_M	chr4	184018824	C	T	bone
SJOS001_M	chr5	56207321	A	G	bone
SJOS001_M	chrX	49089812	C	T	bone
SJOS001_M	chr1	174979610	C	A	bone
SJOS001_M	chr19	14037473	C	T	bone
SJOS001_M	chr1	208073274	C	T	bone
SJOS001_M	chr17	71280283	A	C	bone
SJOS001_M	chr10	85976658	G	T	bone
SJOS001_M	chr1	214819689	A	G	bone
SJOS001_M	chr1	214819690	G	A	bone
SJOS001_M	chr19	1038441	C	G	bone
SJOS001_M	chr1	153927346	T	C	bone
SJOS001_M	chr2	218924984	G	T	bone
SJOS001_M	chr16	50834325	T	C	bone
SJOS001_M	chr1	58349784	T	C	bone
SJOS001_M	chr1	112310154	A	G	bone
SJOS001_M	chr19	2717456	T	A	bone
SJOS001_M	chr1	84878023	T	G	bone
SJOS001_M	chr17	7128802	C	A	bone
SJOS001_M	chr12	53435513	G	T	bone
SJOS001_M	chr1	220142087	G	C	bone
SJOS001_M	chr10	49207788	G	C	bone
SJOS001_M	chr11	92087183	T	C	bone
SJOS001_M	chr4	126408713	T	C	bone
SJOS001_M	chr3	172115466	T	A	bone
SJOS001_M	chr3	190578483	T	C	bone
SJOS001_M	chr6	90604653	A	G	bone
SJOS001_M	chr4	166200335	G	A	bone
SJOS001_M	chr1	37271832	G	T	bone
SJOS001_M	chr12	96367805	G	T	bone
SJOS001_M	chr20	61735415	C	T	bone
SJOS001_M	chr7	81381428	T	A	bone
SJOS001_M	chr16	70942149	A	T	bone
SJOS001_M	chr13	21142052	C	A	bone
SJOS001_M	chr1	117158831	C	A	bone
SJOS001_M	chr10	6052874	C	A	bone
SJOS001_M	chr18	22010335	G	T	bone
SJOS001_M	chr6	411182	A	G	bone
SJOS001_M	chr14	63179078	C	T	bone
SJOS001_M	chr17	7256905	T	C	bone
SJOS001_M	chr10	134980924	C	T	bone
SJOS001_M	chr1	236711669	T	A	bone
SJOS001_M	chr8	66444598	C	A	bone
SJOS001_M	chr12	126451610	G	C	bone
SJOS001_M	chr15	95822785	G	A	bone
SJOS001_M	chr22	50171750	C	T	bone
SJOS001_M	chr4	155672586	C	T	bone
SJOS001_M	chr2	80529845	G	T	bone
SJOS001_M	chr12	10758965	T	A	bone
SJOS001_M	chr15	95025722	T	A	bone
SJOS001_M	chr6	90353826	G	T	bone
SJOS001_M	chr11	5010869	C	A	bone
SJOS001_M	chr14	64906895	A	G	bone
SJOS001_M	chr20	62839033	G	T	bone
SJOS001_M	chr12	6630963	G	C	bone
SJOS001_M	chr2	51255290	G	A	bone
SJOS001_M	chr9	138011775	G	A	bone
SJOS001_M	chr7	143633039	C	G	bone
SJOS001_M	chr8	107531277	A	G	bone
SJOS001_M	chr6	34499497	G	A	bone
SJOS001_M	chr3	122448832	C	G	bone
SJOS001_M	chr13	25066590	C	A	bone
SJOS001_M	chr15	72563498	T	C	bone
SJOS001_M	chr4	30724881	G	A	bone
SJOS001_M	chr1	230457631	C	T	bone
SJOS001_M	chr20	34450943	G	A	bone
SJOS001_M	chr7	47930314	A	T	bone
SJOS001_M	chr19	50921235	G	C	bone
SJOS001_M	chr17	7416469	A	T	bone
SJOS001_M	chr7	43982756	C	T	bone
SJOS001_M	chr19	30106171	G	A	bone
SJOS001_M	chr1	56990085	C	A	bone
SJOS001_M	chr11	129770399	T	C	bone
SJOS001_M	chr14	58724518	A	C	bone
SJOS001_M	chr4	122254123	A	T	bone
SJOS001_M	chr8	95384190	C	T	bone
SJOS001_M	chr13	49055120	A	C	bone
SJOS001_M	chr1	110882572	G	A	bone
SJOS001_M	chr4	76404537	A	C	bone
SJOS001_M	chr15	41815462	T	C	bone
SJOS001_M	chr8	119452152	C	A	bone
SJOS001_M	chr22	50899588	C	T	bone
SJOS001_M	chr6	28542629	G	C	bone
SJOS001_M	chr15	90768361	C	T	bone
SJOS001_M	chr1	28608099	A	C	bone
SJOS001_M	chr19	49132950	G	A	bone
SJOS001_M	chr16	28986865	G	A	bone
SJOS001_M	chr8	110592091	G	T	bone
SJOS001_M	chr9	93606452	A	G	bone
SJOS001_M	chr17	56769392	G	A	bone
SJOS001_M	chr4	83838165	T	C	bone
SJOS001_M	chr20	42697581	G	C	bone
SJOS001_M	chr9	77473643	C	T	bone
SJOS001_M	chr7	142572922	T	A	bone
SJOS001_M	chr2	179463635	A	G	bone
SJOS001_M	chr1	20518857	C	G	bone
SJOS001_M	chr17	76836938	A	C	bone
SJOS001_M	chr5	110464629	C	T	bone
SJOS001_M	chr12	966343	G	C	bone
SJOS001_M	chr12	72057627	C	T	bone
SJOS001_M	chr8	123794175	C	T	bone
SJOS001_M	chr19	21989218	C	T	bone
SJOS001_M	chr8	7215985	C	A	bone
SJOS001_M	chr19	2934653	G	A	bone
SJOS001_M	chr6	55620376	-	T	bone
SJOS001_M	chr8	120581587	GTCAGGAACG	-	bone
SJOS001_M	chr18	48335685	-	A	bone
SJOS001_M	chr15	48459599	C	-	bone
SJOS001_M	chr7	24911414	TCTGT	-	bone
SJOS001_M	chr8	90937214	T	-	bone
SJOS001_M	chr1	216465619	GGCTGTTGCAT	-	bone
SJOS001_M	chr2	185803464	CTGCAGCCGCAGCTGCAG	-	bone
SJOS001_M	chr4	80905990	C	-	bone
SJOS001_M	chr3	196674367	C	-	bone
SJOS001_M	chr20	23066809	CAG	-	bone
SJOS001_M	chr3	49725277	GCTGT	-	bone
SJOS001_M	chr10	135438980	C	-	bone
SJOS001_M	chr1	161496073	A	-	bone
SJOS001_M	chr5	11110998	TTC	-	bone
SJOS001_M	chr11	124624244	A	-	bone
SJOS001_M	chr8	61769049	AGG	-	bone
SJOS001_M	chr21	46875928	C	-	bone
SJOS001_M	chr6	29573447	GCA	-	bone
SJOS001_M	chrX	47030581	AGG	-	bone
SJOS001_M	chr1	6517255	GGA	-	bone
SJOS001_M	chr12	8200575	GCA	-	bone
SJOS001_M	chr4	9784054	-	GCAGGTCA	bone
SJOS001_M	chr1	55505571	CTG	-	bone
SJOS001_M	chr14	21542971	GAG	-	bone
SJOS001_M	chr8	145621965	G	-	bone
SJOS001_M	chr6	37250069	C	-	bone
SJOS001_M	chr16	67913780	AGC	-	bone
SJOS001_M	chr17	46629744	G	-	bone
SJOS001_M	chr17	48460522	GCA	-	bone
SJOS001_M	chr12	113704110	GCT	-	bone
SJOS001_M	chr1	6638861	GCT	-	bone
SJOS001_M	chr17	4638527	T	-	bone
SJOS001_M	chr17	18167791	CTG	-	bone
SJOS001_M	chr9	117122014	CTC	-	bone
SJOS001_M	chr8	110573126	AGA	-	bone
SJOS001_M	chr6	41303656	GCT	-	bone
SJOS001_M	chr3	195594849	-	G	bone
SJOS001_M	chr15	89876857	CTG	-	bone
SJOS001_M	chr7	75890703	GAA	-	bone
SJOS001_M	chr17	65822245	GGA	-	bone
SJOS001_M	chr17	18181551	G	-	bone
SJOS001_M	chr3	48720455	G	-	bone
SJOS001_M	chr14	23845067	TG	-	bone
SJOS001_M	chr8	28209248	CAG	-	bone
SJOS001_M	chr1	76262873	GCA	-	bone
SJOS001_M	chr12	122255554	GAG	-	bone
SJOS001_M	chr8	145619163	C	-	bone
SJOS001_M	chr1	161059040	AGC	-	bone
SJOS001_M	chr3	48508198	C	-	bone
SJOS001_M	chr16	705796	C	-	bone
SJOS001_M	chr8	144522405	GAG	-	bone
SJOS001_M	chr8	144663333	G	-	bone
SJOS001_M	chr8	144681962	G	-	bone
SJOS001_M	chr1	2560838	AGC	-	bone
SJOS001_M	chr1	981868	C	-	bone
SJOS013_D	chr4	91702209	C	T	bone
SJOS013_D	chr9	36102139	C	T	bone
SJOS013_D	chr17	73872017	C	T	bone
SJOS013_D	chr5	37198956	C	G	bone
SJOS013_D	chr2	219868988	C	A	bone
SJOS013_D	chr8	113304946	A	T	bone
SJOS013_D	chr16	57416101	C	T	bone
SJOS013_D	chr4	187131987	T	C	bone
SJOS013_D	chr4	52782979	A	G	bone
SJOS013_D	chr10	134018598	G	A	bone
SJOS013_D	chr20	34742799	A	C	bone
SJOS013_D	chr20	825992	C	T	bone
SJOS013_D	chr2	155310010	G	T	bone
SJOS013_D	chr17	4837243	C	T	bone
SJOS013_D	chr3	154138833	G	A	bone
SJOS013_D	chr10	47000373	C	A	bone
SJOS013_D	chr10	7661643	C	A	bone
SJOS013_D	chr12	126954362	T	C	bone
SJOS013_D	chrX	123510517	T	A	bone
SJOS013_D	chr15	45900730	C	T	bone
SJOS013_D	chr11	562437	G	A	bone
SJOS013_D	chr19	4558431	C	G	bone
SJOS013_D	chr6	146243954	A	T	bone
SJOS013_D	chr15	42985563	A	G	bone
SJOS013_D	chr11	9316650	G	A	bone
SJOS013_D	chr9	14764	C	T	bone
SJOS013_D	chr16	48116986	C	T	bone
SJOS013_D	chr16	31121390	C	T	bone
SJOS013_D	chr10	93756173	T	C	bone
SJOS013_D	chr1	170952589	G	A	bone
SJOS013_D	chr4	71201180	G	C	bone
SJOS013_D	chr19	42221523	C	T	bone
SJOS013_D	chr8	4494980	G	A	bone
SJOS013_D	chr20	470426	G	A	bone
SJOS013_D	chr6	74117264	T	A	bone
SJOS013_D	chr1	23833489	G	A	bone
SJOS013_D	chrX	20143341	A	G	bone
SJOS013_D	chr4	66467589	C	G	bone
SJOS013_D	chr6	170627364	C	G	bone
SJOS013_D	chr6	170627391	C	G	bone
SJOS013_D	chr2	207655402	G	A	bone
SJOS013_D	chr15	50569806	T	G	bone
SJOS013_D	chr12	102163941	G	A	bone
SJOS013_D	chr6	46977887	G	A	bone
SJOS013_D	chr5	41000789	C	G	bone
SJOS013_D	chr2	233631863	G	A	bone
SJOS013_D	chr12	88926281	C	T	bone
SJOS013_D	chr1	62675571	G	C	bone
SJOS013_D	chr1	62675578	G	C	bone
SJOS013_D	chr1	62676297	G	C	bone
SJOS013_D	chr1	62676336	G	A	bone
SJOS013_D	chr1	62676740	G	A	bone
SJOS013_D	chr3	64064888	G	T	bone
SJOS013_D	chr2	6118125	G	C	bone
SJOS013_D	chr4	62937868	G	A	bone
SJOS013_D	chr14	24531785	T	C	bone
SJOS013_D	chr6	42175896	G	A	bone
SJOS013_D	chrX	92927241	T	G	bone
SJOS013_D	chr6	138817494	C	A	bone
SJOS013_D	chr11	56230655	C	T	bone
SJOS013_D	chr1	233296041	G	A	bone
SJOS013_D	chr17	40557086	C	T	bone
SJOS013_D	chr17	40557179	C	G	bone
SJOS013_D	chr1	167666749	T	C	bone
SJOS013_D	chr7	103237104	C	G	bone
SJOS013_D	chr10	79815642	C	G	bone
SJOS013_D	chr3	159557646	A	G	bone
SJOS013_D	chr11	26691985	T	C	bone
SJOS013_D	chr4	52961974	G	A	bone
SJOS013_D	chrX	62569868	C	T	bone
SJOS013_D	chr15	42154039	C	G	bone
SJOS013_D	chr4	57352536	A	C	bone
SJOS013_D	chr7	100479753	G	A	bone
SJOS013_D	chr6	50683136	T	A	bone
SJOS013_D	chr6	128029735	G	T	bone
SJOS013_D	chr20	52103974	G	A	bone
SJOS013_D	chr2	179612050	T	G	bone
SJOS013_D	chr14	64064017	G	C	bone
SJOS013_D	chr3	38438566	C	A	bone
SJOS013_D	chr3	38438585	C	T	bone
SJOS013_D	chr16	88503745	CA	-	bone
SJOS013_D	chr5	33998833	G	-	bone
SJOS013_D	chr17	40265757	G	-	bone
SJOS013_D	chr1	36935329	G	-	bone
SJOS013_D	chr6	116574627	T	-	bone
SJOS013_D	chr7	99817854	G	-	bone
SJOS013_D	chr19	51961636	CAG	-	bone
SJOS013_D	chr1	151318747	G	-	bone
SJOS013_D	chr11	116729024	GCT	-	bone
SJOS013_D	chr19	39915737	C	-	bone
SJOS013_D	chr17	20768749	AT	-	bone
SJOS013_D	chr5	140049109	A	-	bone
SJOS013_D	chr6	42204122	CCT	-	bone
SJOS013_D	chr10	64159520	A	-	bone
SJOS013_D	chr6	161560595	G	-	bone
SJOS013_D	chr1	202097543	CTG	-	bone
SJOS013_D	chr17	39240615	C	-	bone
SJOS013_D	chr1	152127891	TCTG	-	bone
SJOS013_D	chr6	29627223	C	-	bone
SJOS013_D	chr1	26349545	CCT	-	bone
SJOS013_D	chr12	56818912	TCT	-	bone
SJOS013_D	chr19	6381802	TCT	-	bone
SJOS013_D	chr8	101018347	A	-	bone
SJOS013_D	chr1	26524783	T	-	bone
SJOS013_D	chr20	20350119	C	-	bone
SJOS013_D	chr22	51135705	G	-	bone
SJOS013_D	chr11	71277152	TGTCCCCGTGTGCTG	-	bone
SJOS013_D	chr14	91739310	CAG	-	bone
SJOS013_D	chr1	10700081	T	-	bone
SJPHALL003_D	chr19	10401774	G	T	lymphoid_neoplasm
SJPHALL003_D	chr3	101574026	G	T	lymphoid_neoplasm
SJPHALL003_D	chr14	68248091	C	A	lymphoid_neoplasm
SJPHALL003_D	chr6	47868251	A	T	lymphoid_neoplasm
SJPHALL003_D	chr3	48229366	C	A	lymphoid_neoplasm
SJPHALL003_D	chr7	101006132	A	G	lymphoid_neoplasm
SJPHALL003_D	chr12	110824165	G	A	lymphoid_neoplasm
SJPHALL003_D	chr19	33870829	A	C	lymphoid_neoplasm
SJPHALL003_D	chr3	130313176	C	T	lymphoid_neoplasm
SJPHALL003_D	chr19	6467774	G	T	lymphoid_neoplasm
SJPHALL003_D	chr5	72313035	A	G	lymphoid_neoplasm
SJPHALL003_D	chr20	61890386	G	A	lymphoid_neoplasm
SJPHALL003_D	chr1	226128678	C	T	lymphoid_neoplasm
SJPHALL003_D	chr7	7135899	G	A	lymphoid_neoplasm
SJPHALL003_D	chr1	149282838	T	G	lymphoid_neoplasm
SJPHALL003_D	chr11	118133241	G	A	lymphoid_neoplasm
SJPHALL003_D	chr11	1260131	G	A	lymphoid_neoplasm
SJPHALL003_D	chr11	21581739	T	G	lymphoid_neoplasm
SJPHALL003_D	chr16	69681481	G	A	lymphoid_neoplasm
SJPHALL003_D	chr9	33462814	G	A	lymphoid_neoplasm
SJPHALL003_D	chrX	69478090	A	G	lymphoid_neoplasm
SJPHALL003_D	chr7	128850333	G	A	lymphoid_neoplasm
SJPHALL003_D	chr7	47332418	C	A	lymphoid_neoplasm
SJPHALL003_D	chr2	1457484	C	T	lymphoid_neoplasm
SJPHALL003_D	chrX	73026150	C	T	lymphoid_neoplasm
SJPHALL003_D	chr8	6669695	C	T	lymphoid_neoplasm
SJPHALL003_D	chr9	37440201	A	C	lymphoid_neoplasm
SJPHALL003_D	chr20	33330987	GCT	-	lymphoid_neoplasm
SJPHALL003_D	chr16	4384878	-	G	lymphoid_neoplasm
SJPHALL003_D	chr11	119535698	TCC	-	lymphoid_neoplasm
SJPHALL003_D	chr7	128434479	GAA	-	lymphoid_neoplasm
SJPHALL003_D	chr1	27875369	GGA	-	lymphoid_neoplasm
SJPHALL003_D	chr11	62749340	A	-	lymphoid_neoplasm
SJPHALL003_D	chr11	592595	GAG	-	lymphoid_neoplasm
SJPHALL003_D	chr4	134073580	GCT	-	lymphoid_neoplasm
SJPHALL003_D	chr12	8200576	CAG	-	lymphoid_neoplasm
SJPHALL003_D	chr5	176004434	G	-	lymphoid_neoplasm
SJPHALL003_D	chr19	51509737	C	-	lymphoid_neoplasm
SJPHALL003_D	chr19	50412217	CTG	-	lymphoid_neoplasm
SJPHALL003_D	chr21	47851971	AG	-	lymphoid_neoplasm
SJPHALL003_D	chr19	57325742	TTC	-	lymphoid_neoplasm
SJPHALL003_D	chr20	23345936	GAG	-	lymphoid_neoplasm
SJPHALL003_D	chr21	46911189	C	-	lymphoid_neoplasm
SJPHALL003_D	chr1	204091472	C	-	lymphoid_neoplasm
SJPHALL003_D	chr11	19901490	AGC	-	lymphoid_neoplasm
SJPHALL003_D	chr5	11110998	TTC	-	lymphoid_neoplasm
SJPHALL003_D	chr9	33395133	-	ATCTTCCTCGCA	lymphoid_neoplasm
SJPHALL005_D	chr14	27064671	C	T	lymphoid_neoplasm
SJPHALL005_D	chr2	215848509	G	A	lymphoid_neoplasm
SJPHALL005_D	chr4	26483201	G	A	lymphoid_neoplasm
SJPHALL005_D	chr6	31917220	C	G	lymphoid_neoplasm
SJPHALL005_D	chr19	16515538	C	T	lymphoid_neoplasm
SJPHALL005_D	chr7	128497380	C	T	lymphoid_neoplasm
SJPHALL005_D	chr5	82940461	G	A	lymphoid_neoplasm
SJPHALL005_D	chr22	37523344	G	A	lymphoid_neoplasm
SJPHALL005_D	chr13	58301343	T	A	lymphoid_neoplasm
SJPHALL005_D	chr1	33145657	G	A	lymphoid_neoplasm
SJPHALL005_D	chr3	52469888	C	G	lymphoid_neoplasm
SJPHALL005_D	chr4	152041754	C	T	lymphoid_neoplasm
SJPHALL005_D	chr4	83839797	T	C	lymphoid_neoplasm
SJPHALL005_D	chr9	140087050	CCT	-	lymphoid_neoplasm
SJPHALL005_D	chr7	44684943	T	-	lymphoid_neoplasm
SJPHALL005_D	chr1	3410410	C	-	lymphoid_neoplasm
SJPHALL005_D	chrX	99662511	G	-	lymphoid_neoplasm
SJPHALL005_D	chr11	119027101	G	-	lymphoid_neoplasm
SJPHALL005_D	chr19	13988574	GAG	-	lymphoid_neoplasm
SJPHALL005_D	chr6	31079577	C	-	lymphoid_neoplasm
SJRHB007_D	chr3	14106354	C	T	soft_tissue
SJRHB007_D	chr8	21939786	A	C	soft_tissue
SJRHB007_D	chr2	97357470	G	A	soft_tissue
SJRHB007_D	chr5	180047216	G	A	soft_tissue
SJRHB007_D	chr19	18084934	G	A	soft_tissue
SJRHB007_D	chr19	3779695	C	T	soft_tissue
SJRHB007_D	chr10	50943170	C	T	soft_tissue
SJRHB007_D	chr11	48190020	C	T	soft_tissue
SJRHB007_D	chr15	44086372	C	T	soft_tissue
SJRHB007_D	chr8	53126804	G	C	soft_tissue
SJRHB007_D	chr11	112042560	C	G	soft_tissue
SJRHB007_D	chr17	38645184	C	A	soft_tissue
SJRHB007_D	chr1	207222904	C	T	soft_tissue
SJRHB007_D	chrX	70467280	G	T	soft_tissue
SJRHB007_D	chr19	22156990	C	T	soft_tissue
SJRHB007_D	chr19	9718366	T	A	soft_tissue
SJRHB007_D	chr2	97890541	-	T	soft_tissue
SJRHB007_D	chr7	76140380	TGCTGT	-	soft_tissue
SJRHB007_D	chr17	39316855	CAGGTGGTCTGGCAG	-	soft_tissue
SJRHB007_D	chr2	73928291	C	-	soft_tissue
SJRHB007_D	chr20	57769147	G	-	soft_tissue
SJRHB007_D	chr21	38390326	C	-	soft_tissue
SJRHB007_D	chr4	186583330	A	-	soft_tissue
SJRHB007_D	chr1	145562120	A	-	soft_tissue
SJRHB007_D	chr17	39211148	-	GCCGGCAGCAGGGGG	soft_tissue
SJRHB007_D	chr17	27027212	GCA	-	soft_tissue
SJRHB007_D	chr19	46299178	CTC	-	soft_tissue
SJRHB007_D	chr12	54920428	T	-	soft_tissue
SJRHB007_D	chr18	72223606	CTG	-	soft_tissue
SJRHB007_D	chr9	119977005	AGC	-	soft_tissue
SJRHB007_D	chr12	416960	T	-	soft_tissue
SJRHB007_D	chr19	19360615	CCA	-	soft_tissue
SJRHB007_D	chr20	57766227	C	-	soft_tissue
SJRHB007_D	chr19	57325741	CTT	-	soft_tissue
SJRHB007_D	chr7	136938341	AC	-	soft_tissue
SJRHB007_D	chr19	55593843	-	G	soft_tissue
SJRHB007_D	chr5	78407731	A	-	soft_tissue
SJRHB007_D	chr16	52473394	GCT	-	soft_tissue
SJRHB007_D	chr12	49441821	C	-	soft_tissue
SJRHB007_D	chr14	95921900	CTC	-	soft_tissue
SJRHB007_D	chr10	126678126	T	-	soft_tissue
