cromosoma	start	end	sample	cancer_type	ref	alt	pubmed
5	19847034	19867791	p1	stomach	NA	NA	28683819
5	21527908	21569501	p1	stomach	NA	NA	28683819
5	21855682	22715926	p1	stomach	NA	NA	28683819
5	40794615	40794979	p1	stomach	NA	NA	28683819
5	52172144	52232105	p1	stomach	NA	NA	28683819
5	58277277	59541862	p1	stomach	NA	NA	28683819
5	70853481	70853549	p1	stomach	NA	NA	28683819
5	75435663	75561971	p1	stomach	NA	NA	28683819
5	77004046	77062619	p1	stomach	NA	NA	28683819
5	78277726	78278046	p1	stomach	NA	NA	28683819
5	80039371	80039681	p1	stomach	NA	NA	28683819
5	80838449	81008438	p1	stomach	NA	NA	28683819
5	88032012	88032343	p1	stomach	NA	NA	28683819
5	89918620	90351220	p1	stomach	NA	NA	28683819
5	93757792	93916621	p1	stomach	NA	NA	28683819
5	101796603	101796650	p1	stomach	NA	NA	28683819
5	110584044	110709132	p1	stomach	NA	NA	28683819
5	115781960	115894458	p1	stomach	NA	NA	28683819
5	122701699	122727303	p1	stomach	NA	NA	28683819
5	136604692	136783317	p1	stomach	NA	NA	28683819
5	137022562	137023887	p1	stomach	NA	NA	28683819
5	147462155	147462472	p1	stomach	NA	NA	28683819
5	149746191	149746518	p1	stomach	NA	NA	28683819
5	152986428	152986521	p1	stomach	NA	NA	28683819
5	154315917	154316003	p1	stomach	NA	NA	28683819
5	158592397	158592743	p1	stomach	NA	NA	28683819
5	170092722	170158907	p1	stomach	NA	NA	28683819
6	38498278	38498416	p1	stomach	NA	NA	28683819
6	38720386	38932857	p1	stomach	NA	NA	28683819
6	41953350	41995188	p1	stomach	NA	NA	28683819
6	45063196	45180261	p1	stomach	NA	NA	28683819
6	45927255	45967786	p1	stomach	NA	NA	28683819
6	51736109	51904144	p1	stomach	NA	NA	28683819
6	55337265	55408298	p1	stomach	NA	NA	28683819
6	57207690	57489304	p1	stomach	NA	NA	28683819
6	62410046	62835931	p1	stomach	NA	NA	28683819
6	64794896	66290505	p1	stomach	NA	NA	28683819
6	69648332	70043874	p1	stomach	NA	NA	28683819
6	74421253	74501003	p1	stomach	NA	NA	28683819
6	76716172	76746584	p1	stomach	NA	NA	28683819
6	89449444	89449487	p1	stomach	NA	NA	28683819
6	91237575	91237897	p1	stomach	NA	NA	28683819
6	102030791	102357886	p1	stomach	NA	NA	28683819
6	105567837	105568173	p1	stomach	NA	NA	28683819
6	106966857	106986043	p1	stomach	NA	NA	28683819
6	108031342	108032403	p1	stomach	NA	NA	28683819
6	116630476	116751133	p1	stomach	NA	NA	28683819
6	123624457	123897619	p1	stomach	NA	NA	28683819
6	124234027	125119226	p1	stomach	NA	NA	28683819
6	134811194	134817663	p1	stomach	NA	NA	28683819
6	137313693	137314187	p1	stomach	NA	NA	28683819
6	143138010	143161521	p1	stomach	NA	NA	28683819
6	153029971	153033790	p1	stomach	NA	NA	28683819
6	154446915	154447238	p1	stomach	NA	NA	28683819
6	157957840	157958148	p1	stomach	NA	NA	28683819
6	158548266	158549067	p1	stomach	NA	NA	28683819
6	161795638	163140940	p1	stomach	NA	NA	28683819
6	169905557	170038446	p1	stomach	NA	NA	28683819
7	69094157	70093358	p1	stomach	NA	NA	28683819
7	70852212	71166844	p1	stomach	NA	NA	28683819
7	71398080	71828232	p1	stomach	NA	NA	28683819
7	77692552	78955527	p1	stomach	NA	NA	28683819
7	81358337	81380822	p1	stomach	NA	NA	28683819
7	81590035	81904509	p1	stomach	NA	NA	28683819
7	83019539	83251598	p1	stomach	NA	NA	28683819
7	83653800	83724687	p1	stomach	NA	NA	28683819
7	86836614	86836924	p1	stomach	NA	NA	28683819
7	93169987	93170105	p1	stomach	NA	NA	28683819
7	101521036	101911193	p1	stomach	NA	NA	28683819
7	102488704	102607726	p1	stomach	NA	NA	28683819
7	103231015	103614941	p1	stomach	NA	NA	28683819
7	104187384	104347403	p1	stomach	NA	NA	28683819
7	105733990	105734329	p1	stomach	NA	NA	28683819
7	110536533	110543010	p1	stomach	NA	NA	28683819
7	113867592	114154152	p1	stomach	NA	NA	28683819
7	120881096	120881435	p1	stomach	NA	NA	28683819
7	121963925	122346024	p1	stomach	NA	NA	28683819
7	126301958	126775701	p1	stomach	NA	NA	28683819
7	131813284	132279786	p1	stomach	NA	NA	28683819
7	134349999	134350423	p1	stomach	NA	NA	28683819
7	134475804	134490463	p1	stomach	NA	NA	28683819
7	136739075	136845672	p1	stomach	NA	NA	28683819
7	144382749	144382898	p1	stomach	NA	NA	28683819
7	146174662	148076324	p1	stomach	NA	NA	28683819
7	151397836	151516844	p1	stomach	NA	NA	28683819
7	152099668	152109219	p1	stomach	NA	NA	28683819
7	157870222	158266488	p1	stomach	NA	NA	28683819
7	158563013	158574681	p1	stomach	NA	NA	28683819
8	9636709	9638499	p2	stomach	NA	NA	28683819
11	61107785	61108125	p2	stomach	NA	NA	28683819
12	23741655	24460697	p2	stomach	NA	NA	28683819
12	129088970	129089092	p2	stomach	NA	NA	28683819
