selection	tipo	model_number	length_pb	variables_model	negative_variables	R2	Rsquared_1000optboot	Rsquared_externaltest	RSE	RMSE_1000optboot	RMSE_externaltest	percent_training	percent_testing	order_R2	order_R2_int	order_R2_ext	order_RSE	order_RSE_int	order_RSE_ext	order_sum
oursin	gene	model_38	249940	40	1	1	1	0.98	67	83	879	77.2	94.12	1	1	1	1	3	3	10
oursin	gene	model_36	236817	38	1	1	1	0.98	68	84	878	77.2	94.12	1	1	1	2	4	2	11
oursin	gene	model_37	242940	39	1	1	1	0.98	67	84	886	77.2	94.12	1	1	1	1	4	5	13
oursin	gene	model_35	230997	37	1	1	1	0.98	68	82	894	76.17	94.12	1	1	1	2	2	7	14
oursin	gene	model_34	229893	36	1	1	1	0.98	68	82	903	76.17	94.12	1	1	1	2	2	8	15
oursin	gene	model_33	224319	35	1	1	1	0.98	69	82	910	75.65	94.12	1	1	1	3	2	9	17
oursin	gene	model_32	218442	34	1	1	1	0.98	69	81	923	75.65	91.18	1	1	1	3	1	12	19
oursin	gene	model_31	213013	33	1	1	1	0.98	70	83	937	75.13	91.18	1	1	1	4	3	17	27
oursin	gene	model_25	157150	26	0	1	1	0.98	82	94	979	73.06	85.29	1	1	1	8	7	28	46
oursin	gene	model_26	164686	27	0	1	1	0.98	79	91	983	73.06	88.24	1	1	1	7	6	30	46
oursin	gene	model_29	174289	30	0	1	1	0.98	73	85	991	73.58	91.18	1	1	1	5	5	33	46
census	gene	model_28	239860	30	1	0.99	0.99	0.98	133	167	882	82.26	85.29	2	2	1	19	18	4	46
oursin	gene	model_30	180115	31	1	1	1	0.98	73	85	996	73.58	91.18	1	1	1	5	5	34	47
oursin	gene	model_28	167032	29	0	1	1	0.98	73	84	1000	73.06	88.24	1	1	1	5	4	37	49
oursin	gene	model_23	142512	24	0	1	1	0.98	85	97	982	72.54	85.29	1	1	1	10	8	29	50
oursin	gene	model_24	146214	25	0	1	1	0.98	84	97	986	72.54	85.29	1	1	1	9	8	31	51
oursin	gene	model_27	165865	28	0	1	1	0.98	74	85	1001	73.06	88.24	1	1	1	6	5	38	52
oursin	gene	model_22	137258	23	0	1	1	0.97	90	103	1004	72.54	85.29	1	1	2	11	9	39	63
oursin	gene	model_21	128688	22	0	1	1	0.97	93	106	1006	72.54	85.29	1	1	2	12	10	40	66
census	gene	model_27	233959	29	1	0.99	0.99	0.98	137	171	959	82.26	85.29	2	2	1	20	19	24	68
oursin	gene	model_20	126687	21	0	1	0.99	0.97	101	113	1017	72.02	85.29	1	2	2	13	11	42	71
oursin	gene	model_19	113298	20	0	1	0.99	0.97	107	119	1066	70.98	85.29	1	2	2	14	12	48	79
census	gene	model_18	188168	20	1	0.99	0.99	0.97	165	196	935	77.96	70.59	2	2	2	30	28	15	79
oursin	gene	model_18	111267	19	0	0.99	0.99	0.97	114	128	1055	70.98	85.29	2	2	2	15	13	46	80
census	gene	model_25	227418	27	1	0.99	0.99	0.98	141	174	997	82.26	82.35	2	2	1	21	20	35	81
oursin	gene	model_17	109113	18	0	0.99	0.99	0.97	120	134	1104	70.47	85.29	2	2	2	16	14	49	85
census	gene	model_17	181124	19	1	0.99	0.98	0.97	171	206	944	77.96	70.59	2	3	2	31	29	20	87
oursin	gene	model_16	106707	17	0	0.99	0.99	0.97	124	138	1128	69.95	82.35	2	2	2	17	15	50	88
census	gene	model_14	160590	16	0	0.99	0.98	0.97	182	210	936	76.34	67.65	2	3	2	34	31	16	88
census	gene	model_15	168080	17	0	0.99	0.98	0.98	178	209	941	77.96	70.59	2	3	1	33	30	19	88
census	gene	model_16	169163	18	0	0.99	0.98	0.98	178	214	938	77.96	70.59	2	3	1	33	33	18	90
oursin	gene	model_15	98091	16	0	0.99	0.99	0.96	131	144	1151	69.95	82.35	2	2	3	18	16	52	93
census	gene	model_24	225682	26	1	0.99	0.99	0.97	143	177	1033	81.72	82.35	2	2	2	22	22	43	93
census	gene	model_19	193241	21	1	0.99	0.99	0.97	163	196	986	77.96	70.59	2	2	2	29	28	31	94
oursin	gene	model_13	93889	14	0	0.99	0.99	0.97	160	175	1008	69.95	82.35	2	2	2	28	21	41	96
census	gene	model_12	155675	14	0	0.98	0.98	0.97	200	229	930	76.34	67.65	3	3	2	39	36	14	97
oursin	gene	model_14	95766	15	0	0.99	0.99	0.96	145	157	1142	69.95	82.35	2	2	3	23	17	51	98
census	gene	model_20	195857	22	1	0.99	0.99	0.97	156	185	1004	77.96	70.59	2	2	2	27	26	39	98
census	gene	model_23	210766	25	1	0.99	0.99	0.97	146	180	1038	80.11	82.35	2	2	2	24	24	44	98
panel	gene	model_16	122682	22	0	0.98	0.98	0.97	215	244	869	79.04	67.65	3	3	2	47	43	1	99
census	gene	model_13	159353	15	0	0.98	0.98	0.98	194	222	950	76.34	67.65	3	3	1	36	34	22	99
census	gene	model_22	199654	24	1	0.99	0.99	0.97	149	179	1048	80.11	82.35	2	2	2	25	23	45	99
oursin	gene	model_12	91699	13	0	0.99	0.99	0.97	174	189	997	69.43	82.35	2	2	2	32	27	35	100
panel	gene	model_25	175999	31	0	0.99	0.98	0.97	199	249	919	82.04	76.47	2	3	2	38	46	10	101
oursin	gene	model_11	80267	12	0	0.99	0.98	0.97	188	206	986	67.88	79.41	2	3	2	35	29	31	102
panel	gene	model_17	128337	23	0	0.98	0.98	0.97	210	239	922	79.04	67.65	3	3	2	44	39	11	102
panel	gene	model_24	168288	30	0	0.99	0.98	0.97	199	245	924	82.04	76.47	2	3	2	38	44	13	102
census	gene	model_11	154058	13	0	0.98	0.98	0.98	214	247	892	76.34	67.65	3	3	1	46	45	6	104
census	gene	model_21	197122	23	1	0.99	0.99	0.97	153	182	1063	80.11	79.41	2	2	2	26	25	47	104
oursin	gene	model_10	76292	11	0	0.98	0.98	0.97	198	212	987	66.32	79.41	3	3	2	37	32	32	109
panel	gene	model_21	153130	27	0	0.99	0.98	0.97	202	243	948	80.84	76.47	2	3	2	41	42	21	111
panel	gene	model_22	157308	28	0	0.99	0.98	0.97	201	244	952	81.44	76.47	2	3	2	40	43	23	113
panel	gene	model_18	132408	24	0	0.99	0.98	0.97	206	238	977	79.64	67.65	2	3	2	43	38	27	115
panel	gene	model_23	164274	29	0	0.99	0.98	0.97	201	247	961	82.04	76.47	2	3	2	40	45	25	117
panel	gene	model_20	150333	26	0	0.99	0.98	0.97	203	240	983	80.84	76.47	2	3	2	42	40	30	119
oursin	gene	model_9	71837	10	0	0.98	0.98	0.97	211	225	996	66.32	76.47	3	3	2	45	35	34	122
panel	gene	model_19	142665	25	0	0.99	0.98	0.97	203	237	998	79.64	67.65	2	3	2	42	37	36	122
oursin	gene	model_8	67688	9	0	0.98	0.98	0.97	228	242	972	66.32	76.47	3	3	2	48	41	26	123
