selection	tipo	model_number	length_pb	variables_model	negative_variables	R2	Rsquared_1000optboot	Rsquared_externaltest	RSE	RMSE_1000optboot	RMSE_externaltest	percent_training	percent_testing	order_R2	order_R2_int	order_R2_ext	order_RSE	order_RSE_int	order_RSE_ext	order_sum
oursin	gene	model_61	491510	80	0	1	1	0.96	38	45	297	79.4	86.9	1	1	1	2	1	18	24
oursin	gene	model_62	503810	82	0	1	1	0.96	38	45	300	79.87	86.9	1	1	1	2	1	19	25
oursin	gene	model_76	607792	97	1	1	1	0.96	37	45	301	83.02	90.39	1	1	1	1	1	20	25
oursin	gene	model_63	509918	83	1	1	1	0.96	38	45	301	79.87	86.9	1	1	1	2	1	20	26
oursin	gene	model_64	520451	85	1	1	1	0.95	38	45	300	80.03	86.9	1	1	2	2	1	19	26
oursin	gene	model_77	616984	98	1	1	1	0.96	37	46	301	83.49	90.39	1	1	1	1	2	20	26
oursin	gene	model_78	621535	99	2	1	1	0.96	37	46	301	83.65	90.39	1	1	1	1	2	20	26
oursin	gene	model_65	526049	86	1	1	1	0.95	37	45	302	80.35	87.34	1	1	2	1	1	21	27
oursin	gene	model_72	587276	93	1	1	1	0.96	37	45	303	82.39	88.21	1	1	1	1	1	22	27
oursin	gene	model_73	592892	94	1	1	1	0.96	37	45	303	82.55	88.21	1	1	1	1	1	22	27
oursin	gene	model_74	596707	95	1	1	1	0.96	37	45	303	82.86	89.96	1	1	1	1	1	22	27
oursin	gene	model_67	554162	88	1	1	1	0.95	37	45	303	80.35	87.34	1	1	2	1	1	22	28
oursin	gene	model_71	580626	92	1	1	1	0.96	37	45	304	81.76	87.77	1	1	1	1	1	23	28
oursin	gene	model_68	560911	89	1	1	1	0.95	37	45	304	80.35	87.34	1	1	2	1	1	23	29
oursin	gene	model_70	578056	91	1	1	1	0.96	37	45	305	81.6	87.77	1	1	1	1	1	24	29
oursin	gene	model_75	602821	96	2	1	1	0.95	37	45	304	82.86	89.96	1	1	2	1	1	23	29
oursin	gene	model_66	543437	87	1	1	1	0.95	37	45	306	80.35	87.34	1	1	2	1	1	25	31
oursin	gene	model_69	564286	90	1	1	1	0.95	37	46	305	80.66	87.34	1	1	2	1	2	24	31
oursin	gene	model_59	482397	78	0	1	1	0.95	39	45	307	79.25	86.03	1	1	2	3	1	26	34
oursin	gene	model_60	487826	79	0	1	1	0.95	38	45	308	79.4	86.9	1	1	2	2	1	27	34
oursin	gene	model_50	440296	69	0	1	0.99	0.95	41	47	303	77.52	85.15	1	2	2	5	3	22	35
oursin	gene	model_51	442151	70	0	1	0.99	0.95	40	46	305	77.83	85.15	1	2	2	4	2	24	35
oursin	gene	model_49	435115	68	0	1	0.99	0.95	41	47	304	77.52	84.72	1	2	2	5	3	23	36
oursin	gene	model_56	471997	75	0	1	1	0.95	39	45	310	78.62	85.59	1	1	2	3	1	29	37
oursin	gene	model_48	430036	67	0	1	0.99	0.95	41	47	306	77.04	84.72	1	2	2	5	3	25	38
oursin	gene	model_57	475636	76	0	1	1	0.95	39	45	312	78.77	85.59	1	1	2	3	1	31	39
oursin	gene	model_58	476811	77	0	1	1	0.95	39	45	312	79.09	86.03	1	1	2	3	1	31	39
oursin	gene	model_52	449944	71	0	1	0.99	0.95	40	46	310	77.83	85.59	1	2	2	4	2	29	40
oursin	gene	model_53	450631	72	0	1	0.99	0.95	40	46	310	78.3	85.59	1	2	2	4	2	29	40
oursin	gene	model_55	457423	74	0	1	0.99	0.95	40	46	311	78.3	85.59	1	2	2	4	2	30	41
oursin	gene	model_46	422182	65	0	1	0.99	0.95	42	47	309	77.04	84.28	1	2	2	6	3	28	42
oursin	gene	model_47	426067	66	0	1	0.99	0.95	42	47	309	77.04	84.28	1	2	2	6	3	28	42
oursin	gene	model_54	453706	73	0	1	0.99	0.95	40	46	315	78.3	85.59	1	2	2	4	2	32	43
oursin	gene	model_45	414269	64	0	1	0.99	0.95	42	47	311	76.73	84.28	1	2	2	6	3	30	44
oursin	gene	model_43	398774	62	0	1	0.99	0.95	42	47	319	76.1	84.28	1	2	2	6	3	33	47
oursin	gene	model_44	403886	63	0	1	0.99	0.95	42	47	320	76.42	84.28	1	2	2	6	3	34	48
census	gene	model_21	270536	43	0	0.99	0.99	0.93	64	72	243	60.92	68.12	2	2	4	25	19	1	53
oursin	gene	model_42	393089	61	0	1	0.99	0.95	43	47	325	75.79	84.28	1	2	2	7	3	38	53
census	gene	model_22	273326	44	0	0.99	0.99	0.93	64	72	245	61.25	68.56	2	2	4	25	19	2	54
census	gene	model_27	292919	49	0	0.99	0.99	0.93	62	71	250	62.56	70.31	2	2	4	23	18	5	54
oursin	gene	model_40	386771	59	0	1	0.99	0.95	44	49	322	75.79	84.28	1	2	2	8	5	36	54
oursin	gene	model_41	389237	60	0	1	0.99	0.95	43	48	325	75.79	84.28	1	2	2	7	4	38	54
census	gene	model_23	274454	45	0	0.99	0.99	0.93	64	72	248	61.25	69	2	2	4	25	19	4	56
oursin	gene	model_39	379064	58	0	1	0.99	0.95	45	50	322	75.47	83.84	1	2	2	9	6	36	56
census	gene	model_26	288248	48	0	0.99	0.99	0.93	62	71	255	62.4	70.31	2	2	4	23	18	10	59
oursin	gene	model_38	376817	57	0	1	0.99	0.95	45	51	325	75.31	83.84	1	2	2	9	7	38	59
census	gene	model_24	278918	46	0	0.99	0.99	0.93	63	72	254	61.58	69	2	2	4	24	19	9	60
census	gene	model_28	294908	50	0	0.99	0.99	0.93	62	71	256	62.56	71.62	2	2	4	23	18	11	60
census	gene	model_32	305168	54	0	0.99	0.99	0.93	61	71	257	63.71	71.62	2	2	4	22	18	12	60
oursin	gene	model_35	361172	54	0	0.99	0.99	0.95	47	52	321	74.84	83.84	2	2	2	11	8	35	60
oursin	gene	model_36	362615	55	0	0.99	0.99	0.95	46	51	324	74.84	83.84	2	2	2	10	7	37	60
census	gene	model_25	284441	47	0	0.99	0.99	0.93	63	72	255	62.07	70.31	2	2	4	24	19	10	61
census	gene	model_30	301589	52	0	0.99	0.99	0.93	61	71	258	63.22	71.62	2	2	4	22	18	13	61
census	gene	model_34	310433	56	1	0.99	0.99	0.93	61	72	257	63.71	71.62	2	2	4	22	19	12	61
census	gene	model_19	261920	41	0	0.99	0.99	0.92	65	73	252	60.76	65.94	2	2	5	26	20	7	62
census	gene	model_29	298725	51	0	0.99	0.99	0.93	62	71	258	63.22	71.62	2	2	4	23	18	13	62
census	gene	model_31	302978	53	0	0.99	0.99	0.93	61	72	258	63.22	71.62	2	2	4	22	19	13	62
census	gene	model_20	268829	42	0	0.99	0.99	0.92	65	73	253	60.76	68.12	2	2	5	26	20	8	63
census	gene	model_33	308060	55	0	0.99	0.99	0.93	61	71	260	63.71	71.62	2	2	4	22	18	15	63
census	gene	model_35	316448	57	0	0.99	0.99	0.93	60	73	259	63.88	71.62	2	2	4	21	20	14	63
oursin	gene	model_37	369437	56	0	0.99	0.99	0.95	46	51	331	75	83.84	2	2	2	10	7	40	63
census	gene	model_17	256735	39	0	0.99	0.99	0.92	68	77	247	60.26	65.94	2	2	5	29	23	3	64
census	gene	model_18	260480	40	0	0.99	0.99	0.92	67	75	251	60.43	65.94	2	2	5	28	22	6	65
census	gene	model_36	319643	58	0	0.99	0.99	0.93	60	73	261	63.88	71.62	2	2	4	21	20	16	65
census	gene	model_37	321992	59	0	0.99	0.99	0.93	60	74	262	63.88	71.62	2	2	4	21	21	17	67
census	gene	model_16	247897	38	0	0.99	0.99	0.92	69	78	250	59.44	65.94	2	2	5	30	24	5	68
census	gene	model_14	237052	36	0	0.99	0.99	0.92	70	80	250	56.81	64.19	2	2	5	31	26	5	71
census	gene	model_15	242857	37	0	0.99	0.99	0.92	69	79	252	58.29	65.07	2	2	5	30	25	7	71
oursin	gene	model_32	355992	51	0	0.99	0.99	0.95	49	55	333	74.21	83.84	2	2	2	13	10	42	71
oursin	gene	model_33	357566	52	0	0.99	0.99	0.95	49	54	335	74.21	83.84	2	2	2	13	9	43	71
oursin	gene	model_29	349908	48	0	0.99	0.99	0.95	52	58	331	73.74	83.84	2	2	2	15	12	40	73
oursin	gene	model_30	351234	49	0	0.99	0.99	0.95	52	57	332	73.74	83.84	2	2	2	15	11	41	73
oursin	gene	model_34	360098	53	0	0.99	0.99	0.95	48	54	344	74.84	83.84	2	2	2	12	9	47	74
oursin	gene	model_31	353622	50	0	0.99	0.99	0.95	50	55	338	73.74	83.84	2	2	2	14	10	45	75
oursin	gene	model_28	345789	47	0	0.99	0.99	0.95	53	58	333	73.43	83.84	2	2	2	16	12	42	76
census	gene	model_13	233587	35	0	0.99	0.98	0.92	72	81	252	56.81	64.19	2	3	5	33	27	7	77
oursin	gene	model_27	341373	46	0	0.99	0.99	0.95	53	58	335	73.27	83.84	2	2	2	16	12	43	77
census	gene	model_12	231223	34	0	0.99	0.98	0.92	73	82	256	56.65	63.32	2	3	5	34	28	11	83
census	gene	model_11	229807	33	0	0.99	0.98	0.92	75	85	257	56.65	63.32	2	3	5	35	30	12	87
oursin	gene	model_25	332862	44	0	0.99	0.99	0.94	56	61	345	72.96	83.84	2	2	3	18	14	48	87
oursin	gene	model_26	336516	45	0	0.99	0.99	0.94	55	59	349	73.11	83.84	2	2	3	17	13	50	87
oursin	gene	model_20	303700	39	0	0.99	0.99	0.95	62	68	338	69.81	83.41	2	2	2	23	17	45	91
oursin	gene	model_21	306814	40	0	0.99	0.99	0.94	61	68	344	70.44	83.41	2	2	3	22	17	47	93
oursin	gene	model_22	313103	41	0	0.99	0.99	0.94	60	66	348	70.91	83.84	2	2	3	21	16	49	93
oursin	gene	model_24	321926	43	0	0.99	0.99	0.94	57	61	358	72.01	83.84	2	2	3	19	14	54	94
oursin	gene	model_23	318479	42	0	0.99	0.99	0.94	58	63	354	71.23	83.84	2	2	3	20	15	53	95
oursin	gene	model_19	298531	38	0	0.99	0.99	0.94	64	71	353	69.65	83.41	2	2	3	25	18	52	102
oursin	gene	model_13	266416	32	0	0.99	0.99	0.94	72	78	335	67.14	81.66	2	2	3	33	24	43	107
oursin	gene	model_15	276301	34	0	0.99	0.99	0.94	70	77	344	68.4	82.53	2	2	3	31	23	47	108
oursin	gene	model_17	289276	36	0	0.99	0.99	0.93	67	74	352	69.5	82.53	2	2	4	28	21	51	108
oursin	gene	model_14	272200	33	0	0.99	0.99	0.94	71	78	339	67.61	81.66	2	2	3	32	24	46	109
oursin	gene	model_18	293152	37	0	0.99	0.99	0.93	66	73	363	69.65	82.53	2	2	4	27	20	55	110
oursin	gene	model_16	283201	35	0	0.99	0.99	0.93	68	75	354	69.34	82.53	2	2	4	29	22	53	112
oursin	gene	model_11	239251	30	0	0.99	0.98	0.94	77	84	329	64.15	79.91	2	3	3	37	29	39	113
oursin	gene	model_12	256159	31	0	0.99	0.98	0.94	76	82	337	66.98	81.66	2	3	3	36	28	44	116
