selection	tipo	model_number	length_pb	variables_model	negative_variables	R2	Rsquared_1000optboot	Rsquared_externaltest	RSE	RMSE_1000optboot	RMSE_externaltest	percent_training	percent_testing	order_R2	order_R2_int	order_R2_ext	order_RSE	order_RSE_int	order_RSE_ext	order_sum
oursin	gene	model_115	965503	175	1	0.99	0.98	0.9	21	26	102	78.12	95.69	1	1	1	1	1	1	6
oursin	gene	model_111	948737	171	0	0.99	0.98	0.9	21	26	103	78.04	95.41	1	1	1	1	1	2	7
oursin	gene	model_112	958318	172	0	0.99	0.98	0.9	21	26	103	78.12	95.69	1	1	1	1	1	2	7
oursin	gene	model_113	959107	173	0	0.99	0.98	0.9	21	26	103	78.12	95.69	1	1	1	1	1	2	7
oursin	gene	model_114	961627	174	1	0.99	0.98	0.9	21	26	103	78.12	95.69	1	1	1	1	1	2	7
oursin	gene	model_116	974782	176	1	0.99	0.98	0.9	21	26	103	78.12	95.69	1	1	1	1	1	2	7
oursin	gene	model_117	979174	177	2	0.99	0.98	0.9	21	26	103	78.12	95.83	1	1	1	1	1	2	7
oursin	gene	model_118	982044	178	2	0.99	0.98	0.9	21	26	103	78.27	95.83	1	1	1	1	1	2	7
oursin	gene	model_119	988992	179	2	0.99	0.98	0.9	21	26	103	78.35	95.83	1	1	1	1	1	2	7
oursin	gene	model_120	993609	180	2	0.99	0.98	0.9	21	26	103	78.35	95.97	1	1	1	1	1	2	7
oursin	gene	model_110	945920	170	0	0.99	0.98	0.9	22	26	103	78.04	95.41	1	1	1	2	1	2	8
oursin	gene	model_121	1007451	182	3	0.99	0.98	0.9	21	27	103	78.51	95.97	1	1	1	1	2	2	8
oursin	gene	model_122	1013005	183	3	0.99	0.98	0.9	21	27	103	78.58	95.97	1	1	1	1	2	2	8
oursin	gene	model_123	1017262	184	3	0.99	0.98	0.9	21	27	103	78.58	95.97	1	1	1	1	2	2	8
oursin	gene	model_124	1021231	185	3	0.99	0.98	0.9	21	27	103	78.66	95.97	1	1	1	1	2	2	8
oursin	gene	model_103	926471	163	0	0.99	0.98	0.9	22	26	104	77.73	95.41	1	1	1	2	1	3	9
oursin	gene	model_104	929720	164	0	0.99	0.98	0.9	22	26	104	77.73	95.41	1	1	1	2	1	3	9
oursin	gene	model_105	932036	165	0	0.99	0.98	0.9	22	26	104	77.73	95.41	1	1	1	2	1	3	9
oursin	gene	model_106	935156	166	0	0.99	0.98	0.9	22	26	104	77.73	95.41	1	1	1	2	1	3	9
oursin	gene	model_107	937286	167	1	0.99	0.98	0.9	22	26	104	77.89	95.41	1	1	1	2	1	3	9
oursin	gene	model_108	941150	168	0	0.99	0.98	0.9	22	26	104	77.97	95.41	1	1	1	2	1	3	9
oursin	gene	model_109	942104	169	0	0.99	0.98	0.9	22	26	104	77.97	95.41	1	1	1	2	1	3	9
oursin	gene	model_92	888340	152	0	0.99	0.98	0.89	22	26	104	77.2	95.27	1	1	2	2	1	3	10
oursin	gene	model_93	891253	153	0	0.99	0.98	0.89	22	26	104	77.35	95.27	1	1	2	2	1	3	10
oursin	gene	model_97	908713	157	0	0.99	0.98	0.89	22	26	104	77.73	95.27	1	1	2	2	1	3	10
oursin	gene	model_98	912115	158	0	0.99	0.98	0.89	22	26	104	77.73	95.27	1	1	2	2	1	3	10
oursin	gene	model_99	915206	159	0	0.99	0.98	0.89	22	26	104	77.73	95.27	1	1	2	2	1	3	10
oursin	gene	model_101	917363	161	0	0.99	0.98	0.89	22	26	104	77.73	95.41	1	1	2	2	1	3	10
oursin	gene	model_102	922277	162	0	0.99	0.98	0.89	22	26	104	77.73	95.41	1	1	2	2	1	3	10
oursin	gene	model_88	868717	148	0	0.99	0.98	0.89	22	26	105	77.04	95.27	1	1	2	2	1	4	11
oursin	gene	model_89	869656	149	0	0.99	0.98	0.89	22	26	105	77.04	95.27	1	1	2	2	1	4	11
oursin	gene	model_90	874078	150	0	0.99	0.98	0.89	22	26	105	77.12	95.27	1	1	2	2	1	4	11
oursin	gene	model_91	876934	151	0	0.99	0.98	0.89	22	26	105	77.2	95.27	1	1	2	2	1	4	11
oursin	gene	model_94	893545	154	0	0.99	0.98	0.89	22	26	105	77.5	95.27	1	1	2	2	1	4	11
oursin	gene	model_95	898618	155	0	0.99	0.98	0.89	22	26	105	77.5	95.27	1	1	2	2	1	4	11
oursin	gene	model_96	899572	156	0	0.99	0.98	0.89	22	26	105	77.5	95.27	1	1	2	2	1	4	11
oursin	gene	model_100	916835	160	0	0.99	0.98	0.89	22	26	105	77.73	95.27	1	1	2	2	1	4	11
oursin	gene	model_82	834025	141	0	0.99	0.98	0.89	22	26	106	76.58	94.99	1	1	2	2	1	5	12
oursin	gene	model_83	836488	142	0	0.99	0.98	0.89	22	26	106	76.58	94.99	1	1	2	2	1	5	12
oursin	gene	model_84	841276	143	0	0.99	0.98	0.89	22	26	106	76.58	94.99	1	1	2	2	1	5	12
oursin	gene	model_85	842218	144	0	0.99	0.98	0.89	22	26	106	76.58	94.99	1	1	2	2	1	5	12
oursin	gene	model_86	844978	145	0	0.99	0.98	0.89	22	26	106	76.73	95.13	1	1	2	2	1	5	12
oursin	gene	model_87	861601	147	0	0.99	0.98	0.89	22	26	106	76.89	95.27	1	1	2	2	1	5	12
oursin	gene	model_78	814835	137	0	0.99	0.98	0.89	22	26	107	76.12	94.99	1	1	2	2	1	6	13
oursin	gene	model_79	817358	138	0	0.99	0.98	0.89	22	26	107	76.12	94.99	1	1	2	2	1	6	13
oursin	gene	model_80	823826	139	0	0.99	0.98	0.89	22	26	107	76.43	94.99	1	1	2	2	1	6	13
oursin	gene	model_81	830538	140	0	0.99	0.98	0.89	22	26	107	76.58	94.99	1	1	2	2	1	6	13
oursin	gene	model_77	809591	136	0	0.99	0.98	0.89	22	26	108	76.04	94.99	1	1	2	2	1	7	14
oursin	gene	model_75	805706	134	0	0.99	0.98	0.89	23	26	108	75.96	94.99	1	1	2	3	1	7	15
oursin	gene	model_76	807059	135	0	0.99	0.98	0.89	23	26	108	75.96	94.99	1	1	2	3	1	7	15
oursin	gene	model_73	790685	132	0	0.99	0.98	0.88	23	26	108	75.81	94.99	1	1	3	3	1	7	16
oursin	gene	model_74	801797	133	0	0.99	0.98	0.88	23	26	108	75.96	94.99	1	1	3	3	1	7	16
oursin	gene	model_67	775458	126	0	0.99	0.98	0.88	23	26	109	75.73	94.85	1	1	3	3	1	8	17
oursin	gene	model_68	777762	127	0	0.99	0.98	0.88	23	26	109	75.73	94.99	1	1	3	3	1	8	17
oursin	gene	model_71	785540	130	0	0.99	0.98	0.88	23	26	109	75.81	94.99	1	1	3	3	1	8	17
oursin	gene	model_72	787946	131	0	0.99	0.98	0.88	23	26	109	75.81	94.99	1	1	3	3	1	8	17
oursin	gene	model_69	778911	128	0	0.99	0.98	0.88	23	26	110	75.81	94.99	1	1	3	3	1	9	18
oursin	gene	model_70	781859	129	0	0.99	0.98	0.88	23	26	110	75.81	94.99	1	1	3	3	1	9	18
oursin	gene	model_66	774513	125	0	0.99	0.98	0.88	23	27	110	75.73	94.85	1	1	3	3	2	9	19
oursin	gene	model_64	754527	123	0	0.99	0.98	0.88	23	27	111	75.58	94.85	1	1	3	3	2	10	20
oursin	gene	model_65	765168	124	0	0.99	0.98	0.88	23	27	111	75.58	94.85	1	1	3	3	2	10	20
oursin	gene	model_60	736245	119	0	0.99	0.98	0.88	24	27	111	75.19	94.71	1	1	3	4	2	10	21
oursin	gene	model_61	740643	120	0	0.99	0.98	0.88	24	27	111	75.27	94.71	1	1	3	4	2	10	21
oursin	gene	model_58	729434	117	0	0.99	0.98	0.88	24	27	112	75.12	94.71	1	1	3	4	2	11	22
oursin	gene	model_59	732870	118	0	0.99	0.98	0.88	24	27	112	75.12	94.71	1	1	3	4	2	11	22
oursin	gene	model_62	747699	121	0	0.99	0.98	0.88	24	27	112	75.35	94.71	1	1	3	4	2	11	22
oursin	gene	model_63	752274	122	0	0.99	0.98	0.88	24	27	112	75.35	94.71	1	1	3	4	2	11	22
oursin	gene	model_57	719657	116	0	0.99	0.98	0.88	24	27	113	75.12	94.71	1	1	3	4	2	12	23
oursin	gene	model_54	703945	113	0	0.99	0.98	0.87	24	27	113	74.96	94.58	1	1	4	4	2	12	24
oursin	gene	model_55	708166	114	0	0.99	0.98	0.87	24	27	113	75.04	94.58	1	1	4	4	2	12	24
oursin	gene	model_56	714920	115	0	0.99	0.98	0.87	24	27	113	75.12	94.58	1	1	4	4	2	12	24
oursin	gene	model_53	693364	112	0	0.99	0.98	0.87	25	27	114	74.81	94.58	1	1	4	5	2	13	26
oursin	gene	model_47	658620	106	0	0.99	0.98	0.87	25	28	114	74.65	94.16	1	1	4	5	3	13	27
oursin	gene	model_48	661134	107	0	0.99	0.98	0.87	25	28	114	74.73	94.16	1	1	4	5	3	13	27
oursin	gene	model_49	662688	108	0	0.99	0.98	0.87	25	28	114	74.73	94.16	1	1	4	5	3	13	27
oursin	gene	model_50	665319	109	0	0.99	0.98	0.87	25	28	114	74.73	94.16	1	1	4	5	3	13	27
oursin	gene	model_51	679287	110	0	0.99	0.98	0.87	25	28	114	74.81	94.3	1	1	4	5	3	13	27
oursin	gene	model_52	684748	111	0	0.99	0.98	0.87	25	28	114	74.81	94.44	1	1	4	5	3	13	27
oursin	gene	model_45	647163	104	0	0.99	0.98	0.87	25	28	115	74.5	94.02	1	1	4	5	3	14	28
oursin	gene	model_46	650514	105	0	0.99	0.98	0.87	25	28	115	74.58	94.16	1	1	4	5	3	14	28
oursin	gene	model_43	630862	102	0	0.99	0.98	0.87	26	28	115	74.27	94.02	1	1	4	6	3	14	29
oursin	gene	model_44	632145	103	0	0.99	0.98	0.87	26	28	116	74.35	94.02	1	1	4	6	3	15	30
oursin	gene	model_37	597040	96	0	0.98	0.98	0.87	27	29	114	73.57	92.63	2	1	4	7	4	13	31
oursin	gene	model_38	600787	97	0	0.98	0.98	0.87	26	29	115	73.57	92.63	2	1	4	6	4	14	31
oursin	gene	model_41	623041	100	0	0.98	0.98	0.87	26	28	116	74.19	94.02	2	1	4	6	3	15	31
oursin	gene	model_42	628090	101	0	0.98	0.98	0.87	26	28	116	74.19	94.02	2	1	4	6	3	15	31
oursin	gene	model_34	582268	93	0	0.98	0.98	0.87	27	30	114	73.34	92.63	2	1	4	7	5	13	32
oursin	gene	model_35	586561	94	0	0.98	0.98	0.87	27	29	115	73.5	92.63	2	1	4	7	4	14	32
oursin	gene	model_36	594667	95	0	0.98	0.98	0.87	27	29	115	73.5	92.63	2	1	4	7	4	14	32
oursin	gene	model_39	603094	98	0	0.98	0.98	0.87	26	29	116	73.57	92.63	2	1	4	6	4	15	32
oursin	gene	model_40	609241	99	0	0.98	0.98	0.87	26	29	116	73.57	92.63	2	1	4	6	4	15	32
oursin	gene	model_28	554942	87	0	0.98	0.98	0.87	28	31	114	72.65	92.21	2	1	4	8	6	13	34
oursin	gene	model_29	557897	88	0	0.98	0.98	0.87	28	30	115	72.73	92.21	2	1	4	8	5	14	34
oursin	gene	model_31	566627	90	0	0.98	0.98	0.87	28	30	115	73.11	92.49	2	1	4	8	5	14	34
oursin	gene	model_33	574778	92	0	0.98	0.98	0.87	27	30	116	73.19	92.63	2	1	4	7	5	15	34
oursin	gene	model_27	553553	86	0	0.98	0.98	0.87	29	31	114	72.5	92.21	2	1	4	9	6	13	35
oursin	gene	model_32	569597	91	0	0.98	0.98	0.87	28	30	116	73.11	92.63	2	1	4	8	5	15	35
oursin	gene	model_24	525959	83	0	0.98	0.98	0.87	29	32	114	71.65	91.93	2	1	4	9	7	13	36
oursin	gene	model_25	533351	84	0	0.98	0.98	0.87	29	32	114	71.96	91.93	2	1	4	9	7	13	36
oursin	gene	model_26	550640	85	0	0.98	0.98	0.87	29	32	114	72.5	92.21	2	1	4	9	7	13	36
oursin	gene	model_30	564224	89	0	0.98	0.98	0.86	28	30	116	72.96	92.35	2	1	5	8	5	15	36
oursin	gene	model_23	524858	82	0	0.98	0.98	0.87	30	32	115	71.57	91.79	2	1	4	10	7	14	38
oursin	gene	model_21	519314	80	0	0.98	0.97	0.86	30	33	115	71.57	91.79	2	2	5	10	8	14	41
oursin	gene	model_22	521519	81	0	0.98	0.98	0.86	30	33	116	71.57	91.79	2	1	5	10	8	15	41
oursin	gene	model_19	513171	78	0	0.98	0.97	0.86	30	33	116	71.34	91.66	2	2	5	10	8	15	42
oursin	gene	model_20	516282	79	0	0.98	0.97	0.86	30	33	116	71.49	91.79	2	2	5	10	8	15	42
oursin	gene	model_18	506478	77	0	0.98	0.97	0.86	31	33	117	71.26	91.66	2	2	5	11	8	16	44
