variable	min_all	max_all	median_all	model_21	model_22	model_27	model_23	model_26	model_24	model_28	model_32	model_25	model_30	model_34	model_19	model_29	model_31	model_17	model_20	model_33	model_35	model_18	model_36	model_16	model_37	model_14	model_15	model_13	model_12	model_11
length_pb	229807	321992	278918	270536	273326	292919	274454	288248	278918	294908	305168	284441	301589	310433	261920	298725	302978	256735	268829	308060	316448	260480	319643	247897	321992	237052	242857	233587	231223	229807
R2	0.99	0.99	0.99	0.99	0.99	0.99	0.99	0.99	0.99	0.99	0.99	0.99	0.99	0.99	0.99	0.99	0.99	0.99	0.99	0.99	0.99	0.99	0.99	0.99	0.99	0.99	0.99	0.99	0.99	0.99
Rsquared_1000optboot	0.98	0.99	0.99	0.99	0.99	0.99	0.99	0.99	0.99	0.99	0.99	0.99	0.99	0.99	0.99	0.99	0.99	0.99	0.99	0.99	0.99	0.99	0.99	0.99	0.99	0.99	0.99	0.98	0.98	0.98
Rsquared_externaltest	0.92	0.93	0.93	0.93	0.93	0.93	0.93	0.93	0.93	0.93	0.93	0.93	0.93	0.93	0.92	0.93	0.93	0.92	0.92	0.93	0.93	0.92	0.93	0.92	0.93	0.92	0.92	0.92	0.92	0.92
RSE	60	75	63	64	64	62	64	62	63	62	61	63	61	61	65	62	61	68	65	61	60	67	60	69	60	70	69	72	73	75
RMSE_1000optboot	71	85	72	72	72	71	72	71	72	71	71	72	71	72	73	71	72	77	73	71	73	75	73	78	74	80	79	81	82	85
RMSE_externaltest	243	262	255	243	245	250	248	255	254	256	257	255	258	257	252	258	258	247	253	260	259	251	261	250	262	250	252	252	256	257
variables_model	33	59	46	43	44	49	45	48	46	50	54	47	52	56	41	51	53	39	42	55	57	40	58	38	59	36	37	35	34	33
negative_variables	0	1	0	0	0	0	0	0	0	0	0	0	0	1	0	0	0	0	0	0	0	0	0	0	0	0	0	0	0	0
percent_training	56.65	63.88	61.58	60.92	61.25	62.56	61.25	62.4	61.58	62.56	63.71	62.07	63.22	63.71	60.76	63.22	63.22	60.26	60.76	63.71	63.88	60.43	63.88	59.44	63.88	56.81	58.29	56.81	56.65	56.65
percent_testing	63.32	71.62	69	68.12	68.56	70.31	69	70.31	69	71.62	71.62	70.31	71.62	71.62	65.94	71.62	71.62	65.94	68.12	71.62	71.62	65.94	71.62	65.94	71.62	64.19	65.07	64.19	63.32	63.32


hgnc_symbol	in_models	census	panel	model_21	model_22	model_27	model_23	model_26	model_24	model_28	model_32	model_25	model_30	model_34	model_19	model_29	model_31	model_17	model_20	model_33	model_35	model_18	model_36	model_16	model_37	model_14	model_15	model_13	model_12	model_11
Intercept	27.00	  NA	   NA	 29.42	 29.25	 29.76	 29.15	 29.22	 29.25	 30.12	 28.99	 29.00	 29.60	 28.61	 29.32	 29.59	 29.26	 29.65	 29.84	 28.84	 27.98	 29.92	 28.07	 30.33	 28.00	 32.27	 31.27	 33.22	 33.21	 34.20
ANK1 - ENSG00000029534	27.00	TRUE	FALSE	106.32	105.01	105.32	104.41	106.37	103.34	104.77	104.84	105.53	107.02	104.38	106.00	105.29	106.22	108.10	104.73	103.89	101.70	104.82	100.05	108.66	100.65	115.09	113.97	116.32	118.97	125.84
BCL11A - ENSG00000119866	27.00	TRUE	FALSE	149.10	154.53	156.63	153.92	160.79	156.10	145.97	148.72	158.78	143.68	144.22	151.52	141.47	145.44	157.74	148.67	149.73	140.10	157.00	143.05	158.30	141.10	167.16	160.84	176.77	181.40	193.82
BCORL1 - ENSG00000085185	27.00	TRUE	 TRUE	107.76	104.62	102.62	110.12	103.94	111.78	 98.60	 98.79	108.93	 96.92	106.17	113.17	 98.61	 95.36	130.40	103.42	103.30	106.41	124.13	102.36	134.34	103.65	132.09	135.10	134.38	129.34	125.04
BIRC6 - ENSG00000115760	27.00	TRUE	FALSE	 55.79	 55.31	 52.41	 56.69	 56.40	 55.41	 55.56	 54.65	 57.57	 55.22	 56.36	 57.28	 55.54	 55.71	 54.67	 54.46	 55.08	 57.75	 57.04	 55.05	 58.94	 54.65	 60.94	 61.56	 59.29	 59.98	 58.55
BLM - ENSG00000197299	27.00	TRUE	 TRUE	154.62	154.78	154.78	158.37	154.74	156.55	148.86	141.41	151.02	140.25	137.30	152.50	144.86	141.50	158.44	153.75	133.35	138.72	153.97	137.80	158.77	136.83	174.57	159.67	182.23	184.72	171.33
BRAF - ENSG00000157764	27.00	TRUE	 TRUE	113.83	114.71	124.69	113.53	131.11	123.40	131.45	126.22	126.30	133.01	131.58	123.80	130.44	125.50	121.44	116.35	129.24	129.64	128.65	130.51	123.07	132.09	127.63	124.54	118.08	113.05	142.81
CACNA1D - ENSG00000157388	27.00	TRUE	FALSE	 89.83	 91.43	 83.71	 91.25	 89.01	 88.59	 81.02	 75.15	 86.69	 75.68	 70.34	 90.25	 77.70	 76.63	 88.79	 90.07	 71.27	 68.53	 86.37	 69.64	 93.61	 70.84	 97.39	 96.51	101.17	105.95	104.84
CDC73 - ENSG00000134371	27.00	TRUE	 TRUE	378.71	372.33	365.05	369.06	357.68	365.61	376.16	374.98	365.31	377.64	378.81	412.94	377.07	367.08	413.44	411.86	377.60	360.24	414.99	357.23	405.18	354.91	403.80	400.47	405.41	425.14	401.41
CDH10 - ENSG00000040731	27.00	TRUE	FALSE	 88.76	 91.22	 77.38	 91.28	 82.05	 89.83	 81.30	 82.89	 90.72	 83.30	 86.71	 87.52	 82.17	 82.64	 89.60	 84.51	 85.15	 87.38	 90.37	 87.29	 92.15	 86.98	 88.26	 86.86	100.78	102.74	108.22
CDH17 - ENSG00000079112	27.00	TRUE	FALSE	252.05	257.08	253.63	258.73	258.16	264.25	262.89	266.10	264.40	259.48	268.31	254.22	262.20	262.29	261.60	254.31	269.43	272.25	256.28	265.74	265.68	263.67	268.08	263.66	287.10	292.48	311.79
CHD4 - ENSG00000111642	27.00	TRUE	 TRUE	 64.75	 66.17	 61.49	 66.89	 60.91	 69.00	 59.32	 60.53	 66.52	 57.21	 60.29	 68.39	 57.66	 58.88	 69.75	 69.81	 60.43	 62.70	 64.71	 64.22	 69.07	 64.40	 74.90	 75.80	 76.68	 72.28	 61.73
CUX1 - ENSG00000257923	27.00	TRUE	FALSE	 86.66	 87.32	 81.52	 84.25	 81.40	 80.53	 78.55	 77.38	 80.33	 76.94	 76.35	 93.77	 76.13	 76.01	 96.54	 91.72	 77.40	 74.82	 93.88	 74.33	 94.77	 75.07	 97.92	 95.19	101.81	101.08	 95.34
DAXX - ENSG00000204209	27.00	TRUE	 TRUE	122.56	126.90	113.51	121.53	114.49	116.88	116.78	 93.99	117.15	116.23	 88.97	119.43	113.26	109.68	101.94	118.35	 91.46	 95.46	113.49	103.34	102.99	 97.88	 97.48	105.58	 93.76	 90.71	 94.80
DNM2 - ENSG00000079805	27.00	TRUE	FALSE	101.61	 92.52	 81.78	 91.02	 85.70	 87.49	 87.35	 88.05	 89.44	 90.83	 83.66	102.66	 89.92	 87.18	112.90	100.94	 85.92	 79.62	109.75	 79.80	114.27	 75.46	104.71	101.76	105.97	114.22	121.78
FAT1 - ENSG00000083857	27.00	TRUE	 TRUE	 57.98	 56.97	 61.24	 59.90	 62.32	 62.61	 62.03	 59.22	 63.70	 58.00	 58.89	 60.24	 60.77	 58.99	 59.12	 62.46	 58.61	 58.13	 60.45	 56.01	 60.19	 56.95	 56.07	 61.89	 57.68	 56.01	 58.20
FAT4 - ENSG00000196159	27.00	TRUE	FALSE	 45.68	 45.80	 43.30	 45.81	 44.89	 45.65	 42.79	 42.36	 45.41	 42.07	 43.22	 47.57	 42.74	 42.23	 47.76	 46.80	 42.89	 42.57	 47.47	 42.61	 47.28	 42.35	 48.85	 47.62	 50.10	 47.02	 45.11
HIF1A - ENSG00000100644	27.00	TRUE	FALSE	215.69	214.13	206.67	210.44	202.49	191.56	179.52	149.75	194.75	169.48	146.72	222.58	181.15	164.72	242.44	226.63	145.62	144.02	238.34	144.86	244.95	144.56	265.56	246.27	262.38	259.46	245.70
IKBKB - ENSG00000104365	27.00	TRUE	FALSE	225.75	225.00	212.15	225.90	211.81	228.34	214.36	220.88	218.96	213.05	209.47	222.25	212.84	217.67	235.00	226.41	206.26	210.89	227.75	200.68	238.62	199.85	235.38	238.55	242.29	251.83	251.11
KDR - ENSG00000128052	27.00	TRUE	 TRUE	105.13	102.27	100.73	100.62	 99.53	102.38	102.20	 91.24	101.20	102.96	 84.71	110.46	105.48	 95.54	116.70	109.43	 87.17	 93.20	111.02	 90.06	118.93	 90.22	119.93	118.25	114.97	108.96	114.47
KMT2D - ENSG00000167548	27.00	TRUE	 TRUE	108.54	109.10	109.32	108.41	107.22	104.65	109.29	111.65	106.09	112.15	109.97	109.03	110.83	111.52	113.40	107.20	112.51	108.41	110.77	108.61	116.60	108.67	121.11	118.27	120.98	119.59	132.95
MUC16 - ENSG00000181143	27.00	TRUE	FALSE	 38.27	 37.05	 37.21	 36.32	 36.61	 36.05	 36.17	 37.27	 36.23	 35.90	 37.14	 36.43	 35.84	 37.45	 38.93	 36.06	 37.00	 35.92	 38.83	 35.41	 38.52	 35.63	 38.68	 36.35	 36.92	 37.10	 34.91
NDRG1 - ENSG00000104419	27.00	TRUE	FALSE	406.81	398.35	384.96	408.12	383.54	402.06	371.31	410.42	393.78	386.45	405.36	425.63	385.55	395.96	441.88	430.87	411.91	418.31	427.06	410.53	443.70	413.19	429.55	443.15	433.68	422.74	429.49
NOTCH2 - ENSG00000134250	27.00	TRUE	 TRUE	 54.17	 51.87	 50.14	 50.82	 50.51	 51.60	 50.81	 48.08	 50.69	 53.78	 51.03	 54.46	 52.42	 48.72	 54.86	 54.04	 48.31	 48.98	 51.98	 47.37	 56.14	 50.02	 60.81	 57.54	 54.74	 49.98	 56.71
NRG1 - ENSG00000157168	27.00	TRUE	FALSE	 91.80	 92.75	 83.10	 93.43	 88.03	 94.12	 84.55	 76.50	 92.83	 84.52	 78.24	 96.92	 84.12	 79.32	 96.44	 97.07	 78.28	 81.23	 94.70	 85.58	 96.28	 87.78	101.34	102.08	 99.73	107.92	114.55
NUP98 - ENSG00000110713	27.00	TRUE	FALSE	156.15	155.69	164.81	154.57	160.95	154.66	165.20	167.90	156.39	162.84	161.28	153.82	163.08	167.84	149.58	153.59	168.33	150.18	154.19	150.54	152.83	149.23	161.77	153.41	146.57	153.90	157.02
PAX7 - ENSG00000009709	27.00	TRUE	FALSE	185.19	180.58	172.01	182.00	168.19	181.36	171.75	147.79	183.23	153.10	146.82	189.22	162.36	156.50	192.23	181.87	149.07	145.45	180.84	146.13	198.97	148.27	195.48	199.26	192.01	200.65	192.80
PDE4DIP - ENSG00000178104	27.00	TRUE	FALSE	 46.96	 48.13	 51.03	 49.48	 48.64	 50.57	 52.14	 52.99	 48.74	 51.17	 52.47	 48.57	 49.81	 51.22	 60.09	 46.91	 51.77	 55.59	 51.95	 53.80	 56.52	 53.51	 52.58	 55.96	 55.19	 54.89	 59.35
PTPRT - ENSG00000196090	27.00	TRUE	FALSE	 48.26	 47.55	 42.82	 49.08	 46.49	 49.85	 42.98	 45.13	 51.31	 42.32	 43.64	 50.14	 42.45	 44.01	 49.80	 48.17	 45.91	 43.42	 48.09	 43.43	 53.33	 42.95	 52.35	 52.74	 54.48	 66.81	 58.57
RNF213 - ENSG00000173821	27.00	TRUE	FALSE	111.29	108.80	104.65	107.98	104.50	108.20	102.50	100.54	107.36	102.45	102.09	114.39	102.52	101.08	107.67	115.10	102.49	 99.81	112.26	102.07	104.64	100.68	110.01	107.05	112.04	114.00	109.88
SALL4 - ENSG00000101115	27.00	TRUE	FALSE	142.39	143.69	124.11	143.33	124.09	138.77	124.14	126.50	136.45	132.31	128.17	141.17	129.76	130.28	139.94	145.56	127.49	118.65	137.67	122.06	136.40	122.52	137.93	134.79	138.94	144.11	128.67
STIL - ENSG00000123473	27.00	TRUE	FALSE	228.41	233.73	183.75	219.48	186.21	206.50	177.81	180.49	202.96	191.37	175.45	192.66	177.91	189.57	205.73	203.31	175.95	171.21	202.97	170.93	204.20	165.71	222.27	220.83	231.63	249.24	289.78
SUFU - ENSG00000107882	27.00	TRUE	 TRUE	179.34	176.87	174.90	177.07	174.03	191.12	187.42	169.03	189.27	176.81	171.12	186.82	183.37	182.44	188.62	190.87	161.03	158.54	184.27	160.65	206.15	153.12	207.98	198.41	186.94	186.03	163.09
ZFHX3 - ENSG00000140836	27.00	TRUE	FALSE	157.86	158.09	155.49	158.63	154.32	155.64	156.07	146.46	152.27	151.85	146.41	158.26	151.34	148.48	161.49	155.57	145.62	146.91	159.31	147.74	165.41	147.49	170.48	169.93	171.23	172.41	172.06
NONO - ENSG00000147140	26.00	TRUE	FALSE	145.56	146.84	181.69	154.62	166.67	163.31	180.55	183.76	172.26	172.70	185.09	155.84	174.61	181.19	131.57	181.11	183.60	173.27	136.31	162.90	121.57	164.88	174.86	171.84	211.84	211.65	  0.00
SMO - ENSG00000128602	25.00	TRUE	 TRUE	104.39	108.44	 90.14	102.33	 94.27	102.45	 88.89	 71.36	 97.37	 84.17	 71.07	 97.67	 87.69	 72.54	 92.18	 98.49	 69.61	 78.69	 98.00	 76.33	 94.63	 75.03	 82.62	 93.82	 81.87	  0.00	  0.00
JAK1 - ENSG00000162434	24.00	TRUE	 TRUE	 55.04	 48.01	 44.08	 49.84	 47.46	 49.06	 43.41	 34.21	 53.41	 37.81	 38.13	 69.33	 43.69	 36.85	 73.76	 61.14	 38.07	 27.12	 68.55	 30.78	 70.72	 31.40	 74.13	 73.32	  0.00	  0.00	  0.00
PTPRD - ENSG00000153707	23.00	TRUE	FALSE	 39.57	 39.43	 39.12	 40.82	 39.66	 37.56	 36.26	 39.28	 38.31	 41.22	 37.99	 39.51	 38.61	 41.36	 34.77	 40.02	 38.34	 44.61	 35.55	 43.58	 35.54	 42.75	  0.00	 39.88	  0.00	  0.00	  0.00
SMARCA4 - ENSG00000127616	22.00	TRUE	 TRUE	 35.11	 33.17	 29.51	 34.62	 29.23	 30.18	 30.31	 28.29	 26.60	 25.43	 28.11	 39.19	 27.95	 27.40	 42.69	 35.50	 28.31	 31.05	 41.59	 31.39	 41.47	 32.04	  0.00	  0.00	  0.00	  0.00	  0.00
NF1 - ENSG00000196712	21.00	TRUE	 TRUE	 41.08	 40.53	 42.98	 39.18	 44.66	 39.07	 43.56	 44.95	 39.14	 45.30	 38.43	 46.41	 43.68	 44.02	 36.88	 42.91	 41.08	 37.16	 44.11	 38.52	  0.00	 37.88	  0.00	  0.00	  0.00	  0.00	  0.00
SMC1A - ENSG00000072501	20.00	TRUE	FALSE	122.47	124.53	114.34	122.06	114.74	112.30	109.59	 89.02	106.21	 94.74	 85.15	119.50	104.24	 93.26	  0.00	115.09	 86.81	 86.49	114.69	 87.13	  0.00	 87.66	  0.00	  0.00	  0.00	  0.00	  0.00
AKT3 - ENSG00000117020	19.00	TRUE	 TRUE	 98.80	 96.18	 87.63	 94.81	 86.48	 86.57	 91.73	 81.69	 85.92	 79.07	 79.82	101.11	 83.85	 81.87	  0.00	 99.69	 80.13	 82.79	  0.00	 84.15	  0.00	 83.14	  0.00	  0.00	  0.00	  0.00	  0.00
ARID1B - ENSG00000049618	18.00	TRUE	 TRUE	 42.51	 42.16	 49.05	 42.16	 49.58	 42.05	 48.53	 48.38	 42.90	 44.86	 52.61	  0.00	 47.30	 50.84	  0.00	 41.50	 51.61	 58.49	  0.00	 58.58	  0.00	 59.56	  0.00	  0.00	  0.00	  0.00	  0.00
MLLT3 - ENSG00000171843	17.00	TRUE	FALSE	 60.49	 61.85	 24.95	 47.80	 27.65	 36.90	 18.02	  4.66	 29.68	 14.22	 -0.63	  0.00	 11.36	  6.99	  0.00	  0.00	  0.12	  0.48	  0.00	  5.41	  0.00	  4.68	  0.00	  0.00	  0.00	  0.00	  0.00
FGFR2 - ENSG00000066468	16.00	TRUE	 TRUE	  0.00	 47.08	 61.32	 46.57	 56.28	 51.60	 59.20	 55.06	 51.48	 59.00	 49.63	  0.00	 59.37	 55.46	  0.00	  0.00	 55.37	 51.76	  0.00	 56.50	  0.00	 59.50	  0.00	  0.00	  0.00	  0.00	  0.00
DEK - ENSG00000124795	15.00	TRUE	FALSE	  0.00	  0.00	 83.28	 72.20	 90.78	 88.60	 93.11	113.05	 89.97	106.63	118.38	  0.00	106.85	106.92	  0.00	  0.00	113.66	122.00	  0.00	113.07	  0.00	116.72	  0.00	  0.00	  0.00	  0.00	  0.00
COL2A1 - ENSG00000139219	14.00	TRUE	FALSE	  0.00	  0.00	 39.81	  0.00	 44.55	 49.74	 37.37	 37.68	 44.15	 31.73	 40.20	  0.00	 35.06	 34.33	  0.00	  0.00	 38.64	 33.41	  0.00	 32.46	  0.00	 33.66	  0.00	  0.00	  0.00	  0.00	  0.00
ARID2 - ENSG00000189079	13.00	TRUE	 TRUE	  0.00	  0.00	 27.72	  0.00	 28.29	  0.00	 29.30	 27.94	 24.75	 26.29	 37.03	  0.00	 27.02	 28.73	  0.00	  0.00	 35.00	 38.16	  0.00	 40.43	  0.00	 38.15	  0.00	  0.00	  0.00	  0.00	  0.00
STAG2 - ENSG00000101972	12.00	TRUE	 TRUE	  0.00	  0.00	 74.70	  0.00	 67.80	  0.00	 67.21	 81.59	  0.00	 66.94	 69.60	  0.00	 69.54	 75.02	  0.00	  0.00	 75.82	 71.21	  0.00	 66.60	  0.00	 67.92	  0.00	  0.00	  0.00	  0.00	  0.00
BAZ1A - ENSG00000198604	11.00	TRUE	FALSE	  0.00	  0.00	 56.90	  0.00	  0.00	  0.00	 53.67	 70.04	  0.00	 61.08	 69.80	  0.00	 60.09	 65.27	  0.00	  0.00	 67.35	 72.40	  0.00	 69.89	  0.00	 70.19	  0.00	  0.00	  0.00	  0.00	  0.00
DDX3X - ENSG00000215301	10.00	TRUE	FALSE	  0.00	  0.00	  0.00	  0.00	  0.00	  0.00	 44.98	 48.90	  0.00	 48.95	 45.66	  0.00	 50.98	 47.62	  0.00	  0.00	 45.44	 41.41	  0.00	 42.77	  0.00	 44.75	  0.00	  0.00	  0.00	  0.00	  0.00
ATP2B3 - ENSG00000067842	 9.00	TRUE	FALSE	  0.00	  0.00	  0.00	  0.00	  0.00	  0.00	  0.00	 39.70	  0.00	 33.56	 39.70	  0.00	 31.92	 35.83	  0.00	  0.00	 40.21	 35.21	  0.00	 31.88	  0.00	 31.97	  0.00	  0.00	  0.00	  0.00	  0.00
DNMT3A - ENSG00000119772	 8.00	TRUE	 TRUE	  0.00	  0.00	  0.00	  0.00	  0.00	  0.00	  0.00	 13.68	  0.00	 39.02	  6.54	  0.00	  0.00	 20.95	  0.00	  0.00	 13.48	 24.42	  0.00	 37.75	  0.00	 44.28	  0.00	  0.00	  0.00	  0.00	  0.00
GOPC - ENSG00000047932	 7.00	TRUE	FALSE	  0.00	  0.00	  0.00	  0.00	  0.00	  0.00	  0.00	 61.45	  0.00	  0.00	 54.65	  0.00	  0.00	 70.31	  0.00	  0.00	 59.89	 51.21	  0.00	 41.89	  0.00	 28.42	  0.00	  0.00	  0.00	  0.00	  0.00
BAP1 - ENSG00000163930	 6.00	TRUE	 TRUE	  0.00	  0.00	  0.00	  0.00	  0.00	  0.00	  0.00	 47.90	  0.00	  0.00	 42.94	  0.00	  0.00	  0.00	  0.00	  0.00	 47.14	 36.16	  0.00	 29.84	  0.00	 25.62	  0.00	  0.00	  0.00	  0.00	  0.00
KIF5B - ENSG00000170759	 5.00	TRUE	FALSE	  0.00	  0.00	  0.00	  0.00	  0.00	  0.00	  0.00	  0.00	  0.00	  0.00	 40.88	  0.00	  0.00	  0.00	  0.00	  0.00	 37.78	 38.85	  0.00	 30.98	  0.00	 30.41	  0.00	  0.00	  0.00	  0.00	  0.00
TNFAIP3 - ENSG00000118503	 4.00	TRUE	 TRUE	  0.00	  0.00	  0.00	  0.00	  0.00	  0.00	  0.00	  0.00	  0.00	  0.00	 34.77	  0.00	  0.00	  0.00	  0.00	  0.00	  0.00	 24.22	  0.00	 23.44	  0.00	 17.99	  0.00	  0.00	  0.00	  0.00	  0.00
KAT6A - ENSG00000083168	 3.00	TRUE	 TRUE	  0.00	  0.00	  0.00	  0.00	  0.00	  0.00	  0.00	  0.00	  0.00	  0.00	  0.00	  0.00	  0.00	  0.00	  0.00	  0.00	  0.00	 38.97	  0.00	 38.01	  0.00	 37.82	  0.00	  0.00	  0.00	  0.00	  0.00
BUB1B - ENSG00000156970	 2.00	TRUE	FALSE	  0.00	  0.00	  0.00	  0.00	  0.00	  0.00	  0.00	  0.00	  0.00	  0.00	  0.00	  0.00	  0.00	  0.00	  0.00	  0.00	  0.00	  0.00	  0.00	 47.28	  0.00	 44.64	  0.00	  0.00	  0.00	  0.00	  0.00
ERCC3 - ENSG00000163161	 1.00	TRUE	FALSE	  0.00	  0.00	  0.00	  0.00	  0.00	  0.00	  0.00	  0.00	  0.00	  0.00	  0.00	  0.00	  0.00	  0.00	  0.00	  0.00	  0.00	  0.00	  0.00	  0.00	  0.00	 24.23	  0.00	  0.00	  0.00	  0.00	  0.00
