variable	min_all	max_all	median_all	model_61	model_62	model_76	model_63	model_64	model_77	model_78	model_65	model_72	model_73	model_74	model_67	model_71	model_68	model_70	model_75	model_66	model_69	model_59	model_60	model_50	model_51	model_49	model_56	model_48	model_57	model_58	model_52	model_53	model_55	model_46	model_47	model_54	model_45	model_43	model_44	model_42	model_40	model_41	model_39	model_38	model_35	model_36	model_37	model_32	model_33	model_29	model_30	model_34	model_31	model_28	model_27	model_25	model_26	model_20	model_21	model_22	model_24	model_23	model_19	model_13	model_11	model_15	model_14	model_17	model_12	model_18	model_16
length_pb	239251	621535	409077.5	491510	503810	607792	509918	520451	616984	621535	526049	587276	592892	596707	554162	580626	560911	578056	602821	543437	564286	482397	487826	440296	442151	435115	471997	430036	475636	476811	449944	450631	457423	422182	426067	453706	414269	398774	403886	393089	386771	389237	379064	376817	361172	362615	369437	355992	357566	349908	351234	360098	353622	345789	341373	332862	336516	303700	306814	313103	321926	318479	298531	266416	239251	276301	272200	289276	256159	293152	283201
R2	0.99	1	1	1	1	1	1	1	1	1	1	1	1	1	1	1	1	1	1	1	1	1	1	1	1	1	1	1	1	1	1	1	1	1	1	1	1	1	1	1	1	1	1	1	0.99	0.99	0.99	0.99	0.99	0.99	0.99	0.99	0.99	0.99	0.99	0.99	0.99	0.99	0.99	0.99	0.99	0.99	0.99	0.99	0.99	0.99	0.99	0.99	0.99	0.99	0.99
Rsquared_1000optboot	0.98	1	0.99	1	1	1	1	1	1	1	1	1	1	1	1	1	1	1	1	1	1	1	1	0.99	0.99	0.99	1	0.99	1	1	0.99	0.99	0.99	0.99	0.99	0.99	0.99	0.99	0.99	0.99	0.99	0.99	0.99	0.99	0.99	0.99	0.99	0.99	0.99	0.99	0.99	0.99	0.99	0.99	0.99	0.99	0.99	0.99	0.99	0.99	0.99	0.99	0.99	0.99	0.98	0.99	0.99	0.99	0.98	0.99	0.99
Rsquared_externaltest	0.93	0.96	0.95	0.96	0.96	0.96	0.96	0.95	0.96	0.96	0.95	0.96	0.96	0.96	0.95	0.96	0.95	0.96	0.95	0.95	0.95	0.95	0.95	0.95	0.95	0.95	0.95	0.95	0.95	0.95	0.95	0.95	0.95	0.95	0.95	0.95	0.95	0.95	0.95	0.95	0.95	0.95	0.95	0.95	0.95	0.95	0.95	0.95	0.95	0.95	0.95	0.95	0.95	0.95	0.95	0.94	0.94	0.95	0.94	0.94	0.94	0.94	0.94	0.94	0.94	0.94	0.94	0.93	0.94	0.93	0.93
RSE	37	77	42	38	38	37	38	38	37	37	37	37	37	37	37	37	37	37	37	37	37	39	38	41	40	41	39	41	39	39	40	40	40	42	42	40	42	42	42	43	44	43	45	45	47	46	46	49	49	52	52	48	50	53	53	56	55	62	61	60	57	58	64	72	77	70	71	67	76	66	68
RMSE_1000optboot	45	84	47	45	45	45	45	45	46	46	45	45	45	45	45	45	45	45	45	45	46	45	45	47	46	47	45	47	45	45	46	46	46	47	47	46	47	47	47	47	49	48	50	51	52	51	51	55	54	58	57	54	55	58	58	61	59	68	68	66	61	63	71	78	84	77	78	74	82	73	75
RMSE_externaltest	297	363	317	297	300	301	301	300	301	301	302	303	303	303	303	304	304	305	304	306	305	307	308	303	305	304	310	306	312	312	310	310	311	309	309	315	311	319	320	325	322	325	322	325	321	324	331	333	335	331	332	344	338	333	335	345	349	338	344	348	358	354	353	335	329	344	339	352	337	363	354
variables_model	30	99	63.5	80	82	97	83	85	98	99	86	93	94	95	88	92	89	91	96	87	90	78	79	69	70	68	75	67	76	77	71	72	74	65	66	73	64	62	63	61	59	60	58	57	54	55	56	51	52	48	49	53	50	47	46	44	45	39	40	41	43	42	38	32	30	34	33	36	31	37	35
negative_variables	0	2	0	0	0	1	1	1	1	2	1	1	1	1	1	1	1	1	2	1	1	0	0	0	0	0	0	0	0	0	0	0	0	0	0	0	0	0	0	0	0	0	0	0	0	0	0	0	0	0	0	0	0	0	0	0	0	0	0	0	0	0	0	0	0	0	0	0	0	0	0
percent_training	64.15	83.65	76.575	79.4	79.87	83.02	79.87	80.03	83.49	83.65	80.35	82.39	82.55	82.86	80.35	81.76	80.35	81.6	82.86	80.35	80.66	79.25	79.4	77.52	77.83	77.52	78.62	77.04	78.77	79.09	77.83	78.3	78.3	77.04	77.04	78.3	76.73	76.1	76.42	75.79	75.79	75.79	75.47	75.31	74.84	74.84	75	74.21	74.21	73.74	73.74	74.84	73.74	73.43	73.27	72.96	73.11	69.81	70.44	70.91	72.01	71.23	69.65	67.14	64.15	68.4	67.61	69.5	66.98	69.65	69.34
percent_testing	79.91	90.39	84.28	86.9	86.9	90.39	86.9	86.9	90.39	90.39	87.34	88.21	88.21	89.96	87.34	87.77	87.34	87.77	89.96	87.34	87.34	86.03	86.9	85.15	85.15	84.72	85.59	84.72	85.59	86.03	85.59	85.59	85.59	84.28	84.28	85.59	84.28	84.28	84.28	84.28	84.28	84.28	83.84	83.84	83.84	83.84	83.84	83.84	83.84	83.84	83.84	83.84	83.84	83.84	83.84	83.84	83.84	83.41	83.41	83.84	83.84	83.84	83.41	81.66	79.91	82.53	81.66	82.53	81.66	82.53	82.53


hgnc_symbol	in_models	census	panel	model_61	model_62	model_76	model_63	model_64	model_77	model_78	model_65	model_72	model_73	model_74	model_67	model_71	model_68	model_70	model_75	model_66	model_69	model_59	model_60	model_50	model_51	model_49	model_56	model_48	model_57	model_58	model_52	model_53	model_55	model_46	model_47	model_54	model_45	model_43	model_44	model_42	model_40	model_41	model_39	model_38	model_35	model_36	model_37	model_32	model_33	model_29	model_30	model_34	model_31	model_28	model_27	model_25	model_26	model_20	model_21	model_22	model_24	model_23	model_19	model_13	model_11	model_15	model_14	model_17	model_12	model_18	model_16
Intercept	68.00	   NA	   NA	 10.84	 10.47	10.32	 10.38	 10.49	10.30	10.39	 10.56	10.34	10.39	10.389	 10.65	 10.40	 10.71	 10.24	10.39	 10.57	 10.72	 11.29	 10.93	 11.98	 11.79	 11.65	 11.35	 12.09	 11.45	 11.23	 11.73	 11.00	 11.32	 12.30	 12.12	 11.30	 11.99	 12.35	 12.15	 12.07	 11.89	 12.06	 12.36	 12.41	 11.93	 12.14	 12.71	 10.72	 11.62	 10.80	 10.53	 11.30	 11.24	 10.06	  9.46	  7.98	  9.13	  9.89	  8.95	  9.20	  9.01	  9.23	  9.03	  8.89	  9.45	  7.56	  8.81	  6.05	  8.34	  7.28	  6.50
ARID1A - ENSG00000117713	68.00	 TRUE	 TRUE	 16.51	 16.35	12.62	 16.11	 15.03	12.59	12.44	 14.86	12.54	13.00	13.004	 14.40	 13.65	 14.44	 15.33	12.80	 13.46	 14.38	 18.40	 18.67	 19.77	 18.92	 19.68	 18.45	 20.89	 17.21	 17.44	 18.83	 17.92	 16.85	 21.95	 20.92	 17.71	 21.82	 21.14	 21.91	 21.43	 20.81	 19.91	 22.28	 25.29	 26.11	 25.60	 26.26	 27.54	 26.70	 30.23	 29.56	 22.71	 27.40	 31.04	 31.59	 29.56	 32.50	 40.37	 40.56	 40.56	 29.41	 32.37	 44.40	 55.29	 52.59	 52.91	 52.22	 48.93	 57.67	 46.92	 50.27
COL5A1 - ENSG00000130635	68.00	FALSE	FALSE	 12.60	 14.15	12.82	 13.83	 14.58	12.70	12.87	 14.68	13.89	13.12	13.119	 14.68	 14.70	 14.94	 15.25	12.58	 14.13	 14.69	 11.11	 12.02	 13.03	 14.97	 12.56	 14.99	 12.57	 12.79	 11.31	 15.05	 16.10	 13.73	 14.58	 14.26	 14.67	 15.76	 17.94	 17.40	 15.52	 21.10	 17.89	 23.49	 22.13	 22.32	 22.86	 19.27	 33.94	 31.16	 34.66	 36.26	 24.87	 32.45	 34.58	 32.95	 37.67	 32.84	 63.04	 61.77	 59.15	 37.45	 45.69	 62.55	 64.20	 65.39	 70.71	 68.61	 61.02	 65.30	 59.78	 63.44
CSMD1 - ENSG00000183117	68.00	FALSE	FALSE	 26.23	 25.27	22.21	 25.16	 24.95	22.16	22.04	 24.56	22.44	22.45	22.444	 24.56	 23.01	 24.50	 24.16	22.40	 24.67	 24.35	 26.05	 25.69	 26.73	 28.12	 26.90	 26.85	 27.40	 26.34	 26.37	 27.72	 27.41	 26.06	 27.32	 26.57	 27.14	 27.39	 28.02	 27.50	 28.78	 31.01	 29.53	 30.57	 30.75	 30.46	 29.67	 29.99	 28.38	 27.84	 29.21	 30.43	 27.81	 27.62	 29.56	 29.43	 30.08	 31.79	 32.65	 33.76	 30.95	 30.87	 29.83	 32.36	 38.08	 41.51	 35.94	 37.35	 36.37	 37.50	 34.05	 36.63
DCC - ENSG00000187323	68.00	 TRUE	FALSE	 24.81	 23.45	17.38	 23.08	 22.63	17.45	17.75	 22.76	16.67	16.25	16.252	 23.49	 19.31	 23.20	 23.47	16.67	 22.20	 23.69	 22.59	 23.73	 22.57	 22.53	 20.60	 24.87	 20.22	 24.38	 24.11	 22.65	 23.05	 24.89	 21.95	 21.75	 23.87	 22.92	 22.90	 22.78	 23.90	 26.65	 24.19	 26.98	 26.72	 22.87	 25.12	 25.40	 24.01	 28.63	 27.07	 30.30	 28.31	 28.94	 23.55	 24.30	 22.17	 22.11	 25.31	 27.98	 25.00	 21.83	 25.16	 19.05	 35.99	 35.80	 32.17	 35.57	 29.80	 32.56	 29.15	 29.97
DNAH10 - ENSG00000197653	68.00	FALSE	FALSE	 69.62	 67.61	70.44	 67.27	 68.39	70.45	70.43	 68.74	72.13	71.74	71.733	 70.53	 71.20	 70.36	 70.40	71.22	 69.63	 70.10	 67.46	 68.41	 66.62	 66.24	 67.76	 66.44	 67.58	 66.72	 67.83	 64.95	 65.91	 67.81	 66.26	 66.37	 66.98	 67.47	 68.44	 67.68	 70.14	 70.59	 71.15	 67.33	 67.18	 66.89	 65.72	 64.90	 67.25	 67.10	 66.64	 69.07	 65.81	 68.34	 65.37	 65.00	 67.30	 67.07	 82.54	 81.99	 80.25	 69.91	 75.10	 83.51	 83.39	 88.00	 82.59	 83.63	 80.98	 79.85	 81.65	 78.64
DNAH8 - ENSG00000124721	68.00	FALSE	FALSE	 23.31	 21.15	22.82	 21.43	 19.00	22.69	22.66	 19.59	22.20	22.43	22.434	 19.56	 20.14	 19.51	 18.59	21.46	 18.48	 19.27	 23.94	 24.00	 22.43	 22.17	 22.36	 24.69	 22.20	 23.15	 24.41	 20.54	 20.44	 22.56	 21.81	 21.96	 22.65	 21.79	 23.67	 21.00	 23.47	 26.41	 22.86	 26.31	 28.01	 28.87	 29.64	 28.61	 30.39	 30.71	 28.96	 32.78	 32.13	 31.89	 31.26	 31.10	 32.26	 35.14	 38.08	 33.58	 29.61	 29.88	 26.22	 41.44	 74.83	 93.60	 71.02	 71.56	 48.05	 96.54	 45.54	 58.51
DOCK3 - ENSG00000088538	68.00	FALSE	FALSE	 78.90	 80.49	72.93	 80.20	 76.38	72.95	73.11	 75.32	72.41	72.12	72.115	 75.06	 74.15	 74.88	 72.75	71.81	 75.26	 74.98	 80.66	 79.05	 82.74	 82.70	 83.90	 78.03	 82.37	 79.72	 80.10	 82.63	 83.51	 81.05	 79.75	 80.82	 81.46	 77.67	 83.17	 79.71	 81.92	 80.00	 82.82	 83.15	 86.85	 90.28	 92.62	 89.44	 95.51	 92.17	 99.11	 97.24	 95.14	 93.36	103.95	102.89	107.79	106.10	118.38	118.56	113.20	105.91	111.86	102.13	101.37	 80.99	101.82	101.05	105.69	 81.54	105.39	110.46
DSCAML1 - ENSG00000177103	68.00	FALSE	FALSE	 58.02	 58.70	58.94	 58.74	 58.30	59.04	58.74	 58.32	57.63	57.88	57.879	 57.51	 56.13	 57.46	 56.83	58.49	 58.77	 56.98	 59.44	 62.16	 58.21	 58.76	 58.96	 61.51	 60.02	 61.78	 60.97	 58.50	 59.33	 62.21	 59.73	 59.39	 62.56	 60.13	 64.29	 61.29	 67.54	 67.06	 67.79	 69.11	 67.20	 66.75	 65.96	 67.62	 76.71	 76.80	 74.29	 76.13	 71.23	 75.66	 73.40	 80.74	 85.70	 80.80	 98.03	 96.68	 96.81	 87.86	 88.77	 98.17	100.09	105.92	 98.51	100.68	 90.41	103.69	 98.19	 93.35
ERCC6 - ENSG00000225830	68.00	FALSE	FALSE	 61.39	 60.18	58.63	 60.27	 58.38	58.79	58.73	 60.61	60.68	60.34	60.341	 59.99	 60.22	 60.28	 59.84	59.21	 60.65	 59.52	 63.83	 63.65	 63.27	 68.41	 63.81	 64.07	 62.33	 63.89	 64.45	 66.91	 67.31	 66.26	 64.50	 63.21	 67.24	 64.47	 59.75	 61.03	 58.12	 67.57	 68.99	 65.16	 66.14	 62.48	 66.28	 69.16	 50.41	 52.27	 44.49	 47.53	 58.16	 51.69	 44.15	 47.30	 51.59	 48.72	 60.45	 59.48	 57.28	 54.75	 56.94	 83.16	 91.57	117.40	 93.51	 96.24	 97.19	111.44	 92.39	 96.39
FAT1 - ENSG00000083857	68.00	 TRUE	 TRUE	 50.52	 49.10	45.83	 48.77	 48.40	45.79	45.75	 48.30	45.96	44.60	44.602	 47.86	 48.73	 48.30	 48.53	44.97	 48.12	 47.95	 52.23	 52.29	 59.68	 58.98	 60.07	 56.71	 59.73	 52.59	 52.84	 59.26	 59.47	 58.83	 60.10	 60.57	 58.42	 60.80	 59.19	 60.29	 58.82	 59.53	 58.35	 61.65	 60.55	 69.20	 63.97	 59.45	 70.87	 68.02	 66.91	 65.76	 67.57	 70.59	 70.57	 71.63	 80.98	 74.93	 83.37	 81.03	 78.44	 80.94	 81.32	 83.74	 77.90	 86.14	 80.28	 80.83	 85.53	 81.92	 83.36	 82.16
HCFC1 - ENSG00000172534	68.00	FALSE	FALSE	 62.34	 63.33	54.91	 63.54	 62.31	54.75	54.80	 61.54	56.84	54.35	54.351	 62.11	 58.68	 61.89	 58.67	55.01	 61.24	 61.54	 60.22	 61.94	 61.91	 62.00	 63.43	 56.11	 61.41	 58.25	 59.54	 56.98	 53.96	 55.55	 62.03	 63.62	 54.41	 61.33	 56.95	 59.79	 55.87	 53.93	 49.34	 55.19	 54.13	 50.53	 58.75	 57.28	 66.12	 70.97	 90.12	 73.87	 70.55	 64.31	 90.41	 97.43	 91.25	100.08	109.30	101.12	100.21	 91.84	 96.48	104.48	119.04	108.29	112.41	115.58	107.41	118.44	 95.65	109.56
HERC2 - ENSG00000128731	68.00	FALSE	FALSE	103.13	103.99	99.02	104.07	103.55	99.04	98.99	102.38	98.15	98.33	98.334	101.33	101.47	101.37	100.80	99.01	101.01	101.68	101.58	101.57	107.41	107.31	108.05	102.27	108.46	102.43	102.38	106.68	107.29	102.50	108.76	107.82	103.43	109.52	111.98	111.21	112.21	111.06	111.40	109.75	106.09	102.12	104.28	105.05	 98.25	 99.93	104.96	105.09	100.65	 99.53	108.94	110.56	106.48	109.38	117.11	114.31	110.05	109.40	106.46	121.76	132.14	142.25	131.99	132.93	129.45	133.79	128.65	132.56
KIAA1549 - ENSG00000122778	68.00	 TRUE	FALSE	104.90	102.34	95.63	103.38	102.68	95.63	95.39	102.20	97.05	97.42	97.427	 99.43	 97.38	 99.39	 97.55	97.02	 98.51	 99.79	106.14	106.11	103.34	102.16	102.12	106.15	104.99	107.34	106.84	103.91	104.12	106.18	104.66	104.39	107.91	104.14	102.99	102.25	104.42	100.06	 99.58	101.72	 98.75	101.28	102.55	100.07	103.00	100.57	108.63	107.34	103.33	103.06	104.28	103.25	107.73	103.92	108.61	107.99	110.40	111.81	112.39	118.24	113.37	137.92	109.49	114.34	120.25	132.10	118.47	116.15
LAMA1 - ENSG00000101680	68.00	FALSE	FALSE	 27.87	 29.96	32.76	 30.44	 30.34	32.94	32.88	 31.20	32.84	32.55	32.548	 30.34	 31.78	 30.39	 30.49	32.65	 31.50	 30.31	 27.68	 28.52	 33.69	 33.24	 33.47	 28.37	 33.19	 28.48	 27.61	 32.62	 32.25	 30.16	 34.54	 34.96	 29.46	 35.76	 35.56	 37.01	 35.42	 32.70	 34.24	 33.27	 34.06	 40.29	 38.96	 35.09	 46.87	 45.65	 49.45	 46.03	 44.16	 49.01	 51.72	 51.85	 50.76	 49.84	 51.30	 48.73	 53.68	 51.73	 56.14	 63.50	 59.65	 55.42	 61.21	 59.93	 61.91	 57.85	 60.90	 60.74
LRP1 - ENSG00000123384	68.00	FALSE	FALSE	 81.29	 80.75	72.09	 80.62	 78.18	72.01	71.85	 77.51	73.63	73.45	73.446	 73.89	 74.75	 73.96	 74.41	72.50	 74.30	 73.58	 81.64	 81.91	 82.08	 81.96	 85.30	 81.82	 84.83	 82.41	 81.66	 80.89	 80.18	 81.83	 84.97	 85.20	 80.17	 85.46	 85.16	 85.04	 84.13	 85.73	 84.21	 88.09	 90.31	 86.43	 86.34	 89.41	 90.51	 86.99	 92.98	 91.27	 86.12	 91.07	 92.48	 91.45	 93.33	 93.99	 97.66	 99.24	 94.93	 95.69	 95.29	 95.88	113.83	120.49	111.56	110.75	100.34	116.39	 95.81	101.59
MROH5 - ENSG00000226807	68.00	FALSE	FALSE	 89.82	 88.79	78.73	 87.99	 84.78	78.47	78.57	 83.65	80.71	79.69	79.687	 86.50	 81.77	 87.13	 81.57	78.86	 86.15	 85.22	 96.25	 96.69	 95.00	 96.11	 97.28	 95.58	 96.59	 94.53	 95.66	 92.28	 90.62	 96.15	 98.36	 98.17	 96.80	 98.28	 99.55	100.42	 96.58	 98.30	 94.30	 97.81	106.73	104.29	105.00	104.87	120.13	119.07	128.38	127.01	117.62	120.11	122.44	122.78	140.10	125.07	147.66	142.82	143.90	143.04	144.76	150.31	149.26	158.93	142.26	150.97	151.95	153.65	148.92	146.81
MYH10 - ENSG00000133026	68.00	FALSE	FALSE	 55.73	 57.80	55.88	 57.75	 58.34	55.88	56.09	 57.92	56.16	56.60	56.601	 58.00	 57.12	 57.89	 57.24	56.77	 60.00	 57.30	 60.61	 58.70	 62.71	 62.23	 63.77	 59.70	 63.39	 60.75	 60.78	 59.78	 60.66	 59.59	 63.63	 63.61	 59.15	 63.16	 62.48	 63.35	 61.79	 59.19	 59.26	 58.40	 58.45	 58.76	 56.93	 58.22	 48.51	 52.09	 45.05	 47.05	 54.32	 51.59	 46.80	 51.22	 54.32	 54.08	 54.27	 55.93	 61.94	 55.67	 59.21	 57.44	 75.36	 89.17	 64.66	 67.25	 65.04	 87.37	 64.96	 63.74
MYO15A - ENSG00000091536	68.00	FALSE	FALSE	 93.43	 91.88	93.38	 92.12	 90.86	93.35	93.59	 92.19	94.42	94.13	94.133	 92.08	 95.22	 91.94	 91.49	94.44	 92.09	 92.83	 94.31	 93.41	 97.48	 96.38	 96.24	 94.77	 98.31	 94.44	 93.70	 95.49	 95.96	 96.42	 99.94	 99.68	 94.59	 98.68	105.27	103.14	103.58	104.31	107.00	103.45	101.09	 89.31	 92.22	 97.90	 87.16	 91.63	 84.34	 85.84	 90.27	 88.49	 81.47	 78.25	 81.43	 79.88	 83.73	 83.24	 79.65	 77.55	 74.79	 87.14	 95.55	108.48	 92.47	 91.06	 89.22	103.85	 90.67	 90.06
NAV3 - ENSG00000067798	68.00	FALSE	FALSE	 40.41	 39.01	38.06	 39.30	 40.09	37.95	37.77	 40.63	38.15	37.71	37.713	 38.91	 36.94	 38.69	 38.74	38.04	 40.11	 39.34	 40.41	 40.25	 42.94	 43.72	 41.67	 43.01	 41.57	 41.77	 40.35	 43.85	 43.60	 43.59	 41.70	 41.10	 42.84	 41.02	 43.60	 43.54	 43.83	 45.11	 44.42	 43.04	 44.80	 44.62	 44.90	 44.43	 41.77	 41.53	 41.39	 39.50	 43.12	 42.69	 42.07	 41.32	 42.15	 37.77	 44.42	 41.03	 36.30	 40.91	 39.91	 46.52	 55.11	 61.76	 52.46	 52.86	 50.68	 63.04	 47.36	 53.56
NEBL - ENSG00000078114	68.00	FALSE	FALSE	 52.23	 54.88	49.22	 55.31	 55.36	49.23	49.43	 54.69	51.35	49.96	49.958	 51.98	 51.28	 51.68	 51.07	48.74	 51.78	 52.21	 50.98	 52.07	 51.77	 49.87	 51.33	 46.80	 51.70	 48.16	 48.21	 47.84	 48.37	 47.67	 55.10	 54.53	 50.81	 56.82	 54.67	 56.99	 49.48	 50.12	 48.76	 44.86	 44.66	 49.84	 52.72	 46.70	 48.63	 48.93	 48.17	 47.34	 46.62	 46.74	 54.74	 58.11	 81.47	 77.09	 87.84	 85.71	 82.27	 81.74	 80.93	 98.57	 87.36	 86.15	 82.22	 88.95	 89.44	 78.75	 92.27	 87.73
NUP188 - ENSG00000095319	68.00	FALSE	FALSE	 73.39	 74.60	59.21	 74.41	 75.26	58.96	59.01	 73.02	60.39	59.97	59.961	 67.99	 62.05	 68.12	 63.28	60.15	 70.20	 66.86	 66.33	 67.31	 70.62	 71.79	 74.05	 71.93	 75.42	 69.43	 67.88	 67.60	 69.49	 71.97	 77.00	 76.26	 69.07	 77.15	 86.08	 83.70	 84.88	 89.07	 85.03	 86.18	 83.64	 80.51	 83.98	 85.30	 85.45	 83.79	 90.05	 91.05	 83.60	 89.39	 97.80	 92.62	 97.95	 95.23	 93.23	 97.00	 89.72	 97.68	 97.77	103.06	100.61	109.70	100.47	101.75	107.13	101.79	105.64	106.09
PCDH17 - ENSG00000118946	68.00	FALSE	FALSE	 35.79	 32.20	27.72	 32.17	 32.22	27.81	27.96	 32.73	27.25	26.53	26.536	 32.43	 28.08	 32.57	 31.05	27.82	 33.69	 32.52	 35.23	 35.44	 40.46	 39.98	 41.37	 37.79	 43.08	 37.19	 36.37	 40.85	 40.63	 39.15	 43.61	 43.66	 41.38	 44.54	 49.95	 47.91	 49.42	 48.07	 48.31	 46.96	 47.60	 45.29	 46.57	 47.32	 50.91	 47.27	 43.67	 48.41	 46.20	 49.84	 44.74	 44.63	 42.31	 43.82	 47.05	 44.91	 43.11	 42.15	 41.74	 49.15	 54.48	 50.46	 49.11	 48.69	 46.55	 55.15	 48.57	 45.87
PLEC - ENSG00000178209	68.00	FALSE	FALSE	 37.28	 36.91	36.24	 36.84	 35.65	36.23	36.18	 35.37	35.77	36.16	36.157	 36.21	 36.34	 36.24	 37.12	36.90	 35.49	 36.03	 40.34	 39.51	 39.68	 40.57	 40.40	 41.53	 40.80	 40.04	 40.51	 39.30	 39.73	 39.77	 40.76	 40.19	 39.56	 40.85	 39.30	 40.33	 40.09	 39.79	 42.19	 39.38	 38.19	 45.09	 43.52	 42.42	 45.48	 45.40	 43.51	 45.03	 44.80	 46.37	 44.63	 45.91	 50.35	 44.27	 45.72	 48.93	 50.02	 49.98	 51.04	 46.72	 47.00	 25.29	 49.67	 49.23	 47.92	 30.58	 47.39	 51.55
PTPRD - ENSG00000153707	68.00	 TRUE	FALSE	 34.61	 34.03	29.92	 34.07	 34.53	29.95	30.03	 34.84	32.17	31.03	31.026	 33.19	 32.60	 33.32	 34.63	30.58	 34.32	 33.67	 31.08	 31.58	 24.23	 23.71	 23.23	 30.49	 23.96	 29.45	 30.06	 27.00	 27.25	 29.29	 24.84	 23.10	 27.35	 24.48	 22.19	 22.44	 21.10	 24.66	 20.85	 24.14	 23.91	 28.07	 27.33	 23.90	 32.94	 29.19	 37.78	 35.01	 31.51	 30.38	 34.16	 33.95	 38.14	 37.55	 55.26	 54.27	 50.21	 38.48	 40.69	 62.97	 75.64	 56.63	 68.60	 70.52	 64.32	 58.89	 61.54	 67.58
SLITRK5 - ENSG00000165300	68.00	FALSE	FALSE	 37.13	 36.57	36.15	 36.84	 36.37	36.11	36.05	 38.19	36.64	36.02	36.026	 36.56	 36.70	 36.40	 36.69	36.64	 36.64	 36.09	 36.30	 37.76	 32.86	 32.92	 32.67	 33.75	 32.48	 36.45	 35.24	 32.79	 34.50	 34.51	 37.23	 37.48	 34.46	 37.27	 42.27	 41.76	 44.59	 49.43	 46.48	 49.82	 50.66	 49.41	 53.81	 53.35	 53.56	 49.25	 56.21	 54.75	 48.66	 51.59	 56.16	 56.93	 56.16	 60.09	 65.14	 58.88	 56.64	 55.17	 57.55	 62.68	 67.20	 88.72	 68.58	 64.06	 66.91	 81.30	 66.58	 64.28
TECTA - ENSG00000109927	68.00	FALSE	FALSE	 36.10	 37.00	41.83	 36.94	 39.17	41.91	41.67	 39.81	40.86	41.42	41.417	 38.80	 38.97	 38.99	 40.04	41.62	 38.69	 38.76	 35.77	 35.23	 38.62	 37.80	 36.50	 35.15	 36.81	 35.92	 36.02	 38.43	 38.76	 37.52	 36.72	 37.03	 38.08	 36.96	 35.37	 35.22	 38.62	 39.46	 38.21	 42.43	 43.21	 43.74	 41.36	 41.16	 38.22	 40.34	 33.63	 34.09	 40.08	 35.60	 36.91	 37.50	 32.29	 32.61	 32.00	 33.11	 33.08	 32.46	 30.14	 30.13	 29.37	 41.38	 27.47	 25.17	 25.25	 39.27	 26.70	 27.11
TRPM1 - ENSG00000134160	68.00	FALSE	FALSE	 73.92	 72.52	70.59	 72.65	 72.48	70.56	70.22	 72.64	69.54	69.50	69.499	 71.40	 69.00	 70.94	 69.07	70.62	 75.88	 71.11	 74.89	 73.68	 84.47	 83.06	 84.09	 72.26	 84.40	 71.56	 73.18	 83.19	 81.84	 76.60	 83.01	 84.06	 82.46	 84.44	 86.26	 86.10	 87.89	 86.54	 85.16	 88.02	 91.73	 96.97	 94.48	 92.95	 99.74	 93.45	 99.42	100.05	 94.95	 96.73	103.81	109.96	115.62	113.92	113.21	111.15	114.81	118.61	119.90	106.86	135.17	160.07	129.45	130.62	119.16	143.27	115.57	131.25
VPS13B - ENSG00000132549	68.00	FALSE	FALSE	 79.99	 85.26	79.99	 84.90	 85.95	79.92	79.76	 83.68	78.82	79.83	79.824	 83.47	 79.96	 83.53	 83.24	79.57	 84.75	 84.29	 78.55	 77.76	 79.95	 80.71	 81.47	 80.07	 82.06	 79.10	 78.33	 78.46	 78.89	 79.97	 82.77	 82.01	 79.98	 82.62	 79.56	 81.78	 79.41	 83.68	 84.88	 83.13	 84.86	 90.52	 87.63	 84.82	108.24	102.36	121.90	116.75	 98.98	106.14	123.13	123.52	132.96	132.17	146.01	148.35	140.32	134.92	139.54	144.26	149.43	156.95	151.15	153.77	148.85	158.57	147.16	148.74
ZFHX3 - ENSG00000140836	68.00	 TRUE	FALSE	 96.67	 95.70	96.85	 95.28	 95.48	96.88	97.09	 96.01	98.57	99.38	99.376	 97.90	 98.87	 97.21	 98.32	98.26	 97.21	 98.48	 95.05	 94.19	 88.65	 88.87	 88.87	 98.13	 87.43	 94.97	 94.95	 91.41	 91.77	 95.81	 87.65	 87.50	 92.53	 86.99	 87.28	 87.67	 87.48	 91.14	 90.50	 89.77	 90.89	 95.29	 94.05	 94.81	101.60	102.95	 94.93	 93.36	101.81	 98.68	 98.88	 97.15	 91.51	 94.44	 94.96	 97.15	 96.21	 90.99	 93.45	 96.06	 99.69	109.20	 99.09	100.00	 94.90	101.75	 94.17	 97.71
ZNF521 - ENSG00000198795	68.00	 TRUE	FALSE	 35.27	 34.55	34.59	 34.55	 33.13	34.54	34.27	 32.53	33.79	34.07	34.069	 33.82	 32.98	 33.79	 31.44	33.80	 32.59	 32.74	 38.45	 35.89	 40.36	 38.96	 43.52	 38.96	 43.56	 37.61	 38.33	 39.90	 39.13	 38.11	 41.79	 42.51	 37.59	 43.01	 46.26	 47.03	 46.63	 48.01	 50.03	 49.01	 46.48	 44.38	 45.07	 45.76	 45.73	 43.97	 44.09	 47.22	 42.12	 45.16	 40.56	 36.81	 46.97	 34.53	 47.96	 48.76	 47.18	 49.12	 50.20	 48.67	 69.91	 77.92	 62.87	 68.19	 54.98	 76.73	 55.04	 57.96
HMCN1 - ENSG00000143341	67.00	FALSE	FALSE	 25.45	 24.61	22.65	 24.81	 24.08	22.56	22.50	 23.24	22.23	22.04	22.035	 23.09	 21.47	 22.99	 22.59	22.54	 23.33	 22.93	 25.75	 25.00	 25.83	 24.92	 25.66	 26.21	 27.56	 26.01	 25.74	 24.98	 24.52	 26.89	 28.68	 28.88	 25.39	 28.67	 28.26	 28.81	 29.27	 28.74	 29.31	 30.80	 31.25	 32.38	 31.58	 31.39	 31.47	 30.62	 31.26	 31.74	 30.79	 31.29	 34.07	 36.06	 39.41	 34.85	 38.37	 37.26	 39.64	 39.41	 38.95	 33.18	 35.70	  0.00	 35.86	 36.11	 37.97	 34.88	 35.36	 35.25
BRCA2 - ENSG00000139618	66.00	 TRUE	 TRUE	 37.58	 37.01	34.57	 36.70	 37.09	34.44	34.35	 36.65	35.28	35.75	35.742	 37.38	 37.26	 37.01	 38.43	34.60	 37.84	 38.17	 41.37	 41.29	 51.43	 50.05	 51.82	 40.65	 53.48	 40.87	 41.32	 51.67	 50.21	 45.39	 52.25	 52.02	 47.51	 52.74	 49.73	 53.12	 51.07	 52.55	 53.63	 54.22	 54.22	 64.51	 58.14	 54.66	 66.06	 69.15	 75.89	 76.15	 68.21	 75.08	 69.65	 69.56	 70.01	 71.22	 77.27	 79.85	 78.93	 70.17	 70.76	 71.95	 79.37	  0.00	 74.81	 75.81	 82.31	  0.00	 83.55	 80.75
LCT - ENSG00000115850	65.00	FALSE	FALSE	 75.10	 75.35	72.90	 74.79	 74.07	72.95	72.88	 74.11	71.34	71.18	71.178	 74.25	 71.91	 74.32	 71.95	72.74	 73.31	 73.87	 73.93	 76.20	 75.61	 73.66	 74.41	 74.26	 74.97	 74.44	 74.59	 73.72	 71.82	 72.44	 74.92	 73.69	 73.45	 74.06	 71.83	 72.33	 69.84	 66.24	 65.21	 70.31	 69.32	 73.08	 67.33	 68.35	 80.47	 81.67	 78.65	 77.73	 80.80	 80.56	 76.66	 72.90	 66.63	 70.95	 56.17	 60.63	 63.09	 65.94	 66.53	 53.13	  0.00	  0.00	 47.77	 43.81	 51.13	  0.00	 52.33	 49.91
COL1A2 - ENSG00000164692	64.00	FALSE	FALSE	 29.36	 29.07	29.35	 30.14	 32.11	29.44	29.65	 31.62	29.86	29.30	29.302	 32.74	 30.46	 32.68	 30.82	29.66	 32.56	 32.54	 31.94	 31.25	 30.09	 31.89	 31.20	 29.90	 32.49	 30.02	 30.79	 33.55	 33.03	 30.08	 32.51	 33.55	 30.41	 33.53	 35.93	 35.91	 39.47	 40.57	 37.99	 41.69	 43.61	 47.40	 44.55	 44.64	 47.95	 48.55	 44.17	 44.18	 49.19	 47.41	 41.16	 46.50	 46.01	 47.40	 41.54	 38.96	 36.84	 47.76	 45.15	 42.92	  0.00	  0.00	 48.63	  0.00	 45.53	  0.00	 48.95	 46.01
DIDO1 - ENSG00000101191	63.00	FALSE	FALSE	 43.34	 40.22	37.71	 40.55	 40.20	37.70	37.42	 40.16	37.84	37.51	37.502	 42.93	 40.47	 42.84	 40.90	37.54	 42.20	 41.72	 42.66	 42.46	 40.63	 42.66	 41.99	 41.58	 39.52	 42.09	 42.83	 44.55	 44.91	 44.90	 41.08	 40.72	 45.56	 42.98	 43.19	 44.02	 46.20	 52.48	 49.71	 52.55	 52.87	 67.19	 60.83	 56.53	 67.22	 69.99	 75.38	 74.63	 72.54	 74.94	 82.06	 82.65	 80.72	 83.09	 72.45	 73.43	 79.39	 82.91	 80.29	 68.64	  0.00	  0.00	  0.00	  0.00	 66.95	  0.00	 67.54	 67.28
KIF16B - ENSG00000089177	62.00	FALSE	FALSE	 38.91	 41.04	32.99	 40.80	 39.96	33.10	33.14	 39.10	32.25	33.07	33.065	 36.77	 34.87	 36.95	 35.60	33.06	 37.86	 36.34	 37.41	 38.82	 58.76	 54.92	 61.14	 38.88	 59.01	 38.33	 38.68	 52.07	 49.95	 42.66	 57.71	 58.81	 43.62	 57.25	 57.66	 57.67	 59.16	 58.41	 60.00	 58.28	 59.94	 63.05	 56.82	 58.70	 62.74	 64.78	 53.74	 56.90	 66.14	 61.65	 56.58	 51.98	 62.61	 60.49	 64.47	 61.88	 66.58	 63.65	 67.14	 64.94	  0.00	  0.00	  0.00	  0.00	 69.02	  0.00	 56.83	  0.00
PLCG1 - ENSG00000124181	61.00	 TRUE	FALSE	 22.41	 22.50	18.13	 22.67	 20.25	18.56	18.98	 20.31	17.07	17.57	17.576	 19.50	 21.28	 19.11	 20.99	18.48	 20.46	 20.71	 23.99	 22.65	 28.63	 29.06	 22.33	 25.51	 19.39	 27.91	 24.00	 32.11	 32.58	 23.24	 21.61	 21.78	 28.32	 21.25	 26.31	 24.07	 34.30	 40.94	 32.61	 39.14	 42.30	 40.86	 49.14	 50.58	 47.69	 50.72	 75.91	 71.21	 50.07	 51.66	 79.31	 84.66	 79.39	 86.08	 63.31	 63.48	 69.01	 77.88	 74.34	 66.06	  0.00	  0.00	  0.00	  0.00	  0.00	  0.00	 59.95	  0.00
RBBP6 - ENSG00000122257	60.00	FALSE	FALSE	 82.27	 83.10	86.83	 83.29	 79.66	86.99	87.18	 78.09	85.47	83.67	83.665	 79.74	 83.66	 79.16	 79.90	86.76	 78.57	 78.38	 87.04	 85.33	 88.63	 90.94	 82.54	 84.78	 79.13	 85.74	 85.31	 91.53	 90.69	 88.92	 77.20	 78.75	 89.37	 78.06	 80.49	 78.31	 81.65	 87.80	 81.25	 88.37	 88.54	 85.76	 86.70	 86.34	 99.71	 97.38	103.78	 97.99	 89.93	100.22	102.50	104.90	 93.89	100.68	 97.28	 97.06	 93.49	 92.91	 89.94	 93.16	  0.00	  0.00	  0.00	  0.00	  0.00	  0.00	  0.00	  0.00
LY75 - ENSG00000054219	59.00	FALSE	FALSE	 89.28	 84.93	68.31	 86.49	 85.31	68.53	67.99	 83.38	67.53	67.93	67.926	 76.76	 72.27	 76.75	 72.06	67.81	 81.64	 75.46	 87.61	 82.63	101.30	101.12	107.81	 87.44	105.17	 86.02	 88.11	 93.23	 93.26	 94.13	104.29	107.41	 89.89	103.49	 98.66	100.91	102.31	107.93	100.92	111.31	113.10	116.10	114.80	104.80	141.11	141.37	128.09	134.07	130.82	134.21	131.35	129.07	115.12	115.49	102.50	 99.72	103.13	117.67	109.29	  0.00	  0.00	  0.00	  0.00	  0.00	  0.00	  0.00	  0.00	  0.00
EPHA5 - ENSG00000145242	58.00	FALSE	 TRUE	 28.51	 31.55	24.25	 31.77	 34.24	24.17	23.95	 32.39	24.35	24.87	24.867	 28.91	 26.06	 28.58	 26.51	24.83	 30.84	 27.86	 31.50	 28.96	 27.62	 25.99	 28.37	 28.95	 31.49	 29.79	 30.73	 27.68	 28.60	 28.97	 31.94	 31.29	 28.55	 31.06	 34.03	 31.83	 34.28	 35.92	 35.58	 35.43	 34.81	 32.65	 32.47	 32.09	 30.22	 32.80	 46.81	 39.96	 31.48	 31.56	 46.11	 47.10	 47.13	 46.57	  0.00	 42.27	 43.90	 49.52	 47.56	  0.00	  0.00	  0.00	  0.00	  0.00	  0.00	  0.00	  0.00	  0.00
ZNFX1 - ENSG00000124201	57.00	FALSE	FALSE	 45.47	 46.95	49.20	 46.93	 47.04	49.17	49.37	 46.95	47.57	47.29	47.291	 47.78	 46.40	 47.72	 46.66	48.01	 47.54	 47.30	 51.24	 47.99	 45.31	 45.49	 46.39	 49.34	 43.26	 50.03	 51.09	 44.47	 45.16	 47.56	 42.32	 43.92	 48.24	 40.98	 40.37	 38.06	 41.46	 42.48	 43.89	 41.64	 46.02	 58.62	 48.83	 46.50	 63.53	 60.89	 58.54	 65.33	 61.41	 59.73	 58.91	 54.83	 66.02	 52.75	  0.00	  0.00	 65.18	 67.24	 69.67	  0.00	  0.00	  0.00	  0.00	  0.00	  0.00	  0.00	  0.00	  0.00
SCN11A - ENSG00000168356	56.00	FALSE	FALSE	 36.03	 35.20	23.66	 35.78	 32.91	23.73	24.09	 31.44	23.86	23.63	23.628	 29.50	 25.41	 29.51	 27.66	23.89	 30.12	 29.42	 39.07	 36.39	 45.33	 45.38	 47.38	 41.40	 48.72	 39.78	 37.91	 44.10	 46.13	 44.61	 48.94	 48.42	 43.21	 48.98	 57.35	 52.51	 56.87	 49.67	 55.00	 48.57	 50.65	 53.03	 51.89	 50.54	 54.46	 51.92	 53.74	 55.63	 49.77	 51.42	 57.20	 55.86	 58.17	 55.17	  0.00	  0.00	  0.00	 59.30	 60.41	  0.00	  0.00	  0.00	  0.00	  0.00	  0.00	  0.00	  0.00	  0.00
PCDH19 - ENSG00000165194	55.00	FALSE	FALSE	  8.51	 11.07	12.49	 11.66	 10.27	12.39	12.44	  8.11	12.49	12.57	12.573	  9.69	  8.61	  9.77	 10.63	14.27	  9.09	  9.84	 18.63	 16.90	 19.44	 19.32	 19.98	 16.08	 20.98	 16.83	 19.03	 18.77	 19.05	 15.89	 23.93	 24.31	 15.42	 23.36	 25.66	 22.84	 27.20	 32.00	 30.43	 36.95	 43.53	 46.91	 48.25	 49.12	 43.50	 39.89	 47.87	 47.88	 41.78	 49.39	 50.05	 57.16	 54.49	 59.70	  0.00	  0.00	  0.00	 53.58	  0.00	  0.00	  0.00	  0.00	  0.00	  0.00	  0.00	  0.00	  0.00	  0.00
CUBN - ENSG00000107611	54.00	FALSE	FALSE	 25.13	 25.91	22.45	 25.98	 24.76	22.35	22.66	 25.22	22.33	21.97	21.969	 22.40	 23.66	 22.05	 22.84	21.86	 24.27	 22.47	 25.25	 24.52	 28.45	 27.38	 30.31	 26.08	 30.08	 25.93	 25.04	 26.76	 26.60	 25.98	 30.99	 31.17	 26.04	 31.07	 29.53	 32.00	 28.70	 25.49	 26.71	 25.61	 26.43	 26.55	 29.77	 26.94	 21.14	 23.80	 27.58	 23.49	 23.03	 22.92	 26.79	 28.70	 25.92	 26.51	  0.00	  0.00	  0.00	  0.00	  0.00	  0.00	  0.00	  0.00	  0.00	  0.00	  0.00	  0.00	  0.00	  0.00
SF3B3 - ENSG00000189091	53.00	FALSE	FALSE	 76.31	 76.82	64.20	 79.02	 81.80	64.12	64.45	 81.58	64.46	62.33	62.330	 74.90	 70.70	 74.38	 75.81	64.06	 76.37	 74.56	 72.86	 75.04	 83.29	 80.48	 77.35	 87.25	 74.96	 86.87	 83.81	 86.09	 88.06	 88.07	 80.84	 78.86	 85.62	 79.13	 82.59	 79.53	 77.87	 81.52	 80.77	 82.59	 95.19	112.31	108.12	106.08	111.09	107.41	107.15	102.23	120.57	106.16	112.59	113.24	  0.00	120.10	  0.00	  0.00	  0.00	  0.00	  0.00	  0.00	  0.00	  0.00	  0.00	  0.00	  0.00	  0.00	  0.00	  0.00
KIAA0556 - ENSG00000047578	52.00	FALSE	FALSE	 68.36	 63.39	69.21	 63.41	 63.82	69.23	68.92	 62.75	65.03	65.30	65.290	 61.84	 62.37	 61.22	 60.09	67.59	 62.02	 60.68	 67.12	 66.49	 80.69	 81.70	 82.61	 77.05	 82.59	 73.84	 70.67	 79.74	 77.04	 75.18	 80.89	 79.30	 76.08	 81.71	 81.40	 76.70	 83.43	 78.85	 81.52	 85.79	 85.08	 83.08	 82.00	 83.75	 84.80	 84.05	 79.78	 87.91	 81.31	 91.43	 69.58	 69.17	  0.00	  0.00	  0.00	  0.00	  0.00	  0.00	  0.00	  0.00	  0.00	  0.00	  0.00	  0.00	  0.00	  0.00	  0.00	  0.00
WDR33 - ENSG00000136709	51.00	FALSE	FALSE	 52.04	 50.70	52.63	 50.89	 47.20	52.96	52.63	 48.99	53.42	53.71	53.707	 52.44	 53.58	 53.00	 54.54	52.61	 50.01	 54.34	 50.33	 50.38	 61.88	 61.80	 57.92	 54.28	 57.02	 53.11	 51.55	 61.22	 60.65	 58.34	 60.88	 60.23	 57.98	 61.89	 71.16	 68.29	 73.71	 66.97	 72.83	 69.38	 67.27	 66.87	 68.61	 67.91	 60.81	 59.80	 54.97	 48.22	 67.18	 56.52	 53.03	  0.00	  0.00	  0.00	  0.00	  0.00	  0.00	  0.00	  0.00	  0.00	  0.00	  0.00	  0.00	  0.00	  0.00	  0.00	  0.00	  0.00
ADCY9 - ENSG00000162104	50.00	FALSE	FALSE	 76.98	 75.44	76.89	 76.07	 75.91	77.07	77.20	 76.60	73.30	73.88	73.880	 74.78	 71.44	 74.47	 73.54	75.45	 74.78	 75.06	 82.26	 83.23	 84.35	 82.58	 87.82	 74.62	 92.96	 80.63	 82.07	 84.63	 77.49	 74.66	 91.52	 89.85	 78.15	 88.50	 82.66	 82.69	 82.00	 70.22	 74.79	 71.56	 70.91	 58.59	 67.72	 72.80	 46.85	 42.88	 53.14	 46.45	 44.39	 50.92	  0.00	  0.00	  0.00	  0.00	  0.00	  0.00	  0.00	  0.00	  0.00	  0.00	  0.00	  0.00	  0.00	  0.00	  0.00	  0.00	  0.00	  0.00
P2RX6 - ENSG00000099957	49.00	FALSE	FALSE	106.18	 96.57	94.76	 99.32	107.30	94.66	93.93	106.98	93.97	92.88	92.866	105.30	 92.46	104.88	 95.86	92.08	110.55	102.07	105.00	105.51	126.94	126.43	125.69	112.68	127.25	105.55	103.89	124.11	125.44	115.31	127.22	125.62	121.65	131.09	141.83	133.68	140.30	134.91	138.01	132.80	140.15	142.78	137.60	138.84	115.77	119.51	  0.00	100.74	119.81	112.28	  0.00	  0.00	  0.00	  0.00	  0.00	  0.00	  0.00	  0.00	  0.00	  0.00	  0.00	  0.00	  0.00	  0.00	  0.00	  0.00	  0.00	  0.00
SATB1 - ENSG00000182568	48.00	FALSE	FALSE	 49.28	 46.21	43.65	 47.40	 46.99	43.66	44.28	 47.19	48.12	46.84	46.833	 51.67	 48.97	 51.00	 50.10	45.98	 48.94	 50.13	 49.02	 48.71	 52.54	 56.85	 58.30	 52.31	 59.00	 49.59	 51.40	 52.91	 50.12	 53.99	 64.85	 63.22	 55.60	 65.15	 62.63	 66.62	 66.37	 67.59	 65.20	 64.83	 62.24	 70.50	 65.24	 66.56	 86.64	 77.69	  0.00	  0.00	 73.78	 85.54	  0.00	  0.00	  0.00	  0.00	  0.00	  0.00	  0.00	  0.00	  0.00	  0.00	  0.00	  0.00	  0.00	  0.00	  0.00	  0.00	  0.00	  0.00
LRFN2 - ENSG00000156564	47.00	FALSE	FALSE	 52.52	 50.25	43.18	 50.21	 49.90	43.34	43.46	 47.88	43.95	43.46	43.463	 44.43	 42.43	 44.15	 43.42	43.71	 47.06	 44.11	 56.19	 55.52	 51.42	 52.06	 51.22	 58.80	 55.86	 58.68	 56.98	 51.58	 50.26	 55.77	 54.34	 56.32	 54.27	 55.92	 53.96	 53.62	 51.97	 58.37	 52.79	 62.58	 64.52	 59.83	 62.57	 59.76	 54.63	 55.49	  0.00	  0.00	 54.99	  0.00	  0.00	  0.00	  0.00	  0.00	  0.00	  0.00	  0.00	  0.00	  0.00	  0.00	  0.00	  0.00	  0.00	  0.00	  0.00	  0.00	  0.00	  0.00
RNMT - ENSG00000101654	46.00	FALSE	FALSE	 89.33	 89.58	75.25	 91.18	 98.64	75.33	75.45	 97.70	81.32	79.73	79.727	 93.61	 91.39	 93.35	 89.25	76.72	 96.71	 94.54	 91.87	 91.48	 75.25	 72.30	 81.37	 88.13	 84.76	 90.63	 89.09	 73.71	 75.74	 91.91	 93.10	 85.60	 80.76	 90.34	 97.35	 90.86	 97.17	105.46	102.97	 98.97	 85.96	 85.97	 97.56	 90.69	  0.00	 80.27	  0.00	  0.00	 88.52	  0.00	  0.00	  0.00	  0.00	  0.00	  0.00	  0.00	  0.00	  0.00	  0.00	  0.00	  0.00	  0.00	  0.00	  0.00	  0.00	  0.00	  0.00	  0.00
FBXW7 - ENSG00000109670	45.00	 TRUE	 TRUE	 37.23	 35.97	36.36	 36.63	 36.16	36.20	35.80	 37.92	35.89	34.87	34.869	 35.54	 37.91	 36.15	 36.15	36.00	 35.51	 35.85	 36.52	 35.08	 44.56	 42.99	 50.65	 39.47	 51.62	 36.47	 37.77	 42.26	 42.77	 40.79	 52.91	 51.08	 42.59	 55.64	 54.45	 54.28	 56.30	 55.23	 58.63	 54.26	 54.58	 50.98	 54.60	 58.06	  0.00	  0.00	  0.00	  0.00	 45.15	  0.00	  0.00	  0.00	  0.00	  0.00	  0.00	  0.00	  0.00	  0.00	  0.00	  0.00	  0.00	  0.00	  0.00	  0.00	  0.00	  0.00	  0.00	  0.00
FAM118A - ENSG00000100376	44.00	FALSE	FALSE	 73.58	 69.47	69.95	 70.27	 75.00	69.26	68.83	 73.08	65.55	64.61	64.608	 63.48	 61.56	 63.05	 63.94	67.67	 68.68	 60.65	 79.74	 82.36	 85.07	 83.68	 84.48	 78.13	 88.51	 80.88	 77.73	 81.77	 82.43	 77.22	 87.18	 85.00	 82.78	 86.99	 91.21	 84.48	 87.35	 86.13	 95.98	 92.63	 94.72	102.17	 88.69	 91.32	  0.00	  0.00	  0.00	  0.00	  0.00	  0.00	  0.00	  0.00	  0.00	  0.00	  0.00	  0.00	  0.00	  0.00	  0.00	  0.00	  0.00	  0.00	  0.00	  0.00	  0.00	  0.00	  0.00	  0.00
DNAJA3 - ENSG00000103423	43.00	FALSE	FALSE	 88.02	 76.58	68.33	 75.05	 62.37	68.53	69.28	 63.06	70.86	72.10	72.115	 63.96	 72.22	 62.77	 69.07	74.30	 60.91	 65.16	 84.71	 84.30	 95.35	 97.98	103.76	 79.71	108.37	 81.39	 81.93	 97.66	 92.29	 91.51	130.36	128.25	 95.15	130.67	126.08	133.86	128.98	122.67	128.48	124.80	122.24	  0.00	105.83	116.13	  0.00	  0.00	  0.00	  0.00	  0.00	  0.00	  0.00	  0.00	  0.00	  0.00	  0.00	  0.00	  0.00	  0.00	  0.00	  0.00	  0.00	  0.00	  0.00	  0.00	  0.00	  0.00	  0.00	  0.00
ABCA4 - ENSG00000198691	42.00	FALSE	FALSE	 47.79	 50.24	45.76	 51.34	 46.59	45.60	45.37	 47.99	45.46	45.98	45.986	 47.54	 45.49	 47.22	 47.66	45.67	 47.69	 46.11	 48.69	 49.26	 41.64	 43.61	 42.43	 48.29	 39.21	 48.55	 49.69	 45.20	 45.30	 48.94	 39.74	 40.60	 47.89	 44.15	 46.35	 44.76	 46.72	 49.95	 47.59	 45.82	 40.30	  0.00	  0.00	 37.16	  0.00	  0.00	  0.00	  0.00	  0.00	  0.00	  0.00	  0.00	  0.00	  0.00	  0.00	  0.00	  0.00	  0.00	  0.00	  0.00	  0.00	  0.00	  0.00	  0.00	  0.00	  0.00	  0.00	  0.00
CACNA1G - ENSG00000006283	41.00	FALSE	FALSE	 40.86	 38.81	34.73	 38.70	 32.61	34.72	34.76	 34.02	35.24	34.37	34.371	 35.26	 35.18	 35.44	 35.11	35.70	 32.33	 35.47	 42.41	 43.12	 46.64	 45.90	 48.79	 42.09	 50.01	 41.09	 40.97	 41.37	 41.27	 42.64	 50.27	 49.79	 43.68	 50.18	 49.89	 50.06	 50.09	 48.77	 49.34	 46.30	 38.68	  0.00	  0.00	  0.00	  0.00	  0.00	  0.00	  0.00	  0.00	  0.00	  0.00	  0.00	  0.00	  0.00	  0.00	  0.00	  0.00	  0.00	  0.00	  0.00	  0.00	  0.00	  0.00	  0.00	  0.00	  0.00	  0.00	  0.00
KLHL1 - ENSG00000150361	40.00	FALSE	FALSE	 67.82	 67.18	80.26	 67.27	 66.19	80.19	80.58	 64.71	76.70	78.18	78.172	 68.08	 74.07	 67.89	 71.30	81.68	 69.38	 68.43	 70.74	 69.94	 78.94	 79.28	 77.13	 80.27	 78.14	 71.27	 70.68	 73.44	 77.36	 77.51	 76.19	 74.14	 77.48	 77.70	 74.53	 78.65	 70.78	 69.81	 69.01	 62.66	  0.00	  0.00	  0.00	  0.00	  0.00	  0.00	  0.00	  0.00	  0.00	  0.00	  0.00	  0.00	  0.00	  0.00	  0.00	  0.00	  0.00	  0.00	  0.00	  0.00	  0.00	  0.00	  0.00	  0.00	  0.00	  0.00	  0.00	  0.00
MYO18B - ENSG00000133454	39.00	FALSE	FALSE	 25.24	 25.06	23.39	 25.05	 24.93	23.38	23.48	 25.07	22.77	23.09	23.091	 25.11	 23.03	 25.00	 24.81	22.60	 24.90	 24.42	 25.13	 23.73	 30.53	 31.43	 32.04	 26.91	 30.46	 26.14	 25.40	 28.57	 29.47	 26.16	 34.33	 33.56	 27.77	 33.80	 27.92	 30.99	 29.07	 26.13	 28.87	  0.00	  0.00	  0.00	  0.00	  0.00	  0.00	  0.00	  0.00	  0.00	  0.00	  0.00	  0.00	  0.00	  0.00	  0.00	  0.00	  0.00	  0.00	  0.00	  0.00	  0.00	  0.00	  0.00	  0.00	  0.00	  0.00	  0.00	  0.00	  0.00
EVI5 - ENSG00000067208	38.00	FALSE	FALSE	 50.60	 52.08	53.35	 51.89	 52.28	53.00	52.99	 49.44	57.48	55.19	55.181	 54.35	 55.13	 54.82	 53.83	55.46	 51.82	 54.69	 50.42	 50.03	 66.35	 61.91	 61.75	 44.24	 64.43	 46.17	 48.78	 59.62	 57.09	 51.54	 67.15	 65.47	 55.58	 70.13	 64.68	 69.21	 63.70	  0.00	 74.79	  0.00	  0.00	  0.00	  0.00	  0.00	  0.00	  0.00	  0.00	  0.00	  0.00	  0.00	  0.00	  0.00	  0.00	  0.00	  0.00	  0.00	  0.00	  0.00	  0.00	  0.00	  0.00	  0.00	  0.00	  0.00	  0.00	  0.00	  0.00	  0.00
SCAP - ENSG00000114650	37.00	FALSE	FALSE	 33.69	 27.26	21.58	 27.07	 30.37	21.50	21.54	 29.22	19.83	19.91	19.919	 29.65	 25.01	 29.83	 25.52	21.52	 26.16	 30.65	 39.34	 36.75	 43.12	 34.46	 51.58	 41.99	 51.78	 44.86	 42.66	 37.59	 36.18	 36.96	 48.07	 45.68	 37.32	 50.03	 61.64	 55.81	 62.27	  0.00	  0.00	  0.00	  0.00	  0.00	  0.00	  0.00	  0.00	  0.00	  0.00	  0.00	  0.00	  0.00	  0.00	  0.00	  0.00	  0.00	  0.00	  0.00	  0.00	  0.00	  0.00	  0.00	  0.00	  0.00	  0.00	  0.00	  0.00	  0.00	  0.00	  0.00
PLXNA2 - ENSG00000076356	36.00	FALSE	FALSE	 41.40	 45.03	39.68	 44.66	 45.86	39.73	40.16	 45.51	42.34	41.87	41.868	 43.97	 45.00	 44.22	 45.56	40.62	 45.14	 43.93	 39.17	 40.34	 30.61	 32.43	 29.26	 37.17	 28.33	 37.69	 39.28	 30.82	 34.42	 37.98	 28.78	 28.54	 36.08	 31.82	 33.47	 30.41	  0.00	  0.00	  0.00	  0.00	  0.00	  0.00	  0.00	  0.00	  0.00	  0.00	  0.00	  0.00	  0.00	  0.00	  0.00	  0.00	  0.00	  0.00	  0.00	  0.00	  0.00	  0.00	  0.00	  0.00	  0.00	  0.00	  0.00	  0.00	  0.00	  0.00	  0.00	  0.00
UNC13A - ENSG00000130477	35.00	FALSE	FALSE	 36.07	 36.89	33.14	 36.88	 33.99	32.81	33.12	 32.72	34.11	34.77	34.763	 34.04	 36.43	 33.81	 33.36	33.65	 31.00	 33.35	 40.92	 38.25	 35.18	 38.26	 30.84	 40.61	 28.82	 39.97	 41.15	 39.72	 37.36	 38.85	 28.86	 29.75	 41.29	 29.97	  0.00	 28.98	  0.00	  0.00	  0.00	  0.00	  0.00	  0.00	  0.00	  0.00	  0.00	  0.00	  0.00	  0.00	  0.00	  0.00	  0.00	  0.00	  0.00	  0.00	  0.00	  0.00	  0.00	  0.00	  0.00	  0.00	  0.00	  0.00	  0.00	  0.00	  0.00	  0.00	  0.00	  0.00
RELN - ENSG00000189056	34.00	FALSE	FALSE	 20.20	 19.99	20.10	 19.83	 21.28	20.01	20.03	 21.45	20.04	19.55	19.545	 20.29	 20.15	 20.23	 19.63	19.76	 22.30	 20.17	 20.73	 19.96	 28.29	 27.02	 25.56	 19.66	 24.96	 19.74	 20.99	 25.95	 25.11	 21.10	 22.94	 23.32	 21.92	 22.65	  0.00	  0.00	  0.00	  0.00	  0.00	  0.00	  0.00	  0.00	  0.00	  0.00	  0.00	  0.00	  0.00	  0.00	  0.00	  0.00	  0.00	  0.00	  0.00	  0.00	  0.00	  0.00	  0.00	  0.00	  0.00	  0.00	  0.00	  0.00	  0.00	  0.00	  0.00	  0.00	  0.00	  0.00
STAB2 - ENSG00000136011	33.00	FALSE	FALSE	 24.59	 25.28	16.62	 24.13	 23.13	16.35	17.27	 21.87	16.45	16.75	16.753	 19.58	 16.88	 18.69	 17.34	17.29	 22.78	 18.87	 24.13	 26.87	 18.73	 13.38	 16.38	 20.66	 17.47	 23.50	 24.49	 16.77	 15.18	 18.88	 12.00	 12.73	 15.65	  0.00	  0.00	  0.00	  0.00	  0.00	  0.00	  0.00	  0.00	  0.00	  0.00	  0.00	  0.00	  0.00	  0.00	  0.00	  0.00	  0.00	  0.00	  0.00	  0.00	  0.00	  0.00	  0.00	  0.00	  0.00	  0.00	  0.00	  0.00	  0.00	  0.00	  0.00	  0.00	  0.00	  0.00	  0.00
TRPS1 - ENSG00000104447	32.00	FALSE	FALSE	  8.55	  8.83	13.19	  8.89	  8.27	13.26	13.48	  8.78	12.78	13.27	13.273	  9.10	 10.65	  9.40	  8.95	13.43	  8.78	  9.73	 11.17	  9.89	  9.60	 10.58	 11.13	 11.03	 10.81	 10.34	 11.48	 12.42	 13.18	 10.39	  0.00	  9.72	 10.41	  0.00	  0.00	  0.00	  0.00	  0.00	  0.00	  0.00	  0.00	  0.00	  0.00	  0.00	  0.00	  0.00	  0.00	  0.00	  0.00	  0.00	  0.00	  0.00	  0.00	  0.00	  0.00	  0.00	  0.00	  0.00	  0.00	  0.00	  0.00	  0.00	  0.00	  0.00	  0.00	  0.00	  0.00	  0.00
WDR17 - ENSG00000150627	31.00	FALSE	FALSE	 41.84	 44.82	45.60	 45.70	 44.11	45.67	45.36	 44.72	41.76	41.61	41.608	 45.52	 40.64	 45.77	 40.75	44.18	 45.71	 44.08	 36.98	 37.30	 37.09	 34.91	 33.06	 34.92	 33.42	 37.06	 35.85	 35.56	 36.52	 34.91	  0.00	  0.00	 34.55	  0.00	  0.00	  0.00	  0.00	  0.00	  0.00	  0.00	  0.00	  0.00	  0.00	  0.00	  0.00	  0.00	  0.00	  0.00	  0.00	  0.00	  0.00	  0.00	  0.00	  0.00	  0.00	  0.00	  0.00	  0.00	  0.00	  0.00	  0.00	  0.00	  0.00	  0.00	  0.00	  0.00	  0.00	  0.00
RIMS1 - ENSG00000079841	30.00	FALSE	FALSE	 20.12	 19.16	19.92	 19.03	 20.32	19.94	19.83	 18.94	19.85	19.94	19.940	 16.67	 18.48	 16.55	 17.24	20.10	 19.31	 17.19	 17.62	 17.65	 22.69	 23.13	 23.58	 20.28	  0.00	 17.56	 18.66	 21.98	 22.21	 21.50	  0.00	  0.00	 22.22	  0.00	  0.00	  0.00	  0.00	  0.00	  0.00	  0.00	  0.00	  0.00	  0.00	  0.00	  0.00	  0.00	  0.00	  0.00	  0.00	  0.00	  0.00	  0.00	  0.00	  0.00	  0.00	  0.00	  0.00	  0.00	  0.00	  0.00	  0.00	  0.00	  0.00	  0.00	  0.00	  0.00	  0.00	  0.00
SUPT6H - ENSG00000109111	29.00	FALSE	FALSE	 34.27	 34.73	34.68	 34.92	 33.47	34.83	34.84	 33.69	33.85	35.00	34.997	 35.07	 36.05	 34.92	 35.74	34.42	 34.25	 36.11	 33.49	 33.81	 29.56	 31.44	  0.00	 28.64	  0.00	 32.40	 32.18	 34.34	 34.84	 29.50	  0.00	  0.00	 32.47	  0.00	  0.00	  0.00	  0.00	  0.00	  0.00	  0.00	  0.00	  0.00	  0.00	  0.00	  0.00	  0.00	  0.00	  0.00	  0.00	  0.00	  0.00	  0.00	  0.00	  0.00	  0.00	  0.00	  0.00	  0.00	  0.00	  0.00	  0.00	  0.00	  0.00	  0.00	  0.00	  0.00	  0.00	  0.00
DBH - ENSG00000123454	28.00	FALSE	FALSE	  8.76	 10.39	18.43	 10.02	 16.26	18.81	18.21	 15.46	19.60	20.86	20.858	 18.32	 16.86	 18.30	 19.06	19.56	 18.30	 17.23	 12.70	 13.15	  0.00	 30.89	  0.00	 13.66	  0.00	 14.97	 12.95	 28.49	 27.49	 17.92	  0.00	  0.00	 21.47	  0.00	  0.00	  0.00	  0.00	  0.00	  0.00	  0.00	  0.00	  0.00	  0.00	  0.00	  0.00	  0.00	  0.00	  0.00	  0.00	  0.00	  0.00	  0.00	  0.00	  0.00	  0.00	  0.00	  0.00	  0.00	  0.00	  0.00	  0.00	  0.00	  0.00	  0.00	  0.00	  0.00	  0.00	  0.00
ZNF462 - ENSG00000148143	27.00	FALSE	FALSE	 10.42	  8.51	12.87	  8.39	  9.18	13.03	13.26	 11.21	15.45	13.74	13.735	 14.36	 14.73	 14.82	 15.36	13.26	 11.72	 14.94	 11.89	 12.09	  0.00	  0.00	  0.00	 15.40	  0.00	 15.38	 15.03	 19.78	 18.61	 15.73	  0.00	  0.00	 19.80	  0.00	  0.00	  0.00	  0.00	  0.00	  0.00	  0.00	  0.00	  0.00	  0.00	  0.00	  0.00	  0.00	  0.00	  0.00	  0.00	  0.00	  0.00	  0.00	  0.00	  0.00	  0.00	  0.00	  0.00	  0.00	  0.00	  0.00	  0.00	  0.00	  0.00	  0.00	  0.00	  0.00	  0.00	  0.00
KRAS - ENSG00000133703	26.00	 TRUE	 TRUE	 22.78	 23.80	19.35	 23.46	 25.08	19.21	19.16	 24.51	20.08	19.46	19.465	 22.85	 21.38	 23.18	 22.54	20.13	 24.41	 22.75	 19.32	 19.17	  0.00	  0.00	  0.00	 21.50	  0.00	 21.13	 19.33	  0.00	 19.29	 23.68	  0.00	  0.00	 21.27	  0.00	  0.00	  0.00	  0.00	  0.00	  0.00	  0.00	  0.00	  0.00	  0.00	  0.00	  0.00	  0.00	  0.00	  0.00	  0.00	  0.00	  0.00	  0.00	  0.00	  0.00	  0.00	  0.00	  0.00	  0.00	  0.00	  0.00	  0.00	  0.00	  0.00	  0.00	  0.00	  0.00	  0.00	  0.00
POP1 - ENSG00000104356	25.00	FALSE	FALSE	 37.16	 35.37	31.21	 34.74	 34.98	30.93	30.65	 35.62	33.74	32.93	32.930	 35.40	 33.37	 35.05	 36.71	31.49	 35.27	 34.07	 31.75	 32.76	  0.00	  0.00	  0.00	 39.63	  0.00	 39.14	 34.85	  0.00	  0.00	 32.92	  0.00	  0.00	 33.11	  0.00	  0.00	  0.00	  0.00	  0.00	  0.00	  0.00	  0.00	  0.00	  0.00	  0.00	  0.00	  0.00	  0.00	  0.00	  0.00	  0.00	  0.00	  0.00	  0.00	  0.00	  0.00	  0.00	  0.00	  0.00	  0.00	  0.00	  0.00	  0.00	  0.00	  0.00	  0.00	  0.00	  0.00	  0.00
JAG2 - ENSG00000184916	24.00	FALSE	FALSE	 32.89	 29.51	22.28	 29.72	 28.54	21.97	22.23	 30.06	23.57	22.96	22.959	 28.70	 25.84	 29.08	 28.88	23.66	 33.20	 27.52	 31.84	 33.23	  0.00	  0.00	  0.00	 30.98	  0.00	 29.99	 29.93	  0.00	  0.00	 28.79	  0.00	  0.00	  0.00	  0.00	  0.00	  0.00	  0.00	  0.00	  0.00	  0.00	  0.00	  0.00	  0.00	  0.00	  0.00	  0.00	  0.00	  0.00	  0.00	  0.00	  0.00	  0.00	  0.00	  0.00	  0.00	  0.00	  0.00	  0.00	  0.00	  0.00	  0.00	  0.00	  0.00	  0.00	  0.00	  0.00	  0.00	  0.00
BIRC6 - ENSG00000115760	23.00	 TRUE	FALSE	 23.99	 25.16	22.38	 26.01	 25.11	22.34	22.53	 25.47	23.83	24.09	24.084	 25.00	 23.28	 24.82	 23.52	22.96	 24.58	 24.52	 20.67	 20.80	  0.00	  0.00	  0.00	 20.52	  0.00	 20.25	 20.62	  0.00	  0.00	  0.00	  0.00	  0.00	  0.00	  0.00	  0.00	  0.00	  0.00	  0.00	  0.00	  0.00	  0.00	  0.00	  0.00	  0.00	  0.00	  0.00	  0.00	  0.00	  0.00	  0.00	  0.00	  0.00	  0.00	  0.00	  0.00	  0.00	  0.00	  0.00	  0.00	  0.00	  0.00	  0.00	  0.00	  0.00	  0.00	  0.00	  0.00	  0.00
GRM5 - ENSG00000168959	22.00	FALSE	FALSE	 24.43	 21.01	17.87	 21.08	 21.65	17.81	18.06	 21.33	18.59	19.18	19.184	 20.13	 20.15	 19.55	 20.62	18.67	 18.16	 20.69	 20.96	 23.05	  0.00	  0.00	  0.00	  0.00	  0.00	 24.14	 22.20	  0.00	  0.00	  0.00	  0.00	  0.00	  0.00	  0.00	  0.00	  0.00	  0.00	  0.00	  0.00	  0.00	  0.00	  0.00	  0.00	  0.00	  0.00	  0.00	  0.00	  0.00	  0.00	  0.00	  0.00	  0.00	  0.00	  0.00	  0.00	  0.00	  0.00	  0.00	  0.00	  0.00	  0.00	  0.00	  0.00	  0.00	  0.00	  0.00	  0.00	  0.00
GHSR - ENSG00000121853	21.00	FALSE	FALSE	 25.17	 29.96	29.61	 29.70	 23.85	29.65	30.22	 25.00	28.39	28.25	28.254	 25.27	 25.83	 24.80	 26.66	29.38	 27.98	 25.10	 23.81	 22.31	  0.00	  0.00	  0.00	  0.00	  0.00	  0.00	 23.86	  0.00	  0.00	  0.00	  0.00	  0.00	  0.00	  0.00	  0.00	  0.00	  0.00	  0.00	  0.00	  0.00	  0.00	  0.00	  0.00	  0.00	  0.00	  0.00	  0.00	  0.00	  0.00	  0.00	  0.00	  0.00	  0.00	  0.00	  0.00	  0.00	  0.00	  0.00	  0.00	  0.00	  0.00	  0.00	  0.00	  0.00	  0.00	  0.00	  0.00	  0.00
TANC1 - ENSG00000115183	20.00	FALSE	FALSE	 19.78	 17.27	14.88	 17.92	 15.76	14.52	14.38	 17.65	15.48	15.82	15.826	 17.45	 15.28	 17.36	 15.54	15.62	 17.24	 17.54	 19.73	 18.78	  0.00	  0.00	  0.00	  0.00	  0.00	  0.00	  0.00	  0.00	  0.00	  0.00	  0.00	  0.00	  0.00	  0.00	  0.00	  0.00	  0.00	  0.00	  0.00	  0.00	  0.00	  0.00	  0.00	  0.00	  0.00	  0.00	  0.00	  0.00	  0.00	  0.00	  0.00	  0.00	  0.00	  0.00	  0.00	  0.00	  0.00	  0.00	  0.00	  0.00	  0.00	  0.00	  0.00	  0.00	  0.00	  0.00	  0.00	  0.00
PAPPA2 - ENSG00000116183	19.00	FALSE	FALSE	 15.59	 16.00	16.31	 15.86	 12.05	16.29	16.49	 12.81	15.88	16.00	16.003	 15.33	 14.67	 15.51	 16.43	16.15	 13.50	 15.73	  0.00	 18.01	  0.00	  0.00	  0.00	  0.00	  0.00	  0.00	  0.00	  0.00	  0.00	  0.00	  0.00	  0.00	  0.00	  0.00	  0.00	  0.00	  0.00	  0.00	  0.00	  0.00	  0.00	  0.00	  0.00	  0.00	  0.00	  0.00	  0.00	  0.00	  0.00	  0.00	  0.00	  0.00	  0.00	  0.00	  0.00	  0.00	  0.00	  0.00	  0.00	  0.00	  0.00	  0.00	  0.00	  0.00	  0.00	  0.00	  0.00	  0.00
CDAN1 - ENSG00000140326	18.00	FALSE	FALSE	 39.80	 40.74	44.38	 40.77	 44.96	44.53	44.18	 44.55	42.30	43.80	43.801	 44.65	 43.61	 45.06	 45.03	44.27	 42.61	 44.67	  0.00	  0.00	  0.00	  0.00	  0.00	  0.00	  0.00	  0.00	  0.00	  0.00	  0.00	  0.00	  0.00	  0.00	  0.00	  0.00	  0.00	  0.00	  0.00	  0.00	  0.00	  0.00	  0.00	  0.00	  0.00	  0.00	  0.00	  0.00	  0.00	  0.00	  0.00	  0.00	  0.00	  0.00	  0.00	  0.00	  0.00	  0.00	  0.00	  0.00	  0.00	  0.00	  0.00	  0.00	  0.00	  0.00	  0.00	  0.00	  0.00	  0.00
HECW1 - ENSG00000002746	17.00	FALSE	FALSE	  0.00	 13.65	18.04	 13.45	 14.97	17.99	17.97	 14.61	18.23	18.41	18.409	 14.51	 15.27	 14.58	 15.18	18.80	 13.10	 14.40	  0.00	  0.00	  0.00	  0.00	  0.00	  0.00	  0.00	  0.00	  0.00	  0.00	  0.00	  0.00	  0.00	  0.00	  0.00	  0.00	  0.00	  0.00	  0.00	  0.00	  0.00	  0.00	  0.00	  0.00	  0.00	  0.00	  0.00	  0.00	  0.00	  0.00	  0.00	  0.00	  0.00	  0.00	  0.00	  0.00	  0.00	  0.00	  0.00	  0.00	  0.00	  0.00	  0.00	  0.00	  0.00	  0.00	  0.00	  0.00	  0.00	  0.00
NAV2 - ENSG00000166833	17.00	FALSE	FALSE	  0.00	 16.43	10.73	 15.82	 13.97	10.72	10.56	 12.30	 7.59	 7.55	 7.550	  5.76	  6.49	  6.02	  5.16	 9.26	 10.23	  5.09	  0.00	  0.00	  0.00	  0.00	  0.00	  0.00	  0.00	  0.00	  0.00	  0.00	  0.00	  0.00	  0.00	  0.00	  0.00	  0.00	  0.00	  0.00	  0.00	  0.00	  0.00	  0.00	  0.00	  0.00	  0.00	  0.00	  0.00	  0.00	  0.00	  0.00	  0.00	  0.00	  0.00	  0.00	  0.00	  0.00	  0.00	  0.00	  0.00	  0.00	  0.00	  0.00	  0.00	  0.00	  0.00	  0.00	  0.00	  0.00	  0.00	  0.00
AK9 - ENSG00000155085	16.00	FALSE	FALSE	  0.00	  0.00	 1.24	 -6.37	 -4.74	 1.06	 1.37	 -7.97	-2.11	-1.24	-1.238	-10.75	 -6.35	-11.83	 -7.16	-0.43	 -9.33	-10.59	  0.00	  0.00	  0.00	  0.00	  0.00	  0.00	  0.00	  0.00	  0.00	  0.00	  0.00	  0.00	  0.00	  0.00	  0.00	  0.00	  0.00	  0.00	  0.00	  0.00	  0.00	  0.00	  0.00	  0.00	  0.00	  0.00	  0.00	  0.00	  0.00	  0.00	  0.00	  0.00	  0.00	  0.00	  0.00	  0.00	  0.00	  0.00	  0.00	  0.00	  0.00	  0.00	  0.00	  0.00	  0.00	  0.00	  0.00	  0.00	  0.00	  0.00
PLXNA4 - ENSG00000221866	15.00	FALSE	FALSE	  0.00	  0.00	16.28	  0.00	 16.50	16.20	16.07	 16.80	14.66	15.83	15.834	 14.44	 15.14	 14.12	 15.01	17.11	 15.69	 14.43	  0.00	  0.00	  0.00	  0.00	  0.00	  0.00	  0.00	  0.00	  0.00	  0.00	  0.00	  0.00	  0.00	  0.00	  0.00	  0.00	  0.00	  0.00	  0.00	  0.00	  0.00	  0.00	  0.00	  0.00	  0.00	  0.00	  0.00	  0.00	  0.00	  0.00	  0.00	  0.00	  0.00	  0.00	  0.00	  0.00	  0.00	  0.00	  0.00	  0.00	  0.00	  0.00	  0.00	  0.00	  0.00	  0.00	  0.00	  0.00	  0.00	  0.00
PTCH1 - ENSG00000185920	15.00	 TRUE	 TRUE	  0.00	  0.00	13.82	  0.00	 13.86	13.92	13.65	 14.58	15.32	14.18	14.182	 12.06	 14.88	 12.67	 14.26	13.82	 13.65	 13.07	  0.00	  0.00	  0.00	  0.00	  0.00	  0.00	  0.00	  0.00	  0.00	  0.00	  0.00	  0.00	  0.00	  0.00	  0.00	  0.00	  0.00	  0.00	  0.00	  0.00	  0.00	  0.00	  0.00	  0.00	  0.00	  0.00	  0.00	  0.00	  0.00	  0.00	  0.00	  0.00	  0.00	  0.00	  0.00	  0.00	  0.00	  0.00	  0.00	  0.00	  0.00	  0.00	  0.00	  0.00	  0.00	  0.00	  0.00	  0.00	  0.00	  0.00
TRPM7 - ENSG00000092439	14.00	FALSE	FALSE	  0.00	  0.00	25.54	  0.00	  0.00	25.46	26.28	 16.33	24.95	23.91	23.905	 19.95	 22.66	 20.65	 19.08	25.26	 16.69	 20.09	  0.00	  0.00	  0.00	  0.00	  0.00	  0.00	  0.00	  0.00	  0.00	  0.00	  0.00	  0.00	  0.00	  0.00	  0.00	  0.00	  0.00	  0.00	  0.00	  0.00	  0.00	  0.00	  0.00	  0.00	  0.00	  0.00	  0.00	  0.00	  0.00	  0.00	  0.00	  0.00	  0.00	  0.00	  0.00	  0.00	  0.00	  0.00	  0.00	  0.00	  0.00	  0.00	  0.00	  0.00	  0.00	  0.00	  0.00	  0.00	  0.00	  0.00
AHNAK2 - ENSG00000185567	13.00	FALSE	FALSE	  0.00	  0.00	 8.38	  0.00	  0.00	 8.40	 8.59	  0.00	 8.08	 8.23	 8.229	 10.59	  9.00	 10.59	  9.15	 8.28	 10.57	  9.84	  0.00	  0.00	  0.00	  0.00	  0.00	  0.00	  0.00	  0.00	  0.00	  0.00	  0.00	  0.00	  0.00	  0.00	  0.00	  0.00	  0.00	  0.00	  0.00	  0.00	  0.00	  0.00	  0.00	  0.00	  0.00	  0.00	  0.00	  0.00	  0.00	  0.00	  0.00	  0.00	  0.00	  0.00	  0.00	  0.00	  0.00	  0.00	  0.00	  0.00	  0.00	  0.00	  0.00	  0.00	  0.00	  0.00	  0.00	  0.00	  0.00	  0.00
SVEP1 - ENSG00000165124	12.00	FALSE	FALSE	  0.00	  0.00	19.73	  0.00	  0.00	19.73	19.78	  0.00	19.03	18.86	18.859	 17.27	 18.90	 17.16	 17.75	19.45	  0.00	 17.00	  0.00	  0.00	  0.00	  0.00	  0.00	  0.00	  0.00	  0.00	  0.00	  0.00	  0.00	  0.00	  0.00	  0.00	  0.00	  0.00	  0.00	  0.00	  0.00	  0.00	  0.00	  0.00	  0.00	  0.00	  0.00	  0.00	  0.00	  0.00	  0.00	  0.00	  0.00	  0.00	  0.00	  0.00	  0.00	  0.00	  0.00	  0.00	  0.00	  0.00	  0.00	  0.00	  0.00	  0.00	  0.00	  0.00	  0.00	  0.00	  0.00	  0.00
ASCC3 - ENSG00000112249	11.00	FALSE	FALSE	  0.00	  0.00	 3.09	  0.00	  0.00	 3.32	 2.85	  0.00	 5.89	 5.28	 5.285	  0.00	  8.73	  4.14	  5.48	 4.10	  0.00	  4.13	  0.00	  0.00	  0.00	  0.00	  0.00	  0.00	  0.00	  0.00	  0.00	  0.00	  0.00	  0.00	  0.00	  0.00	  0.00	  0.00	  0.00	  0.00	  0.00	  0.00	  0.00	  0.00	  0.00	  0.00	  0.00	  0.00	  0.00	  0.00	  0.00	  0.00	  0.00	  0.00	  0.00	  0.00	  0.00	  0.00	  0.00	  0.00	  0.00	  0.00	  0.00	  0.00	  0.00	  0.00	  0.00	  0.00	  0.00	  0.00	  0.00	  0.00
MICAL2 - ENSG00000133816	10.00	FALSE	FALSE	  0.00	  0.00	10.78	  0.00	  0.00	10.84	11.16	  0.00	12.17	12.25	12.249	  0.00	 10.99	  0.00	 10.29	10.97	  0.00	  9.19	  0.00	  0.00	  0.00	  0.00	  0.00	  0.00	  0.00	  0.00	  0.00	  0.00	  0.00	  0.00	  0.00	  0.00	  0.00	  0.00	  0.00	  0.00	  0.00	  0.00	  0.00	  0.00	  0.00	  0.00	  0.00	  0.00	  0.00	  0.00	  0.00	  0.00	  0.00	  0.00	  0.00	  0.00	  0.00	  0.00	  0.00	  0.00	  0.00	  0.00	  0.00	  0.00	  0.00	  0.00	  0.00	  0.00	  0.00	  0.00	  0.00	  0.00
FAT3 - ENSG00000165323	 9.00	 TRUE	FALSE	  0.00	  0.00	 9.58	  0.00	  0.00	 9.46	 9.34	  0.00	 9.60	10.15	10.146	  0.00	  9.44	  0.00	  9.12	 9.62	  0.00	  0.00	  0.00	  0.00	  0.00	  0.00	  0.00	  0.00	  0.00	  0.00	  0.00	  0.00	  0.00	  0.00	  0.00	  0.00	  0.00	  0.00	  0.00	  0.00	  0.00	  0.00	  0.00	  0.00	  0.00	  0.00	  0.00	  0.00	  0.00	  0.00	  0.00	  0.00	  0.00	  0.00	  0.00	  0.00	  0.00	  0.00	  0.00	  0.00	  0.00	  0.00	  0.00	  0.00	  0.00	  0.00	  0.00	  0.00	  0.00	  0.00	  0.00	  0.00
CDH11 - ENSG00000140937	 8.00	 TRUE	FALSE	  0.00	  0.00	19.91	  0.00	  0.00	19.85	19.43	  0.00	21.21	21.58	21.577	  0.00	 20.46	  0.00	  0.00	21.25	  0.00	  0.00	  0.00	  0.00	  0.00	  0.00	  0.00	  0.00	  0.00	  0.00	  0.00	  0.00	  0.00	  0.00	  0.00	  0.00	  0.00	  0.00	  0.00	  0.00	  0.00	  0.00	  0.00	  0.00	  0.00	  0.00	  0.00	  0.00	  0.00	  0.00	  0.00	  0.00	  0.00	  0.00	  0.00	  0.00	  0.00	  0.00	  0.00	  0.00	  0.00	  0.00	  0.00	  0.00	  0.00	  0.00	  0.00	  0.00	  0.00	  0.00	  0.00	  0.00
CACNA1D - ENSG00000157388	 7.00	 TRUE	FALSE	  0.00	  0.00	25.32	  0.00	  0.00	25.34	25.36	  0.00	25.46	25.36	25.363	  0.00	  0.00	  0.00	  0.00	24.48	  0.00	  0.00	  0.00	  0.00	  0.00	  0.00	  0.00	  0.00	  0.00	  0.00	  0.00	  0.00	  0.00	  0.00	  0.00	  0.00	  0.00	  0.00	  0.00	  0.00	  0.00	  0.00	  0.00	  0.00	  0.00	  0.00	  0.00	  0.00	  0.00	  0.00	  0.00	  0.00	  0.00	  0.00	  0.00	  0.00	  0.00	  0.00	  0.00	  0.00	  0.00	  0.00	  0.00	  0.00	  0.00	  0.00	  0.00	  0.00	  0.00	  0.00	  0.00	  0.00
PDCD11 - ENSG00000148843	 6.00	FALSE	FALSE	  0.00	  0.00	 9.99	  0.00	  0.00	 9.82	 9.76	  0.00	 0.00	 9.95	 9.952	  0.00	  0.00	  0.00	  0.00	 9.42	  0.00	  0.00	  0.00	  0.00	  0.00	  0.00	  0.00	  0.00	  0.00	  0.00	  0.00	  0.00	  0.00	  0.00	  0.00	  0.00	  0.00	  0.00	  0.00	  0.00	  0.00	  0.00	  0.00	  0.00	  0.00	  0.00	  0.00	  0.00	  0.00	  0.00	  0.00	  0.00	  0.00	  0.00	  0.00	  0.00	  0.00	  0.00	  0.00	  0.00	  0.00	  0.00	  0.00	  0.00	  0.00	  0.00	  0.00	  0.00	  0.00	  0.00	  0.00	  0.00
ADAMTS2 - ENSG00000087116	 5.00	FALSE	FALSE	  0.00	  0.00	 0.27	  0.00	  0.00	 0.50	 0.32	  0.00	 0.00	 0.00	 0.038	  0.00	  0.00	  0.00	  0.00	 0.48	  0.00	  0.00	  0.00	  0.00	  0.00	  0.00	  0.00	  0.00	  0.00	  0.00	  0.00	  0.00	  0.00	  0.00	  0.00	  0.00	  0.00	  0.00	  0.00	  0.00	  0.00	  0.00	  0.00	  0.00	  0.00	  0.00	  0.00	  0.00	  0.00	  0.00	  0.00	  0.00	  0.00	  0.00	  0.00	  0.00	  0.00	  0.00	  0.00	  0.00	  0.00	  0.00	  0.00	  0.00	  0.00	  0.00	  0.00	  0.00	  0.00	  0.00	  0.00	  0.00
ANK1 - ENSG00000029534	 4.00	 TRUE	FALSE	  0.00	  0.00	-9.23	  0.00	  0.00	-9.39	-9.15	  0.00	 0.00	 0.00	 0.000	  0.00	  0.00	  0.00	  0.00	-9.60	  0.00	  0.00	  0.00	  0.00	  0.00	  0.00	  0.00	  0.00	  0.00	  0.00	  0.00	  0.00	  0.00	  0.00	  0.00	  0.00	  0.00	  0.00	  0.00	  0.00	  0.00	  0.00	  0.00	  0.00	  0.00	  0.00	  0.00	  0.00	  0.00	  0.00	  0.00	  0.00	  0.00	  0.00	  0.00	  0.00	  0.00	  0.00	  0.00	  0.00	  0.00	  0.00	  0.00	  0.00	  0.00	  0.00	  0.00	  0.00	  0.00	  0.00	  0.00	  0.00
COL22A1 - ENSG00000169436	 3.00	FALSE	FALSE	  0.00	  0.00	10.23	  0.00	  0.00	10.26	10.54	  0.00	 0.00	 0.00	 0.000	  0.00	  0.00	  0.00	  0.00	 0.00	  0.00	  0.00	  0.00	  0.00	  0.00	  0.00	  0.00	  0.00	  0.00	  0.00	  0.00	  0.00	  0.00	  0.00	  0.00	  0.00	  0.00	  0.00	  0.00	  0.00	  0.00	  0.00	  0.00	  0.00	  0.00	  0.00	  0.00	  0.00	  0.00	  0.00	  0.00	  0.00	  0.00	  0.00	  0.00	  0.00	  0.00	  0.00	  0.00	  0.00	  0.00	  0.00	  0.00	  0.00	  0.00	  0.00	  0.00	  0.00	  0.00	  0.00	  0.00	  0.00
COL12A1 - ENSG00000111799	 2.00	FALSE	FALSE	  0.00	  0.00	 0.00	  0.00	  0.00	 1.15	 1.36	  0.00	 0.00	 0.00	 0.000	  0.00	  0.00	  0.00	  0.00	 0.00	  0.00	  0.00	  0.00	  0.00	  0.00	  0.00	  0.00	  0.00	  0.00	  0.00	  0.00	  0.00	  0.00	  0.00	  0.00	  0.00	  0.00	  0.00	  0.00	  0.00	  0.00	  0.00	  0.00	  0.00	  0.00	  0.00	  0.00	  0.00	  0.00	  0.00	  0.00	  0.00	  0.00	  0.00	  0.00	  0.00	  0.00	  0.00	  0.00	  0.00	  0.00	  0.00	  0.00	  0.00	  0.00	  0.00	  0.00	  0.00	  0.00	  0.00	  0.00	  0.00
NEXMIF - ENSG00000050030	 1.00	FALSE	FALSE	  0.00	  0.00	 0.00	  0.00	  0.00	 0.00	-3.45	  0.00	 0.00	 0.00	 0.000	  0.00	  0.00	  0.00	  0.00	 0.00	  0.00	  0.00	  0.00	  0.00	  0.00	  0.00	  0.00	  0.00	  0.00	  0.00	  0.00	  0.00	  0.00	  0.00	  0.00	  0.00	  0.00	  0.00	  0.00	  0.00	  0.00	  0.00	  0.00	  0.00	  0.00	  0.00	  0.00	  0.00	  0.00	  0.00	  0.00	  0.00	  0.00	  0.00	  0.00	  0.00	  0.00	  0.00	  0.00	  0.00	  0.00	  0.00	  0.00	  0.00	  0.00	  0.00	  0.00	  0.00	  0.00	  0.00	  0.00	  0.00
