variable	min_all	max_all	median_all	model_53	model_54	model_55	model_49	model_50	model_51	model_52	model_56	model_59	model_47	model_48	model_57	model_58	model_46	model_42	model_44	model_45	model_43	model_41	model_40	model_39	model_30	model_29	model_28
length_pb	150364	300985	254429.5	283291	284233	285409	262065	264265	267991	269521	291460	300985	250670	258189	292705	299566	240413	221402	231608	233369	225494	217031	212804	207149	169144	164164	150364
R2	0.82	0.87	0.86	0.87	0.87	0.87	0.87	0.87	0.87	0.87	0.87	0.87	0.86	0.86	0.87	0.87	0.86	0.86	0.86	0.86	0.86	0.86	0.86	0.86	0.82	0.82	0.82
Rsquared_1000optboot	0.79	0.83	0.83	0.83	0.83	0.83	0.83	0.83	0.83	0.83	0.83	0.83	0.83	0.83	0.83	0.83	0.83	0.82	0.82	0.82	0.82	0.82	0.82	0.82	0.79	0.79	0.79
Rsquared_externaltest	0.62	0.74	0.72	0.74	0.74	0.74	0.73	0.73	0.73	0.73	0.73	0.73	0.73	0.73	0.72	0.72	0.72	0.69	0.69	0.68	0.68	0.66	0.65	0.63	0.64	0.63	0.62
RSE	21	25	22	22	22	22	22	22	22	22	22	21	22	22	21	21	22	22	22	22	22	22	22	22	25	25	25
RMSE_1000optboot	25	28	25	25	25	25	25	25	25	25	25	25	25	25	25	25	26	26	26	26	26	26	26	26	28	28	28
RMSE_externaltest	223	241	225	223	223	223	224	224	224	224	224	225	224	224	225	225	226	229	229	229	230	231	232	235	239	240	241
variables_model	28	61	48.5	54	55	56	50	51	52	53	58	61	48	49	59	60	47	43	45	46	44	42	41	40	30	29	28
negative_variables	2	8	4	5	6	6	4	4	4	5	6	8	4	4	7	7	4	3	3	4	3	3	3	3	2	2	2
percent_training	65.67	86.03	75.64	76.66	76.66	76.75	75.81	75.89	76.24	76.49	76.83	86.03	75.64	75.64	85.86	85.95	75.3	71.55	72.15	74.96	71.81	71.47	71.12	71.04	66.44	66.27	65.67
percent_testing	65.54	91.76	74.16	75.28	75.28	75.28	74.16	74.16	74.91	74.91	75.66	91.76	74.16	74.16	91.39	91.76	74.16	73.03	73.78	74.16	73.78	73.03	73.03	73.03	65.54	65.54	65.54


hgnc_symbol	in_models	census	panel	model_53	model_54	model_55	model_49	model_50	model_51	model_52	model_56	model_59	model_47	model_48	model_57	model_58	model_46	model_42	model_44	model_45	model_43	model_41	model_40	model_39	model_30	model_29	model_28
Intercept	24.00	  NA	   NA	 29.23	 29.23	 29.18	 29.49	 29.43	 29.18	 29.26	 29.21	 30.94	 29.50	 29.51	 31.13	 31.11	 29.64	 29.69	 29.37	 29.80	 29.50	 29.67	 29.83	 29.84	 29.05	 29.13	 29.45
ARHGAP5 - ENSG00000100852	24.00	TRUE	FALSE	  3.61	  3.61	  3.61	  3.66	  3.62	  3.64	  3.64	  3.50	  3.35	  3.64	  3.64	  3.32	  3.33	  3.62	  4.00	  3.68	  3.64	  3.82	  4.03	  4.02	  4.02	  4.02	  4.00	  3.98
ATIC - ENSG00000138363	24.00	TRUE	FALSE	210.67	210.46	196.62	205.44	206.15	206.95	207.02	202.32	189.18	207.93	207.34	207.62	186.87	208.17	245.47	207.78	209.32	232.37	237.65	238.44	235.14	185.26	185.13	201.77
BCLAF1 - ENSG00000029363	24.00	TRUE	FALSE	 27.01	 27.02	 27.50	 28.89	 28.84	 27.33	 27.29	 27.58	 27.56	 30.16	 28.88	 27.30	 27.30	 30.14	 30.17	 30.41	 30.13	 30.48	 29.95	 29.78	 29.83	 50.36	 50.58	 51.97
CNTNAP2 - ENSG00000174469	24.00	TRUE	FALSE	 44.91	 44.92	 45.03	 45.22	 44.69	 44.79	 44.77	 43.68	 41.42	 44.92	 45.05	 42.58	 42.59	 44.89	 45.46	 44.82	 44.79	 44.67	 45.46	 45.28	 47.36	 48.19	 47.96	 48.56
CREB3L1 - ENSG00000157613	24.00	TRUE	FALSE	 66.52	 66.51	 67.10	 71.22	 71.10	 66.17	 66.28	 68.77	 65.29	 66.30	 66.57	 68.26	 68.26	 72.11	 86.18	 72.20	 72.26	 77.62	 85.86	 85.89	 85.99	 91.16	 90.82	 90.46
CYLD - ENSG00000083799	24.00	TRUE	 TRUE	 42.46	 42.46	 42.46	 43.96	 43.86	 44.15	 44.14	 42.40	 41.11	 43.56	 43.57	 41.17	 41.18	 43.45	 43.46	 43.58	 43.28	 43.44	 43.47	 43.17	 52.52	 52.22	 51.99	 51.68
DDR2 - ENSG00000162733	24.00	TRUE	 TRUE	 26.70	 26.87	 26.95	 26.53	 26.56	 26.65	 26.64	 32.08	 31.40	 26.46	 26.46	 31.33	 31.33	 26.43	 26.34	 26.46	 26.40	 26.42	 26.33	 26.26	 26.26	 26.27	 26.21	 26.16
EGFR - ENSG00000146648	24.00	TRUE	 TRUE	 11.85	 11.85	 11.80	 11.90	 11.97	 11.94	 11.87	 11.46	 10.84	 12.13	 12.33	 10.56	 10.57	 12.03	 12.42	 12.28	 12.15	 12.45	 12.49	 12.41	 12.68	 13.26	 13.34	 13.46
ERBB2 - ENSG00000141736	24.00	TRUE	 TRUE	 46.39	 46.39	 46.55	 48.06	 48.12	 48.12	 48.11	 46.44	 44.44	 48.94	 47.98	 44.33	 44.34	 48.94	 49.09	 49.20	 48.90	 49.19	 57.38	 57.37	 57.43	 92.94	 93.33	 93.31
EXT2 - ENSG00000151348	24.00	TRUE	FALSE	 60.66	 60.66	 60.65	 60.55	 60.58	 60.83	 60.76	 60.43	 59.97	 59.24	 60.66	 59.78	 59.80	 58.98	 63.93	 59.25	 58.83	 64.09	 63.55	 63.36	 63.33	 66.27	 65.90	 65.16
FLNA - ENSG00000196924	24.00	TRUE	FALSE	 24.72	 24.72	 24.78	 26.09	 24.50	 24.50	 24.66	 24.87	 24.52	 30.13	 30.05	 24.76	 24.76	 30.06	 29.81	 30.13	 29.86	 29.95	 29.79	 29.58	 29.31	 30.49	 30.26	 29.88
H3F3A - ENSG00000163041	24.00	TRUE	 TRUE	-17.02	-17.01	-16.88	-17.66	-17.60	-17.41	-17.24	-16.93	-19.12	-17.82	-17.77	-19.28	-19.26	-17.72	-17.74	-17.49	-17.86	-17.61	-17.57	-17.56	-17.32	-17.31	-17.40	-17.40
HIST1H3B - ENSG00000274267	24.00	TRUE	FALSE	-12.87	-12.87	-12.85	-17.79	-17.61	-17.42	-12.92	-12.40	-13.87	-18.16	-17.99	-13.90	-13.89	-18.26	-18.31	-18.02	-18.39	-18.16	-18.33	-18.47	-18.46	-18.54	-18.71	-18.45
HLA-A - ENSG00000206503	24.00	TRUE	FALSE	 23.43	 23.43	 23.39	 23.81	 23.70	 23.84	 23.77	 23.21	 22.93	 23.14	 23.77	 22.97	 22.98	 23.09	 23.39	 23.22	 23.02	 23.39	 22.27	 22.25	 22.24	 22.79	 21.41	 21.27
HOXD13 - ENSG00000128714	24.00	TRUE	FALSE	117.03	117.03	116.60	 99.49	 99.44	115.78	115.96	115.27	135.09	 88.83	 90.13	121.47	121.44	 84.87	100.12	100.69	100.80	 97.43	 99.93	 99.82	100.18	 96.68	 95.01	 94.15
KMT2C - ENSG00000055609	24.00	TRUE	 TRUE	  8.16	  8.16	  8.17	  7.89	  7.91	  8.11	  8.10	  8.24	  8.24	  8.33	  7.93	  8.08	  8.09	  8.29	  8.22	  8.28	  8.26	  8.24	  8.16	  8.22	  8.20	  7.98	  8.11	  8.01
MUC16 - ENSG00000181143	24.00	TRUE	FALSE	 10.39	 10.39	 10.28	 10.24	 10.28	 10.52	 10.44	 10.24	 10.03	 10.59	 10.14	 10.17	 10.17	 10.54	 10.67	 10.52	 10.46	 10.60	 10.69	 10.74	 10.63	 12.35	 12.88	 13.11
MUC4 - ENSG00000145113	24.00	TRUE	FALSE	  0.94	  0.94	  0.93	  0.93	  0.94	  0.93	  0.94	  0.97	  0.98	  0.95	  0.93	  0.98	  0.98	  0.96	  0.96	  0.96	  0.96	  0.96	  0.96	  0.96	  0.96	  1.05	  1.12	  1.13
NCKIPSD - ENSG00000213672	24.00	TRUE	FALSE	104.36	104.37	104.51	119.24	103.71	103.46	103.26	120.15	119.24	109.60	110.85	119.09	119.08	109.68	110.57	109.72	110.11	110.06	110.73	110.47	134.79	129.57	129.01	129.46
NCOR2 - ENSG00000196498	24.00	TRUE	FALSE	 47.73	 47.93	 47.97	 47.15	 47.35	 47.74	 47.64	 42.96	 42.51	 46.48	 46.91	 42.56	 42.58	 46.33	 46.21	 46.50	 46.07	 46.40	 46.10	 45.89	 45.79	 92.53	 92.87	 91.29
NRG1 - ENSG00000157168	24.00	TRUE	FALSE	 26.80	 26.80	 26.90	 26.93	 27.01	 26.85	 26.69	 26.72	 26.47	 27.63	 26.94	 26.52	 26.52	 27.21	 27.23	 27.27	 27.27	 27.25	 27.11	 27.93	 27.87	 23.33	 23.29	 23.18
PAX8 - ENSG00000125618	24.00	TRUE	FALSE	  9.85	  9.85	 10.57	 24.07	 23.94	  9.57	  9.61	 11.70	 -2.65	 33.56	 33.47	 11.11	 11.11	 36.15	 35.76	 36.10	 35.88	 38.82	 35.83	 35.72	 35.41	 33.96	 33.89	 33.61
PTEN - ENSG00000171862	24.00	TRUE	 TRUE	 11.69	 11.69	 11.69	 12.15	 12.01	 11.78	 11.76	 11.12	  9.20	 12.76	 12.68	  9.46	  9.48	 12.91	 12.95	 12.92	 12.91	 12.90	 12.88	 13.27	 13.19	 13.69	 14.07	 13.99
PTPRT - ENSG00000196090	24.00	TRUE	FALSE	 28.87	 28.87	 28.89	 29.66	 28.50	 28.68	 28.77	 28.84	 27.79	 29.11	 29.66	 27.72	 27.73	 29.02	 30.11	 29.17	 28.88	 30.23	 29.90	 29.77	 29.72	 58.46	 59.37	 58.95
RGPD3 - ENSG00000153165	24.00	TRUE	FALSE	 22.96	 22.97	 23.04	 22.21	 22.43	 22.54	 22.49	 22.82	 23.16	 22.92	 22.22	 23.09	 23.10	 22.87	 23.02	 23.08	 22.77	 23.09	 24.51	 24.45	 24.44	 39.61	 40.99	 41.60
SALL4 - ENSG00000101115	24.00	TRUE	FALSE	 36.64	 36.64	 36.64	 35.59	 35.72	 36.01	 36.62	 37.23	 36.10	 34.97	 35.44	 35.90	 35.92	 36.28	 36.29	 36.49	 36.12	 36.41	 36.33	 35.55	 35.62	 60.94	 60.74	 60.63
TP53 - ENSG00000141510	24.00	TRUE	 TRUE	  3.60	  3.60	  3.61	  3.73	  3.76	  3.80	  3.76	  3.71	  4.71	  3.79	  3.83	  4.67	  4.67	  3.70	  3.63	  3.76	  3.72	  3.70	  3.70	  3.74	  3.73	  5.37	  5.29	  5.23
USP6 - ENSG00000129204	24.00	TRUE	FALSE	 33.75	 33.75	 33.77	 33.07	 32.95	 33.09	 33.17	 33.71	 33.50	 37.24	 33.07	 33.55	 33.55	 37.32	 36.97	 37.13	 37.40	 36.91	 38.02	 38.02	 38.09	 28.18	 29.10	 30.46
LRP1B - ENSG00000168702	23.00	TRUE	 TRUE	 13.67	 13.67	 12.61	 13.37	 13.51	 13.70	 13.95	 12.65	 10.89	 13.89	 13.25	 12.38	 12.38	 13.83	 13.49	 13.75	 13.72	 13.65	 13.47	 13.35	 13.12	 15.01	 15.10	  0.00
SETBP1 - ENSG00000152217	22.00	TRUE	FALSE	 14.63	 14.71	 14.76	 18.26	 15.19	 15.31	 15.33	 12.77	 12.00	 21.16	 18.04	 11.95	 11.96	 21.09	 20.90	 21.23	 20.99	 21.03	 21.22	 21.00	 21.01	 17.29	  0.00	  0.00
AKT3 - ENSG00000117020	21.00	TRUE	 TRUE	315.82	315.62	315.37	307.80	308.62	314.43	313.97	318.37	319.80	307.88	307.73	320.87	320.82	303.88	318.62	318.84	320.14	317.86	318.56	318.19	318.31	  0.00	  0.00	  0.00
BRAF - ENSG00000157764	21.00	TRUE	 TRUE	-12.30	-12.30	-12.19	-11.88	-11.79	-12.05	-12.12	-12.36	-13.88	-11.94	-11.92	-14.06	-14.04	-12.12	-12.22	-11.86	-12.26	-12.02	-11.48	-11.68	-11.70	  0.00	  0.00	  0.00
GLI1 - ENSG00000111087	21.00	TRUE	 TRUE	 22.83	 22.83	 23.02	 25.47	 25.49	 22.73	 22.70	 23.58	 22.63	 25.55	 25.53	 22.31	 22.32	 27.24	 27.23	 27.45	 27.11	 27.36	 27.14	 28.82	 28.81	  0.00	  0.00	  0.00
HIST1H4I - ENSG00000276180	21.00	TRUE	FALSE	117.54	117.51	116.77	118.03	118.07	117.19	117.37	121.88	123.19	116.34	119.41	123.17	123.13	130.35	143.80	129.45	130.93	143.21	132.73	147.53	147.47	  0.00	  0.00	  0.00
PDGFRA - ENSG00000134853	21.00	TRUE	 TRUE	  8.79	  8.79	  8.17	  9.15	  9.16	  9.31	  9.27	  8.15	  7.63	  9.56	  9.55	  7.49	  7.50	  9.38	  9.41	  9.25	  9.30	  9.37	  9.94	  9.69	  9.61	  0.00	  0.00	  0.00
PRDM2 - ENSG00000116731	21.00	TRUE	FALSE	 36.25	 36.27	 36.52	 34.69	 35.27	 35.31	 35.32	 35.75	 35.78	 36.72	 34.79	 35.43	 35.43	 36.77	 36.96	 36.85	 36.76	 36.98	 38.37	 38.26	 38.46	  0.00	  0.00	  0.00
PTCH1 - ENSG00000185920	21.00	TRUE	 TRUE	 41.40	 41.40	 41.53	 41.16	 41.16	 41.36	 41.35	 41.74	 40.49	 40.88	 40.89	 40.44	 40.45	 40.83	 40.48	 40.94	 40.62	 40.67	 40.44	 40.32	 40.16	  0.00	  0.00	  0.00
PTPRC - ENSG00000081237	21.00	TRUE	FALSE	 19.39	 19.37	 17.77	 23.28	 23.39	 21.45	 21.48	 17.35	 17.18	 22.57	 22.96	 16.89	 16.89	 22.55	 23.12	 21.96	 22.46	 21.76	 23.09	 22.89	 22.89	  0.00	  0.00	  0.00
VAV1 - ENSG00000141968	21.00	TRUE	FALSE	 15.93	 15.93	 16.11	 16.85	 15.68	 15.82	 15.75	 16.07	 14.87	 16.41	 16.48	 14.60	 14.61	 16.35	 16.28	 16.56	 16.23	 16.45	 16.22	 16.11	 17.63	  0.00	  0.00	  0.00
ZFHX3 - ENSG00000140836	21.00	TRUE	FALSE	 14.82	 14.83	 15.07	 15.38	 14.67	 14.90	 14.63	 15.08	 16.45	 14.77	 15.24	 16.12	 16.13	 14.66	 14.22	 14.55	 14.57	 14.46	 14.19	 13.88	 13.85	  0.00	  0.00	  0.00
BRCA1 - ENSG00000012048	20.00	TRUE	 TRUE	 23.45	 23.45	 23.36	 24.08	 24.53	 24.65	 24.62	 24.17	 24.59	 24.17	 23.97	 24.11	 24.11	 24.12	 23.64	 24.17	 24.02	 24.10	 23.58	 23.58	  0.00	  0.00	  0.00	  0.00
MET - ENSG00000105976	19.00	TRUE	 TRUE	 15.67	 15.67	 15.70	 15.17	 15.23	 15.61	 15.59	 15.78	 15.21	 14.86	 14.97	 15.07	 15.07	 14.67	 14.59	 14.83	 14.54	 14.74	 14.59	  0.00	  0.00	  0.00	  0.00	  0.00
NCOA1 - ENSG00000084676	18.00	TRUE	FALSE	 23.55	 23.55	 23.63	 24.73	 24.75	 24.82	 24.79	 23.68	 23.85	 25.38	 24.58	 23.95	 23.95	 25.42	 25.37	 25.46	 25.38	 25.43	  0.00	  0.00	  0.00	  0.00	  0.00	  0.00
FLT4 - ENSG00000037280	17.00	TRUE	 TRUE	 15.21	 15.22	 15.38	 14.16	 14.31	 15.01	 14.98	 15.64	 13.96	 14.41	 14.43	 15.07	 15.08	 13.88	  0.00	 14.11	 13.73	 14.52	  0.00	  0.00	  0.00	  0.00	  0.00	  0.00
ANK1 - ENSG00000029534	16.00	TRUE	FALSE	 14.50	 14.51	 14.62	 14.48	 14.64	 14.40	 14.39	 14.99	 14.32	 14.07	 13.89	 14.54	 14.55	 14.52	  0.00	 14.60	 14.36	  0.00	  0.00	  0.00	  0.00	  0.00	  0.00	  0.00
CHEK2 - ENSG00000183765	15.00	TRUE	 TRUE	 -3.70	 -3.70	 -3.62	 -4.01	 -3.98	 -3.85	 -3.79	 -3.60	 -4.36	 -3.47	 -3.63	 -4.15	 -4.14	 -3.53	  0.00	  0.00	 -3.63	  0.00	  0.00	  0.00	  0.00	  0.00	  0.00	  0.00
ROS1 - ENSG00000047936	14.00	TRUE	 TRUE	 10.87	 10.87	 11.02	 14.33	 14.37	 11.98	 11.97	 11.66	 10.62	 14.21	 14.14	 10.37	 10.38	 15.69	  0.00	  0.00	  0.00	  0.00	  0.00	  0.00	  0.00	  0.00	  0.00	  0.00
BRCA2 - ENSG00000139618	13.00	TRUE	 TRUE	 14.98	 14.98	 14.97	 14.57	 14.63	 14.99	 14.85	 10.12	 10.26	 14.08	 14.02	 10.73	 10.74	  0.00	  0.00	  0.00	  0.00	  0.00	  0.00	  0.00	  0.00	  0.00	  0.00	  0.00
NCOR1 - ENSG00000141027	12.00	TRUE	FALSE	 14.91	 14.89	 15.02	 14.81	 15.57	 15.63	 15.57	 15.47	 16.64	  0.00	 14.84	 16.28	 16.28	  0.00	  0.00	  0.00	  0.00	  0.00	  0.00	  0.00	  0.00	  0.00	  0.00	  0.00
PLCG1 - ENSG00000124181	11.00	TRUE	FALSE	 25.57	 25.57	 25.60	 23.77	 24.09	 25.51	 25.47	 25.80	 26.84	  0.00	  0.00	 25.58	 25.58	  0.00	  0.00	  0.00	  0.00	  0.00	  0.00	  0.00	  0.00	  0.00	  0.00	  0.00
TP63 - ENSG00000073282	10.00	TRUE	FALSE	 18.69	 18.67	 18.64	  0.00	 18.37	 18.51	 18.49	 19.59	 20.41	  0.00	  0.00	 20.15	 20.15	  0.00	  0.00	  0.00	  0.00	  0.00	  0.00	  0.00	  0.00	  0.00	  0.00	  0.00
MECOM - ENSG00000085276	 9.00	TRUE	FALSE	 22.92	 22.92	 21.63	  0.00	  0.00	 23.55	 23.52	 21.74	 20.36	  0.00	  0.00	 21.54	 21.54	  0.00	  0.00	  0.00	  0.00	  0.00	  0.00	  0.00	  0.00	  0.00	  0.00	  0.00
ACVR1 - ENSG00000115170	 8.00	TRUE	FALSE	 -6.27	 -6.27	 -6.18	  0.00	  0.00	  0.00	 -6.26	 -5.91	 -5.81	  0.00	  0.00	 -6.08	 -6.08	  0.00	  0.00	  0.00	  0.00	  0.00	  0.00	  0.00	  0.00	  0.00	  0.00	  0.00
FAT3 - ENSG00000165323	 7.00	TRUE	FALSE	 11.35	 11.34	 11.85	  0.00	  0.00	  0.00	  0.00	 12.02	 12.05	  0.00	  0.00	 11.91	 11.91	  0.00	  0.00	  0.00	  0.00	  0.00	  0.00	  0.00	  0.00	  0.00	  0.00	  0.00
HOXA11 - ENSG00000005073	 6.00	TRUE	FALSE	  0.00	 -0.93	 -1.20	  0.00	  0.00	  0.00	  0.00	 23.08	 26.72	  0.00	  0.00	 26.73	 26.71	  0.00	  0.00	  0.00	  0.00	  0.00	  0.00	  0.00	  0.00	  0.00	  0.00	  0.00
TENT5C - ENSG00000183508	 5.00	TRUE	 TRUE	  0.00	  0.00	 15.66	  0.00	  0.00	  0.00	  0.00	 15.86	 15.40	  0.00	  0.00	 14.64	 14.64	  0.00	  0.00	  0.00	  0.00	  0.00	  0.00	  0.00	  0.00	  0.00	  0.00	  0.00
PRDM16 - ENSG00000142611	 4.00	TRUE	FALSE	  0.00	  0.00	  0.00	  0.00	  0.00	  0.00	  0.00	-17.16	-17.41	  0.00	  0.00	-17.38	-17.38	  0.00	  0.00	  0.00	  0.00	  0.00	  0.00	  0.00	  0.00	  0.00	  0.00	  0.00
SUZ12 - ENSG00000178691	 4.00	TRUE	FALSE	  0.00	  0.00	  0.00	  0.00	  0.00	  0.00	  0.00	 44.57	 46.54	  0.00	  0.00	 45.91	 45.90	  0.00	  0.00	  0.00	  0.00	  0.00	  0.00	  0.00	  0.00	  0.00	  0.00	  0.00
IDH1 - ENSG00000138413	 3.00	TRUE	 TRUE	  0.00	  0.00	  0.00	  0.00	  0.00	  0.00	  0.00	  0.00	 -4.94	  0.00	  0.00	 -5.14	 -5.13	  0.00	  0.00	  0.00	  0.00	  0.00	  0.00	  0.00	  0.00	  0.00	  0.00	  0.00
POLE - ENSG00000177084	 2.00	TRUE	 TRUE	  0.00	  0.00	  0.00	  0.00	  0.00	  0.00	  0.00	  0.00	  7.06	  0.00	  0.00	  0.00	  6.89	  0.00	  0.00	  0.00	  0.00	  0.00	  0.00	  0.00	  0.00	  0.00	  0.00	  0.00
FOXA1 - ENSG00000129514	 1.00	TRUE	FALSE	  0.00	  0.00	  0.00	  0.00	  0.00	  0.00	  0.00	  0.00	 22.78	  0.00	  0.00	  0.00	  0.00	  0.00	  0.00	  0.00	  0.00	  0.00	  0.00	  0.00	  0.00	  0.00	  0.00	  0.00
