variable	min_all	max_all	median_all	model_96	model_97	model_94	model_85	model_86	model_87	model_88	model_89	model_90	model_91	model_92	model_93	model_95	model_77	model_78	model_79	model_80	model_81	model_82	model_83	model_84	model_75	model_76	model_73	model_74	model_72	model_70	model_68	model_69	model_71	model_67	model_65	model_66	model_64	model_63	model_61	model_59	model_60	model_62	model_58	model_57	model_56	model_55	model_51	model_52	model_53	model_54	model_50	model_43	model_44	model_47	model_45	model_46	model_48	model_49	model_42	model_41	model_40	model_38	model_39	model_37	model_35	model_36	model_32	model_26	model_21	model_23	model_22
length_pb	110455	524623	335367.5	516064	524623	498634	452131	458794	465436	470308	473932	487535	493118	494552	497743	509875	427180	429865	432330	435678	436089	443711	445461	447169	413666	418750	389716	405955	385930	366434	357947	364805	370946	354242	348944	353453	336830	333905	316158	306009	308058	318459	302001	298491	294036	284455	264668	269702	274085	275885	256164	232371	233898	246258	236883	243324	248457	252795	227964	226743	221314	203011	207832	193111	189046	191711	166084	138379	110455	121672	114496
R2	0.82	0.92	0.9	0.92	0.92	0.91	0.91	0.91	0.91	0.91	0.91	0.91	0.91	0.91	0.91	0.91	0.91	0.91	0.91	0.91	0.91	0.91	0.91	0.91	0.91	0.91	0.91	0.91	0.91	0.91	0.91	0.91	0.91	0.91	0.9	0.9	0.9	0.9	0.9	0.9	0.9	0.9	0.9	0.9	0.9	0.9	0.89	0.89	0.89	0.9	0.89	0.88	0.88	0.89	0.88	0.89	0.89	0.89	0.88	0.88	0.88	0.87	0.87	0.87	0.86	0.87	0.86	0.84	0.82	0.83	0.82
Rsquared_1000optboot	0.81	0.89	0.89	0.89	0.89	0.89	0.89	0.89	0.89	0.89	0.89	0.89	0.89	0.89	0.89	0.89	0.89	0.89	0.89	0.89	0.89	0.89	0.89	0.89	0.89	0.89	0.89	0.89	0.89	0.89	0.89	0.89	0.89	0.89	0.89	0.89	0.89	0.89	0.89	0.89	0.89	0.89	0.88	0.88	0.88	0.88	0.88	0.88	0.88	0.88	0.88	0.87	0.87	0.87	0.87	0.87	0.87	0.88	0.87	0.86	0.86	0.86	0.86	0.86	0.85	0.86	0.85	0.83	0.81	0.81	0.81
Rsquared_externaltest	0.6	0.85	0.77	0.85	0.85	0.85	0.84	0.84	0.84	0.84	0.84	0.84	0.84	0.84	0.84	0.84	0.83	0.83	0.83	0.83	0.83	0.83	0.83	0.83	0.82	0.82	0.82	0.82	0.81	0.81	0.8	0.8	0.81	0.78	0.78	0.78	0.77	0.77	0.77	0.76	0.76	0.76	0.75	0.74	0.73	0.72	0.72	0.71	0.71	0.7	0.69	0.71	0.71	0.69	0.71	0.69	0.68	0.68	0.69	0.68	0.65	0.63	0.63	0.63	0.63	0.62	0.61	0.61	0.61	0.6	0.6
RSE	17	25	18.5	17	17	18	18	18	18	18	18	18	18	18	18	18	18	18	18	18	18	18	18	18	18	18	18	18	18	18	18	18	18	18	18	18	18	19	19	19	19	19	19	19	19	19	19	19	19	19	20	20	20	20	20	20	20	20	21	21	21	21	21	21	22	22	22	24	25	24	25
RMSE_1000optboot	20	26	20	20	20	20	20	20	20	20	20	20	20	20	20	20	20	20	20	20	20	20	20	20	20	20	20	20	20	20	20	20	20	20	20	20	20	20	20	20	20	20	20	20	21	21	21	21	21	21	21	22	22	21	22	21	21	21	22	22	22	22	22	23	23	23	24	25	26	26	26
RMSE_externaltest	224	252	234	224	224	225	225	225	225	225	225	225	225	225	225	225	226	226	226	226	226	226	226	226	227	227	229	229	229	230	230	230	231	233	233	233	234	234	235	235	235	235	236	237	238	239	241	241	241	241	242	242	242	242	243	243	242	243	244	244	246	248	248	248	247	248	249	250	251	252	252
variables_model	21	101	63.5	98	101	95	85	86	87	88	89	91	92	93	94	96	77	78	79	80	81	82	83	84	75	76	73	74	72	70	68	69	71	67	65	66	64	63	61	59	60	62	58	57	56	55	51	52	53	54	50	43	44	47	45	46	48	49	42	41	40	38	39	37	35	36	32	26	21	23	22
negative_variables	1	5	2	5	4	5	3	3	3	3	3	3	4	5	5	5	2	2	2	2	3	3	3	3	2	2	2	2	2	2	2	2	2	2	2	2	2	2	1	1	1	2	1	1	1	1	1	1	1	1	1	1	1	1	1	1	1	1	1	1	1	1	1	1	1	1	1	1	1	1	1
percent_training	41.51	84.45	78.32	84.29	84.45	83.78	82.94	82.94	83.19	83.28	83.28	83.45	83.53	83.53	83.61	83.95	81.18	81.34	81.51	81.51	82.52	82.69	82.77	82.77	81.18	81.18	80.25	80.76	80.25	79.83	79.16	79.41	79.83	78.99	78.82	78.91	78.32	78.32	75.8	75.55	75.71	77.82	75.55	75.46	75.46	75.04	74.12	74.37	74.79	74.96	73.95	72.44	72.52	73.19	73.03	73.03	73.61	73.7	72.02	69.92	69.83	68.99	69.08	68.4	67.9	68.07	66.05	44.2	41.51	42.44	41.93
percent_testing	35.58	84.27	76.78	83.52	84.27	82.77	81.65	81.65	81.65	81.65	82.4	82.4	82.77	82.77	82.77	82.77	80.52	80.52	80.52	80.52	80.9	80.9	80.9	80.9	80.52	80.52	80.52	80.52	80.52	79.4	78.28	79.4	80.15	77.9	77.53	77.53	76.78	76.78	73.78	72.66	72.66	75.66	72.66	72.66	72.28	72.28	72.28	72.28	72.28	72.28	72.28	71.16	71.54	72.28	71.54	72.28	72.28	72.28	70.04	69.29	69.29	68.16	68.54	68.16	67.79	68.16	65.92	40.07	35.58	37.08	35.58


hgnc_symbol	in_models	census	panel	model_96	model_97	model_94	model_85	model_86	model_87	model_88	model_89	model_90	model_91	model_92	model_93	model_95	model_77	model_78	model_79	model_80	model_81	model_82	model_83	model_84	model_75	model_76	model_73	model_74	model_72	model_70	model_68	model_69	model_71	model_67	model_65	model_66	model_64	model_63	model_61	model_59	model_60	model_62	model_58	model_57	model_56	model_55	model_51	model_52	model_53	model_54	model_50	model_43	model_44	model_47	model_45	model_46	model_48	model_49	model_42	model_41	model_40	model_38	model_39	model_37	model_35	model_36	model_32	model_26	model_21	model_23	model_22
Intercept	68.00	   NA	   NA	17.232	17.11	17.74	17.85	17.85	17.77	17.71	17.73	17.70	17.70	17.70	17.71	17.68	17.77	17.75	17.68	17.61	17.93	17.97	17.90	17.89	17.83	17.81	17.80	17.91	17.81	18.09	18.35	18.23	18.00	18.42	18.62	18.47	18.85	18.94	18.76	18.90	18.81	19.23	19.02	 19.21	 19.24	 19.37	 19.91	 19.79	 19.66	 19.44	 19.92	 21.09	 20.96	 20.39	 20.75	 20.57	 20.18	 20.17	 21.36	 21.94	 21.96	 22.51	 22.40	 22.84	 23.14	 23.11	 24.38	 28.11	 29.56	 28.95	 29.22
ANK1 - ENSG00000029534	68.00	 TRUE	FALSE	13.456	13.14	14.52	17.03	15.40	15.36	14.80	14.39	14.47	14.44	14.73	14.58	14.05	17.27	17.23	17.57	16.99	16.96	17.10	16.74	16.72	18.68	18.58	18.95	18.94	20.10	21.10	21.09	20.97	20.04	21.92	22.00	21.08	22.45	23.21	23.66	23.43	22.84	23.48	22.79	 25.05	 24.64	 24.15	 24.13	 23.75	 24.25	 24.79	 23.71	 21.24	 20.31	 22.94	 21.19	 21.74	 23.61	 24.43	 23.39	 22.13	 20.91	 21.60	 20.36	 21.92	 20.14	 21.34	 25.26	 32.20	 38.17	 34.34	 34.07
CNTNAP2 - ENSG00000174469	68.00	 TRUE	FALSE	26.202	26.28	26.59	26.27	26.42	26.66	26.74	26.17	26.32	26.31	26.33	26.49	26.59	27.07	27.19	25.73	26.04	25.90	25.87	26.21	26.32	26.92	27.20	26.47	26.63	25.87	25.96	26.04	25.97	26.00	25.81	25.65	25.79	26.35	26.31	26.50	26.07	26.43	26.37	25.44	 25.73	 26.38	 25.73	 24.51	 24.80	 25.23	 25.46	 24.93	 24.71	 25.13	 26.81	 26.05	 26.68	 27.03	 25.63	 24.29	 24.12	 23.36	 22.92	 22.66	 22.90	 21.73	 22.36	 24.88	 24.35	 24.26	 22.70	 24.67
COL1A2 - ENSG00000164692	68.00	FALSE	FALSE	20.273	20.63	19.63	18.90	18.58	19.07	19.10	18.88	19.01	19.03	19.12	19.26	19.68	19.34	18.04	18.33	18.47	18.62	18.83	18.61	18.94	19.49	19.97	20.49	20.52	20.95	20.44	20.64	20.93	20.68	21.25	22.30	21.50	23.42	23.70	23.92	22.98	23.34	23.71	23.13	 22.90	 22.80	 22.92	 22.21	 22.05	 22.41	 22.46	 21.84	 20.47	 20.04	 21.24	 20.69	 20.79	 20.80	 21.62	 20.57	 20.49	 20.47	 20.21	 20.52	 20.79	 20.47	 20.48	 23.67	 25.10	 29.89	 25.78	 28.17
CROCC - ENSG00000058453	68.00	FALSE	FALSE	34.370	31.96	32.54	32.41	32.50	32.50	32.62	32.76	32.77	32.78	32.70	32.60	32.64	32.40	32.78	32.12	31.75	31.73	32.52	32.61	32.35	32.31	32.38	31.57	32.83	31.43	31.78	34.23	33.95	31.86	35.08	35.31	34.96	35.65	35.42	35.88	36.44	36.43	35.88	36.83	 36.58	 36.96	 36.76	 37.47	 37.53	 37.94	 38.19	 38.64	 39.11	 39.47	 38.98	 38.91	 38.96	 39.08	 38.59	 39.08	 39.80	 41.49	 40.35	 40.97	 40.45	 40.67	 40.27	 40.20	 36.52	 37.79	 37.42	 37.84
EGFR - ENSG00000146648	68.00	 TRUE	 TRUE	 6.514	 6.33	 6.45	 6.93	 6.72	 6.70	 6.67	 6.77	 6.72	 6.73	 6.72	 6.70	 6.50	 7.18	 7.10	 7.11	 6.91	 6.83	 6.74	 6.69	 6.83	 7.38	 7.30	 7.32	 7.28	 7.40	 7.80	 7.74	 7.79	 7.51	 7.78	 8.18	 8.21	 8.29	 8.24	 8.63	 8.62	 8.65	 8.46	 8.58	  8.53	  8.93	  9.38	  9.35	  9.38	  9.30	  9.47	  9.29	  8.97	  9.25	  9.26	  9.24	  9.16	  9.31	  9.22	  9.23	  9.53	  9.40	  9.55	  9.45	  9.52	 10.30	  9.56	 10.33	 10.02	 10.50	 10.10	 10.39
EPHA10 - ENSG00000183317	68.00	FALSE	FALSE	31.097	29.44	30.26	32.30	32.09	32.46	32.27	32.13	32.22	32.25	32.04	31.74	30.05	30.42	31.07	31.66	31.60	31.51	31.68	31.79	32.18	30.86	31.08	31.55	31.50	31.82	32.96	32.58	32.43	33.04	32.47	32.01	32.07	33.57	32.98	34.12	34.28	34.43	34.20	36.99	 37.57	 38.89	 38.40	 37.73	 37.15	 37.65	 37.86	 37.75	 40.22	 37.58	 37.37	 37.24	 37.18	 37.58	 37.46	 40.86	 39.61	 40.93	 39.03	 40.91	 38.48	 37.34	 38.05	 35.67	 36.03	 42.47	 40.47	 43.05
FLG - ENSG00000143631	68.00	FALSE	FALSE	12.963	13.03	12.97	13.38	13.40	13.17	13.05	13.13	13.00	13.00	12.96	13.02	12.84	13.86	13.76	13.72	13.54	13.52	13.56	13.50	13.33	13.90	13.89	14.23	14.07	14.85	14.86	14.81	14.95	14.59	15.42	15.68	15.89	15.59	15.75	15.88	15.96	15.81	15.78	16.25	 16.44	 16.26	 16.48	 16.21	 16.01	 16.19	 16.23	 16.16	 16.55	 16.39	 15.84	 16.34	 15.81	 15.95	 15.78	 16.58	 16.75	 17.36	 18.54	 18.85	 19.18	 19.83	 19.47	 20.38	 19.97	 19.78	 19.60	 19.95
H3F3A - ENSG00000163041	68.00	 TRUE	 TRUE	-7.813	-7.78	-7.97	-8.16	-8.11	-8.03	-8.01	-8.00	-8.08	-8.08	-8.08	-8.04	-8.04	-8.17	-8.16	-8.08	-8.01	-8.23	-8.33	-8.36	-8.27	-8.20	-8.19	-8.26	-8.30	-8.29	-8.37	-8.72	-8.57	-8.41	-8.88	-8.91	-8.82	-9.12	-9.15	-9.25	-9.64	-9.50	-9.43	-9.73	 -9.95	-10.03	-10.19	-10.93	-10.68	-10.42	-10.18	-11.09	-11.91	-11.66	-11.05	-11.55	-11.27	-10.82	-11.31	-12.04	-12.55	-12.62	-13.07	-13.02	-13.08	-13.21	-13.22	-13.92	-12.51	-12.56	-12.67	-12.15
KCNJ12 - ENSG00000184185	68.00	FALSE	FALSE	16.295	15.38	17.30	17.00	17.08	17.18	17.17	17.17	17.28	17.27	17.22	17.28	17.32	17.21	17.01	17.10	17.21	17.21	16.84	16.85	17.01	17.21	17.26	18.36	17.02	18.37	18.36	18.90	18.96	18.30	18.81	18.67	18.68	18.43	18.27	18.51	19.02	18.36	18.47	18.87	 18.96	 18.72	 18.76	 19.22	 19.19	 18.93	 18.89	 19.73	 19.18	 19.28	 19.32	 19.51	 19.34	 19.38	 19.78	 19.20	 19.14	 18.65	 18.52	 18.34	 18.38	 18.37	 18.39	 18.54	 19.55	 22.98	 22.69	 23.04
LRP2 - ENSG00000081479	68.00	FALSE	FALSE	 7.176	 7.51	 9.68	 9.88	 9.61	 9.60	 9.67	 9.79	 9.69	 9.68	 9.67	 9.72	 9.76	 9.95	 9.63	 9.62	 9.81	 9.76	 9.52	 9.60	 9.69	10.44	10.21	10.54	10.76	10.68	10.95	10.62	10.88	10.84	10.33	 9.77	 9.89	 9.44	 9.62	 9.72	 9.10	 9.37	 9.64	 9.33	  9.34	  9.20	  9.72	 11.33	 11.06	 10.29	 10.45	 10.86	 12.86	 12.12	 11.57	 10.99	 11.28	 11.55	 10.71	 12.51	 13.62	 13.96	 15.82	 13.65	 15.74	 15.10	 15.50	 15.19	 19.29	 18.21	 19.23	 18.90
LRRK1 - ENSG00000154237	68.00	FALSE	FALSE	14.831	14.25	15.47	18.90	17.60	17.70	17.05	15.98	16.03	16.11	16.11	15.68	15.40	18.55	17.73	18.33	18.68	18.59	18.49	18.83	19.16	19.55	18.78	19.12	19.32	19.36	20.96	20.70	21.15	19.42	21.49	22.56	21.65	23.62	24.18	25.12	26.48	27.29	24.78	25.99	 26.43	 26.14	 27.02	 28.38	 28.92	 27.89	 28.25	 28.89	 32.81	 32.95	 29.90	 33.10	 30.56	 30.46	 31.10	 33.15	 32.78	 32.00	 33.48	 32.42	 35.02	 38.00	 36.82	 38.10	 45.00	 48.15	 45.71	 45.41
NLRP3 - ENSG00000162711	68.00	FALSE	FALSE	25.140	25.91	24.89	25.18	25.75	25.45	25.62	25.67	25.25	25.24	25.24	24.59	25.04	24.77	24.75	24.83	25.37	25.25	25.32	25.35	25.60	24.10	24.41	24.52	24.76	25.15	26.09	25.66	25.78	25.18	25.41	24.76	24.75	25.04	24.58	24.91	25.63	24.62	24.68	25.24	 27.54	 28.34	 28.59	 33.36	 33.60	 32.92	 30.14	 34.08	 33.93	 34.11	 35.02	 34.41	 34.83	 35.17	 35.14	 35.73	 36.28	 36.19	 35.10	 35.29	 34.53	 34.51	 33.85	 34.36	 34.87	 33.05	 33.97	 33.55
NLRP7 - ENSG00000167634	68.00	FALSE	FALSE	36.733	37.34	36.68	39.83	39.58	39.85	39.84	37.93	38.24	38.23	38.58	38.54	36.56	43.10	40.75	41.27	40.58	40.63	40.53	39.55	39.96	43.33	43.25	42.74	43.04	43.13	43.48	44.57	43.72	43.28	45.22	46.39	46.48	46.57	47.08	47.39	47.52	46.74	47.30	47.07	 47.25	 46.79	 48.39	 48.36	 49.02	 48.17	 48.50	 48.86	 50.00	 50.66	 49.94	 49.44	 49.74	 50.37	 50.87	 51.87	 53.52	 54.20	 55.95	 54.86	 57.74	 62.47	 61.77	 61.28	 68.44	 66.88	 68.73	 67.98
PLEKHG4B - ENSG00000153404	68.00	FALSE	FALSE	10.744	10.51	15.70	15.81	15.68	15.81	15.86	15.79	15.66	15.68	15.64	15.66	15.61	15.58	15.69	15.81	15.97	15.89	15.95	16.02	16.08	15.47	15.52	15.60	15.60	15.67	15.62	15.52	15.51	15.84	15.96	15.73	15.78	15.75	15.68	15.56	15.28	15.54	15.38	15.57	 15.70	 15.51	 15.89	 16.92	 16.79	 16.34	 15.88	 16.76	 17.05	 16.07	 16.43	 16.18	 16.29	 16.58	 16.61	 17.38	 17.48	 17.43	 19.68	 17.22	 19.47	 19.00	 19.34	 18.74	 18.65	 18.84	 18.95	 18.69
PTPRT - ENSG00000196090	68.00	 TRUE	FALSE	20.950	21.56	22.83	23.19	22.52	23.06	23.02	22.62	22.59	22.59	22.79	22.54	22.90	23.59	22.32	21.50	21.05	21.63	21.74	22.05	23.04	22.94	23.61	23.86	23.60	25.50	24.55	24.65	24.34	24.80	24.45	24.38	24.18	23.92	23.46	23.23	24.01	23.50	23.68	24.19	 23.61	 23.47	 23.34	 25.41	 24.76	 24.80	 23.58	 24.80	 25.31	 24.47	 24.37	 23.74	 23.67	 24.95	 24.56	 25.62	 24.50	 25.94	 28.29	 26.37	 27.65	 29.43	 27.81	 36.76	 45.39	 50.50	 48.06	 47.40
RIMBP2 - ENSG00000060709	68.00	FALSE	FALSE	27.254	28.28	26.74	27.76	27.39	27.10	27.32	27.40	26.73	26.73	26.70	26.62	26.92	27.19	27.12	27.48	27.12	27.15	27.47	27.64	27.55	28.02	27.33	28.42	28.42	29.03	29.44	29.63	29.20	29.52	29.10	28.11	28.35	27.78	28.30	28.31	29.50	29.67	28.26	30.57	 31.79	 32.15	 31.73	 32.61	 31.74	 32.17	 32.52	 32.30	 32.24	 33.16	 33.30	 32.29	 33.17	 32.74	 31.81	 31.49	 33.25	 35.06	 35.78	 34.83	 35.29	 34.11	 34.97	 38.94	 41.67	 47.51	 49.83	 49.02
RYR1 - ENSG00000196218	68.00	FALSE	FALSE	13.216	13.30	13.03	13.20	12.89	12.99	12.85	12.75	12.80	12.79	12.81	12.88	12.98	13.92	13.72	13.80	13.80	13.75	13.79	13.60	13.05	14.12	14.31	14.11	14.04	14.56	14.25	13.95	14.06	14.29	13.91	14.73	13.97	14.58	14.61	15.07	14.85	14.97	14.85	14.76	 15.03	 14.87	 14.93	 15.38	 15.15	 14.88	 15.13	 14.78	 15.44	 15.09	 13.96	 15.36	 15.42	 14.16	 14.49	 16.95	 17.08	 16.79	 16.95	 16.66	 16.95	 21.86	 16.96	 22.25	 22.82	 25.23	 23.47	 23.62
SON - ENSG00000159140	68.00	FALSE	FALSE	24.848	24.58	26.03	26.92	27.11	27.16	27.59	27.32	26.50	26.55	26.39	26.20	26.15	27.82	28.65	28.21	27.65	28.27	27.98	27.74	27.53	28.54	27.69	29.06	28.83	29.43	28.30	28.86	28.60	28.69	28.22	29.69	30.12	28.99	29.35	29.26	29.77	29.73	29.07	30.29	 30.17	 30.57	 30.53	 28.91	 29.06	 29.52	 29.85	 28.68	 31.14	 31.84	 30.57	 31.29	 30.00	 30.86	 29.11	 30.64	 29.38	 30.70	 33.93	 33.91	 33.08	 31.94	 32.70	 32.25	 32.80	 41.92	 41.76	 40.72
TAS1R2 - ENSG00000179002	68.00	FALSE	FALSE	29.345	27.36	30.61	30.47	30.85	30.41	30.68	30.80	30.64	30.68	30.75	30.66	30.73	31.51	32.26	32.64	31.50	31.25	31.52	31.58	31.88	30.72	30.82	31.06	31.00	30.87	31.46	31.45	31.15	30.94	31.18	30.94	31.18	31.30	31.21	30.44	30.86	31.51	30.70	31.24	 30.73	 31.26	 32.78	 34.80	 35.16	 31.46	 31.61	 34.84	 38.22	 38.89	 38.28	 37.99	 38.17	 38.71	 38.03	 37.76	 38.55	 40.18	 42.71	 41.06	 42.08	 41.23	 41.84	 39.26	 36.70	 42.95	 42.69	 43.91
THSD7B - ENSG00000144229	68.00	FALSE	FALSE	22.622	22.93	23.75	24.37	24.39	24.02	24.30	24.41	24.17	24.19	24.16	24.31	23.61	24.00	23.95	23.68	23.98	23.81	24.09	23.77	24.22	24.42	23.81	25.45	24.57	25.27	26.10	25.80	26.02	26.17	26.21	25.80	26.02	26.49	26.33	27.33	27.96	27.90	27.19	27.85	 27.71	 28.53	 28.94	 30.60	 30.90	 29.71	 29.71	 30.39	 32.94	 31.92	 29.55	 32.35	 31.73	 29.81	 30.02	 32.45	 32.44	 32.11	 33.35	 33.56	 32.94	 31.94	 32.22	 31.02	 29.74	 29.07	 27.61	 29.43
TRIML1 - ENSG00000184108	68.00	FALSE	FALSE	31.217	31.11	30.83	32.87	32.61	32.08	32.11	31.66	31.19	31.17	31.30	30.68	30.89	35.17	35.47	35.14	35.35	35.15	35.22	35.35	32.87	34.84	34.76	35.49	35.26	36.14	35.84	35.99	35.55	36.25	35.99	35.88	36.14	36.72	37.42	37.25	37.34	37.78	36.84	36.83	 36.34	 37.11	 37.20	 39.24	 38.29	 38.24	 37.30	 38.83	 41.65	 40.76	 39.32	 38.98	 38.90	 39.78	 38.26	 42.11	 42.41	 42.48	 45.78	 41.98	 45.55	 50.17	 45.54	 48.87	 49.09	 44.77	 47.25	 46.22
ADGRF5 - ENSG00000069122	67.00	FALSE	FALSE	25.347	24.21	25.17	26.22	26.66	25.08	25.59	25.76	25.84	25.93	25.85	25.91	25.42	25.31	25.86	25.99	26.33	26.61	26.15	26.50	26.56	25.78	24.81	25.14	25.38	24.59	25.52	25.70	25.80	25.89	25.09	26.34	26.26	26.54	26.31	26.41	25.89	25.98	26.29	25.78	 25.40	 25.30	 24.94	 25.98	 25.50	 25.74	 24.68	 27.36	 29.67	 30.31	 27.85	 30.30	 30.79	 27.91	 26.77	 31.42	 32.87	 33.71	 35.14	 35.75	 36.31	 34.24	 35.91	 32.84	 31.15	  0.00	 29.01	 28.62
FLG2 - ENSG00000143520	66.00	FALSE	FALSE	 8.370	 9.31	 8.85	 8.43	 8.71	 8.26	 8.65	 8.87	 8.72	 8.70	 8.66	 8.80	 8.74	10.73	10.69	 9.51	 8.93	 8.89	 9.07	 8.66	 8.82	11.27	10.75	12.31	11.49	12.07	12.19	12.70	12.83	12.46	12.49	13.56	12.58	12.98	13.15	13.64	15.27	13.94	13.48	14.85	 15.57	 15.19	 17.11	 22.35	 21.86	 20.59	 20.68	 22.48	 23.06	 23.63	 23.62	 22.81	 23.32	 22.93	 23.15	 23.53	 24.06	 23.92	 24.35	 23.22	 25.34	 26.29	 26.43	 24.76	 25.74	  0.00	 25.10	  0.00
BCLAF1 - ENSG00000029363	65.00	 TRUE	FALSE	22.993	23.15	23.53	25.07	24.34	23.73	23.78	23.78	22.92	22.98	23.61	23.39	23.38	27.07	27.02	27.08	26.80	26.73	26.24	26.47	25.13	26.43	26.54	25.95	26.61	25.80	25.17	25.13	24.91	25.38	24.97	24.87	24.95	26.58	27.30	26.96	26.83	27.38	27.65	27.20	 26.80	 28.48	 28.21	 27.00	 27.19	 27.89	 27.95	 27.09	 31.35	 29.74	 29.35	 28.89	 29.35	 28.71	 26.28	 31.29	 31.32	 32.76	 33.22	 34.20	 34.39	 33.94	 34.42	 32.59	 33.31	  0.00	  0.00	  0.00
CHD5 - ENSG00000116254	65.00	FALSE	FALSE	14.973	14.44	14.56	17.09	17.13	17.41	15.96	15.02	14.41	14.42	14.50	14.32	14.72	18.21	17.23	17.42	17.21	17.13	17.30	16.93	17.53	20.43	20.25	20.41	20.57	20.32	19.97	20.96	20.93	20.18	21.82	21.84	22.23	21.76	21.92	20.66	20.40	20.85	21.82	20.49	 20.58	 21.11	 20.79	 21.58	 22.13	 21.52	 20.44	 21.22	 26.07	 23.38	 20.53	 21.24	 19.97	 21.06	 20.53	 25.36	 25.56	 26.59	 27.38	 27.12	 28.19	 28.10	 27.94	 27.62	 32.05	  0.00	  0.00	  0.00
HELZ2 - ENSG00000130589	65.00	FALSE	FALSE	24.917	24.77	24.82	24.83	24.78	24.98	25.03	24.92	24.88	24.87	24.78	24.72	24.57	24.93	25.16	25.27	25.06	24.93	24.60	24.62	24.99	26.52	25.66	26.60	26.72	26.59	26.82	26.21	26.12	27.34	26.15	25.98	25.98	25.64	25.93	26.82	26.05	27.13	26.38	25.91	 26.01	 25.99	 25.93	 24.66	 24.90	 25.22	 25.59	 23.55	 22.51	 23.13	 23.52	 22.81	 23.51	 23.45	 23.27	 23.30	 23.21	 24.11	 25.35	 22.85	 24.95	 25.88	 24.59	 26.42	 26.94	  0.00	  0.00	  0.00
ADAMTS2 - ENSG00000087116	64.00	FALSE	FALSE	20.202	19.00	21.50	22.24	21.62	21.76	21.58	21.51	21.44	21.42	21.44	21.44	21.66	23.33	23.60	22.04	22.28	22.21	22.43	22.57	22.73	23.76	23.70	23.60	23.63	23.82	24.30	23.81	24.06	24.53	24.43	25.37	25.61	25.38	25.74	25.28	25.34	25.46	26.15	26.80	 27.03	 27.08	 27.23	 26.04	 26.22	 26.55	 26.74	 26.80	 25.66	 25.89	 25.75	 26.39	 26.86	 26.09	 26.32	 26.22	 26.67	 27.50	 28.08	 27.71	 27.58	 26.86	 27.05	 26.38	  0.00	  0.00	  0.00	  0.00
CD22 - ENSG00000012124	64.00	FALSE	FALSE	23.281	24.17	22.67	22.35	22.69	22.75	22.94	23.07	22.43	22.43	22.51	22.53	22.78	21.44	21.41	22.14	22.44	22.38	22.52	22.50	22.30	21.47	22.03	21.29	21.33	25.88	25.59	26.19	25.41	26.00	26.01	25.20	25.73	24.98	24.96	25.98	26.61	26.68	25.62	26.16	 26.73	 26.72	 26.26	 29.48	 29.47	 29.43	 26.06	 30.87	 34.90	 35.02	 32.14	 35.36	 33.87	 29.86	 30.38	 34.38	 34.08	 33.68	 33.94	 33.03	 33.40	 32.91	 33.04	 31.69	  0.00	  0.00	  0.00	  0.00
DUOX2 - ENSG00000140279	64.00	FALSE	FALSE	25.711	25.74	25.64	26.49	25.08	25.21	25.40	25.46	25.98	26.04	25.79	25.39	26.03	28.30	28.52	28.86	29.29	29.06	28.99	28.43	26.47	28.64	28.99	29.73	29.56	29.95	29.86	30.20	30.39	30.11	29.75	30.41	30.81	29.84	29.36	29.68	34.83	32.54	29.45	34.86	 34.31	 35.19	 35.19	 35.78	 34.92	 34.18	 34.56	 35.56	 36.12	 35.37	 34.81	 35.96	 36.50	 34.80	 34.91	 37.55	 37.74	 37.50	 36.65	 37.81	 35.78	 33.79	 34.97	 34.44	  0.00	  0.00	  0.00	  0.00
LAMA1 - ENSG00000101680	64.00	FALSE	FALSE	14.271	14.33	13.00	12.28	12.58	12.81	13.00	13.15	13.07	13.07	12.97	12.99	13.13	12.88	13.16	13.09	13.09	12.97	12.93	12.49	12.16	12.99	13.06	12.91	12.86	12.59	13.45	13.55	13.50	12.72	13.29	14.24	13.87	13.90	14.02	14.73	15.32	15.11	14.82	16.21	 15.93	 16.40	 16.38	 17.29	 16.96	 17.25	 17.42	 17.22	 17.93	 18.28	 17.55	 18.29	 18.01	 17.55	 16.84	 17.61	 17.83	 19.97	 19.76	 20.29	 20.11	 19.66	 19.92	 20.06	  0.00	  0.00	  0.00	  0.00
TCHH - ENSG00000159450	64.00	FALSE	FALSE	11.758	11.79	11.70	13.39	13.27	13.35	13.35	13.24	13.07	13.06	13.10	13.11	11.58	13.40	13.90	13.92	13.74	13.64	13.61	13.61	13.49	13.09	13.15	13.38	12.86	13.36	13.74	14.14	13.66	13.75	14.32	14.59	14.17	15.20	15.05	15.17	15.10	15.21	15.14	15.33	 15.52	 15.73	 15.64	 14.67	 14.84	 15.45	 15.86	 15.65	 16.31	 16.14	 16.26	 15.60	 16.09	 16.35	 16.64	 15.77	 17.27	 17.87	 17.99	 18.48	 18.23	 19.44	 17.63	 18.44	  0.00	  0.00	  0.00	  0.00
TP53 - ENSG00000141510	64.00	 TRUE	 TRUE	 5.173	 5.28	 4.73	 4.80	 4.80	 4.82	 4.88	 4.87	 4.86	 4.85	 4.87	 4.85	 4.79	 4.92	 4.86	 4.94	 4.99	 4.89	 4.79	 4.90	 4.85	 4.85	 4.86	 4.87	 4.80	 4.80	 4.74	 4.73	 4.73	 4.79	 4.81	 4.63	 4.77	 4.61	 4.52	 4.69	 4.72	 4.75	 4.45	 4.64	  4.64	  4.65	  4.58	  4.74	  4.65	  4.53	  4.53	  4.88	  5.27	  5.16	  4.86	  4.99	  4.82	  4.93	  4.75	  5.30	  5.26	  5.21	  5.25	  5.35	  5.19	  5.31	  5.45	  5.19	  0.00	  0.00	  0.00	  0.00
FLT4 - ENSG00000037280	63.00	 TRUE	 TRUE	23.445	21.80	24.08	25.36	25.45	25.63	25.81	24.44	24.60	24.60	24.46	24.14	23.62	27.28	27.39	26.82	25.89	25.81	26.02	25.34	25.37	29.47	28.05	29.52	29.39	30.54	30.15	29.77	30.00	30.57	29.63	30.65	29.62	30.41	30.44	30.98	31.64	30.63	30.75	31.37	 31.31	 31.08	 30.92	 30.35	 30.57	 30.60	 30.66	 30.19	 31.23	 31.32	 30.38	 31.72	 30.34	 29.32	 29.74	 30.63	 30.61	 30.27	 30.25	 29.72	 29.84	 29.60	 29.52	  0.00	  0.00	  0.00	  0.00	  0.00
MXRA5 - ENSG00000101825	63.00	FALSE	FALSE	15.955	15.29	15.88	16.95	16.91	16.75	16.92	16.72	16.05	16.04	16.14	16.07	16.01	18.46	17.94	18.15	18.23	18.06	17.96	17.16	17.04	18.70	18.38	18.63	18.62	18.57	18.85	18.51	18.72	18.77	18.67	18.14	18.31	18.21	17.92	18.07	18.00	17.70	18.14	17.65	 17.99	 17.64	 18.31	 18.32	 18.27	 18.42	 18.65	 18.30	 19.90	 19.77	 19.79	 19.27	 19.56	 19.22	 18.88	 19.88	 19.91	 19.42	 18.98	 19.40	 20.17	 19.40	 19.90	  0.00	  0.00	  0.00	  0.00	  0.00
RELN - ENSG00000189056	63.00	FALSE	FALSE	11.139	10.41	10.54	11.38	11.49	10.74	10.88	10.90	10.74	10.75	10.90	10.74	10.52	11.76	11.78	11.89	11.89	11.73	11.51	11.64	11.59	12.57	11.92	12.46	12.47	12.04	12.40	12.23	12.10	12.30	12.08	11.95	12.18	11.79	11.82	12.26	13.54	12.49	12.38	13.96	 14.12	 15.90	 15.82	 14.72	 15.07	 15.30	 15.56	 16.01	 16.62	 16.99	 16.76	 16.94	 17.10	 15.82	 15.80	 16.55	 17.03	 17.32	 16.70	 17.24	 16.65	 16.04	 16.51	  0.00	  0.00	  0.00	  0.00	  0.00
TMPRSS6 - ENSG00000187045	62.00	FALSE	FALSE	19.633	19.87	19.33	19.12	19.34	19.22	19.33	19.48	19.21	19.22	19.20	18.86	19.49	24.61	24.63	24.61	24.44	24.44	24.19	24.37	19.33	24.63	24.56	24.19	24.64	23.61	24.07	24.44	24.58	23.71	24.32	23.45	24.02	23.43	23.24	22.68	22.73	22.60	22.94	22.73	 22.51	 22.40	 22.02	 22.34	 22.63	 22.85	 22.38	 23.55	 22.45	 22.88	 24.27	 23.24	 23.35	 24.07	 24.05	 21.65	 20.89	 20.89	 19.76	 20.61	 19.50	  0.00	 19.29	  0.00	  0.00	  0.00	  0.00	  0.00
MSR1 - ENSG00000038945	61.00	FALSE	FALSE	21.049	21.45	22.10	25.65	25.71	24.34	24.10	23.10	23.36	23.37	23.58	22.80	20.88	26.72	25.87	25.83	25.78	25.70	25.30	25.55	25.48	27.29	27.52	27.17	27.31	26.94	27.27	28.28	28.46	27.61	27.94	29.65	28.65	29.44	29.23	29.01	28.46	28.59	28.91	28.57	 28.45	 28.36	 28.88	 29.36	 27.96	 28.55	 28.51	 29.01	 28.58	 28.71	 29.91	 29.30	 29.76	 28.28	 28.35	 27.92	 29.35	 30.70	 30.62	 30.95	 31.02	  0.00	  0.00	  0.00	  0.00	  0.00	  0.00	  0.00
CFAP47 - ENSG00000165164	60.00	FALSE	FALSE	11.480	10.17	11.38	12.79	12.63	12.58	12.01	11.98	11.89	11.88	11.88	11.86	11.35	13.35	13.41	13.51	13.33	13.17	12.94	12.89	12.94	14.05	13.92	14.54	14.58	14.34	14.31	14.51	14.04	14.58	14.59	14.42	14.63	14.34	14.12	14.64	15.63	15.83	14.33	16.01	 15.76	 15.61	 15.36	 16.41	 15.47	 15.13	 15.17	 16.64	 18.01	 17.56	 17.91	 17.96	 18.26	 17.86	 17.44	 17.48	 17.23	 16.89	 16.23	 16.36	  0.00	  0.00	  0.00	  0.00	  0.00	  0.00	  0.00	  0.00
HECW1 - ENSG00000002746	59.00	FALSE	FALSE	23.972	23.55	24.07	26.36	25.71	25.15	25.19	24.96	23.71	23.71	24.01	24.08	23.80	25.63	25.99	25.35	25.65	25.70	25.92	25.90	26.08	25.91	25.86	25.72	25.58	25.53	26.38	27.05	26.34	25.02	26.65	26.43	26.56	26.21	26.09	26.75	27.97	26.30	27.46	28.93	 29.47	 29.45	 28.47	 27.15	 27.62	 28.68	 27.46	 27.50	 28.01	 28.99	 30.39	 30.10	 30.39	 27.86	 28.65	 26.99	 27.42	 26.85	  0.00	 27.70	  0.00	  0.00	  0.00	  0.00	  0.00	  0.00	  0.00	  0.00
MUC17 - ENSG00000169876	58.00	FALSE	FALSE	 9.238	 8.66	 8.97	 9.26	 9.19	 9.29	 9.21	 9.31	 8.94	 8.92	 8.94	 8.97	 8.89	 9.89	 9.84	 9.82	10.07	 9.87	 9.91	 9.40	 9.27	10.06	10.32	10.16	10.31	 9.88	 9.84	10.01	10.13	 9.96	10.98	10.95	10.79	11.33	11.40	11.57	11.53	11.81	11.39	11.14	 11.26	 10.88	 10.40	 11.23	 10.74	 10.67	 10.41	 11.53	 12.78	 12.74	 12.63	 13.34	 12.98	 12.63	 12.36	 12.32	 12.81	 13.45	  0.00	  0.00	  0.00	  0.00	  0.00	  0.00	  0.00	  0.00	  0.00	  0.00
PAPPA2 - ENSG00000116183	57.00	FALSE	FALSE	18.507	18.83	19.09	19.28	19.69	19.89	19.51	19.13	18.69	18.73	19.12	18.91	19.03	18.68	19.08	19.31	18.75	18.64	18.80	18.97	19.08	18.05	18.16	18.75	18.54	18.60	18.98	19.16	18.56	18.10	18.73	17.98	18.10	17.66	17.43	17.40	18.62	18.55	17.15	18.99	 18.59	 19.39	 19.65	 18.35	 18.84	 19.17	 19.48	 17.99	 18.58	 19.14	 18.47	 17.98	 18.25	 18.70	 17.70	 18.53	 19.05	  0.00	  0.00	  0.00	  0.00	  0.00	  0.00	  0.00	  0.00	  0.00	  0.00	  0.00
PTEN - ENSG00000171862	56.00	 TRUE	 TRUE	 4.744	 4.66	 5.13	 4.84	 4.72	 4.79	 4.81	 4.85	 4.97	 4.97	 4.99	 4.95	 5.24	 5.77	 5.41	 5.21	 5.48	 5.43	 5.11	 5.20	 4.92	 5.87	 5.91	 5.73	 5.76	 5.66	 5.83	 5.65	 5.84	 5.66	 5.84	 5.80	 5.84	 5.70	 5.44	 5.66	 5.98	 5.74	 5.49	 5.77	  5.63	  5.59	  6.09	  6.63	  6.61	  6.17	  6.22	  7.31	  7.38	  6.97	  6.97	  6.95	  6.95	  6.86	  7.26	  7.60	  0.00	  0.00	  0.00	  0.00	  0.00	  0.00	  0.00	  0.00	  0.00	  0.00	  0.00	  0.00
NOS1 - ENSG00000089250	55.00	FALSE	FALSE	17.437	16.84	16.78	15.91	15.97	16.36	16.49	16.38	16.65	16.63	16.53	16.51	16.80	17.13	16.71	15.86	14.88	14.75	14.93	15.08	15.75	17.28	17.07	17.93	17.92	18.01	18.11	18.40	18.03	18.33	18.19	18.08	17.79	17.73	17.48	17.61	18.26	17.92	17.45	18.24	 17.63	 17.29	 17.43	 18.05	 16.88	 16.66	 16.98	 18.46	 18.37	 17.90	 18.16	 18.10	 18.16	 18.19	 18.17	  0.00	  0.00	  0.00	  0.00	  0.00	  0.00	  0.00	  0.00	  0.00	  0.00	  0.00	  0.00	  0.00
CALCR - ENSG00000004948	54.00	FALSE	FALSE	21.046	19.89	20.51	22.08	21.85	20.90	21.26	20.96	20.78	20.75	20.65	20.73	20.63	22.86	23.20	23.24	23.26	23.16	23.24	23.31	22.65	22.71	22.97	22.70	22.93	23.26	23.27	23.60	23.71	23.27	23.07	23.05	23.08	23.13	23.91	23.86	23.44	23.43	23.50	22.94	 22.69	 22.23	 21.89	 21.79	 20.98	 21.46	 21.82	 23.01	  0.00	 23.58	 23.45	 24.41	 24.77	 22.67	 23.11	  0.00	  0.00	  0.00	  0.00	  0.00	  0.00	  0.00	  0.00	  0.00	  0.00	  0.00	  0.00	  0.00
NLRP4 - ENSG00000160505	53.00	FALSE	FALSE	12.321	11.94	12.38	13.46	13.77	13.52	13.27	12.89	12.92	12.92	12.90	12.85	12.46	15.44	13.93	14.01	13.98	13.77	13.48	13.13	13.13	14.73	15.09	15.19	15.06	14.94	16.00	15.91	15.65	14.88	15.89	18.09	18.05	17.88	18.98	18.97	19.50	19.64	18.67	19.66	 20.35	 20.69	 20.05	 22.92	 23.16	 21.88	 19.62	 22.77	  0.00	  0.00	 22.58	 22.52	 22.73	 22.72	 22.46	  0.00	  0.00	  0.00	  0.00	  0.00	  0.00	  0.00	  0.00	  0.00	  0.00	  0.00	  0.00	  0.00
ABCA7 - ENSG00000064687	52.00	FALSE	FALSE	17.097	16.44	17.29	20.80	20.08	19.67	18.82	17.06	17.31	17.36	17.22	17.23	17.39	22.92	22.62	22.60	21.52	21.44	21.16	20.64	20.64	22.86	22.55	22.12	22.78	22.72	22.91	23.14	23.16	23.10	22.69	24.21	22.39	23.94	23.56	23.13	24.44	22.59	22.96	24.38	 24.12	 24.08	 25.08	 23.26	 23.37	 23.98	 24.42	 23.21	  0.00	  0.00	 23.34	  0.00	 22.85	 22.73	 22.89	  0.00	  0.00	  0.00	  0.00	  0.00	  0.00	  0.00	  0.00	  0.00	  0.00	  0.00	  0.00	  0.00
PCDHA3 - ENSG00000255408	51.00	FALSE	FALSE	20.983	20.09	20.63	21.80	22.05	21.60	20.57	20.61	20.68	20.70	20.80	20.66	20.75	24.68	24.71	23.94	23.78	23.62	23.22	23.54	22.04	24.85	24.49	25.52	25.62	25.09	24.78	24.48	24.59	24.84	25.38	26.16	25.75	25.85	25.76	24.56	23.80	23.92	25.12	23.69	 23.57	 23.46	 23.26	 21.43	 22.01	 22.54	 23.00	 22.09	  0.00	  0.00	 22.51	  0.00	  0.00	 21.99	 22.08	  0.00	  0.00	  0.00	  0.00	  0.00	  0.00	  0.00	  0.00	  0.00	  0.00	  0.00	  0.00	  0.00
KEL - ENSG00000197993	50.00	FALSE	 TRUE	11.740	11.30	11.34	11.51	10.99	11.11	11.10	11.45	11.47	11.45	11.48	11.54	11.28	10.74	10.94	11.25	11.28	11.16	11.08	11.20	11.33	11.01	10.26	10.95	10.88	12.03	12.50	12.36	12.60	11.88	12.39	12.92	12.40	13.15	13.93	13.83	13.54	14.08	13.50	13.29	 12.89	 12.58	 12.91	 11.82	 12.15	 12.20	 12.72	 11.33	  0.00	  0.00	  0.00	  0.00	  0.00	 11.09	 11.16	  0.00	  0.00	  0.00	  0.00	  0.00	  0.00	  0.00	  0.00	  0.00	  0.00	  0.00	  0.00	  0.00
SPATA31E1 - ENSG00000177992	49.00	FALSE	FALSE	15.976	16.09	16.45	15.87	16.08	16.27	16.37	16.47	16.29	16.29	16.41	16.25	16.47	17.82	17.96	17.51	17.05	16.99	16.03	15.44	15.71	17.40	17.67	17.92	17.74	17.88	18.33	19.16	18.97	18.41	20.20	19.90	19.69	19.47	19.24	19.06	19.96	19.72	18.86	20.30	 21.28	 21.43	 21.54	 20.29	 20.71	 20.85	 21.11	 20.26	  0.00	  0.00	  0.00	  0.00	  0.00	  0.00	 21.66	  0.00	  0.00	  0.00	  0.00	  0.00	  0.00	  0.00	  0.00	  0.00	  0.00	  0.00	  0.00	  0.00
PPP1R3A - ENSG00000154415	48.00	FALSE	FALSE	21.974	21.34	21.60	21.37	21.83	21.93	21.62	21.93	21.98	21.96	22.04	21.98	21.24	22.17	21.96	22.00	22.20	22.15	21.67	21.53	21.48	23.26	22.51	22.39	23.02	22.27	22.13	21.77	21.66	21.84	22.09	21.61	21.72	21.43	21.00	19.23	20.03	18.80	20.34	20.10	 19.55	 19.50	 18.46	 21.97	 22.04	 22.91	 23.10	 21.26	  0.00	  0.00	  0.00	  0.00	  0.00	  0.00	  0.00	  0.00	  0.00	  0.00	  0.00	  0.00	  0.00	  0.00	  0.00	  0.00	  0.00	  0.00	  0.00	  0.00
ZAN - ENSG00000146839	47.00	FALSE	FALSE	11.442	10.78	12.36	12.60	12.76	12.12	12.28	12.36	12.15	12.17	12.09	12.25	11.70	12.24	12.25	12.54	11.79	11.70	11.62	11.73	12.55	12.62	12.15	15.14	12.34	14.92	14.65	15.10	15.34	15.00	14.78	15.92	15.89	16.00	15.99	15.72	15.37	16.06	15.58	16.11	 15.90	 15.55	 15.66	 17.09	 17.27	 17.39	 16.62	  0.00	  0.00	  0.00	  0.00	  0.00	  0.00	  0.00	  0.00	  0.00	  0.00	  0.00	  0.00	  0.00	  0.00	  0.00	  0.00	  0.00	  0.00	  0.00	  0.00	  0.00
ZNF831 - ENSG00000124203	46.00	FALSE	FALSE	17.795	15.88	18.13	19.29	19.05	18.45	18.58	18.21	18.31	18.35	18.27	18.49	17.55	18.30	18.58	18.82	19.05	18.93	19.01	19.06	19.51	18.25	18.39	18.45	18.44	19.02	19.38	18.85	19.06	19.25	18.65	18.28	18.63	18.00	18.80	18.30	18.19	18.43	18.89	17.85	 17.63	 19.69	 20.57	  0.00	 19.72	 20.05	 20.27	  0.00	  0.00	  0.00	  0.00	  0.00	  0.00	  0.00	  0.00	  0.00	  0.00	  0.00	  0.00	  0.00	  0.00	  0.00	  0.00	  0.00	  0.00	  0.00	  0.00	  0.00
ANKRD30A - ENSG00000148513	45.00	FALSE	FALSE	15.498	15.92	14.63	14.50	14.54	14.47	14.63	14.16	14.43	14.55	14.58	14.53	14.41	16.67	15.41	15.61	14.30	14.66	14.47	14.69	14.66	17.23	17.36	17.89	17.23	17.87	17.06	17.02	17.14	17.53	16.74	16.21	16.32	16.49	16.24	15.84	16.28	15.22	15.76	16.25	 15.95	 15.76	 15.47	  0.00	  0.00	 15.49	 15.99	  0.00	  0.00	  0.00	  0.00	  0.00	  0.00	  0.00	  0.00	  0.00	  0.00	  0.00	  0.00	  0.00	  0.00	  0.00	  0.00	  0.00	  0.00	  0.00	  0.00	  0.00
AFM - ENSG00000079557	44.00	FALSE	FALSE	18.027	17.59	17.21	17.19	17.24	17.50	17.57	17.87	18.20	18.19	18.12	18.37	17.20	18.12	18.27	18.45	17.29	17.16	17.30	17.16	17.68	18.44	18.62	18.20	18.22	19.68	19.81	19.19	19.55	19.95	19.14	18.97	18.74	18.88	20.71	20.05	19.57	19.74	20.46	20.57	 19.93	 19.70	 21.15	  0.00	  0.00	  0.00	 20.96	  0.00	  0.00	  0.00	  0.00	  0.00	  0.00	  0.00	  0.00	  0.00	  0.00	  0.00	  0.00	  0.00	  0.00	  0.00	  0.00	  0.00	  0.00	  0.00	  0.00	  0.00
VWF - ENSG00000110799	43.00	FALSE	FALSE	 9.074	 9.10	 8.91	 9.75	 9.35	 9.26	 9.02	 9.17	 9.23	 9.23	 9.22	 8.98	 8.81	 8.63	 8.73	 9.25	 9.44	 9.35	 9.78	 9.53	10.17	 7.89	 8.39	10.41	 8.28	11.21	12.54	13.41	13.10	11.25	13.86	14.10	14.47	14.77	15.32	15.81	14.85	15.54	15.49	14.78	 14.27	 14.18	 15.22	  0.00	  0.00	  0.00	  0.00	  0.00	  0.00	  0.00	  0.00	  0.00	  0.00	  0.00	  0.00	  0.00	  0.00	  0.00	  0.00	  0.00	  0.00	  0.00	  0.00	  0.00	  0.00	  0.00	  0.00	  0.00
COL6A3 - ENSG00000163359	42.00	FALSE	FALSE	10.015	 9.91	 8.89	10.19	10.50	10.31	10.06	 9.47	 9.10	 9.08	 9.09	 9.04	 9.05	11.32	11.71	11.30	11.37	11.29	11.04	11.34	10.55	10.95	11.13	10.89	10.89	10.48	 9.77	10.03	 9.78	10.27	 9.72	 9.73	 9.59	 9.42	 9.18	 9.10	 8.78	 9.10	 9.23	 9.04	  8.83	  8.99	  0.00	  0.00	  0.00	  0.00	  0.00	  0.00	  0.00	  0.00	  0.00	  0.00	  0.00	  0.00	  0.00	  0.00	  0.00	  0.00	  0.00	  0.00	  0.00	  0.00	  0.00	  0.00	  0.00	  0.00	  0.00	  0.00
GRIN2B - ENSG00000273079	41.00	FALSE	FALSE	11.762	12.12	12.12	13.25	12.79	12.75	12.26	12.51	12.65	12.64	12.67	11.84	12.32	13.86	12.86	13.15	12.72	12.70	12.94	12.98	13.14	14.62	14.75	14.91	14.78	14.74	14.96	15.60	15.47	15.32	15.72	15.49	15.39	16.08	15.95	15.36	15.96	16.24	15.05	16.04	 15.69	  0.00	  0.00	  0.00	  0.00	  0.00	  0.00	  0.00	  0.00	  0.00	  0.00	  0.00	  0.00	  0.00	  0.00	  0.00	  0.00	  0.00	  0.00	  0.00	  0.00	  0.00	  0.00	  0.00	  0.00	  0.00	  0.00	  0.00
EPB41L3 - ENSG00000082397	40.00	FALSE	FALSE	17.681	16.73	16.36	17.10	16.25	16.08	16.23	16.23	15.93	15.92	15.95	16.06	16.49	16.52	16.25	16.44	16.61	16.47	16.69	17.05	16.99	16.91	16.81	16.63	16.62	16.63	15.95	15.45	15.70	16.52	15.07	16.28	16.56	16.00	16.36	16.27	15.41	15.91	16.12	15.99	  0.00	  0.00	  0.00	  0.00	  0.00	  0.00	  0.00	  0.00	  0.00	  0.00	  0.00	  0.00	  0.00	  0.00	  0.00	  0.00	  0.00	  0.00	  0.00	  0.00	  0.00	  0.00	  0.00	  0.00	  0.00	  0.00	  0.00	  0.00
PALM2-AKAP2 - ENSG00000157654	39.00	FALSE	FALSE	12.236	12.15	12.60	12.51	12.14	12.39	12.46	12.67	12.78	12.79	12.73	12.56	12.75	14.45	14.41	14.52	13.28	13.09	12.51	12.61	12.34	14.90	15.25	14.85	15.04	14.50	13.59	14.31	14.06	13.85	14.22	15.55	15.56	15.18	14.88	14.50	14.95	14.96	14.00	 0.00	  0.00	  0.00	  0.00	  0.00	  0.00	  0.00	  0.00	  0.00	  0.00	  0.00	  0.00	  0.00	  0.00	  0.00	  0.00	  0.00	  0.00	  0.00	  0.00	  0.00	  0.00	  0.00	  0.00	  0.00	  0.00	  0.00	  0.00	  0.00
ATF7IP2 - ENSG00000166669	38.00	FALSE	FALSE	15.873	13.62	16.52	16.75	15.98	15.96	15.94	16.70	17.04	17.01	17.18	16.43	15.97	16.37	15.90	16.20	16.54	16.43	16.87	16.32	16.57	17.87	17.20	16.77	18.12	16.26	15.67	15.65	15.70	15.95	15.61	15.14	15.61	15.32	17.52	19.18	 0.00	18.95	18.89	 0.00	  0.00	  0.00	  0.00	  0.00	  0.00	  0.00	  0.00	  0.00	  0.00	  0.00	  0.00	  0.00	  0.00	  0.00	  0.00	  0.00	  0.00	  0.00	  0.00	  0.00	  0.00	  0.00	  0.00	  0.00	  0.00	  0.00	  0.00	  0.00
TENM3 - ENSG00000218336	37.00	FALSE	FALSE	10.342	10.88	10.51	11.02	 9.99	10.15	10.33	10.60	10.12	10.26	10.35	10.35	10.31	11.24	11.42	10.74	10.35	10.36	10.48	10.52	10.89	10.77	11.07	10.86	10.87	10.95	10.55	10.59	10.26	10.87	10.36	 9.95	 9.96	 9.93	 9.66	10.72	 0.00	 0.00	10.65	 0.00	  0.00	  0.00	  0.00	  0.00	  0.00	  0.00	  0.00	  0.00	  0.00	  0.00	  0.00	  0.00	  0.00	  0.00	  0.00	  0.00	  0.00	  0.00	  0.00	  0.00	  0.00	  0.00	  0.00	  0.00	  0.00	  0.00	  0.00	  0.00
BRAF - ENSG00000157764	36.00	 TRUE	 TRUE	-7.229	-7.29	-7.54	-8.13	-8.14	-8.03	-7.83	-7.83	-7.72	-7.72	-7.60	-7.60	-7.60	-8.03	-8.21	-8.01	-7.88	-8.13	-8.10	-7.99	-8.16	-8.25	-8.20	-8.17	-8.34	-8.24	-8.24	-8.19	-8.35	-8.10	-8.39	-8.60	-8.51	-8.84	-8.99	 0.00	 0.00	 0.00	-9.11	 0.00	  0.00	  0.00	  0.00	  0.00	  0.00	  0.00	  0.00	  0.00	  0.00	  0.00	  0.00	  0.00	  0.00	  0.00	  0.00	  0.00	  0.00	  0.00	  0.00	  0.00	  0.00	  0.00	  0.00	  0.00	  0.00	  0.00	  0.00	  0.00
PCLO - ENSG00000186472	35.00	FALSE	FALSE	 5.821	 5.34	 6.13	 5.83	 6.14	 5.96	 6.00	 6.05	 6.12	 6.10	 6.11	 6.15	 6.03	 6.08	 6.12	 6.06	 5.94	 5.83	 5.77	 5.97	 5.74	 6.20	 6.34	 6.19	 6.19	 6.48	 6.90	 6.66	 6.91	 6.90	 6.74	 6.43	 6.56	 6.58	 7.13	 0.00	 0.00	 0.00	 0.00	 0.00	  0.00	  0.00	  0.00	  0.00	  0.00	  0.00	  0.00	  0.00	  0.00	  0.00	  0.00	  0.00	  0.00	  0.00	  0.00	  0.00	  0.00	  0.00	  0.00	  0.00	  0.00	  0.00	  0.00	  0.00	  0.00	  0.00	  0.00	  0.00
ZNF618 - ENSG00000157657	34.00	FALSE	FALSE	15.442	15.91	14.89	14.84	14.76	15.10	15.21	14.98	14.39	14.45	14.47	14.57	15.16	14.33	14.80	14.83	15.09	15.05	15.05	15.36	15.44	14.86	14.64	14.40	14.51	14.07	13.51	13.83	13.96	14.09	13.52	12.66	12.92	12.22	 0.00	 0.00	 0.00	 0.00	 0.00	 0.00	  0.00	  0.00	  0.00	  0.00	  0.00	  0.00	  0.00	  0.00	  0.00	  0.00	  0.00	  0.00	  0.00	  0.00	  0.00	  0.00	  0.00	  0.00	  0.00	  0.00	  0.00	  0.00	  0.00	  0.00	  0.00	  0.00	  0.00	  0.00
FRAS1 - ENSG00000138759	33.00	FALSE	FALSE	 8.980	 9.01	 8.79	 8.36	 8.67	 8.61	 8.82	 8.89	 8.98	 8.99	 9.06	 8.83	 9.00	 9.71	 8.81	 8.20	 8.33	 8.48	 8.26	 8.09	 8.33	 9.54	 9.51	 9.05	 9.28	 8.93	 9.33	10.28	 9.84	 8.73	 9.85	 9.51	 9.72	 0.00	 0.00	 0.00	 0.00	 0.00	 0.00	 0.00	  0.00	  0.00	  0.00	  0.00	  0.00	  0.00	  0.00	  0.00	  0.00	  0.00	  0.00	  0.00	  0.00	  0.00	  0.00	  0.00	  0.00	  0.00	  0.00	  0.00	  0.00	  0.00	  0.00	  0.00	  0.00	  0.00	  0.00	  0.00
ARHGAP5 - ENSG00000100852	32.00	 TRUE	FALSE	 1.589	 1.63	 1.93	 2.20	 2.26	 2.21	 2.15	 2.11	 2.09	 2.09	 2.08	 2.08	 1.87	 2.00	 2.05	 2.09	 2.15	 2.13	 2.15	 2.15	 2.19	 1.95	 1.95	 1.95	 1.92	 1.88	 1.81	 1.78	 1.76	 1.84	 1.75	 0.00	 1.72	 0.00	 0.00	 0.00	 0.00	 0.00	 0.00	 0.00	  0.00	  0.00	  0.00	  0.00	  0.00	  0.00	  0.00	  0.00	  0.00	  0.00	  0.00	  0.00	  0.00	  0.00	  0.00	  0.00	  0.00	  0.00	  0.00	  0.00	  0.00	  0.00	  0.00	  0.00	  0.00	  0.00	  0.00	  0.00
CALN1 - ENSG00000183166	31.00	FALSE	FALSE	 9.127	 9.57	10.73	12.61	12.18	11.34	11.20	11.04	11.35	11.35	11.47	11.50	10.63	12.66	12.38	12.61	12.97	13.37	13.31	12.46	12.66	13.21	12.10	12.53	13.09	12.44	12.90	13.33	13.47	12.72	12.97	 0.00	 0.00	 0.00	 0.00	 0.00	 0.00	 0.00	 0.00	 0.00	  0.00	  0.00	  0.00	  0.00	  0.00	  0.00	  0.00	  0.00	  0.00	  0.00	  0.00	  0.00	  0.00	  0.00	  0.00	  0.00	  0.00	  0.00	  0.00	  0.00	  0.00	  0.00	  0.00	  0.00	  0.00	  0.00	  0.00	  0.00
KIF4B - ENSG00000226650	30.00	FALSE	FALSE	14.073	14.41	13.37	13.26	13.52	13.57	12.97	13.17	13.49	13.48	13.43	13.47	13.34	14.28	14.21	13.55	13.63	13.63	13.75	12.76	13.09	13.78	13.80	13.40	13.36	13.06	13.20	14.12	12.69	13.58	 0.00	 0.00	 0.00	 0.00	 0.00	 0.00	 0.00	 0.00	 0.00	 0.00	  0.00	  0.00	  0.00	  0.00	  0.00	  0.00	  0.00	  0.00	  0.00	  0.00	  0.00	  0.00	  0.00	  0.00	  0.00	  0.00	  0.00	  0.00	  0.00	  0.00	  0.00	  0.00	  0.00	  0.00	  0.00	  0.00	  0.00	  0.00
ARID1A - ENSG00000117713	29.00	 TRUE	 TRUE	11.183	11.58	11.03	11.22	11.46	11.49	11.31	11.69	11.46	11.48	11.31	11.32	10.94	11.48	11.33	11.59	11.43	11.27	11.33	11.03	11.10	11.21	11.29	11.50	11.48	11.14	10.46	 0.00	10.34	10.76	 0.00	 0.00	 0.00	 0.00	 0.00	 0.00	 0.00	 0.00	 0.00	 0.00	  0.00	  0.00	  0.00	  0.00	  0.00	  0.00	  0.00	  0.00	  0.00	  0.00	  0.00	  0.00	  0.00	  0.00	  0.00	  0.00	  0.00	  0.00	  0.00	  0.00	  0.00	  0.00	  0.00	  0.00	  0.00	  0.00	  0.00	  0.00
POTEC - ENSG00000183206	28.00	FALSE	FALSE	 8.102	 8.20	 8.30	 8.87	 8.97	 9.21	 9.12	 8.62	 8.35	 8.34	 8.32	 8.52	 8.22	 8.06	 7.56	 7.86	 8.05	 7.86	 8.27	 8.20	 8.72	 7.62	 7.74	 8.95	 7.54	 8.87	 9.10	 0.00	 0.00	 9.33	 0.00	 0.00	 0.00	 0.00	 0.00	 0.00	 0.00	 0.00	 0.00	 0.00	  0.00	  0.00	  0.00	  0.00	  0.00	  0.00	  0.00	  0.00	  0.00	  0.00	  0.00	  0.00	  0.00	  0.00	  0.00	  0.00	  0.00	  0.00	  0.00	  0.00	  0.00	  0.00	  0.00	  0.00	  0.00	  0.00	  0.00	  0.00
TRPM2 - ENSG00000142185	27.00	FALSE	FALSE	 8.638	 8.95	 9.51	 9.79	 9.16	 9.08	 9.30	 9.41	 9.51	 9.50	 9.38	 9.22	 9.65	10.18	 9.92	 9.91	 9.43	 9.38	 9.55	 9.82	10.11	10.19	10.39	 9.90	10.11	 9.47	 0.00	 0.00	 0.00	 9.75	 0.00	 0.00	 0.00	 0.00	 0.00	 0.00	 0.00	 0.00	 0.00	 0.00	  0.00	  0.00	  0.00	  0.00	  0.00	  0.00	  0.00	  0.00	  0.00	  0.00	  0.00	  0.00	  0.00	  0.00	  0.00	  0.00	  0.00	  0.00	  0.00	  0.00	  0.00	  0.00	  0.00	  0.00	  0.00	  0.00	  0.00	  0.00
RYR2 - ENSG00000198626	26.00	FALSE	FALSE	 5.268	 4.94	 5.45	 5.30	 5.58	 5.45	 5.44	 5.62	 5.44	 5.43	 5.48	 5.46	 5.36	 6.09	 6.06	 6.16	 6.11	 6.03	 5.75	 5.58	 5.38	 5.57	 5.76	 5.24	 5.38	 5.76	 0.00	 0.00	 0.00	 0.00	 0.00	 0.00	 0.00	 0.00	 0.00	 0.00	 0.00	 0.00	 0.00	 0.00	  0.00	  0.00	  0.00	  0.00	  0.00	  0.00	  0.00	  0.00	  0.00	  0.00	  0.00	  0.00	  0.00	  0.00	  0.00	  0.00	  0.00	  0.00	  0.00	  0.00	  0.00	  0.00	  0.00	  0.00	  0.00	  0.00	  0.00	  0.00
ADCY5 - ENSG00000173175	25.00	FALSE	FALSE	11.366	10.58	10.65	12.62	11.22	11.32	11.38	10.75	10.97	10.94	10.91	10.57	10.87	12.10	12.46	11.46	11.96	11.87	11.94	12.28	12.53	14.11	12.00	14.32	14.40	 0.00	 0.00	 0.00	 0.00	 0.00	 0.00	 0.00	 0.00	 0.00	 0.00	 0.00	 0.00	 0.00	 0.00	 0.00	  0.00	  0.00	  0.00	  0.00	  0.00	  0.00	  0.00	  0.00	  0.00	  0.00	  0.00	  0.00	  0.00	  0.00	  0.00	  0.00	  0.00	  0.00	  0.00	  0.00	  0.00	  0.00	  0.00	  0.00	  0.00	  0.00	  0.00	  0.00
MUC4 - ENSG00000145113	24.00	 TRUE	FALSE	 0.240	 0.24	 0.25	 0.26	 0.25	 0.23	 0.22	 0.22	 0.23	 0.23	 0.24	 0.23	 0.26	 0.33	 0.36	 0.35	 0.36	 0.36	 0.26	 0.27	 0.24	 0.34	 0.34	 0.00	 0.38	 0.00	 0.00	 0.00	 0.00	 0.00	 0.00	 0.00	 0.00	 0.00	 0.00	 0.00	 0.00	 0.00	 0.00	 0.00	  0.00	  0.00	  0.00	  0.00	  0.00	  0.00	  0.00	  0.00	  0.00	  0.00	  0.00	  0.00	  0.00	  0.00	  0.00	  0.00	  0.00	  0.00	  0.00	  0.00	  0.00	  0.00	  0.00	  0.00	  0.00	  0.00	  0.00	  0.00
SETD2 - ENSG00000181555	23.00	 TRUE	 TRUE	10.853	11.21	10.68	11.92	11.86	11.65	11.83	11.38	10.82	10.82	10.71	10.73	10.69	10.97	11.51	11.76	11.55	11.96	12.05	12.31	11.75	10.89	10.23	 0.00	 0.00	 0.00	 0.00	 0.00	 0.00	 0.00	 0.00	 0.00	 0.00	 0.00	 0.00	 0.00	 0.00	 0.00	 0.00	 0.00	  0.00	  0.00	  0.00	  0.00	  0.00	  0.00	  0.00	  0.00	  0.00	  0.00	  0.00	  0.00	  0.00	  0.00	  0.00	  0.00	  0.00	  0.00	  0.00	  0.00	  0.00	  0.00	  0.00	  0.00	  0.00	  0.00	  0.00	  0.00
PREX1 - ENSG00000124126	22.00	FALSE	FALSE	10.359	10.74	 9.64	 8.88	 9.09	 9.34	 9.47	 9.78	 9.22	 9.30	 9.40	 9.61	 9.57	10.05	10.14	10.48	10.81	10.63	 9.72	 9.26	 9.03	 0.00	11.19	 0.00	 0.00	 0.00	 0.00	 0.00	 0.00	 0.00	 0.00	 0.00	 0.00	 0.00	 0.00	 0.00	 0.00	 0.00	 0.00	 0.00	  0.00	  0.00	  0.00	  0.00	  0.00	  0.00	  0.00	  0.00	  0.00	  0.00	  0.00	  0.00	  0.00	  0.00	  0.00	  0.00	  0.00	  0.00	  0.00	  0.00	  0.00	  0.00	  0.00	  0.00	  0.00	  0.00	  0.00	  0.00
FBN3 - ENSG00000142449	21.00	FALSE	FALSE	 7.766	 8.45	 9.59	10.54	10.78	10.31	10.68	 9.91	 9.62	 9.60	 9.84	 9.86	 9.18	 8.53	 9.30	 9.43	 9.95	 9.92	 9.82	10.18	10.36	 0.00	 0.00	 0.00	 0.00	 0.00	 0.00	 0.00	 0.00	 0.00	 0.00	 0.00	 0.00	 0.00	 0.00	 0.00	 0.00	 0.00	 0.00	 0.00	  0.00	  0.00	  0.00	  0.00	  0.00	  0.00	  0.00	  0.00	  0.00	  0.00	  0.00	  0.00	  0.00	  0.00	  0.00	  0.00	  0.00	  0.00	  0.00	  0.00	  0.00	  0.00	  0.00	  0.00	  0.00	  0.00	  0.00	  0.00
PRDM9 - ENSG00000164256	20.00	FALSE	FALSE	 7.734	 7.80	 8.31	 8.28	 8.70	 8.89	 8.38	 8.75	 8.22	 8.20	 8.43	 8.19	 7.98	 0.00	 8.69	 8.36	 8.71	 8.56	 8.36	 8.15	 8.18	 0.00	 0.00	 0.00	 0.00	 0.00	 0.00	 0.00	 0.00	 0.00	 0.00	 0.00	 0.00	 0.00	 0.00	 0.00	 0.00	 0.00	 0.00	 0.00	  0.00	  0.00	  0.00	  0.00	  0.00	  0.00	  0.00	  0.00	  0.00	  0.00	  0.00	  0.00	  0.00	  0.00	  0.00	  0.00	  0.00	  0.00	  0.00	  0.00	  0.00	  0.00	  0.00	  0.00	  0.00	  0.00	  0.00	  0.00
PCDHA13 - ENSG00000239389	19.00	FALSE	FALSE	10.279	10.78	10.27	10.66	10.15	10.21	 9.72	10.03	10.33	10.33	10.30	10.31	10.03	 0.00	 0.00	10.92	11.13	11.00	11.10	11.18	10.51	 0.00	 0.00	 0.00	 0.00	 0.00	 0.00	 0.00	 0.00	 0.00	 0.00	 0.00	 0.00	 0.00	 0.00	 0.00	 0.00	 0.00	 0.00	 0.00	  0.00	  0.00	  0.00	  0.00	  0.00	  0.00	  0.00	  0.00	  0.00	  0.00	  0.00	  0.00	  0.00	  0.00	  0.00	  0.00	  0.00	  0.00	  0.00	  0.00	  0.00	  0.00	  0.00	  0.00	  0.00	  0.00	  0.00	  0.00
PTPRH - ENSG00000080031	18.00	FALSE	FALSE	14.660	15.42	14.37	13.38	13.80	13.99	14.18	14.66	14.09	14.09	14.02	13.99	14.54	 0.00	 0.00	 0.00	13.14	12.99	13.11	13.30	13.51	 0.00	 0.00	 0.00	 0.00	 0.00	 0.00	 0.00	 0.00	 0.00	 0.00	 0.00	 0.00	 0.00	 0.00	 0.00	 0.00	 0.00	 0.00	 0.00	  0.00	  0.00	  0.00	  0.00	  0.00	  0.00	  0.00	  0.00	  0.00	  0.00	  0.00	  0.00	  0.00	  0.00	  0.00	  0.00	  0.00	  0.00	  0.00	  0.00	  0.00	  0.00	  0.00	  0.00	  0.00	  0.00	  0.00	  0.00
HIST1H3B - ENSG00000274267	17.00	 TRUE	FALSE	-6.629	-6.53	-7.09	-7.46	-7.43	-7.30	-7.30	-7.26	-7.21	-7.22	-7.11	-7.11	-7.07	 0.00	 0.00	 0.00	 0.00	-7.62	-7.59	-7.54	-7.54	 0.00	 0.00	 0.00	 0.00	 0.00	 0.00	 0.00	 0.00	 0.00	 0.00	 0.00	 0.00	 0.00	 0.00	 0.00	 0.00	 0.00	 0.00	 0.00	  0.00	  0.00	  0.00	  0.00	  0.00	  0.00	  0.00	  0.00	  0.00	  0.00	  0.00	  0.00	  0.00	  0.00	  0.00	  0.00	  0.00	  0.00	  0.00	  0.00	  0.00	  0.00	  0.00	  0.00	  0.00	  0.00	  0.00	  0.00
PKD1L2 - ENSG00000166473	16.00	FALSE	FALSE	 8.770	 8.31	 8.52	 7.79	 7.84	 7.99	 8.19	 8.40	 8.70	 8.75	 8.59	 8.76	 8.70	 0.00	 0.00	 0.00	 0.00	 0.00	 7.87	 7.46	 8.18	 0.00	 0.00	 0.00	 0.00	 0.00	 0.00	 0.00	 0.00	 0.00	 0.00	 0.00	 0.00	 0.00	 0.00	 0.00	 0.00	 0.00	 0.00	 0.00	  0.00	  0.00	  0.00	  0.00	  0.00	  0.00	  0.00	  0.00	  0.00	  0.00	  0.00	  0.00	  0.00	  0.00	  0.00	  0.00	  0.00	  0.00	  0.00	  0.00	  0.00	  0.00	  0.00	  0.00	  0.00	  0.00	  0.00	  0.00
GABRB3 - ENSG00000166206	15.00	FALSE	FALSE	 9.805	 7.89	10.05	 9.44	 9.64	 9.74	 9.58	 9.27	 9.68	 9.74	 9.82	 9.87	 9.58	 0.00	 0.00	 0.00	 0.00	 0.00	 0.00	10.36	 9.36	 0.00	 0.00	 0.00	 0.00	 0.00	 0.00	 0.00	 0.00	 0.00	 0.00	 0.00	 0.00	 0.00	 0.00	 0.00	 0.00	 0.00	 0.00	 0.00	  0.00	  0.00	  0.00	  0.00	  0.00	  0.00	  0.00	  0.00	  0.00	  0.00	  0.00	  0.00	  0.00	  0.00	  0.00	  0.00	  0.00	  0.00	  0.00	  0.00	  0.00	  0.00	  0.00	  0.00	  0.00	  0.00	  0.00	  0.00
CYP4F3 - ENSG00000186529	14.00	FALSE	FALSE	13.397	13.09	13.70	13.16	13.44	13.78	13.92	14.03	14.00	14.00	13.95	14.34	13.62	 0.00	 0.00	 0.00	 0.00	 0.00	 0.00	 0.00	13.00	 0.00	 0.00	 0.00	 0.00	 0.00	 0.00	 0.00	 0.00	 0.00	 0.00	 0.00	 0.00	 0.00	 0.00	 0.00	 0.00	 0.00	 0.00	 0.00	  0.00	  0.00	  0.00	  0.00	  0.00	  0.00	  0.00	  0.00	  0.00	  0.00	  0.00	  0.00	  0.00	  0.00	  0.00	  0.00	  0.00	  0.00	  0.00	  0.00	  0.00	  0.00	  0.00	  0.00	  0.00	  0.00	  0.00	  0.00
MYO3A - ENSG00000095777	13.00	FALSE	FALSE	 6.452	 5.68	 5.43	 4.85	 4.88	 5.08	 4.87	 5.16	 5.57	 5.62	 5.60	 5.56	 5.47	 0.00	 0.00	 0.00	 0.00	 0.00	 0.00	 0.00	 0.00	 0.00	 0.00	 0.00	 0.00	 0.00	 0.00	 0.00	 0.00	 0.00	 0.00	 0.00	 0.00	 0.00	 0.00	 0.00	 0.00	 0.00	 0.00	 0.00	  0.00	  0.00	  0.00	  0.00	  0.00	  0.00	  0.00	  0.00	  0.00	  0.00	  0.00	  0.00	  0.00	  0.00	  0.00	  0.00	  0.00	  0.00	  0.00	  0.00	  0.00	  0.00	  0.00	  0.00	  0.00	  0.00	  0.00	  0.00
CABIN1 - ENSG00000099991	12.00	FALSE	FALSE	12.789	13.19	11.78	 0.00	11.35	11.58	11.87	11.40	11.21	11.27	11.17	11.64	11.86	 0.00	 0.00	 0.00	 0.00	 0.00	 0.00	 0.00	 0.00	 0.00	 0.00	 0.00	 0.00	 0.00	 0.00	 0.00	 0.00	 0.00	 0.00	 0.00	 0.00	 0.00	 0.00	 0.00	 0.00	 0.00	 0.00	 0.00	  0.00	  0.00	  0.00	  0.00	  0.00	  0.00	  0.00	  0.00	  0.00	  0.00	  0.00	  0.00	  0.00	  0.00	  0.00	  0.00	  0.00	  0.00	  0.00	  0.00	  0.00	  0.00	  0.00	  0.00	  0.00	  0.00	  0.00	  0.00
SDK1 - ENSG00000146555	11.00	FALSE	FALSE	 6.132	 6.62	 6.27	 0.00	 0.00	 6.67	 6.22	 6.14	 6.34	 6.37	 6.27	 6.25	 6.26	 0.00	 0.00	 0.00	 0.00	 0.00	 0.00	 0.00	 0.00	 0.00	 0.00	 0.00	 0.00	 0.00	 0.00	 0.00	 0.00	 0.00	 0.00	 0.00	 0.00	 0.00	 0.00	 0.00	 0.00	 0.00	 0.00	 0.00	  0.00	  0.00	  0.00	  0.00	  0.00	  0.00	  0.00	  0.00	  0.00	  0.00	  0.00	  0.00	  0.00	  0.00	  0.00	  0.00	  0.00	  0.00	  0.00	  0.00	  0.00	  0.00	  0.00	  0.00	  0.00	  0.00	  0.00	  0.00
RNF17 - ENSG00000132972	10.00	FALSE	FALSE	 7.586	 8.62	 7.26	 0.00	 0.00	 0.00	 7.87	 7.24	 7.32	 7.31	 7.04	 7.31	 7.23	 0.00	 0.00	 0.00	 0.00	 0.00	 0.00	 0.00	 0.00	 0.00	 0.00	 0.00	 0.00	 0.00	 0.00	 0.00	 0.00	 0.00	 0.00	 0.00	 0.00	 0.00	 0.00	 0.00	 0.00	 0.00	 0.00	 0.00	  0.00	  0.00	  0.00	  0.00	  0.00	  0.00	  0.00	  0.00	  0.00	  0.00	  0.00	  0.00	  0.00	  0.00	  0.00	  0.00	  0.00	  0.00	  0.00	  0.00	  0.00	  0.00	  0.00	  0.00	  0.00	  0.00	  0.00	  0.00
EGF - ENSG00000138798	 9.00	FALSE	FALSE	13.381	13.17	11.68	 0.00	 0.00	 0.00	 0.00	10.01	 9.57	 9.53	10.50	10.71	12.14	 0.00	 0.00	 0.00	 0.00	 0.00	 0.00	 0.00	 0.00	 0.00	 0.00	 0.00	 0.00	 0.00	 0.00	 0.00	 0.00	 0.00	 0.00	 0.00	 0.00	 0.00	 0.00	 0.00	 0.00	 0.00	 0.00	 0.00	  0.00	  0.00	  0.00	  0.00	  0.00	  0.00	  0.00	  0.00	  0.00	  0.00	  0.00	  0.00	  0.00	  0.00	  0.00	  0.00	  0.00	  0.00	  0.00	  0.00	  0.00	  0.00	  0.00	  0.00	  0.00	  0.00	  0.00	  0.00
KMT2B - ENSG00000272333	 8.00	FALSE	FALSE	 7.831	 8.36	 7.28	 0.00	 0.00	 0.00	 0.00	 0.00	 7.39	 7.41	 7.23	 7.12	 7.36	 0.00	 0.00	 0.00	 0.00	 0.00	 0.00	 0.00	 0.00	 0.00	 0.00	 0.00	 0.00	 0.00	 0.00	 0.00	 0.00	 0.00	 0.00	 0.00	 0.00	 0.00	 0.00	 0.00	 0.00	 0.00	 0.00	 0.00	  0.00	  0.00	  0.00	  0.00	  0.00	  0.00	  0.00	  0.00	  0.00	  0.00	  0.00	  0.00	  0.00	  0.00	  0.00	  0.00	  0.00	  0.00	  0.00	  0.00	  0.00	  0.00	  0.00	  0.00	  0.00	  0.00	  0.00	  0.00
RIMS2 - ENSG00000176406	 8.00	FALSE	FALSE	 3.114	 3.06	 3.32	 0.00	 0.00	 0.00	 0.00	 0.00	 3.09	 3.08	 3.12	 3.17	 3.42	 0.00	 0.00	 0.00	 0.00	 0.00	 0.00	 0.00	 0.00	 0.00	 0.00	 0.00	 0.00	 0.00	 0.00	 0.00	 0.00	 0.00	 0.00	 0.00	 0.00	 0.00	 0.00	 0.00	 0.00	 0.00	 0.00	 0.00	  0.00	  0.00	  0.00	  0.00	  0.00	  0.00	  0.00	  0.00	  0.00	  0.00	  0.00	  0.00	  0.00	  0.00	  0.00	  0.00	  0.00	  0.00	  0.00	  0.00	  0.00	  0.00	  0.00	  0.00	  0.00	  0.00	  0.00	  0.00
COL27A1 - ENSG00000196739	 7.00	FALSE	FALSE	-0.073	 0.43	-1.13	 0.00	 0.00	 0.00	 0.00	 0.00	 0.00	-0.80	-0.87	-0.90	-1.02	 0.00	 0.00	 0.00	 0.00	 0.00	 0.00	 0.00	 0.00	 0.00	 0.00	 0.00	 0.00	 0.00	 0.00	 0.00	 0.00	 0.00	 0.00	 0.00	 0.00	 0.00	 0.00	 0.00	 0.00	 0.00	 0.00	 0.00	  0.00	  0.00	  0.00	  0.00	  0.00	  0.00	  0.00	  0.00	  0.00	  0.00	  0.00	  0.00	  0.00	  0.00	  0.00	  0.00	  0.00	  0.00	  0.00	  0.00	  0.00	  0.00	  0.00	  0.00	  0.00	  0.00	  0.00	  0.00
DRD5 - ENSG00000169676	 6.00	FALSE	FALSE	-1.181	-1.82	-2.26	 0.00	 0.00	 0.00	 0.00	 0.00	 0.00	 0.00	-3.00	-2.59	-1.90	 0.00	 0.00	 0.00	 0.00	 0.00	 0.00	 0.00	 0.00	 0.00	 0.00	 0.00	 0.00	 0.00	 0.00	 0.00	 0.00	 0.00	 0.00	 0.00	 0.00	 0.00	 0.00	 0.00	 0.00	 0.00	 0.00	 0.00	  0.00	  0.00	  0.00	  0.00	  0.00	  0.00	  0.00	  0.00	  0.00	  0.00	  0.00	  0.00	  0.00	  0.00	  0.00	  0.00	  0.00	  0.00	  0.00	  0.00	  0.00	  0.00	  0.00	  0.00	  0.00	  0.00	  0.00	  0.00
EPHA8 - ENSG00000070886	 5.00	FALSE	FALSE	 4.870	 5.15	 4.88	 0.00	 0.00	 0.00	 0.00	 0.00	 0.00	 0.00	 0.00	 4.56	 4.45	 0.00	 0.00	 0.00	 0.00	 0.00	 0.00	 0.00	 0.00	 0.00	 0.00	 0.00	 0.00	 0.00	 0.00	 0.00	 0.00	 0.00	 0.00	 0.00	 0.00	 0.00	 0.00	 0.00	 0.00	 0.00	 0.00	 0.00	  0.00	  0.00	  0.00	  0.00	  0.00	  0.00	  0.00	  0.00	  0.00	  0.00	  0.00	  0.00	  0.00	  0.00	  0.00	  0.00	  0.00	  0.00	  0.00	  0.00	  0.00	  0.00	  0.00	  0.00	  0.00	  0.00	  0.00	  0.00
POM121L12 - ENSG00000221900	 4.00	FALSE	FALSE	 6.801	 6.53	 7.16	 0.00	 0.00	 0.00	 0.00	 0.00	 0.00	 0.00	 0.00	 0.00	 6.84	 0.00	 0.00	 0.00	 0.00	 0.00	 0.00	 0.00	 0.00	 0.00	 0.00	 0.00	 0.00	 0.00	 0.00	 0.00	 0.00	 0.00	 0.00	 0.00	 0.00	 0.00	 0.00	 0.00	 0.00	 0.00	 0.00	 0.00	  0.00	  0.00	  0.00	  0.00	  0.00	  0.00	  0.00	  0.00	  0.00	  0.00	  0.00	  0.00	  0.00	  0.00	  0.00	  0.00	  0.00	  0.00	  0.00	  0.00	  0.00	  0.00	  0.00	  0.00	  0.00	  0.00	  0.00	  0.00
DMD - ENSG00000198947	 3.00	FALSE	FALSE	 4.893	 4.28	 0.00	 0.00	 0.00	 0.00	 0.00	 0.00	 0.00	 0.00	 0.00	 0.00	 4.68	 0.00	 0.00	 0.00	 0.00	 0.00	 0.00	 0.00	 0.00	 0.00	 0.00	 0.00	 0.00	 0.00	 0.00	 0.00	 0.00	 0.00	 0.00	 0.00	 0.00	 0.00	 0.00	 0.00	 0.00	 0.00	 0.00	 0.00	  0.00	  0.00	  0.00	  0.00	  0.00	  0.00	  0.00	  0.00	  0.00	  0.00	  0.00	  0.00	  0.00	  0.00	  0.00	  0.00	  0.00	  0.00	  0.00	  0.00	  0.00	  0.00	  0.00	  0.00	  0.00	  0.00	  0.00	  0.00
ADAMTS18 - ENSG00000140873	 2.00	FALSE	FALSE	12.197	12.71	 0.00	 0.00	 0.00	 0.00	 0.00	 0.00	 0.00	 0.00	 0.00	 0.00	 0.00	 0.00	 0.00	 0.00	 0.00	 0.00	 0.00	 0.00	 0.00	 0.00	 0.00	 0.00	 0.00	 0.00	 0.00	 0.00	 0.00	 0.00	 0.00	 0.00	 0.00	 0.00	 0.00	 0.00	 0.00	 0.00	 0.00	 0.00	  0.00	  0.00	  0.00	  0.00	  0.00	  0.00	  0.00	  0.00	  0.00	  0.00	  0.00	  0.00	  0.00	  0.00	  0.00	  0.00	  0.00	  0.00	  0.00	  0.00	  0.00	  0.00	  0.00	  0.00	  0.00	  0.00	  0.00	  0.00
LZTR1 - ENSG00000099949	 2.00	 TRUE	 TRUE	13.208	13.40	 0.00	 0.00	 0.00	 0.00	 0.00	 0.00	 0.00	 0.00	 0.00	 0.00	 0.00	 0.00	 0.00	 0.00	 0.00	 0.00	 0.00	 0.00	 0.00	 0.00	 0.00	 0.00	 0.00	 0.00	 0.00	 0.00	 0.00	 0.00	 0.00	 0.00	 0.00	 0.00	 0.00	 0.00	 0.00	 0.00	 0.00	 0.00	  0.00	  0.00	  0.00	  0.00	  0.00	  0.00	  0.00	  0.00	  0.00	  0.00	  0.00	  0.00	  0.00	  0.00	  0.00	  0.00	  0.00	  0.00	  0.00	  0.00	  0.00	  0.00	  0.00	  0.00	  0.00	  0.00	  0.00	  0.00
PCDHGA1 - ENSG00000204956	 1.00	FALSE	FALSE	 0.000	 9.49	 0.00	 0.00	 0.00	 0.00	 0.00	 0.00	 0.00	 0.00	 0.00	 0.00	 0.00	 0.00	 0.00	 0.00	 0.00	 0.00	 0.00	 0.00	 0.00	 0.00	 0.00	 0.00	 0.00	 0.00	 0.00	 0.00	 0.00	 0.00	 0.00	 0.00	 0.00	 0.00	 0.00	 0.00	 0.00	 0.00	 0.00	 0.00	  0.00	  0.00	  0.00	  0.00	  0.00	  0.00	  0.00	  0.00	  0.00	  0.00	  0.00	  0.00	  0.00	  0.00	  0.00	  0.00	  0.00	  0.00	  0.00	  0.00	  0.00	  0.00	  0.00	  0.00	  0.00	  0.00	  0.00	  0.00
TMPRSS15 - ENSG00000154646	 1.00	FALSE	FALSE	 0.000	10.39	 0.00	 0.00	 0.00	 0.00	 0.00	 0.00	 0.00	 0.00	 0.00	 0.00	 0.00	 0.00	 0.00	 0.00	 0.00	 0.00	 0.00	 0.00	 0.00	 0.00	 0.00	 0.00	 0.00	 0.00	 0.00	 0.00	 0.00	 0.00	 0.00	 0.00	 0.00	 0.00	 0.00	 0.00	 0.00	 0.00	 0.00	 0.00	  0.00	  0.00	  0.00	  0.00	  0.00	  0.00	  0.00	  0.00	  0.00	  0.00	  0.00	  0.00	  0.00	  0.00	  0.00	  0.00	  0.00	  0.00	  0.00	  0.00	  0.00	  0.00	  0.00	  0.00	  0.00	  0.00	  0.00	  0.00
ZNF814 - ENSG00000204514	 1.00	FALSE	FALSE	 0.000	 7.14	 0.00	 0.00	 0.00	 0.00	 0.00	 0.00	 0.00	 0.00	 0.00	 0.00	 0.00	 0.00	 0.00	 0.00	 0.00	 0.00	 0.00	 0.00	 0.00	 0.00	 0.00	 0.00	 0.00	 0.00	 0.00	 0.00	 0.00	 0.00	 0.00	 0.00	 0.00	 0.00	 0.00	 0.00	 0.00	 0.00	 0.00	 0.00	  0.00	  0.00	  0.00	  0.00	  0.00	  0.00	  0.00	  0.00	  0.00	  0.00	  0.00	  0.00	  0.00	  0.00	  0.00	  0.00	  0.00	  0.00	  0.00	  0.00	  0.00	  0.00	  0.00	  0.00	  0.00	  0.00	  0.00	  0.00
