variable	min_all	max_all	median_all	model_100	model_101	model_102	model_99	model_98	model_95	model_96	model_97	model_92	model_93	model_79	model_80	model_81	model_78	model_86	model_87	model_88	model_94	model_82	model_83	model_84	model_85	model_89	model_90	model_91	model_77	model_76	model_75	model_74	model_66	model_68	model_73	model_64	model_65	model_67	model_69	model_71	model_72	model_63	model_70	model_60	model_59	model_61	model_62	model_58	model_57	model_56	model_55	model_54	model_53	model_51	model_52	model_49	model_50	model_48	model_47	model_46	model_45	model_43	model_42	model_44	model_40	model_41	model_39	model_38	model_35	model_36	model_37	model_34	model_33	model_32	model_31	model_30	model_29	model_28	model_27	model_25	model_24	model_26	model_23	model_22	model_21	model_20	model_19	model_18	model_17	model_16	model_15	model_14
length_pb	178041	550554	360586	540120	542877	550554	523506	515856	505105	507826	509842	492022	493198	435564	437403	440274	428319	455466	458666	460691	497014	441834	443438	447164	451100	471873	475356	476809	420608	413747	410769	410106	388063	391881	408429	379319	383242	389341	392343	400430	401822	378203	397562	368739	364717	370816	372232	360586	355309	347980	346244	342542	339602	331082	334244	323942	329507	321514	315960	313688	311488	303352	298888	305374	293052	297061	290695	284812	276200	277429	283234	272206	260930	260198	257195	255842	253026	247956	240380	228254	225944	234527	222068	215024	211669	209809	204946	202249	198475	195905	191814	178041
R2	0.98	1	0.99	1	1	1	1	1	1	1	1	1	1	1	1	1	1	1	1	1	1	1	1	1	1	1	1	1	1	1	1	0.99	0.99	0.99	0.99	0.99	0.99	0.99	0.99	0.99	0.99	0.99	0.99	0.99	0.99	0.99	0.99	0.99	0.99	0.99	0.99	0.99	0.99	0.99	0.99	0.99	0.99	0.99	0.99	0.99	0.99	0.99	0.99	0.99	0.99	0.99	0.99	0.99	0.99	0.99	0.99	0.99	0.99	0.99	0.99	0.99	0.99	0.99	0.99	0.99	0.99	0.99	0.99	0.99	0.99	0.99	0.99	0.99	0.98	0.98	0.98	0.98
Rsquared_1000optboot	0.98	0.99	0.99	0.99	0.99	0.99	0.99	0.99	0.99	0.99	0.99	0.99	0.99	0.99	0.99	0.99	0.99	0.99	0.99	0.99	0.99	0.99	0.99	0.99	0.99	0.99	0.99	0.99	0.99	0.99	0.99	0.99	0.99	0.99	0.99	0.99	0.99	0.99	0.99	0.99	0.99	0.99	0.99	0.99	0.99	0.99	0.99	0.99	0.99	0.99	0.99	0.99	0.99	0.99	0.99	0.99	0.99	0.99	0.99	0.99	0.99	0.99	0.99	0.99	0.99	0.99	0.99	0.99	0.99	0.99	0.99	0.99	0.99	0.99	0.99	0.99	0.99	0.99	0.99	0.99	0.99	0.99	0.99	0.99	0.99	0.99	0.99	0.99	0.99	0.99	0.98	0.98
Rsquared_externaltest	0.9	0.96	0.95	0.95	0.96	0.95	0.95	0.95	0.95	0.95	0.95	0.95	0.95	0.95	0.95	0.95	0.95	0.95	0.95	0.95	0.95	0.95	0.95	0.95	0.95	0.95	0.95	0.95	0.95	0.95	0.95	0.95	0.95	0.95	0.95	0.95	0.95	0.95	0.95	0.95	0.95	0.95	0.95	0.95	0.95	0.95	0.95	0.95	0.94	0.94	0.94	0.94	0.94	0.94	0.94	0.94	0.94	0.94	0.94	0.94	0.93	0.93	0.93	0.93	0.93	0.93	0.93	0.93	0.93	0.93	0.93	0.93	0.92	0.92	0.92	0.92	0.92	0.92	0.91	0.91	0.92	0.91	0.92	0.91	0.91	0.91	0.91	0.9	0.9	0.9	0.9	0.9
RSE	78	157	90	79	80	78	80	80	81	80	80	81	81	85	85	85	85	83	83	83	81	84	84	84	84	83	83	83	85	85	86	86	88	87	86	88	88	88	87	87	87	88	87	90	90	89	89	90	91	91	92	92	93	94	94	95	95	96	97	98	98	100	101	100	103	102	105	106	110	108	107	111	113	114	116	117	119	120	122	126	129	124	130	134	136	139	141	144	147	149	153	157
RMSE_1000optboot	98	166	100	98	99	98	98	98	98	98	98	99	98	98	98	98	98	98	98	98	99	98	98	98	98	99	99	99	98	98	98	99	99	99	99	99	99	99	99	99	99	99	99	100	100	100	99	100	101	101	101	102	103	104	103	104	104	105	106	108	108	109	110	109	112	111	116	116	120	118	118	123	124	125	125	126	128	130	131	135	138	133	140	144	145	149	151	153	156	158	162	166
RMSE_externaltest	206	310	228	207	206	208	207	210	211	213	213	213	214	212	212	212	213	215	215	215	215	215	215	215	215	215	215	215	215	217	221	222	222	223	224	223	223	223	224	224	224	224	225	224	225	226	227	228	230	231	231	234	235	236	237	238	238	238	242	246	246	253	252	254	248	252	248	250	250	253	255	252	266	267	267	268	272	274	281	278	278	282	279	283	284	288	291	294	294	296	309	310
variables_model	19	110	63	107	108	110	106	105	101	102	103	98	99	84	85	86	83	91	92	93	100	87	88	89	90	94	95	96	82	81	80	79	71	73	78	69	70	72	74	76	77	68	75	65	64	66	67	63	62	61	60	59	58	56	57	54	55	53	52	51	50	48	47	49	45	46	44	43	40	41	42	39	38	37	36	35	34	33	32	30	29	31	28	27	26	25	24	23	22	21	20	19
negative_variables	0	5	0	3	3	5	3	2	1	2	1	1	1	1	1	1	1	1	1	1	1	1	1	1	1	1	1	1	1	1	1	1	0	1	1	0	0	1	1	1	1	0	1	0	0	0	0	0	0	0	0	0	0	0	0	0	0	0	0	0	0	0	0	0	0	0	0	0	0	0	0	0	0	0	0	0	0	0	0	0	0	0	0	0	0	0	0	0	0	0	0	0
percent_training	62.6	70.67	68.05	70.56	70.67	70.67	70.56	70.45	70.23	70.34	70.34	70.01	70.12	69.36	69.36	69.36	69.36	69.79	69.79	69.79	70.12	69.36	69.57	69.68	69.68	69.9	69.9	69.9	69.36	69.36	69.25	69.25	68.7	68.7	69.25	68.38	68.48	68.7	68.7	68.92	68.92	68.38	68.92	68.05	68.05	68.05	68.05	68.05	67.83	67.72	67.72	67.72	67.72	67.61	67.61	67.39	67.5	67.39	67.39	67.39	67.07	66.41	66.09	66.63	65.98	66.09	65.87	65.65	65.1	65.1	65.65	64.89	64.78	64.78	64.78	64.78	64.78	64.67	64.45	63.9	63.79	64.12	63.69	63.14	63.03	63.03	62.92	62.92	62.81	62.7	62.7	62.6
percent_testing	76.87	90.67	84.7	90.67	90.67	90.67	90.67	90.67	89.93	90.3	90.3	89.93	89.93	88.81	88.81	88.81	88.43	89.18	89.18	89.18	89.93	88.81	88.81	89.18	89.18	89.93	89.93	89.93	88.43	86.19	86.19	86.19	86.19	86.19	86.19	85.45	85.45	86.19	86.19	86.19	86.19	85.45	86.19	85.07	84.7	85.07	85.07	84.7	84.7	84.33	84.33	84.33	83.96	83.96	83.96	83.96	83.96	83.96	83.96	83.96	83.96	83.21	83.21	83.21	82.84	83.21	82.46	82.46	81.34	81.72	82.46	81.34	80.97	80.97	80.6	80.22	80.22	80.22	79.85	79.48	79.48	79.85	79.48	78.73	78.73	78.73	77.99	77.61	77.24	77.24	77.24	76.87


hgnc_symbol	in_models	census	panel	model_100	model_101	model_102	model_99	model_98	model_95	model_96	model_97	model_92	model_93	model_79	model_80	model_81	model_78	model_86	model_87	model_88	model_94	model_82	model_83	model_84	model_85	model_89	model_90	model_91	model_77	model_76	model_75	model_74	model_66	model_68	model_73	model_64	model_65	model_67	model_69	model_71	model_72	model_63	model_70	model_60	model_59	model_61	model_62	model_58	model_57	model_56	model_55	model_54	model_53	model_51	model_52	model_49	model_50	model_48	model_47	model_46	model_45	model_43	model_42	model_44	model_40	model_41	model_39	model_38	model_35	model_36	model_37	model_34	model_33	model_32	model_31	model_30	model_29	model_28	model_27	model_25	model_24	model_26	model_23	model_22	model_21	model_20	model_19	model_18	model_17	model_16	model_15	model_14
Intercept	89.00	  NA	   NA	 18.60	 18.67	 18.48	 18.49	 18.03	 18.92	 18.22	 18.27	 18.71	 18.49	 19.76	 19.94	 19.99	 19.98	 19.00	 18.88	 18.91	 18.61	 21.20	 20.90	 20.62	 19.87	 18.95	 18.72	 18.58	 19.87	 20.12	 20.43	 20.58	 20.89	 20.85	 20.69	 21.68	 21.63	 20.87	 21.37	 21.17	 20.92	 21.85	 21.20	 22.54	 22.04	 22.27	 22.15	 22.56	 22.95	 23.25	 23.18	 24.09	 23.28	 24.19	 24.25	 25.94	 25.20	 26.82	 27.28	 26.80	 27.04	 27.22	 27.98	 27.08	 26.82	 27.64	 26.39	 27.48	 28.86	 28.91	 28.08	 28.15	 30.39	 30.99	 29.10	 28.89	 29.45	 29.98	 29.98	 30.61	 33.54	 30.00	 35.11	 37.65	 35.41	 35.04	 33.49	 30.78	 31.89	 29.82	 31.27	 31.49
AKAP9 - ENSG00000127914	89.00	TRUE	FALSE	 50.41	 50.32	 50.92	 49.70	 50.83	 55.41	 53.14	 52.31	 54.80	 56.65	 67.52	 68.13	 67.87	 66.18	 57.37	 57.24	 58.02	 57.37	 67.68	 68.38	 67.68	 58.06	 55.56	 53.19	 54.47	 68.87	 71.60	 71.27	 73.11	 70.72	 73.40	 72.19	 69.88	 70.81	 70.68	 72.65	 73.22	 73.93	 70.28	 73.74	 76.24	 76.23	 74.36	 73.98	 76.07	 76.21	 78.05	 76.64	 73.34	 77.45	 77.87	 78.59	 73.47	 77.81	 73.32	 75.19	 72.66	 73.68	 78.80	 78.35	 73.63	 71.87	 73.98	 66.93	 74.23	 74.92	 75.63	 76.91	 80.91	 91.13	 89.43	 94.25	 91.79	 91.02	 97.30	102.60	109.02	117.76	110.61	118.34	120.22	116.36	129.62	138.67	155.90	157.92	149.31	163.66	172.42
APC - ENSG00000134982	89.00	TRUE	 TRUE	 46.69	 47.08	 49.23	 46.55	 45.68	 41.76	 43.84	 43.73	 40.29	 39.88	 49.96	 50.47	 50.69	 49.82	 48.33	 48.16	 49.34	 41.09	 48.22	 50.08	 51.20	 49.16	 50.42	 52.03	 52.42	 51.86	 54.16	 53.78	 57.09	 63.97	 61.35	 58.39	 66.22	 64.97	 63.81	 61.56	 64.53	 63.98	 63.17	 62.80	 67.04	 66.65	 64.57	 63.04	 66.89	 68.61	 68.18	 70.77	 74.77	 75.32	 79.19	 74.84	 85.12	 81.25	 86.75	 83.64	 86.14	 80.28	 85.17	 91.71	 78.48	 89.11	 88.59	101.57	101.06	106.13	105.44	107.35	106.31	101.04	 98.97	107.94	 99.66	 97.57	111.18	114.63	131.00	127.87	120.06	131.11	151.41	155.54	153.59	161.20	174.03	172.19	168.45	172.74	159.10
BCLAF1 - ENSG00000029363	89.00	TRUE	FALSE	 47.09	 47.32	 50.97	 47.91	 47.88	 50.23	 47.50	 48.21	 46.57	 49.57	 59.11	 58.96	 58.98	 59.30	 52.49	 51.86	 51.66	 49.72	 52.65	 54.07	 52.83	 54.40	 52.03	 51.40	 51.06	 60.64	 61.04	 60.62	 58.14	 61.94	 63.17	 56.27	 61.64	 62.64	 62.00	 63.99	 55.74	 56.34	 59.41	 60.23	 58.18	 57.80	 59.32	 57.49	 57.49	 59.06	 57.29	 56.50	 59.02	 60.75	 55.73	 59.45	 61.38	 61.54	 59.27	 61.89	 61.71	 63.74	 66.31	 67.26	 62.39	 81.51	 79.75	 79.43	 77.05	 74.30	 77.11	 77.87	 82.74	 83.91	 82.36	 81.26	 73.61	 72.74	 78.05	 77.91	 87.43	 87.10	 80.19	 84.26	 84.02	 79.46	 77.34	 85.05	 98.00	 90.44	 99.72	 94.93	 99.35
BIRC6 - ENSG00000115760	89.00	TRUE	FALSE	 67.75	 68.34	 65.54	 67.66	 71.07	 76.34	 69.69	 70.44	 76.97	 76.36	 82.75	 82.61	 82.54	 81.82	 76.33	 76.37	 76.52	 76.48	 81.02	 81.58	 82.18	 78.40	 76.61	 76.72	 76.99	 83.13	 83.41	 80.73	 82.19	 84.61	 84.87	 81.32	 84.40	 83.98	 84.85	 87.30	 82.97	 82.94	 87.77	 87.02	 87.89	 85.40	 87.28	 89.40	 84.60	 86.82	 89.38	 89.47	 90.32	 89.11	 86.80	 88.25	 89.81	 89.27	 91.50	 87.14	 91.34	 93.88	 96.37	 98.04	 96.72	 99.19	 94.57	107.26	102.11	110.29	109.76	106.33	114.76	124.61	124.05	126.18	120.34	124.01	124.86	133.68	139.57	142.99	137.06	141.42	156.28	166.69	189.52	190.84	189.72	188.17	190.20	201.67	204.45
CACNA1D - ENSG00000157388	89.00	TRUE	FALSE	 53.69	 53.46	 53.55	 54.89	 56.50	 54.08	 56.68	 56.43	 55.28	 51.35	 66.53	 66.88	 67.06	 68.35	 63.12	 61.96	 60.96	 51.95	 66.46	 65.03	 64.22	 64.73	 59.96	 58.70	 57.89	 69.97	 70.83	 71.45	 73.54	 73.57	 74.95	 77.08	 74.09	 74.23	 73.43	 76.49	 76.85	 78.36	 76.71	 78.09	 73.93	 72.72	 73.63	 75.48	 71.69	 70.60	 71.12	 72.73	 78.69	 75.17	 76.75	 73.33	 77.11	 76.93	 79.81	 77.86	 77.64	 79.17	 80.35	 82.88	 81.94	 84.45	 83.96	 94.73	 92.44	 96.06	 97.38	 94.65	 97.70	 99.88	 98.20	 95.49	 92.84	 91.73	 90.76	 88.50	 88.87	 81.70	 89.64	 78.64	 71.55	 80.52	 76.78	 74.53	 79.28	 89.58	 93.44	 96.02	 95.09
CARD11 - ENSG00000198286	89.00	TRUE	 TRUE	105.78	106.42	103.90	104.39	108.10	108.19	110.34	110.86	109.28	108.47	113.07	113.31	113.15	112.79	113.01	113.23	113.01	108.43	114.22	113.89	114.72	116.38	110.63	109.74	111.41	111.77	114.88	116.78	116.11	115.86	115.96	117.32	116.83	116.66	116.08	115.89	117.26	116.57	115.66	116.00	117.52	117.35	116.38	117.06	120.90	123.58	127.73	127.27	131.23	130.27	134.97	134.99	130.91	134.53	132.36	132.33	135.56	137.63	143.12	150.95	145.61	146.38	147.32	153.29	151.22	151.34	158.11	157.30	159.00	161.82	161.26	164.45	161.69	160.34	156.71	152.28	159.66	167.14	157.27	171.51	167.99	174.11	170.84	164.40	163.15	164.27	167.70	168.89	188.85
CDH10 - ENSG00000040731	89.00	TRUE	FALSE	 52.38	 51.92	 52.02	 51.74	 53.25	 52.88	 53.16	 52.80	 60.13	 58.61	 57.07	 57.44	 57.60	 57.97	 57.39	 57.14	 57.48	 55.56	 59.50	 58.63	 58.12	 58.37	 57.84	 59.12	 60.24	 58.22	 57.83	 58.09	 57.11	 61.58	 63.75	 57.61	 63.76	 63.36	 61.50	 62.36	 59.26	 59.27	 60.36	 60.55	 64.31	 63.54	 62.47	 64.16	 63.28	 65.88	 62.40	 64.77	 63.30	 61.83	 55.98	 60.25	 57.17	 55.69	 55.80	 52.97	 54.28	 54.63	 51.91	 54.24	 53.53	 54.23	 54.35	 58.54	 57.41	 65.26	 61.72	 57.36	 62.19	 66.69	 68.09	 68.67	 68.67	 69.43	 66.98	 67.44	 75.39	 70.50	 72.74	 70.89	 76.06	 74.73	 67.65	 71.37	 64.80	 75.24	 77.27	 77.14	 76.01
CHD4 - ENSG00000111642	89.00	TRUE	 TRUE	 96.78	 95.96	 91.39	 98.31	 97.62	 99.49	 98.75	 98.95	100.67	 98.98	 99.30	101.01	101.03	 97.76	101.51	102.30	104.03	 99.34	102.06	101.34	102.42	102.63	102.95	103.38	101.53	 97.83	 97.29	102.12	 99.18	116.05	112.62	101.53	117.62	117.75	116.25	109.24	106.06	107.28	120.64	108.35	124.67	125.56	123.50	123.47	122.91	122.17	123.85	125.69	124.20	130.21	133.84	130.30	142.40	132.62	142.53	141.07	136.62	136.09	134.30	139.87	135.11	153.44	149.37	161.02	164.85	159.65	162.85	164.98	160.32	160.30	154.10	150.22	149.81	148.96	157.79	161.06	172.20	181.72	168.41	190.91	193.65	187.20	196.24	192.27	170.52	176.47	184.86	187.21	210.73
COL1A1 - ENSG00000108821	89.00	TRUE	FALSE	 43.55	 44.03	 40.62	 44.67	 46.12	 47.87	 47.93	 47.20	 48.16	 48.26	 60.12	 60.48	 60.39	 59.90	 58.64	 59.75	 59.33	 47.40	 57.52	 58.20	 58.51	 59.30	 58.63	 57.62	 57.40	 58.93	 58.25	 59.30	 57.28	 62.18	 60.61	 55.58	 61.16	 60.82	 62.24	 62.31	 59.07	 56.22	 60.06	 59.19	 64.70	 64.51	 63.08	 59.46	 60.90	 62.60	 60.27	 57.70	 58.50	 60.17	 63.49	 59.58	 67.99	 64.09	 68.24	 70.18	 70.39	 72.82	 74.47	 72.00	 75.62	 74.27	 70.21	 83.65	 82.78	 97.03	 87.55	 86.98	103.36	108.25	109.48	103.63	104.78	104.37	102.73	104.08	114.39	115.89	105.69	111.63	107.96	 97.73	 99.71	 97.80	 89.94	 92.72	 98.02	 97.11	107.97
COL3A1 - ENSG00000168542	89.00	TRUE	FALSE	 48.79	 49.10	 50.81	 48.29	 47.09	 46.23	 46.49	 46.32	 47.77	 46.94	 53.06	 52.90	 53.10	 54.40	 52.65	 52.99	 53.45	 46.72	 52.88	 51.95	 52.02	 53.49	 53.36	 53.74	 55.18	 54.82	 55.64	 58.26	 57.03	 55.17	 54.50	 55.70	 53.68	 53.75	 54.73	 54.60	 53.71	 55.16	 55.43	 53.95	 54.47	 55.12	 55.90	 56.31	 55.11	 57.12	 57.42	 57.58	 54.94	 53.28	 53.59	 53.53	 51.54	 53.28	 53.53	 54.45	 53.83	 52.62	 56.04	 62.40	 54.89	 64.28	 63.14	 72.31	 72.83	 69.53	 71.35	 70.81	 65.74	 69.54	 73.93	 79.19	 78.55	 77.48	 76.29	 78.98	 83.27	 82.15	 82.48	 81.46	 84.92	 85.01	 85.40	 99.18	100.15	101.16	102.90	100.14	 95.89
ELN - ENSG00000049540	89.00	TRUE	FALSE	 56.80	 56.57	 60.08	 59.63	 61.86	 59.61	 62.06	 61.37	 57.31	 59.39	 52.49	 52.02	 51.89	 53.85	 56.79	 55.37	 55.68	 56.96	 51.48	 50.74	 50.98	 53.84	 54.47	 52.98	 52.71	 51.28	 52.01	 53.49	 54.32	 60.27	 56.07	 55.55	 63.58	 63.27	 60.35	 56.99	 54.82	 54.55	 65.56	 54.76	 69.40	 70.81	 70.00	 69.31	 70.88	 69.68	 69.53	 74.91	 71.05	 70.30	 66.73	 70.96	 69.03	 67.01	 68.10	 68.36	 71.85	 76.84	 77.70	 81.17	 80.28	 94.58	 88.26	 96.87	 99.20	110.87	104.29	106.12	104.83	103.66	103.23	108.12	126.39	130.77	126.21	132.78	133.12	131.33	126.19	136.52	130.38	145.52	157.71	151.03	165.72	177.96	191.42	201.12	199.32
FAT3 - ENSG00000165323	89.00	TRUE	FALSE	 33.95	 34.22	 38.06	 33.29	 34.24	 35.88	 34.10	 34.26	 33.60	 33.35	 27.76	 26.15	 26.11	 27.33	 28.21	 29.29	 29.44	 34.19	 27.48	 27.89	 27.30	 27.34	 29.63	 30.11	 31.24	 27.58	 28.21	 27.30	 26.91	 28.20	 27.52	 26.76	 28.86	 29.27	 28.16	 26.71	 27.44	 27.42	 29.59	 26.71	 30.52	 29.89	 31.48	 31.01	 28.71	 30.14	 30.87	 31.52	 30.79	 32.29	 35.12	 32.94	 37.14	 36.90	 38.44	 41.01	 39.74	 38.30	 38.95	 38.45	 40.46	 39.05	 38.72	 35.79	 35.65	 35.15	 34.85	 36.32	 35.62	 39.06	 39.91	 41.18	 42.01	 39.90	 37.22	 40.31	 36.96	 34.69	 40.48	 37.66	 42.34	 47.43	 43.81	 50.61	 55.86	 57.59	 60.85	 61.74	 65.00
FAT4 - ENSG00000196159	89.00	TRUE	FALSE	 30.75	 30.65	 30.61	 32.47	 31.69	 33.02	 33.13	 33.05	 32.85	 33.18	 38.46	 38.21	 38.06	 38.20	 33.87	 33.92	 33.77	 33.13	 36.90	 36.79	 35.98	 36.10	 32.43	 32.07	 31.55	 39.02	 39.53	 39.33	 39.10	 38.52	 39.08	 38.64	 38.54	 38.74	 38.58	 39.98	 39.44	 39.41	 38.23	 39.74	 38.21	 39.11	 38.30	 38.79	 39.20	 40.12	 39.79	 38.51	 37.93	 38.76	 38.35	 38.94	 38.92	 38.15	 38.08	 39.36	 42.49	 42.01	 44.26	 44.75	 42.41	 45.37	 44.04	 40.76	 40.62	 42.88	 39.73	 40.57	 43.40	 44.01	 44.34	 43.37	 42.63	 44.51	 47.43	 47.41	 52.65	 49.30	 50.72	 50.17	 52.20	 53.00	 54.43	 55.69	 57.63	 56.57	 56.56	 55.12	 58.20
FLI1 - ENSG00000151702	89.00	TRUE	FALSE	 91.35	 92.42	 91.01	 91.72	 93.70	 90.38	 91.71	 91.57	 91.52	 94.13	109.33	108.20	107.03	105.40	110.53	110.97	112.96	 95.85	103.81	106.08	104.32	104.44	114.11	112.32	109.78	108.87	109.68	104.45	107.06	113.56	106.84	101.43	114.67	114.23	114.45	102.95	105.14	100.46	116.65	102.30	108.94	110.01	112.77	110.70	104.24	 97.59	 96.92	 96.97	 93.18	 93.40	 89.63	 99.29	 97.19	 94.19	 91.11	 97.72	 98.16	107.14	121.50	126.55	114.46	120.17	120.39	117.88	119.72	115.49	111.62	111.75	114.08	127.04	126.45	144.24	155.83	164.13	177.93	184.74	183.90	193.05	185.89	200.77	186.22	197.59	206.27	250.09	244.14	243.87	247.50	236.32	263.12
FLNA - ENSG00000196924	89.00	TRUE	FALSE	 56.29	 56.10	 57.04	 56.03	 56.35	 54.28	 58.12	 56.13	 53.00	 55.62	 81.21	 81.44	 81.37	 80.79	 69.03	 67.99	 66.52	 55.47	 73.91	 73.34	 74.13	 72.52	 64.49	 62.17	 58.16	 84.03	 85.36	 86.89	 87.67	 84.20	 85.20	 86.94	 83.08	 82.31	 83.98	 85.80	 86.00	 87.52	 85.55	 85.34	 84.55	 86.29	 82.58	 86.60	 94.25	102.74	106.33	109.41	108.23	105.80	107.36	104.36	102.50	108.97	104.59	104.56	107.72	105.64	105.59	100.14	108.44	103.19	100.99	122.44	126.07	127.81	125.93	124.76	138.60	132.34	131.02	122.50	124.54	135.73	137.76	136.80	130.90	129.87	133.22	123.61	113.56	125.60	126.96	122.13	137.05	144.52	157.76	160.63	154.80
LRP1B - ENSG00000168702	89.00	TRUE	 TRUE	 42.90	 42.60	 42.62	 43.47	 42.55	 40.26	 40.67	 41.50	 38.69	 40.00	 38.22	 38.38	 38.46	 38.18	 38.37	 38.38	 38.66	 40.08	 38.63	 38.65	 38.76	 39.68	 37.97	 38.09	 37.83	 39.21	 39.26	 39.34	 37.99	 40.35	 39.20	 37.51	 41.92	 41.86	 40.37	 37.88	 37.73	 36.90	 42.38	 38.18	 43.09	 42.92	 43.44	 42.21	 42.75	 42.90	 42.53	 42.77	 42.10	 42.20	 43.08	 41.69	 43.27	 43.26	 42.60	 44.19	 45.69	 49.16	 50.16	 51.36	 49.64	 52.56	 52.18	 55.75	 56.57	 57.66	 57.54	 55.96	 58.79	 57.06	 57.80	 57.21	 59.36	 58.83	 56.79	 57.76	 56.00	 58.25	 55.72	 62.40	 68.92	 69.31	 69.43	 71.19	 68.58	 65.65	 67.47	 67.43	 65.06
MUC16 - ENSG00000181143	89.00	TRUE	FALSE	 38.40	 38.28	 37.22	 38.93	 38.93	 38.99	 39.08	 38.90	 39.87	 39.54	 41.57	 41.74	 41.75	 41.60	 41.38	 41.48	 41.42	 39.48	 41.61	 41.52	 41.61	 41.63	 41.34	 41.24	 41.38	 40.94	 41.03	 41.34	 41.34	 40.23	 40.70	 41.42	 40.39	 40.24	 40.17	 40.82	 41.08	 41.18	 39.68	 41.07	 39.79	 39.94	 39.77	 39.87	 39.85	 40.00	 40.22	 40.60	 40.83	 41.13	 41.43	 41.28	 41.64	 41.42	 42.19	 41.52	 41.97	 42.31	 43.18	 42.77	 43.12	 43.04	 43.11	 43.29	 43.11	 43.93	 43.72	 42.67	 44.80	 45.38	 45.73	 46.47	 47.17	 48.17	 48.68	 48.96	 50.58	 50.28	 50.45	 49.89	 52.05	 53.12	 53.17	 53.69	 53.81	 54.44	 54.67	 54.40	 56.12
TNC - ENSG00000041982	89.00	TRUE	FALSE	 34.66	 34.81	 32.83	 34.70	 35.51	 37.12	 35.13	 35.50	 40.66	 38.54	 41.50	 41.51	 41.45	 43.07	 40.47	 41.32	 42.55	 38.48	 41.79	 41.06	 40.92	 43.05	 42.07	 43.00	 42.54	 42.04	 41.47	 42.76	 43.51	 47.83	 45.48	 44.91	 47.47	 48.51	 47.83	 43.83	 45.40	 46.04	 46.64	 44.60	 51.94	 53.30	 51.72	 47.19	 50.96	 49.28	 47.13	 50.31	 50.78	 53.85	 55.35	 54.93	 55.98	 55.94	 58.75	 56.33	 56.81	 56.89	 63.37	 64.48	 61.46	 63.33	 63.67	 68.15	 67.19	 70.77	 71.26	 65.48	 69.05	 72.63	 76.25	 76.93	 77.16	 75.01	 76.26	 79.38	 78.51	 76.66	 76.65	 78.71	 77.81	 76.91	 75.51	 78.82	 91.02	 88.75	 89.69	 88.74	 90.48
UBR5 - ENSG00000104517	89.00	TRUE	FALSE	 50.32	 50.06	 43.31	 51.10	 52.21	 55.02	 55.54	 53.22	 58.24	 59.26	 56.84	 58.03	 57.65	 57.87	 58.26	 58.65	 59.27	 58.41	 58.09	 59.24	 58.95	 59.27	 58.90	 58.70	 60.64	 59.10	 63.57	 60.65	 61.63	 63.45	 62.17	 63.82	 63.54	 62.37	 63.44	 65.35	 64.62	 66.29	 63.17	 65.52	 55.72	 56.39	 59.27	 60.98	 56.32	 58.84	 62.15	 61.55	 58.09	 64.68	 63.51	 63.82	 70.25	 67.90	 69.50	 81.92	 82.26	 84.05	 81.74	 89.74	 78.06	 91.95	 90.88	 79.49	 82.71	 93.31	 88.60	 85.68	 85.38	 80.95	 76.99	 78.38	 87.18	 86.31	 89.78	 96.00	 95.84	103.97	 94.86	105.41	112.68	117.61	125.87	139.05	138.34	141.70	139.20	149.38	156.35
FAT1 - ENSG00000083857	88.00	TRUE	 TRUE	 45.28	 45.56	 46.90	 46.22	 47.98	 46.25	 50.13	 49.03	 48.07	 49.59	 52.71	 52.78	 52.90	 53.97	 45.04	 44.34	 44.68	 47.78	 47.58	 48.19	 47.17	 46.71	 44.60	 43.32	 43.55	 56.36	 57.15	 55.16	 54.25	 53.25	 51.74	 52.78	 53.12	 53.96	 53.47	 53.99	 54.72	 53.08	 53.51	 54.45	 60.84	 60.65	 57.75	 57.69	 68.98	 70.33	 69.79	 70.56	 73.35	 74.59	 72.67	 73.37	 71.99	 71.70	 71.33	 70.62	 78.07	 79.58	 78.17	 76.25	 79.12	 66.41	 70.03	 64.41	 65.24	 67.03	 65.17	 64.49	 70.10	 70.73	 69.34	 72.48	 78.13	 82.91	 84.79	 89.87	103.04	105.87	 96.62	106.75	 95.52	 88.70	 82.91	 77.84	 94.50	102.16	105.69	103.85	  0.00
MSH6 - ENSG00000116062	87.00	TRUE	 TRUE	122.05	121.32	122.64	129.58	133.11	130.10	134.59	134.90	130.40	131.94	135.95	131.62	131.54	145.77	139.68	137.01	136.37	132.14	137.63	136.99	135.97	140.08	137.27	137.79	136.76	150.74	147.75	149.17	149.11	148.05	150.94	152.42	147.03	147.30	148.34	153.23	154.38	153.42	147.24	153.86	142.66	145.78	143.39	143.67	142.22	141.85	138.45	142.21	148.77	150.27	146.85	147.64	151.02	145.77	153.76	152.00	154.43	151.96	148.23	148.24	150.53	152.68	150.30	163.68	159.81	165.71	169.29	167.69	161.55	158.58	157.18	156.08	156.75	159.54	154.24	148.15	159.79	154.79	148.09	152.58	149.54	162.85	165.10	158.08	173.94	187.04	191.88	  0.00	  0.00
CDH11 - ENSG00000140937	86.00	TRUE	FALSE	112.98	113.39	113.12	109.81	109.98	105.34	109.30	108.66	102.93	104.03	 95.70	 96.04	 96.07	 96.10	 99.48	100.30	 98.52	108.40	 97.36	 97.56	 97.02	 98.84	 95.05	 96.57	 96.02	 95.84	 90.66	 91.59	 89.65	 95.76	 91.62	 89.50	 94.72	 94.44	 96.15	 93.28	 90.52	 91.19	 95.81	 93.17	101.20	104.41	 98.65	 98.19	105.03	100.00	 96.42	 94.61	 97.66	 94.52	 94.18	 95.67	 93.11	 88.85	 90.51	 95.29	 92.24	 90.15	 91.99	 83.58	 93.31	 82.87	 88.27	 82.50	 98.05	112.91	106.79	 96.80	106.26	105.45	103.46	101.55	108.35	112.99	112.64	113.08	 97.58	107.81	 97.99	106.58	111.43	123.22	120.61	122.97	110.86	114.72	  0.00	  0.00	  0.00
IRS4 - ENSG00000133124	85.00	TRUE	FALSE	  4.51	  5.58	 -2.49	  4.56	  1.67	 13.70	 -0.80	  0.26	 22.37	 21.42	 21.35	 23.85	 23.30	 19.87	 27.78	 24.75	 24.64	 19.23	 25.52	 24.05	 24.22	 26.61	 26.29	 23.62	 22.04	 17.00	 21.23	 20.08	 24.03	 29.74	 27.21	 22.92	 31.49	 31.18	 29.70	 26.90	 21.42	 20.26	 32.07	 20.96	 39.83	 40.81	 36.70	 36.56	 45.20	 43.12	 40.41	 40.62	 42.20	 46.57	 56.74	 55.29	 53.30	 56.47	 56.14	 57.14	 58.13	 62.79	 63.89	 61.09	 61.65	 63.89	 63.75	 61.39	 64.45	 49.35	 58.64	 61.35	 67.01	 82.25	 87.02	 86.86	 81.64	 91.39	 84.58	 92.79	102.73	117.78	 96.06	118.72	124.80	125.39	146.18	153.02	151.22	  0.00	  0.00	  0.00	  0.00
CSF3R - ENSG00000119535	84.00	TRUE	FALSE	 79.55	 80.16	 75.87	 84.46	 86.88	 89.58	 88.35	 87.19	 95.30	 92.64	103.68	105.26	105.16	102.00	 94.33	 97.03	 96.78	 95.01	 98.23	 95.78	 98.28	 94.77	 96.52	 97.87	 99.51	106.07	102.29	102.42	106.56	108.83	109.31	109.25	109.20	107.35	109.17	109.74	114.18	114.57	113.67	111.70	103.34	106.47	105.62	110.05	113.39	103.32	108.71	106.63	120.50	116.09	117.18	116.69	111.88	112.15	113.68	114.65	115.70	112.61	131.01	127.35	123.88	123.19	123.84	122.83	120.78	129.85	127.95	127.57	143.68	143.54	146.18	145.93	157.67	154.29	143.04	132.98	118.78	115.13	128.25	113.90	112.06	122.42	122.23	110.95	  0.00	  0.00	  0.00	  0.00	  0.00
ALK - ENSG00000171094	83.00	TRUE	 TRUE	 47.30	 47.55	 45.30	 48.03	 48.40	 45.65	 49.88	 50.45	 49.96	 46.34	 45.16	 45.55	 45.68	 46.20	 48.49	 48.74	 47.87	 46.65	 45.63	 43.38	 43.81	 46.64	 47.34	 47.14	 46.49	 46.93	 47.36	 48.34	 52.60	 58.06	 57.42	 51.75	 59.22	 58.25	 58.07	 55.49	 52.43	 51.65	 60.16	 57.91	 61.09	 64.10	 58.98	 60.78	 62.96	 62.62	 63.69	 66.60	 66.15	 64.77	 63.05	 63.66	 65.52	 67.55	 66.66	 65.69	 62.07	 62.29	 63.60	 68.80	 63.29	 66.72	 68.22	 68.80	 65.81	 65.93	 68.58	 62.68	 64.75	 65.85	 64.97	 74.74	 78.08	 87.61	 91.51	 94.29	 92.59	 95.91	 91.65	 90.60	 85.72	 84.26	 85.76	  0.00	  0.00	  0.00	  0.00	  0.00	  0.00
REL - ENSG00000162924	82.00	TRUE	FALSE	174.41	175.83	165.66	175.69	172.03	159.65	171.92	171.31	162.41	166.91	182.92	179.98	179.67	184.47	162.04	165.53	164.50	161.15	162.75	163.22	157.66	159.42	155.40	152.50	156.96	185.63	195.31	197.09	193.53	198.07	201.77	195.97	200.28	194.63	199.11	200.21	202.29	202.88	201.32	202.57	190.99	183.39	194.66	202.44	181.00	185.64	185.32	178.64	186.06	202.12	184.34	195.51	173.86	184.87	193.96	202.22	222.08	230.33	238.28	244.69	232.10	248.85	238.93	257.62	266.24	276.48	287.36	299.25	271.89	275.25	275.98	265.16	257.23	240.48	257.74	266.18	269.55	285.24	249.39	301.58	324.34	320.03	  0.00	  0.00	  0.00	  0.00	  0.00	  0.00	  0.00
PDGFRB - ENSG00000113721	81.00	TRUE	 TRUE	 62.61	 61.77	 60.21	 62.01	 60.39	 60.24	 59.10	 58.24	 62.92	 63.92	 65.03	 62.94	 62.48	 64.62	 62.37	 62.66	 62.88	 62.35	 62.62	 63.19	 61.89	 62.94	 64.57	 64.48	 64.57	 64.08	 63.51	 66.54	 70.19	 80.84	 81.47	 72.91	 80.03	 80.24	 81.34	 78.38	 76.35	 75.70	 84.02	 76.04	 87.18	 87.94	 84.16	 84.88	 86.39	 86.82	 86.85	 84.33	 79.71	 77.45	 78.01	 76.77	 77.48	 78.50	 79.69	 79.15	 85.75	 83.19	 75.30	 74.73	 80.01	 79.69	 74.57	 76.30	 79.76	 99.03	 92.14	 91.90	106.06	 95.47	 94.11	 93.01	 99.39	100.10	 96.29	 92.88	 83.76	 94.00	 88.22	101.77	 87.17	  0.00	  0.00	  0.00	  0.00	  0.00	  0.00	  0.00	  0.00
ROS1 - ENSG00000047936	80.00	TRUE	 TRUE	 43.76	 43.32	 43.24	 44.10	 44.53	 47.53	 45.26	 45.60	 47.88	 46.76	 56.06	 54.86	 55.01	 57.29	 50.86	 51.21	 51.06	 46.40	 56.98	 55.26	 54.37	 53.41	 50.99	 51.51	 50.88	 58.12	 58.37	 59.20	 59.30	 59.91	 60.58	 59.33	 58.54	 58.85	 60.07	 59.95	 59.04	 59.27	 58.31	 59.51	 58.28	 58.75	 56.77	 56.90	 57.94	 57.69	 55.92	 54.05	 53.96	 56.24	 61.56	 57.80	 61.45	 62.93	 60.83	 62.23	 59.85	 62.92	 60.14	 58.73	 60.40	 60.57	 58.07	 55.81	 56.56	 57.38	 58.91	 60.02	 55.06	 58.95	 57.28	 60.11	 56.57	 54.38	 58.07	 58.63	 68.02	 66.81	 69.29	 63.67	  0.00	  0.00	  0.00	  0.00	  0.00	  0.00	  0.00	  0.00	  0.00
PLCG1 - ENSG00000124181	79.00	TRUE	FALSE	 80.84	 81.79	 87.43	 79.81	 81.00	 82.64	 85.15	 82.51	 83.45	 81.11	 90.73	 89.62	 89.65	 91.18	 87.28	 85.18	 84.65	 82.73	 89.28	 86.82	 84.19	 85.51	 86.66	 85.84	 85.56	 92.61	 95.03	 93.32	 89.81	 94.77	 93.34	 93.77	 92.02	 93.45	 95.28	 95.31	 94.31	 92.69	 92.74	 96.30	106.86	106.23	105.32	 91.31	103.37	103.63	109.35	109.58	105.93	106.69	104.00	105.74	110.11	108.01	107.50	110.17	110.74	110.28	114.11	107.76	106.04	104.98	106.88	106.93	110.05	120.04	119.88	112.27	113.98	118.09	123.98	126.49	120.91	120.63	120.37	123.20	113.27	108.46	120.82	  0.00	  0.00	  0.00	  0.00	  0.00	  0.00	  0.00	  0.00	  0.00	  0.00
GPHN - ENSG00000171723	78.00	TRUE	FALSE	 72.28	 71.78	 58.45	 73.96	 76.63	 81.45	 77.61	 76.78	 85.18	 83.90	 88.43	 89.19	 88.86	 89.14	 89.03	 91.60	 91.80	 83.87	 92.84	 91.83	 92.92	 95.21	 92.09	 91.77	 89.81	 89.00	 90.80	 96.08	 95.28	 90.84	 91.30	 96.61	 91.26	 90.81	 91.55	 93.99	 98.49	 98.97	 94.34	 93.26	 91.83	 90.23	 90.17	 93.07	 96.87	100.64	102.77	102.65	103.11	103.60	104.56	100.56	104.23	105.76	107.49	104.60	107.70	108.44	111.02	111.71	111.94	111.72	112.14	111.28	123.81	123.22	120.13	124.66	126.87	126.29	133.19	137.71	137.61	137.34	139.57	143.04	142.60	  0.00	146.97	  0.00	  0.00	  0.00	  0.00	  0.00	  0.00	  0.00	  0.00	  0.00	  0.00
NUP214 - ENSG00000126883	77.00	TRUE	FALSE	 73.84	 74.19	 81.27	 72.19	 73.64	 71.03	 74.01	 73.70	 71.35	 72.52	 74.66	 73.23	 72.77	 75.68	 69.83	 70.18	 68.85	 72.25	 74.42	 73.01	 71.36	 69.89	 67.96	 66.34	 65.03	 77.62	 81.04	 77.70	 76.85	 79.80	 74.20	 76.44	 83.43	 82.78	 79.71	 71.60	 74.58	 75.18	 86.28	 73.65	 86.90	 88.87	 88.70	 90.30	 94.73	 96.32	 96.35	 97.44	 90.96	 97.17	 92.15	 97.33	 87.64	 89.76	 81.55	 79.57	 79.20	 80.81	 87.57	 88.44	 89.64	 91.17	 90.20	105.25	109.45	106.89	107.48	111.22	110.40	109.85	113.59	114.11	109.76	108.60	115.35	118.12	  0.00	  0.00	106.63	  0.00	  0.00	  0.00	  0.00	  0.00	  0.00	  0.00	  0.00	  0.00	  0.00
KIAA1549 - ENSG00000122778	76.00	TRUE	FALSE	 50.86	 51.04	 50.89	 50.99	 51.50	 52.45	 53.60	 54.62	 50.98	 51.76	 53.59	 54.39	 54.61	 53.53	 51.77	 51.48	 51.59	 51.71	 53.77	 53.61	 52.87	 52.37	 50.98	 51.44	 50.38	 57.29	 57.39	 57.50	 57.74	 58.72	 56.09	 57.38	 60.29	 59.94	 58.68	 55.12	 56.35	 55.46	 59.25	 56.38	 56.50	 58.08	 58.10	 57.96	 58.65	 58.12	 61.55	 60.84	 62.26	 60.14	 58.20	 59.63	 60.60	 59.63	 57.75	 59.48	 60.95	 58.66	 59.56	 61.07	 59.08	 57.21	 58.84	 54.95	 55.48	 54.73	 52.50	 52.91	 60.79	 60.74	 58.06	 58.58	 65.67	 64.87	 65.08	 64.64	  0.00	  0.00	  0.00	  0.00	  0.00	  0.00	  0.00	  0.00	  0.00	  0.00	  0.00	  0.00	  0.00
PDE4DIP - ENSG00000178104	75.00	TRUE	FALSE	 29.46	 28.85	 29.16	 28.66	 27.91	 28.50	 28.65	 29.09	 31.72	 29.97	 44.55	 44.33	 44.12	 45.52	 37.02	 35.13	 34.48	 30.15	 39.48	 38.56	 37.48	 35.81	 34.16	 35.32	 33.99	 44.73	 43.38	 44.98	 43.45	 40.79	 39.20	 42.11	 41.58	 42.18	 40.82	 37.67	 41.70	 42.11	 42.32	 39.85	 41.75	 42.25	 43.25	 40.39	 43.96	 45.63	 46.38	 46.45	 48.33	 49.32	 48.42	 48.44	 47.03	 46.51	 49.62	 51.35	 48.96	 47.28	 46.58	 46.32	 47.56	 43.79	 47.19	 49.02	 52.39	 54.14	 56.89	 51.29	 50.73	 49.45	 49.41	 52.26	 54.31	 52.98	 51.78	  0.00	  0.00	  0.00	  0.00	  0.00	  0.00	  0.00	  0.00	  0.00	  0.00	  0.00	  0.00	  0.00	  0.00
PBRM1 - ENSG00000163939	74.00	TRUE	 TRUE	111.32	110.11	 99.43	111.47	111.68	110.20	112.02	112.43	116.69	117.48	121.30	122.08	122.08	122.77	121.12	120.77	122.50	117.29	120.12	121.37	123.69	120.89	121.76	120.21	120.40	122.47	121.92	125.74	124.78	123.54	127.64	128.54	122.01	122.07	123.75	130.19	130.75	133.64	122.88	131.78	116.58	119.56	121.06	123.46	125.85	124.13	129.87	129.52	129.94	132.23	144.36	133.61	137.97	147.06	133.35	133.83	124.33	117.34	111.12	108.42	111.17	118.79	119.11	125.26	127.47	128.01	132.52	130.36	123.10	117.83	119.46	128.27	116.30	111.87	  0.00	  0.00	  0.00	  0.00	  0.00	  0.00	  0.00	  0.00	  0.00	  0.00	  0.00	  0.00	  0.00	  0.00	  0.00
MKL1 - ENSG00000196588	73.00	TRUE	FALSE	 63.62	 63.44	 63.12	 63.96	 71.08	 67.04	 70.27	 70.95	 70.04	 68.81	 84.32	 82.67	 82.39	 84.62	 72.29	 72.89	 73.78	 71.17	 76.75	 75.57	 75.72	 75.40	 74.04	 73.84	 73.70	 89.38	 86.03	 88.38	 92.85	101.20	 98.71	 91.90	102.81	102.26	100.99	 95.01	 93.43	 95.11	106.70	 93.93	105.89	105.01	108.29	103.46	107.32	105.02	102.80	101.85	 95.89	 95.06	 88.60	 89.46	 96.54	 88.54	 98.25	101.16	 99.91	101.72	 93.15	 86.07	 95.91	 86.47	 86.60	 98.14	105.81	110.49	 96.44	101.05	111.29	104.11	110.70	102.53	105.69	  0.00	  0.00	  0.00	  0.00	  0.00	  0.00	  0.00	  0.00	  0.00	  0.00	  0.00	  0.00	  0.00	  0.00	  0.00	  0.00
PAX8 - ENSG00000125618	72.00	TRUE	FALSE	 77.19	 78.32	 85.57	 75.61	 71.70	 71.33	 68.09	 69.83	 71.46	 67.50	103.03	102.35	102.08	104.09	 87.60	 84.27	 83.69	 65.62	105.34	100.34	100.49	 94.62	 86.48	 83.21	 81.21	100.38	 96.04	 95.90	 93.56	104.03	108.75	 93.08	110.65	109.00	104.78	105.20	 95.44	 90.04	111.07	104.52	124.81	131.69	119.48	115.98	124.94	130.55	133.36	132.37	129.96	137.12	147.79	148.54	151.05	152.55	147.29	149.04	145.86	148.60	160.15	157.04	151.17	165.22	160.58	157.66	147.96	134.82	144.65	150.00	135.87	130.03	134.38	126.73	  0.00	  0.00	  0.00	  0.00	  0.00	  0.00	  0.00	  0.00	  0.00	  0.00	  0.00	  0.00	  0.00	  0.00	  0.00	  0.00	  0.00
CSF1R - ENSG00000182578	71.00	TRUE	 TRUE	 69.62	 69.08	 65.54	 71.55	 67.38	 65.28	 64.75	 65.42	 72.25	 70.21	 96.84	 99.66	 99.08	 94.59	 91.20	 90.38	 88.95	 69.23	104.61	106.68	104.97	 92.76	 90.16	 86.89	 83.96	 97.83	 99.47	 94.01	102.68	 91.54	 95.68	101.74	 88.15	 87.85	 91.75	100.18	 99.01	100.81	 89.49	 96.05	 95.73	100.97	 94.73	 92.12	102.60	103.09	105.88	101.58	109.80	104.40	110.61	111.55	111.00	110.94	120.97	121.85	124.14	121.41	115.00	120.70	116.81	122.07	124.71	106.05	103.48	 89.88	 97.87	 99.64	 79.04	 73.28	 73.61	  0.00	  0.00	  0.00	  0.00	  0.00	  0.00	  0.00	  0.00	  0.00	  0.00	  0.00	  0.00	  0.00	  0.00	  0.00	  0.00	  0.00	  0.00
RSPO2 - ENSG00000147655	70.00	TRUE	FALSE	 62.17	 60.73	 51.99	 62.01	 66.82	 69.73	 69.81	 70.20	 68.92	 67.27	 76.40	 76.41	 76.29	 75.48	 66.66	 67.88	 66.63	 68.91	 71.38	 74.24	 74.27	 70.64	 65.37	 64.60	 61.87	 76.06	 72.76	 78.70	 76.92	 71.82	 73.00	 75.74	 83.00	 79.81	 71.88	 76.29	 71.54	 72.84	 81.00	 73.89	 69.68	 66.54	 73.23	 77.71	 70.05	 72.17	 75.86	 79.33	 86.04	 80.32	 78.37	 79.13	 75.76	 75.44	 82.17	 95.51	 99.46	110.27	105.75	110.48	110.58	116.08	116.16	108.38	107.27	108.25	108.46	109.72	102.11	 95.30	  0.00	  0.00	  0.00	  0.00	  0.00	  0.00	  0.00	  0.00	  0.00	  0.00	  0.00	  0.00	  0.00	  0.00	  0.00	  0.00	  0.00	  0.00	  0.00
SPEN - ENSG00000065526	69.00	TRUE	 TRUE	 31.71	 31.07	 30.32	 32.40	 32.46	 34.43	 32.74	 32.93	 37.54	 34.59	 39.78	 40.27	 40.03	 38.67	 37.90	 38.12	 37.23	 34.28	 40.20	 40.82	 39.40	 39.96	 37.23	 36.77	 36.15	 42.41	 40.58	 38.92	 40.58	 46.63	 45.55	 41.31	 47.35	 46.01	 46.60	 45.42	 43.13	 43.45	 49.55	 43.36	 47.68	 47.86	 49.98	 47.49	 46.42	 43.79	 44.03	 44.86	 47.32	 50.17	 47.55	 49.42	 46.03	 45.90	 44.95	 45.32	 45.75	 44.93	 47.99	 54.29	 45.04	 56.61	 54.16	 48.31	 54.73	 62.49	 58.35	 53.84	 66.69	  0.00	  0.00	  0.00	  0.00	  0.00	  0.00	  0.00	  0.00	  0.00	  0.00	  0.00	  0.00	  0.00	  0.00	  0.00	  0.00	  0.00	  0.00	  0.00	  0.00
GNAS - ENSG00000087460	68.00	TRUE	 TRUE	 51.11	 51.18	 55.30	 53.81	 51.96	 56.43	 53.16	 54.38	 51.78	 55.55	 58.77	 57.73	 57.54	 58.13	 56.22	 56.66	 55.45	 55.32	 55.94	 57.34	 56.86	 54.38	 53.47	 52.10	 53.18	 60.13	 59.12	 58.17	 52.72	 49.83	 49.20	 50.09	 48.15	 47.66	 49.60	 50.04	 48.87	 50.83	 50.26	 49.20	 53.59	 55.45	 55.24	 51.93	 53.87	 57.19	 60.92	 59.11	 58.33	 57.72	 65.65	 60.23	 69.27	 67.64	 65.88	 66.69	 61.73	 57.83	 68.83	 75.03	 63.60	 83.70	 80.40	 84.67	 82.90	 73.61	 76.45	 77.98	  0.00	  0.00	  0.00	  0.00	  0.00	  0.00	  0.00	  0.00	  0.00	  0.00	  0.00	  0.00	  0.00	  0.00	  0.00	  0.00	  0.00	  0.00	  0.00	  0.00	  0.00
TPM3 - ENSG00000143549	67.00	TRUE	FALSE	 67.24	 69.46	 65.02	 65.14	 68.61	 67.74	 72.46	 73.43	 73.91	 69.72	110.62	111.24	111.72	114.66	 96.40	 94.31	 95.22	 69.77	100.44	 94.29	 97.01	100.73	 97.20	 93.81	 95.02	109.37	117.71	121.08	129.07	136.55	140.84	133.15	147.43	138.79	136.99	140.57	136.46	138.00	146.93	138.69	148.88	159.31	150.23	149.00	168.81	165.67	161.64	156.66	153.60	160.00	173.09	157.38	170.94	177.64	170.28	184.84	175.78	175.33	197.81	191.06	171.75	207.85	209.91	228.65	221.83	  0.00	201.08	211.30	  0.00	  0.00	  0.00	  0.00	  0.00	  0.00	  0.00	  0.00	  0.00	  0.00	  0.00	  0.00	  0.00	  0.00	  0.00	  0.00	  0.00	  0.00	  0.00	  0.00	  0.00
PTPRD - ENSG00000153707	66.00	TRUE	FALSE	 26.92	 27.39	 26.33	 26.97	 27.11	 26.69	 27.81	 27.80	 28.81	 28.23	 35.75	 35.60	 35.57	 35.28	 34.98	 34.42	 34.81	 27.79	 35.72	 35.49	 35.62	 34.83	 34.44	 33.50	 33.28	 34.31	 33.89	 34.52	 34.43	 33.94	 34.50	 34.33	 36.19	 36.33	 33.95	 33.82	 34.77	 34.16	 36.09	 34.43	 34.57	 35.18	 34.66	 36.15	 36.94	 35.95	 36.63	 34.83	 35.17	 35.78	 37.94	 37.86	 37.95	 37.50	 37.02	 38.84	 37.04	 38.77	 41.47	 39.22	 41.32	 36.03	 37.46	 28.60	 28.91	  0.00	  0.00	 26.84	  0.00	  0.00	  0.00	  0.00	  0.00	  0.00	  0.00	  0.00	  0.00	  0.00	  0.00	  0.00	  0.00	  0.00	  0.00	  0.00	  0.00	  0.00	  0.00	  0.00	  0.00
ABI1 - ENSG00000136754	65.00	TRUE	FALSE	144.07	145.04	140.74	145.65	140.67	145.30	143.88	142.92	157.58	159.12	133.04	136.37	136.75	135.97	142.81	143.74	144.22	156.45	136.70	136.99	138.40	143.85	143.62	147.03	149.92	136.45	137.15	136.18	148.55	144.13	146.62	154.17	143.44	144.37	144.69	149.75	150.92	151.43	146.89	148.73	145.80	152.34	143.97	144.12	141.14	136.63	136.21	136.95	138.08	143.74	146.78	139.37	145.45	143.29	146.76	146.80	148.70	154.07	140.80	145.33	139.65	190.27	148.38	176.74	168.47	  0.00	  0.00	  0.00	  0.00	  0.00	  0.00	  0.00	  0.00	  0.00	  0.00	  0.00	  0.00	  0.00	  0.00	  0.00	  0.00	  0.00	  0.00	  0.00	  0.00	  0.00	  0.00	  0.00	  0.00
MYH9 - ENSG00000100345	64.00	TRUE	FALSE	 40.93	 39.86	 39.54	 42.91	 45.02	 45.10	 45.49	 46.25	 43.29	 42.50	 44.08	 43.91	 43.92	 43.02	 46.50	 44.21	 43.50	 40.03	 43.87	 43.88	 44.18	 45.95	 43.88	 43.53	 44.01	 43.85	 50.34	 47.81	 47.34	 52.74	 44.78	 44.82	 51.44	 52.60	 52.83	 44.73	 46.24	 45.64	 53.59	 43.18	 52.22	 53.78	 48.74	 48.81	 55.95	 61.55	 64.81	 67.77	 69.62	 69.14	 74.70	 74.27	 76.50	 76.16	 70.55	 72.10	 70.72	 69.30	 64.49	 67.73	 65.34	 62.14	 63.38	 58.63	  0.00	  0.00	  0.00	  0.00	  0.00	  0.00	  0.00	  0.00	  0.00	  0.00	  0.00	  0.00	  0.00	  0.00	  0.00	  0.00	  0.00	  0.00	  0.00	  0.00	  0.00	  0.00	  0.00	  0.00	  0.00
TCF3 - ENSG00000071564	63.00	TRUE	FALSE	 43.57	 42.69	 51.28	 45.25	 49.43	 50.98	 48.07	 49.24	 61.30	 46.56	 71.20	 69.58	 69.85	 71.07	 59.29	 61.43	 63.39	 45.87	 60.61	 60.13	 60.69	 60.20	 65.02	 63.14	 62.37	 68.17	 66.93	 66.98	 62.53	 66.60	 66.93	 60.91	 62.25	 60.35	 66.48	 58.66	 60.56	 62.58	 58.79	 60.89	 64.93	 67.10	 65.34	 63.22	 65.26	 61.44	 66.86	 68.66	 63.17	 68.35	 91.77	 78.41	 97.58	 92.55	 95.63	100.10	102.08	105.83	126.46	130.26	123.22	137.42	131.23	  0.00	  0.00	  0.00	  0.00	  0.00	  0.00	  0.00	  0.00	  0.00	  0.00	  0.00	  0.00	  0.00	  0.00	  0.00	  0.00	  0.00	  0.00	  0.00	  0.00	  0.00	  0.00	  0.00	  0.00	  0.00	  0.00
ARHGEF10L - ENSG00000074964	62.00	TRUE	FALSE	 57.06	 56.73	 53.45	 57.71	 63.02	 66.58	 66.14	 64.63	 71.69	 68.00	 69.68	 66.80	 66.51	 68.61	 70.49	 67.62	 66.75	 69.97	 65.64	 63.31	 61.81	 64.78	 70.22	 69.28	 66.57	 67.49	 64.27	 66.31	 65.95	 70.37	 73.62	 67.40	 72.68	 70.99	 72.20	 70.30	 68.29	 68.62	 71.28	 71.45	 66.76	 66.71	 66.41	 68.88	 72.27	 67.90	 65.88	 69.67	 65.35	 66.73	 72.80	 64.38	 72.61	 74.62	 75.65	 70.57	 69.95	 66.99	 57.64	 53.81	 62.80	  0.00	 48.55	  0.00	  0.00	  0.00	  0.00	  0.00	  0.00	  0.00	  0.00	  0.00	  0.00	  0.00	  0.00	  0.00	  0.00	  0.00	  0.00	  0.00	  0.00	  0.00	  0.00	  0.00	  0.00	  0.00	  0.00	  0.00	  0.00
RAP1GDS1 - ENSG00000138698	61.00	TRUE	FALSE	 72.68	 73.61	 82.94	 69.29	 69.17	 72.28	 71.50	 70.01	 79.60	 74.96	102.36	101.85	101.69	 99.13	 92.69	 88.92	 90.60	 73.97	101.33	102.56	105.66	102.58	 89.50	 82.69	 82.71	 96.18	 92.45	 87.07	 88.79	114.24	109.28	 87.97	117.26	113.90	114.26	108.06	100.89	 88.09	117.32	109.71	118.42	121.81	115.50	117.34	120.82	130.63	134.70	134.09	125.45	130.97	133.12	135.70	142.71	144.93	139.47	138.52	146.00	142.00	138.18	132.59	141.55	  0.00	  0.00	  0.00	  0.00	  0.00	  0.00	  0.00	  0.00	  0.00	  0.00	  0.00	  0.00	  0.00	  0.00	  0.00	  0.00	  0.00	  0.00	  0.00	  0.00	  0.00	  0.00	  0.00	  0.00	  0.00	  0.00	  0.00	  0.00
COL2A1 - ENSG00000139219	60.00	TRUE	FALSE	 34.61	 35.86	 36.11	 33.69	 34.60	 35.03	 34.91	 34.39	 39.20	 38.52	 38.01	 37.29	 37.12	 37.31	 38.38	 38.67	 38.44	 39.17	 43.10	 42.86	 42.29	 39.74	 39.64	 39.77	 40.12	 37.27	 37.00	 38.01	 42.33	 39.83	 37.86	 42.48	 40.67	 42.28	 39.93	 38.89	 42.61	 41.19	 45.00	 38.35	 44.22	 43.57	 44.31	 45.55	 41.81	 38.34	 40.69	 38.44	 40.29	 40.34	 39.94	 37.28	 40.76	 37.88	 41.13	 40.33	 37.66	 41.81	 46.44	  0.00	 45.24	  0.00	  0.00	  0.00	  0.00	  0.00	  0.00	  0.00	  0.00	  0.00	  0.00	  0.00	  0.00	  0.00	  0.00	  0.00	  0.00	  0.00	  0.00	  0.00	  0.00	  0.00	  0.00	  0.00	  0.00	  0.00	  0.00	  0.00	  0.00
ZBTB16 - ENSG00000109906	59.00	TRUE	FALSE	 42.37	 41.16	 41.17	 43.52	 43.55	 37.58	 38.83	 38.44	 38.66	 37.28	 58.66	 58.72	 58.17	 59.23	 46.21	 41.80	 41.18	 38.27	 57.43	 56.69	 54.90	 51.59	 41.22	 39.28	 39.49	 62.93	 61.70	 62.43	 65.71	 70.13	 70.40	 64.94	 71.20	 71.17	 70.48	 69.30	 66.75	 66.29	 69.76	 67.59	 60.81	 60.59	 61.02	 66.82	 66.49	 67.16	 68.50	 73.65	 74.16	 78.32	 77.78	 81.58	 73.68	 74.62	 73.50	 63.53	 65.80	 62.66	  0.00	  0.00	 56.74	  0.00	  0.00	  0.00	  0.00	  0.00	  0.00	  0.00	  0.00	  0.00	  0.00	  0.00	  0.00	  0.00	  0.00	  0.00	  0.00	  0.00	  0.00	  0.00	  0.00	  0.00	  0.00	  0.00	  0.00	  0.00	  0.00	  0.00	  0.00
ANK1 - ENSG00000029534	58.00	TRUE	FALSE	 15.21	 15.52	 14.30	 16.40	 15.28	 13.82	 15.21	 15.60	 14.93	 13.90	 21.48	 22.19	 22.54	 20.95	 15.53	 16.04	 16.33	 13.42	 17.25	 16.30	 16.02	 14.75	 15.55	 14.58	 16.33	 22.61	 19.88	 21.13	 20.73	 27.46	 28.43	 21.61	 27.36	 27.04	 27.34	 26.20	 24.54	 22.04	 26.57	 26.12	 30.61	 31.80	 27.16	 28.60	 33.17	 36.21	 37.24	 37.73	 39.69	 35.59	 34.99	 35.07	 38.42	 34.24	 39.92	 38.84	 35.88	 38.03	  0.00	  0.00	  0.00	  0.00	  0.00	  0.00	  0.00	  0.00	  0.00	  0.00	  0.00	  0.00	  0.00	  0.00	  0.00	  0.00	  0.00	  0.00	  0.00	  0.00	  0.00	  0.00	  0.00	  0.00	  0.00	  0.00	  0.00	  0.00	  0.00	  0.00	  0.00
TP63 - ENSG00000073282	57.00	TRUE	FALSE	 19.80	 20.37	 21.79	 19.74	 21.05	 23.23	 21.30	 20.50	 26.83	 27.38	 34.00	 33.82	 33.79	 33.65	 30.49	 30.06	 30.34	 27.54	 33.37	 33.20	 32.39	 32.53	 29.72	 30.80	 27.43	 32.39	 32.58	 34.05	 35.32	 36.70	 37.93	 36.34	 39.67	 39.50	 36.74	 35.17	 36.65	 36.62	 40.36	 36.34	 39.44	 39.04	 40.04	 40.58	 39.56	 40.22	 40.61	 41.25	 38.66	 36.72	 34.77	 34.81	 33.79	 34.04	 34.50	 32.02	 28.54	  0.00	  0.00	  0.00	  0.00	  0.00	  0.00	  0.00	  0.00	  0.00	  0.00	  0.00	  0.00	  0.00	  0.00	  0.00	  0.00	  0.00	  0.00	  0.00	  0.00	  0.00	  0.00	  0.00	  0.00	  0.00	  0.00	  0.00	  0.00	  0.00	  0.00	  0.00	  0.00
SEPT9 - ENSG00000184640	56.00	TRUE	FALSE	120.65	121.38	124.72	120.77	119.40	117.01	119.01	119.30	102.88	105.27	105.40	104.27	104.61	107.71	100.34	100.09	 99.62	109.09	104.70	104.67	103.74	 96.69	100.08	102.05	105.21	103.23	 98.94	106.34	105.15	116.23	114.31	109.26	117.28	118.92	115.97	110.02	110.30	111.37	119.69	112.64	116.79	115.90	119.09	120.60	116.88	135.89	130.50	127.29	116.91	114.17	126.11	115.00	138.70	131.26	135.19	136.61	  0.00	  0.00	  0.00	  0.00	  0.00	  0.00	  0.00	  0.00	  0.00	  0.00	  0.00	  0.00	  0.00	  0.00	  0.00	  0.00	  0.00	  0.00	  0.00	  0.00	  0.00	  0.00	  0.00	  0.00	  0.00	  0.00	  0.00	  0.00	  0.00	  0.00	  0.00	  0.00	  0.00
CHD2 - ENSG00000173575	55.00	TRUE	 TRUE	 28.90	 28.75	 26.06	 30.28	 29.89	 29.29	 29.03	 29.95	 32.30	 32.88	 35.06	 35.54	 35.21	 35.77	 33.11	 34.01	 33.92	 31.11	 36.65	 33.33	 32.33	 34.55	 36.14	 34.46	 35.40	 36.53	 35.70	 37.40	 37.02	 44.59	 48.16	 39.23	 45.07	 43.40	 44.38	 50.01	 41.80	 40.89	 46.07	 46.79	 44.55	 45.35	 42.89	 46.23	 43.51	 48.77	 51.41	 56.16	 57.46	 59.66	 55.64	 55.44	 55.94	 53.63	 55.54	  0.00	  0.00	  0.00	  0.00	  0.00	  0.00	  0.00	  0.00	  0.00	  0.00	  0.00	  0.00	  0.00	  0.00	  0.00	  0.00	  0.00	  0.00	  0.00	  0.00	  0.00	  0.00	  0.00	  0.00	  0.00	  0.00	  0.00	  0.00	  0.00	  0.00	  0.00	  0.00	  0.00	  0.00
TSHR - ENSG00000165409	54.00	TRUE	 TRUE	 46.02	 46.75	 52.63	 45.95	 46.94	 48.58	 46.85	 47.24	 50.49	 52.94	 61.80	 63.44	 63.49	 60.59	 63.94	 62.53	 61.31	 52.22	 70.81	 72.92	 74.03	 64.42	 61.39	 59.93	 61.86	 61.60	 59.58	 58.35	 62.84	 67.47	 68.35	 65.15	 70.65	 67.79	 67.90	 66.73	 67.27	 64.81	 70.38	 67.70	 80.84	 82.95	 77.59	 72.35	 80.57	 79.78	 76.63	 71.59	 70.43	 75.71	 76.93	 78.60	 70.20	 72.19	  0.00	  0.00	  0.00	  0.00	  0.00	  0.00	  0.00	  0.00	  0.00	  0.00	  0.00	  0.00	  0.00	  0.00	  0.00	  0.00	  0.00	  0.00	  0.00	  0.00	  0.00	  0.00	  0.00	  0.00	  0.00	  0.00	  0.00	  0.00	  0.00	  0.00	  0.00	  0.00	  0.00	  0.00	  0.00
AFDN - ENSG00000130396	53.00	TRUE	FALSE	 47.17	 46.67	 45.65	 44.28	 44.55	 46.18	 43.75	 43.14	 42.53	 43.67	 43.53	 45.27	 45.26	 43.89	 41.92	 40.75	 39.26	 43.64	 45.45	 45.76	 45.73	 45.49	 39.95	 39.55	 37.69	 44.98	 42.74	 40.45	 44.47	 45.50	 42.68	 43.75	 48.04	 46.05	 45.03	 45.60	 43.07	 43.00	 45.26	 42.89	 49.44	 46.47	 49.18	 48.34	 46.94	 49.02	 51.49	 56.24	 55.67	 53.24	 50.40	 54.84	  0.00	 50.74	  0.00	  0.00	  0.00	  0.00	  0.00	  0.00	  0.00	  0.00	  0.00	  0.00	  0.00	  0.00	  0.00	  0.00	  0.00	  0.00	  0.00	  0.00	  0.00	  0.00	  0.00	  0.00	  0.00	  0.00	  0.00	  0.00	  0.00	  0.00	  0.00	  0.00	  0.00	  0.00	  0.00	  0.00	  0.00
ZNF479 - ENSG00000185177	52.00	TRUE	FALSE	 41.11	 40.99	 35.04	 42.85	 42.63	 41.97	 44.05	 44.04	 44.94	 43.56	 50.40	 49.99	 50.16	 51.26	 51.18	 51.16	 47.23	 42.84	 52.74	 52.31	 52.01	 53.00	 47.25	 48.13	 49.28	 53.91	 55.77	 57.77	 59.00	 55.01	 56.36	 57.78	 53.90	 54.63	 55.23	 57.04	 55.13	 56.00	 52.65	 55.03	 45.09	 45.89	 47.43	 49.98	 47.90	 46.95	 47.81	 45.86	 48.00	 46.22	 45.88	 43.96	  0.00	  0.00	  0.00	  0.00	  0.00	  0.00	  0.00	  0.00	  0.00	  0.00	  0.00	  0.00	  0.00	  0.00	  0.00	  0.00	  0.00	  0.00	  0.00	  0.00	  0.00	  0.00	  0.00	  0.00	  0.00	  0.00	  0.00	  0.00	  0.00	  0.00	  0.00	  0.00	  0.00	  0.00	  0.00	  0.00	  0.00
SALL4 - ENSG00000101115	51.00	TRUE	FALSE	 10.39	 10.58	 12.43	 12.14	 13.57	 18.28	 15.71	 15.86	 16.79	 15.96	 28.49	 28.96	 29.06	 27.58	 27.17	 27.58	 25.90	 14.74	 29.46	 29.78	 28.57	 27.81	 25.60	 25.58	 25.73	 27.29	 25.06	 24.21	 26.71	 29.66	 30.17	 26.98	 32.32	 32.42	 29.80	 31.28	 27.21	 25.79	 32.36	 29.53	 37.79	 35.79	 35.83	 34.51	 36.87	 36.94	 34.67	 38.40	 41.59	 42.29	  0.00	 43.16	  0.00	  0.00	  0.00	  0.00	  0.00	  0.00	  0.00	  0.00	  0.00	  0.00	  0.00	  0.00	  0.00	  0.00	  0.00	  0.00	  0.00	  0.00	  0.00	  0.00	  0.00	  0.00	  0.00	  0.00	  0.00	  0.00	  0.00	  0.00	  0.00	  0.00	  0.00	  0.00	  0.00	  0.00	  0.00	  0.00	  0.00
BCORL1 - ENSG00000085185	50.00	TRUE	 TRUE	 54.94	 55.71	 53.90	 53.36	 54.01	 51.61	 53.94	 53.72	 54.97	 51.13	 54.28	 54.66	 55.24	 53.87	 61.50	 62.17	 62.38	 50.55	 57.17	 58.50	 59.80	 60.15	 62.63	 61.45	 62.46	 55.07	 58.39	 58.47	 59.19	 54.56	 52.36	 57.94	 55.81	 56.28	 54.12	 55.96	 56.63	 55.16	 53.22	 54.58	 57.32	 58.06	 56.03	 53.51	 57.07	 54.67	 53.60	 51.64	 51.97	 45.58	  0.00	  0.00	  0.00	  0.00	  0.00	  0.00	  0.00	  0.00	  0.00	  0.00	  0.00	  0.00	  0.00	  0.00	  0.00	  0.00	  0.00	  0.00	  0.00	  0.00	  0.00	  0.00	  0.00	  0.00	  0.00	  0.00	  0.00	  0.00	  0.00	  0.00	  0.00	  0.00	  0.00	  0.00	  0.00	  0.00	  0.00	  0.00	  0.00
CTNND1 - ENSG00000198561	49.00	TRUE	FALSE	 91.97	 88.42	 79.59	 95.02	 93.04	 86.32	 92.20	 90.69	 95.47	 89.01	 82.80	 87.89	 87.81	 90.28	 98.39	 99.76	 99.55	 88.19	 90.99	 90.38	 92.23	 94.74	 96.08	 99.06	101.60	 91.31	 91.42	 95.58	 92.31	103.31	107.61	 96.65	102.90	100.95	103.34	 98.85	 97.10	 94.58	103.16	 99.55	110.80	105.69	108.78	 99.99	106.45	 98.43	 95.58	 88.15	 93.18	  0.00	  0.00	  0.00	  0.00	  0.00	  0.00	  0.00	  0.00	  0.00	  0.00	  0.00	  0.00	  0.00	  0.00	  0.00	  0.00	  0.00	  0.00	  0.00	  0.00	  0.00	  0.00	  0.00	  0.00	  0.00	  0.00	  0.00	  0.00	  0.00	  0.00	  0.00	  0.00	  0.00	  0.00	  0.00	  0.00	  0.00	  0.00	  0.00	  0.00
ABL2 - ENSG00000143322	48.00	TRUE	 TRUE	 52.32	 52.15	 53.74	 50.06	 46.96	 46.62	 45.72	 44.48	 48.56	 46.61	 48.32	 46.27	 46.33	 50.88	 47.47	 43.81	 45.44	 43.88	 47.73	 49.24	 50.68	 47.92	 49.83	 49.26	 48.03	 49.93	 52.53	 53.37	 55.88	 62.96	 57.11	 56.61	 60.01	 60.04	 62.84	 54.27	 56.37	 58.07	 59.77	 51.07	 72.07	 74.66	 63.98	 58.23	 70.76	 72.25	 70.40	 69.27	  0.00	  0.00	  0.00	  0.00	  0.00	  0.00	  0.00	  0.00	  0.00	  0.00	  0.00	  0.00	  0.00	  0.00	  0.00	  0.00	  0.00	  0.00	  0.00	  0.00	  0.00	  0.00	  0.00	  0.00	  0.00	  0.00	  0.00	  0.00	  0.00	  0.00	  0.00	  0.00	  0.00	  0.00	  0.00	  0.00	  0.00	  0.00	  0.00	  0.00	  0.00
ZNF384 - ENSG00000126746	47.00	TRUE	FALSE	 99.25	101.67	 84.18	 92.96	 91.49	 86.81	 89.76	 90.25	 84.44	 81.24	 89.44	 87.51	 87.14	 93.72	 98.35	 98.23	 94.69	 85.59	 93.65	 89.91	 91.83	 88.03	 91.18	 86.16	 77.09	 96.86	 96.28	 96.61	 99.63	105.24	100.47	 94.79	105.37	104.88	106.27	 96.62	 98.06	 95.94	103.62	 96.77	102.04	 99.30	106.80	108.35	 99.01	 88.80	 84.67	  0.00	  0.00	  0.00	  0.00	  0.00	  0.00	  0.00	  0.00	  0.00	  0.00	  0.00	  0.00	  0.00	  0.00	  0.00	  0.00	  0.00	  0.00	  0.00	  0.00	  0.00	  0.00	  0.00	  0.00	  0.00	  0.00	  0.00	  0.00	  0.00	  0.00	  0.00	  0.00	  0.00	  0.00	  0.00	  0.00	  0.00	  0.00	  0.00	  0.00	  0.00	  0.00
CREBBP - ENSG00000005339	46.00	TRUE	 TRUE	 44.34	 43.28	 40.38	 45.93	 44.22	 41.77	 45.74	 47.31	 39.85	 38.87	 32.50	 33.41	 33.59	 32.38	 31.87	 33.13	 34.11	 38.96	 35.13	 33.37	 33.62	 31.13	 34.78	 35.89	 35.90	 35.98	 39.14	 38.17	 37.98	 45.18	 42.05	 40.48	 42.78	 43.56	 45.55	 39.97	 42.76	 41.20	 40.93	 40.38	 44.10	 43.33	 45.48	 40.72	 41.21	 37.27	  0.00	  0.00	  0.00	  0.00	  0.00	  0.00	  0.00	  0.00	  0.00	  0.00	  0.00	  0.00	  0.00	  0.00	  0.00	  0.00	  0.00	  0.00	  0.00	  0.00	  0.00	  0.00	  0.00	  0.00	  0.00	  0.00	  0.00	  0.00	  0.00	  0.00	  0.00	  0.00	  0.00	  0.00	  0.00	  0.00	  0.00	  0.00	  0.00	  0.00	  0.00	  0.00	  0.00
RGPD3 - ENSG00000153165	45.00	TRUE	FALSE	 33.27	 33.69	 32.31	 33.03	 31.19	 30.16	 31.53	 30.64	 33.73	 33.04	 33.68	 34.79	 34.96	 33.02	 35.20	 33.88	 34.25	 32.97	 36.64	 35.91	 36.22	 33.64	 33.30	 32.65	 32.94	 30.05	 30.57	 31.96	 31.63	 32.67	 31.57	 32.52	 33.80	 33.59	 32.74	 30.39	 30.50	 31.65	 35.94	 29.50	 40.53	 40.88	 37.51	 36.18	 40.19	  0.00	  0.00	  0.00	  0.00	  0.00	  0.00	  0.00	  0.00	  0.00	  0.00	  0.00	  0.00	  0.00	  0.00	  0.00	  0.00	  0.00	  0.00	  0.00	  0.00	  0.00	  0.00	  0.00	  0.00	  0.00	  0.00	  0.00	  0.00	  0.00	  0.00	  0.00	  0.00	  0.00	  0.00	  0.00	  0.00	  0.00	  0.00	  0.00	  0.00	  0.00	  0.00	  0.00	  0.00
ZMYM3 - ENSG00000147130	44.00	TRUE	FALSE	 57.82	 56.04	 57.88	 56.82	 53.40	 55.46	 50.53	 50.31	 54.99	 57.65	 61.35	 61.40	 60.73	 59.67	 49.58	 50.59	 51.51	 55.60	 49.99	 50.43	 50.43	 46.77	 51.09	 53.03	 49.95	 66.52	 69.05	 70.54	 70.89	 72.84	 74.40	 69.46	 77.92	 75.47	 72.65	 75.00	 74.80	 72.83	 75.55	 75.37	 66.22	 64.75	 71.89	 70.83	  0.00	  0.00	  0.00	  0.00	  0.00	  0.00	  0.00	  0.00	  0.00	  0.00	  0.00	  0.00	  0.00	  0.00	  0.00	  0.00	  0.00	  0.00	  0.00	  0.00	  0.00	  0.00	  0.00	  0.00	  0.00	  0.00	  0.00	  0.00	  0.00	  0.00	  0.00	  0.00	  0.00	  0.00	  0.00	  0.00	  0.00	  0.00	  0.00	  0.00	  0.00	  0.00	  0.00	  0.00	  0.00
EGFR - ENSG00000146648	43.00	TRUE	 TRUE	 34.86	 35.22	 40.59	 32.65	 33.58	 29.78	 32.46	 32.35	 30.97	 31.89	 25.65	 23.78	 23.92	 25.69	 24.56	 22.53	 23.30	 30.50	 22.95	 24.10	 24.28	 22.65	 23.27	 22.89	 24.29	 22.60	 21.14	 22.68	 23.98	 23.87	 26.01	 25.16	 24.43	 26.05	 23.63	 26.99	 26.32	 26.81	 25.79	 27.87	 23.39	  0.00	 23.57	 26.64	  0.00	  0.00	  0.00	  0.00	  0.00	  0.00	  0.00	  0.00	  0.00	  0.00	  0.00	  0.00	  0.00	  0.00	  0.00	  0.00	  0.00	  0.00	  0.00	  0.00	  0.00	  0.00	  0.00	  0.00	  0.00	  0.00	  0.00	  0.00	  0.00	  0.00	  0.00	  0.00	  0.00	  0.00	  0.00	  0.00	  0.00	  0.00	  0.00	  0.00	  0.00	  0.00	  0.00	  0.00	  0.00
EWSR1 - ENSG00000182944	42.00	TRUE	FALSE	 70.06	 70.86	 68.96	 71.15	 70.49	 69.86	 69.02	 67.83	 73.51	 74.38	 70.55	 66.94	 66.50	 71.59	 66.93	 68.18	 68.77	 73.28	 69.10	 65.73	 64.50	 68.79	 68.16	 67.93	 65.62	 70.15	 69.50	 70.74	 67.41	 58.51	 56.84	 67.61	 54.84	 54.47	 58.92	 60.77	 61.02	 64.42	 56.20	 64.60	  0.00	  0.00	 62.77	 59.26	  0.00	  0.00	  0.00	  0.00	  0.00	  0.00	  0.00	  0.00	  0.00	  0.00	  0.00	  0.00	  0.00	  0.00	  0.00	  0.00	  0.00	  0.00	  0.00	  0.00	  0.00	  0.00	  0.00	  0.00	  0.00	  0.00	  0.00	  0.00	  0.00	  0.00	  0.00	  0.00	  0.00	  0.00	  0.00	  0.00	  0.00	  0.00	  0.00	  0.00	  0.00	  0.00	  0.00	  0.00	  0.00
LSM14A - ENSG00000257103	41.00	TRUE	FALSE	 23.23	 21.89	  1.54	 23.64	 25.82	 30.33	 21.37	 22.20	 33.24	 33.64	 27.69	 25.50	 25.03	 26.47	 26.76	 26.15	 24.34	 35.66	 22.55	 21.83	 24.75	 30.79	 23.04	 24.23	 21.94	 22.67	 24.98	 28.34	 35.15	 53.15	 57.09	 35.39	 62.52	 58.20	 53.32	 51.11	 42.82	 40.81	 65.36	 46.59	  0.00	  0.00	  0.00	 74.96	  0.00	  0.00	  0.00	  0.00	  0.00	  0.00	  0.00	  0.00	  0.00	  0.00	  0.00	  0.00	  0.00	  0.00	  0.00	  0.00	  0.00	  0.00	  0.00	  0.00	  0.00	  0.00	  0.00	  0.00	  0.00	  0.00	  0.00	  0.00	  0.00	  0.00	  0.00	  0.00	  0.00	  0.00	  0.00	  0.00	  0.00	  0.00	  0.00	  0.00	  0.00	  0.00	  0.00	  0.00	  0.00
MYH11 - ENSG00000133392	40.00	TRUE	FALSE	 45.32	 44.77	 44.39	 44.51	 43.80	 44.62	 44.22	 44.73	 40.99	 42.25	 26.21	 25.86	 25.78	 26.47	 32.56	 32.79	 32.11	 42.63	 28.00	 28.25	 27.86	 33.33	 32.23	 32.95	 33.69	 25.20	 25.48	 26.47	 26.13	 27.76	 25.75	 25.53	 25.99	 26.19	 27.77	 25.29	 26.18	 25.69	 27.91	 23.54	  0.00	  0.00	  0.00	  0.00	  0.00	  0.00	  0.00	  0.00	  0.00	  0.00	  0.00	  0.00	  0.00	  0.00	  0.00	  0.00	  0.00	  0.00	  0.00	  0.00	  0.00	  0.00	  0.00	  0.00	  0.00	  0.00	  0.00	  0.00	  0.00	  0.00	  0.00	  0.00	  0.00	  0.00	  0.00	  0.00	  0.00	  0.00	  0.00	  0.00	  0.00	  0.00	  0.00	  0.00	  0.00	  0.00	  0.00	  0.00	  0.00
ELF3 - ENSG00000163435	39.00	TRUE	FALSE	 55.65	 55.89	 48.48	 53.39	 54.07	 83.10	 70.21	 67.32	 78.43	 82.68	 93.70	 95.22	 94.09	 97.67	 79.61	 78.31	 79.43	 80.66	 95.28	 92.27	 93.17	 82.81	 80.71	 76.84	 83.11	 94.88	 99.29	101.91	 95.86	 83.46	 90.86	 98.61	 84.32	 83.50	 83.95	 93.92	 97.17	 97.94	  0.00	 96.10	  0.00	  0.00	  0.00	  0.00	  0.00	  0.00	  0.00	  0.00	  0.00	  0.00	  0.00	  0.00	  0.00	  0.00	  0.00	  0.00	  0.00	  0.00	  0.00	  0.00	  0.00	  0.00	  0.00	  0.00	  0.00	  0.00	  0.00	  0.00	  0.00	  0.00	  0.00	  0.00	  0.00	  0.00	  0.00	  0.00	  0.00	  0.00	  0.00	  0.00	  0.00	  0.00	  0.00	  0.00	  0.00	  0.00	  0.00	  0.00	  0.00
STIL - ENSG00000123473	38.00	TRUE	FALSE	 43.33	 44.45	 44.36	 43.02	 38.29	 36.31	 37.59	 36.44	 28.26	 32.32	 20.97	 19.37	 19.84	 21.66	 23.43	 24.57	 26.09	 31.45	 20.93	 22.32	 20.92	 25.55	 26.53	 26.95	 22.72	 19.70	 24.65	 24.60	 20.86	 23.89	 23.99	 22.57	  0.00	 21.77	 23.64	 22.19	 21.07	 21.49	  0.00	 19.56	  0.00	  0.00	  0.00	  0.00	  0.00	  0.00	  0.00	  0.00	  0.00	  0.00	  0.00	  0.00	  0.00	  0.00	  0.00	  0.00	  0.00	  0.00	  0.00	  0.00	  0.00	  0.00	  0.00	  0.00	  0.00	  0.00	  0.00	  0.00	  0.00	  0.00	  0.00	  0.00	  0.00	  0.00	  0.00	  0.00	  0.00	  0.00	  0.00	  0.00	  0.00	  0.00	  0.00	  0.00	  0.00	  0.00	  0.00	  0.00	  0.00
PREX2 - ENSG00000046889	37.00	TRUE	 TRUE	 20.16	 19.48	 19.52	 20.77	 21.98	 22.37	 20.75	 20.94	 22.44	 22.15	 18.47	 18.00	 17.87	 19.12	 20.74	 20.72	 20.12	 21.57	 18.21	 18.33	 17.89	 19.26	 19.47	 19.79	 20.39	 18.58	 18.60	 17.15	 17.63	 16.01	 16.13	 17.93	  0.00	  0.00	 16.05	 16.77	 18.13	 17.75	  0.00	 16.87	  0.00	  0.00	  0.00	  0.00	  0.00	  0.00	  0.00	  0.00	  0.00	  0.00	  0.00	  0.00	  0.00	  0.00	  0.00	  0.00	  0.00	  0.00	  0.00	  0.00	  0.00	  0.00	  0.00	  0.00	  0.00	  0.00	  0.00	  0.00	  0.00	  0.00	  0.00	  0.00	  0.00	  0.00	  0.00	  0.00	  0.00	  0.00	  0.00	  0.00	  0.00	  0.00	  0.00	  0.00	  0.00	  0.00	  0.00	  0.00	  0.00
CLP1 - ENSG00000172409	36.00	TRUE	FALSE	-18.83	-16.19	-17.39	-21.03	-18.03	-12.54	-10.64	-13.42	-11.12	 -5.76	 -0.82	 -0.80	 -1.22	 -3.89	 -8.57	 -5.07	 -6.94	-10.12	 -8.29	 -3.32	 -5.65	 -2.32	 -2.72	 -2.60	-10.11	 -3.99	 -8.24	 -7.00	 -9.05	  0.00	-13.47	 -4.68	  0.00	  0.00	 -9.87	 -4.59	 -6.93	 -2.87	  0.00	 -5.99	  0.00	  0.00	  0.00	  0.00	  0.00	  0.00	  0.00	  0.00	  0.00	  0.00	  0.00	  0.00	  0.00	  0.00	  0.00	  0.00	  0.00	  0.00	  0.00	  0.00	  0.00	  0.00	  0.00	  0.00	  0.00	  0.00	  0.00	  0.00	  0.00	  0.00	  0.00	  0.00	  0.00	  0.00	  0.00	  0.00	  0.00	  0.00	  0.00	  0.00	  0.00	  0.00	  0.00	  0.00	  0.00	  0.00	  0.00	  0.00	  0.00
CNOT3 - ENSG00000088038	35.00	TRUE	FALSE	 35.94	 35.50	 35.98	 38.66	 39.26	 37.74	 40.30	 40.45	 37.97	 39.07	 61.18	 59.41	 59.02	 65.07	 60.52	 60.87	 53.65	 37.99	 65.47	 64.87	 64.85	 61.84	 54.40	 52.04	 53.80	 69.37	 66.74	 63.65	 59.51	  0.00	 71.31	 59.84	  0.00	  0.00	  0.00	 71.83	 60.30	 55.21	  0.00	 67.87	  0.00	  0.00	  0.00	  0.00	  0.00	  0.00	  0.00	  0.00	  0.00	  0.00	  0.00	  0.00	  0.00	  0.00	  0.00	  0.00	  0.00	  0.00	  0.00	  0.00	  0.00	  0.00	  0.00	  0.00	  0.00	  0.00	  0.00	  0.00	  0.00	  0.00	  0.00	  0.00	  0.00	  0.00	  0.00	  0.00	  0.00	  0.00	  0.00	  0.00	  0.00	  0.00	  0.00	  0.00	  0.00	  0.00	  0.00	  0.00	  0.00
IL2 - ENSG00000109471	34.00	TRUE	FALSE	104.18	102.69	106.92	102.68	111.08	108.52	111.10	107.64	 96.36	104.25	 99.20	 99.61	 98.84	 93.38	 97.31	 98.71	 98.79	104.64	 97.25	 95.73	 89.44	 93.50	 91.13	 84.67	 87.57	 82.71	102.96	 92.55	 90.53	  0.00	  0.00	 95.58	  0.00	  0.00	  0.00	100.37	101.24	 96.11	  0.00	 96.10	  0.00	  0.00	  0.00	  0.00	  0.00	  0.00	  0.00	  0.00	  0.00	  0.00	  0.00	  0.00	  0.00	  0.00	  0.00	  0.00	  0.00	  0.00	  0.00	  0.00	  0.00	  0.00	  0.00	  0.00	  0.00	  0.00	  0.00	  0.00	  0.00	  0.00	  0.00	  0.00	  0.00	  0.00	  0.00	  0.00	  0.00	  0.00	  0.00	  0.00	  0.00	  0.00	  0.00	  0.00	  0.00	  0.00	  0.00	  0.00	  0.00
PRDM2 - ENSG00000116731	33.00	TRUE	FALSE	 22.08	 21.65	 25.96	 22.54	 23.42	 26.32	 23.82	 24.43	 28.66	 26.63	 24.27	 23.70	 23.81	 26.11	 27.77	 25.37	 26.30	 27.48	 25.23	 25.57	 26.26	 26.00	 26.42	 26.38	 28.58	 25.33	 26.99	 27.29	 25.96	  0.00	  0.00	 28.48	  0.00	  0.00	  0.00	  0.00	 24.57	 25.52	  0.00	 28.26	  0.00	  0.00	  0.00	  0.00	  0.00	  0.00	  0.00	  0.00	  0.00	  0.00	  0.00	  0.00	  0.00	  0.00	  0.00	  0.00	  0.00	  0.00	  0.00	  0.00	  0.00	  0.00	  0.00	  0.00	  0.00	  0.00	  0.00	  0.00	  0.00	  0.00	  0.00	  0.00	  0.00	  0.00	  0.00	  0.00	  0.00	  0.00	  0.00	  0.00	  0.00	  0.00	  0.00	  0.00	  0.00	  0.00	  0.00	  0.00	  0.00
THRAP3 - ENSG00000054118	32.00	TRUE	FALSE	 48.36	 48.38	 41.76	 47.67	 50.53	 51.58	 50.11	 51.16	 49.23	 52.72	 40.20	 38.44	 38.47	 43.35	 38.45	 37.37	 39.60	 53.15	 38.82	 37.84	 39.19	 35.95	 39.34	 42.95	 42.43	 42.51	 43.81	 42.99	 46.26	  0.00	  0.00	 45.24	  0.00	  0.00	  0.00	  0.00	 42.71	 43.85	  0.00	  0.00	  0.00	  0.00	  0.00	  0.00	  0.00	  0.00	  0.00	  0.00	  0.00	  0.00	  0.00	  0.00	  0.00	  0.00	  0.00	  0.00	  0.00	  0.00	  0.00	  0.00	  0.00	  0.00	  0.00	  0.00	  0.00	  0.00	  0.00	  0.00	  0.00	  0.00	  0.00	  0.00	  0.00	  0.00	  0.00	  0.00	  0.00	  0.00	  0.00	  0.00	  0.00	  0.00	  0.00	  0.00	  0.00	  0.00	  0.00	  0.00	  0.00
ZNF331 - ENSG00000130844	31.00	TRUE	FALSE	 48.87	 47.77	 47.36	 47.82	 46.42	 46.05	 45.41	 45.52	 41.70	 44.27	 25.69	 23.86	 23.66	 27.55	 33.88	 34.17	 34.05	 44.84	 27.99	 27.34	 27.40	 32.32	 35.35	 36.44	 36.36	 25.16	 26.29	 27.25	 25.20	  0.00	  0.00	 24.01	  0.00	  0.00	  0.00	  0.00	  0.00	 26.79	  0.00	  0.00	  0.00	  0.00	  0.00	  0.00	  0.00	  0.00	  0.00	  0.00	  0.00	  0.00	  0.00	  0.00	  0.00	  0.00	  0.00	  0.00	  0.00	  0.00	  0.00	  0.00	  0.00	  0.00	  0.00	  0.00	  0.00	  0.00	  0.00	  0.00	  0.00	  0.00	  0.00	  0.00	  0.00	  0.00	  0.00	  0.00	  0.00	  0.00	  0.00	  0.00	  0.00	  0.00	  0.00	  0.00	  0.00	  0.00	  0.00	  0.00	  0.00
NIN - ENSG00000100503	30.00	TRUE	FALSE	 29.89	 29.50	 25.53	 30.59	 31.32	 28.05	 29.71	 30.30	 27.94	 29.67	 36.68	 38.26	 38.35	 35.55	 33.66	 36.08	 36.16	 29.00	 37.82	 38.23	 38.96	 33.25	 35.88	 37.34	 35.16	 39.66	 42.92	 40.37	 39.58	  0.00	  0.00	 38.53	  0.00	  0.00	  0.00	  0.00	  0.00	  0.00	  0.00	  0.00	  0.00	  0.00	  0.00	  0.00	  0.00	  0.00	  0.00	  0.00	  0.00	  0.00	  0.00	  0.00	  0.00	  0.00	  0.00	  0.00	  0.00	  0.00	  0.00	  0.00	  0.00	  0.00	  0.00	  0.00	  0.00	  0.00	  0.00	  0.00	  0.00	  0.00	  0.00	  0.00	  0.00	  0.00	  0.00	  0.00	  0.00	  0.00	  0.00	  0.00	  0.00	  0.00	  0.00	  0.00	  0.00	  0.00	  0.00	  0.00	  0.00
FANCC - ENSG00000158169	29.00	TRUE	 TRUE	 65.80	 60.30	 63.70	 67.99	 66.52	 55.31	 59.59	 59.05	 62.47	 55.24	 60.07	 63.00	 62.71	 63.69	 66.03	 67.69	 66.53	 50.79	 69.40	 64.27	 65.16	 67.94	 62.57	 65.38	 67.41	 71.84	 70.30	 69.22	 68.63	  0.00	  0.00	  0.00	  0.00	  0.00	  0.00	  0.00	  0.00	  0.00	  0.00	  0.00	  0.00	  0.00	  0.00	  0.00	  0.00	  0.00	  0.00	  0.00	  0.00	  0.00	  0.00	  0.00	  0.00	  0.00	  0.00	  0.00	  0.00	  0.00	  0.00	  0.00	  0.00	  0.00	  0.00	  0.00	  0.00	  0.00	  0.00	  0.00	  0.00	  0.00	  0.00	  0.00	  0.00	  0.00	  0.00	  0.00	  0.00	  0.00	  0.00	  0.00	  0.00	  0.00	  0.00	  0.00	  0.00	  0.00	  0.00	  0.00	  0.00
CD28 - ENSG00000178562	28.00	TRUE	FALSE	 92.43	 93.14	113.98	 95.19	 88.93	 83.00	 91.18	 92.32	 69.88	 75.75	 98.63	 99.00	 99.92	 95.06	 81.74	 86.35	 86.17	 74.93	 99.63	 98.31	 96.46	 83.00	 80.97	 88.73	 87.69	 92.34	 94.07	 90.85	  0.00	  0.00	  0.00	  0.00	  0.00	  0.00	  0.00	  0.00	  0.00	  0.00	  0.00	  0.00	  0.00	  0.00	  0.00	  0.00	  0.00	  0.00	  0.00	  0.00	  0.00	  0.00	  0.00	  0.00	  0.00	  0.00	  0.00	  0.00	  0.00	  0.00	  0.00	  0.00	  0.00	  0.00	  0.00	  0.00	  0.00	  0.00	  0.00	  0.00	  0.00	  0.00	  0.00	  0.00	  0.00	  0.00	  0.00	  0.00	  0.00	  0.00	  0.00	  0.00	  0.00	  0.00	  0.00	  0.00	  0.00	  0.00	  0.00	  0.00	  0.00
EPHA3 - ENSG00000044524	27.00	TRUE	 TRUE	 35.12	 35.49	 36.16	 34.40	 34.50	 35.02	 33.98	 33.35	 36.54	 36.78	 30.69	 30.39	 30.36	 29.74	 36.63	 34.53	 34.42	 36.98	 31.55	 32.59	 31.71	 33.59	 31.60	 32.32	 31.53	 29.88	 28.40	  0.00	  0.00	  0.00	  0.00	  0.00	  0.00	  0.00	  0.00	  0.00	  0.00	  0.00	  0.00	  0.00	  0.00	  0.00	  0.00	  0.00	  0.00	  0.00	  0.00	  0.00	  0.00	  0.00	  0.00	  0.00	  0.00	  0.00	  0.00	  0.00	  0.00	  0.00	  0.00	  0.00	  0.00	  0.00	  0.00	  0.00	  0.00	  0.00	  0.00	  0.00	  0.00	  0.00	  0.00	  0.00	  0.00	  0.00	  0.00	  0.00	  0.00	  0.00	  0.00	  0.00	  0.00	  0.00	  0.00	  0.00	  0.00	  0.00	  0.00	  0.00	  0.00
POLE - ENSG00000177084	26.00	TRUE	 TRUE	 21.29	 20.99	 16.48	 19.43	 17.00	 18.63	 17.28	 17.59	 19.84	 18.75	 29.93	 29.34	 29.25	 31.06	 31.76	 29.46	 28.65	 18.87	 30.10	 31.47	 32.48	 31.34	 30.20	 29.53	 30.96	 31.15	  0.00	  0.00	  0.00	  0.00	  0.00	  0.00	  0.00	  0.00	  0.00	  0.00	  0.00	  0.00	  0.00	  0.00	  0.00	  0.00	  0.00	  0.00	  0.00	  0.00	  0.00	  0.00	  0.00	  0.00	  0.00	  0.00	  0.00	  0.00	  0.00	  0.00	  0.00	  0.00	  0.00	  0.00	  0.00	  0.00	  0.00	  0.00	  0.00	  0.00	  0.00	  0.00	  0.00	  0.00	  0.00	  0.00	  0.00	  0.00	  0.00	  0.00	  0.00	  0.00	  0.00	  0.00	  0.00	  0.00	  0.00	  0.00	  0.00	  0.00	  0.00	  0.00	  0.00
SETD2 - ENSG00000181555	25.00	TRUE	 TRUE	 -2.39	 -2.05	 -6.42	 -1.59	  1.16	 13.53	  5.10	  3.36	 20.25	 20.25	 35.38	 32.90	 32.95	 37.31	 26.64	 22.40	 20.62	 20.29	 22.39	 23.31	 24.83	 26.33	 19.78	 17.84	 18.28	  0.00	  0.00	  0.00	  0.00	  0.00	  0.00	  0.00	  0.00	  0.00	  0.00	  0.00	  0.00	  0.00	  0.00	  0.00	  0.00	  0.00	  0.00	  0.00	  0.00	  0.00	  0.00	  0.00	  0.00	  0.00	  0.00	  0.00	  0.00	  0.00	  0.00	  0.00	  0.00	  0.00	  0.00	  0.00	  0.00	  0.00	  0.00	  0.00	  0.00	  0.00	  0.00	  0.00	  0.00	  0.00	  0.00	  0.00	  0.00	  0.00	  0.00	  0.00	  0.00	  0.00	  0.00	  0.00	  0.00	  0.00	  0.00	  0.00	  0.00	  0.00	  0.00	  0.00	  0.00
EP300 - ENSG00000100393	24.00	TRUE	 TRUE	 30.76	 32.23	 29.73	 29.60	 30.48	 32.71	 30.90	 30.64	 29.76	 31.38	 27.00	 26.50	 26.81	  0.00	 32.08	 31.27	 28.58	 31.11	 26.38	 25.28	 26.26	 26.44	 25.07	 25.27	 22.18	  0.00	  0.00	  0.00	  0.00	  0.00	  0.00	  0.00	  0.00	  0.00	  0.00	  0.00	  0.00	  0.00	  0.00	  0.00	  0.00	  0.00	  0.00	  0.00	  0.00	  0.00	  0.00	  0.00	  0.00	  0.00	  0.00	  0.00	  0.00	  0.00	  0.00	  0.00	  0.00	  0.00	  0.00	  0.00	  0.00	  0.00	  0.00	  0.00	  0.00	  0.00	  0.00	  0.00	  0.00	  0.00	  0.00	  0.00	  0.00	  0.00	  0.00	  0.00	  0.00	  0.00	  0.00	  0.00	  0.00	  0.00	  0.00	  0.00	  0.00	  0.00	  0.00	  0.00	  0.00
LPP - ENSG00000145012	23.00	TRUE	FALSE	 12.65	 12.60	 -6.00	 11.51	 14.29	 30.21	 24.65	 24.16	 24.23	 25.28	  0.00	 42.68	 42.86	  0.00	 31.26	 32.57	 34.80	 27.20	 40.53	 44.09	 42.53	 34.29	 39.32	 37.60	 42.34	  0.00	  0.00	  0.00	  0.00	  0.00	  0.00	  0.00	  0.00	  0.00	  0.00	  0.00	  0.00	  0.00	  0.00	  0.00	  0.00	  0.00	  0.00	  0.00	  0.00	  0.00	  0.00	  0.00	  0.00	  0.00	  0.00	  0.00	  0.00	  0.00	  0.00	  0.00	  0.00	  0.00	  0.00	  0.00	  0.00	  0.00	  0.00	  0.00	  0.00	  0.00	  0.00	  0.00	  0.00	  0.00	  0.00	  0.00	  0.00	  0.00	  0.00	  0.00	  0.00	  0.00	  0.00	  0.00	  0.00	  0.00	  0.00	  0.00	  0.00	  0.00	  0.00	  0.00	  0.00
CYLD - ENSG00000083799	22.00	TRUE	 TRUE	 26.62	 27.85	 25.30	 23.90	 29.29	 25.37	 37.35	 36.41	 17.65	 19.78	  0.00	  0.00	  8.12	  0.00	 24.81	 27.22	 30.77	 23.08	 13.31	 13.37	 16.50	 17.90	 31.43	 26.76	 22.40	  0.00	  0.00	  0.00	  0.00	  0.00	  0.00	  0.00	  0.00	  0.00	  0.00	  0.00	  0.00	  0.00	  0.00	  0.00	  0.00	  0.00	  0.00	  0.00	  0.00	  0.00	  0.00	  0.00	  0.00	  0.00	  0.00	  0.00	  0.00	  0.00	  0.00	  0.00	  0.00	  0.00	  0.00	  0.00	  0.00	  0.00	  0.00	  0.00	  0.00	  0.00	  0.00	  0.00	  0.00	  0.00	  0.00	  0.00	  0.00	  0.00	  0.00	  0.00	  0.00	  0.00	  0.00	  0.00	  0.00	  0.00	  0.00	  0.00	  0.00	  0.00	  0.00	  0.00	  0.00
CREB3L1 - ENSG00000157613	21.00	TRUE	FALSE	 76.88	 76.30	 84.37	 79.67	 75.43	 86.20	 79.17	 81.63	 91.02	 89.06	  0.00	  0.00	  0.00	  0.00	 75.23	 77.04	 77.78	 91.28	 71.25	 71.44	 72.42	 69.70	 78.55	 78.65	 78.17	  0.00	  0.00	  0.00	  0.00	  0.00	  0.00	  0.00	  0.00	  0.00	  0.00	  0.00	  0.00	  0.00	  0.00	  0.00	  0.00	  0.00	  0.00	  0.00	  0.00	  0.00	  0.00	  0.00	  0.00	  0.00	  0.00	  0.00	  0.00	  0.00	  0.00	  0.00	  0.00	  0.00	  0.00	  0.00	  0.00	  0.00	  0.00	  0.00	  0.00	  0.00	  0.00	  0.00	  0.00	  0.00	  0.00	  0.00	  0.00	  0.00	  0.00	  0.00	  0.00	  0.00	  0.00	  0.00	  0.00	  0.00	  0.00	  0.00	  0.00	  0.00	  0.00	  0.00	  0.00
CYP2C8 - ENSG00000138115	20.00	TRUE	FALSE	 10.80	 11.25	 15.19	 10.39	 10.88	 11.33	 11.43	 10.20	  7.49	  9.73	  0.00	  0.00	  0.00	  0.00	 10.81	 10.56	 10.59	  9.85	  0.00	 15.06	 14.56	 12.18	  9.19	  8.49	 10.19	  0.00	  0.00	  0.00	  0.00	  0.00	  0.00	  0.00	  0.00	  0.00	  0.00	  0.00	  0.00	  0.00	  0.00	  0.00	  0.00	  0.00	  0.00	  0.00	  0.00	  0.00	  0.00	  0.00	  0.00	  0.00	  0.00	  0.00	  0.00	  0.00	  0.00	  0.00	  0.00	  0.00	  0.00	  0.00	  0.00	  0.00	  0.00	  0.00	  0.00	  0.00	  0.00	  0.00	  0.00	  0.00	  0.00	  0.00	  0.00	  0.00	  0.00	  0.00	  0.00	  0.00	  0.00	  0.00	  0.00	  0.00	  0.00	  0.00	  0.00	  0.00	  0.00	  0.00	  0.00
MECOM - ENSG00000085276	19.00	TRUE	FALSE	 10.26	  9.92	  5.69	 10.04	 10.52	 13.30	 11.34	 11.61	  8.74	 10.39	  0.00	  0.00	  0.00	  0.00	  7.73	  8.15	  8.64	 11.92	  0.00	  0.00	  9.05	  9.45	  7.47	  8.54	  8.41	  0.00	  0.00	  0.00	  0.00	  0.00	  0.00	  0.00	  0.00	  0.00	  0.00	  0.00	  0.00	  0.00	  0.00	  0.00	  0.00	  0.00	  0.00	  0.00	  0.00	  0.00	  0.00	  0.00	  0.00	  0.00	  0.00	  0.00	  0.00	  0.00	  0.00	  0.00	  0.00	  0.00	  0.00	  0.00	  0.00	  0.00	  0.00	  0.00	  0.00	  0.00	  0.00	  0.00	  0.00	  0.00	  0.00	  0.00	  0.00	  0.00	  0.00	  0.00	  0.00	  0.00	  0.00	  0.00	  0.00	  0.00	  0.00	  0.00	  0.00	  0.00	  0.00	  0.00	  0.00
ZNF521 - ENSG00000198795	18.00	TRUE	FALSE	 47.36	 47.02	 41.48	 48.05	 46.15	 44.19	 43.77	 44.03	 50.09	 47.82	  0.00	  0.00	  0.00	  0.00	 56.42	 56.47	 56.85	 47.35	  0.00	  0.00	  0.00	 54.00	 60.19	 59.49	 57.03	  0.00	  0.00	  0.00	  0.00	  0.00	  0.00	  0.00	  0.00	  0.00	  0.00	  0.00	  0.00	  0.00	  0.00	  0.00	  0.00	  0.00	  0.00	  0.00	  0.00	  0.00	  0.00	  0.00	  0.00	  0.00	  0.00	  0.00	  0.00	  0.00	  0.00	  0.00	  0.00	  0.00	  0.00	  0.00	  0.00	  0.00	  0.00	  0.00	  0.00	  0.00	  0.00	  0.00	  0.00	  0.00	  0.00	  0.00	  0.00	  0.00	  0.00	  0.00	  0.00	  0.00	  0.00	  0.00	  0.00	  0.00	  0.00	  0.00	  0.00	  0.00	  0.00	  0.00	  0.00
DCC - ENSG00000187323	17.00	TRUE	FALSE	 20.50	 20.23	 23.13	 19.76	 20.84	 20.37	 20.09	 20.37	 21.21	 21.04	  0.00	  0.00	  0.00	  0.00	 17.97	 18.36	 18.59	 19.95	  0.00	  0.00	  0.00	  0.00	 17.85	 17.75	 19.00	  0.00	  0.00	  0.00	  0.00	  0.00	  0.00	  0.00	  0.00	  0.00	  0.00	  0.00	  0.00	  0.00	  0.00	  0.00	  0.00	  0.00	  0.00	  0.00	  0.00	  0.00	  0.00	  0.00	  0.00	  0.00	  0.00	  0.00	  0.00	  0.00	  0.00	  0.00	  0.00	  0.00	  0.00	  0.00	  0.00	  0.00	  0.00	  0.00	  0.00	  0.00	  0.00	  0.00	  0.00	  0.00	  0.00	  0.00	  0.00	  0.00	  0.00	  0.00	  0.00	  0.00	  0.00	  0.00	  0.00	  0.00	  0.00	  0.00	  0.00	  0.00	  0.00	  0.00	  0.00
PPFIBP1 - ENSG00000110841	16.00	TRUE	FALSE	 57.90	 59.26	 70.71	 63.51	 66.47	 67.52	 70.88	 70.47	 55.92	 59.53	  0.00	  0.00	  0.00	  0.00	  0.00	 38.96	 40.65	 57.59	  0.00	  0.00	  0.00	  0.00	 37.36	 37.93	 38.85	  0.00	  0.00	  0.00	  0.00	  0.00	  0.00	  0.00	  0.00	  0.00	  0.00	  0.00	  0.00	  0.00	  0.00	  0.00	  0.00	  0.00	  0.00	  0.00	  0.00	  0.00	  0.00	  0.00	  0.00	  0.00	  0.00	  0.00	  0.00	  0.00	  0.00	  0.00	  0.00	  0.00	  0.00	  0.00	  0.00	  0.00	  0.00	  0.00	  0.00	  0.00	  0.00	  0.00	  0.00	  0.00	  0.00	  0.00	  0.00	  0.00	  0.00	  0.00	  0.00	  0.00	  0.00	  0.00	  0.00	  0.00	  0.00	  0.00	  0.00	  0.00	  0.00	  0.00	  0.00
ZNF429 - ENSG00000197013	15.00	TRUE	FALSE	 14.81	 14.51	 20.73	 14.52	 15.11	 15.90	 16.55	 14.39	 17.70	 19.48	  0.00	  0.00	  0.00	  0.00	  0.00	  0.00	 15.54	 18.92	  0.00	  0.00	  0.00	  0.00	 15.27	 16.63	 11.07	  0.00	  0.00	  0.00	  0.00	  0.00	  0.00	  0.00	  0.00	  0.00	  0.00	  0.00	  0.00	  0.00	  0.00	  0.00	  0.00	  0.00	  0.00	  0.00	  0.00	  0.00	  0.00	  0.00	  0.00	  0.00	  0.00	  0.00	  0.00	  0.00	  0.00	  0.00	  0.00	  0.00	  0.00	  0.00	  0.00	  0.00	  0.00	  0.00	  0.00	  0.00	  0.00	  0.00	  0.00	  0.00	  0.00	  0.00	  0.00	  0.00	  0.00	  0.00	  0.00	  0.00	  0.00	  0.00	  0.00	  0.00	  0.00	  0.00	  0.00	  0.00	  0.00	  0.00	  0.00
CSMD3 - ENSG00000164796	14.00	TRUE	FALSE	  5.86	  5.87	  4.24	  6.11	  6.03	  6.44	  5.73	  5.46	  6.47	  6.14	  0.00	  0.00	  0.00	  0.00	  0.00	  0.00	  0.00	  5.20	  0.00	  0.00	  0.00	  0.00	  8.04	  8.41	  7.81	  0.00	  0.00	  0.00	  0.00	  0.00	  0.00	  0.00	  0.00	  0.00	  0.00	  0.00	  0.00	  0.00	  0.00	  0.00	  0.00	  0.00	  0.00	  0.00	  0.00	  0.00	  0.00	  0.00	  0.00	  0.00	  0.00	  0.00	  0.00	  0.00	  0.00	  0.00	  0.00	  0.00	  0.00	  0.00	  0.00	  0.00	  0.00	  0.00	  0.00	  0.00	  0.00	  0.00	  0.00	  0.00	  0.00	  0.00	  0.00	  0.00	  0.00	  0.00	  0.00	  0.00	  0.00	  0.00	  0.00	  0.00	  0.00	  0.00	  0.00	  0.00	  0.00	  0.00	  0.00
NUTM1 - ENSG00000184507	13.00	TRUE	FALSE	 17.93	 15.75	 13.23	 21.39	 24.84	 28.30	 26.85	 26.93	 23.61	 27.24	  0.00	  0.00	  0.00	  0.00	  0.00	  0.00	  0.00	 28.75	  0.00	  0.00	  0.00	  0.00	  0.00	 17.27	 16.54	  0.00	  0.00	  0.00	  0.00	  0.00	  0.00	  0.00	  0.00	  0.00	  0.00	  0.00	  0.00	  0.00	  0.00	  0.00	  0.00	  0.00	  0.00	  0.00	  0.00	  0.00	  0.00	  0.00	  0.00	  0.00	  0.00	  0.00	  0.00	  0.00	  0.00	  0.00	  0.00	  0.00	  0.00	  0.00	  0.00	  0.00	  0.00	  0.00	  0.00	  0.00	  0.00	  0.00	  0.00	  0.00	  0.00	  0.00	  0.00	  0.00	  0.00	  0.00	  0.00	  0.00	  0.00	  0.00	  0.00	  0.00	  0.00	  0.00	  0.00	  0.00	  0.00	  0.00	  0.00
ETNK1 - ENSG00000139163	12.00	TRUE	FALSE	 57.03	 55.05	 37.55	 62.03	 56.02	 51.32	 49.65	 50.86	 56.59	 52.70	  0.00	  0.00	  0.00	  0.00	  0.00	  0.00	  0.00	 50.25	  0.00	  0.00	  0.00	  0.00	  0.00	  0.00	 55.24	  0.00	  0.00	  0.00	  0.00	  0.00	  0.00	  0.00	  0.00	  0.00	  0.00	  0.00	  0.00	  0.00	  0.00	  0.00	  0.00	  0.00	  0.00	  0.00	  0.00	  0.00	  0.00	  0.00	  0.00	  0.00	  0.00	  0.00	  0.00	  0.00	  0.00	  0.00	  0.00	  0.00	  0.00	  0.00	  0.00	  0.00	  0.00	  0.00	  0.00	  0.00	  0.00	  0.00	  0.00	  0.00	  0.00	  0.00	  0.00	  0.00	  0.00	  0.00	  0.00	  0.00	  0.00	  0.00	  0.00	  0.00	  0.00	  0.00	  0.00	  0.00	  0.00	  0.00	  0.00
KMT2A - ENSG00000118058	11.00	TRUE	 TRUE	 37.93	 38.39	 44.44	 36.72	 37.26	 35.26	 36.61	 35.34	 36.93	 36.00	  0.00	  0.00	  0.00	  0.00	  0.00	  0.00	  0.00	 37.13	  0.00	  0.00	  0.00	  0.00	  0.00	  0.00	  0.00	  0.00	  0.00	  0.00	  0.00	  0.00	  0.00	  0.00	  0.00	  0.00	  0.00	  0.00	  0.00	  0.00	  0.00	  0.00	  0.00	  0.00	  0.00	  0.00	  0.00	  0.00	  0.00	  0.00	  0.00	  0.00	  0.00	  0.00	  0.00	  0.00	  0.00	  0.00	  0.00	  0.00	  0.00	  0.00	  0.00	  0.00	  0.00	  0.00	  0.00	  0.00	  0.00	  0.00	  0.00	  0.00	  0.00	  0.00	  0.00	  0.00	  0.00	  0.00	  0.00	  0.00	  0.00	  0.00	  0.00	  0.00	  0.00	  0.00	  0.00	  0.00	  0.00	  0.00	  0.00
LIFR - ENSG00000113594	11.00	TRUE	FALSE	 33.84	 34.15	 35.96	 31.64	 33.55	 35.05	 36.30	 35.44	 30.60	 29.70	  0.00	  0.00	  0.00	  0.00	  0.00	  0.00	  0.00	 30.81	  0.00	  0.00	  0.00	  0.00	  0.00	  0.00	  0.00	  0.00	  0.00	  0.00	  0.00	  0.00	  0.00	  0.00	  0.00	  0.00	  0.00	  0.00	  0.00	  0.00	  0.00	  0.00	  0.00	  0.00	  0.00	  0.00	  0.00	  0.00	  0.00	  0.00	  0.00	  0.00	  0.00	  0.00	  0.00	  0.00	  0.00	  0.00	  0.00	  0.00	  0.00	  0.00	  0.00	  0.00	  0.00	  0.00	  0.00	  0.00	  0.00	  0.00	  0.00	  0.00	  0.00	  0.00	  0.00	  0.00	  0.00	  0.00	  0.00	  0.00	  0.00	  0.00	  0.00	  0.00	  0.00	  0.00	  0.00	  0.00	  0.00	  0.00	  0.00
PAX5 - ENSG00000196092	10.00	TRUE	 TRUE	 64.26	 60.65	 59.23	 64.21	 63.18	 59.79	 58.69	 60.24	  0.00	 57.81	  0.00	  0.00	  0.00	  0.00	  0.00	  0.00	  0.00	 59.79	  0.00	  0.00	  0.00	  0.00	  0.00	  0.00	  0.00	  0.00	  0.00	  0.00	  0.00	  0.00	  0.00	  0.00	  0.00	  0.00	  0.00	  0.00	  0.00	  0.00	  0.00	  0.00	  0.00	  0.00	  0.00	  0.00	  0.00	  0.00	  0.00	  0.00	  0.00	  0.00	  0.00	  0.00	  0.00	  0.00	  0.00	  0.00	  0.00	  0.00	  0.00	  0.00	  0.00	  0.00	  0.00	  0.00	  0.00	  0.00	  0.00	  0.00	  0.00	  0.00	  0.00	  0.00	  0.00	  0.00	  0.00	  0.00	  0.00	  0.00	  0.00	  0.00	  0.00	  0.00	  0.00	  0.00	  0.00	  0.00	  0.00	  0.00	  0.00
BCR - ENSG00000186716	 9.00	TRUE	FALSE	 24.69	 24.83	 27.61	 22.95	 20.78	 19.22	 20.38	 21.46	  0.00	  0.00	  0.00	  0.00	  0.00	  0.00	  0.00	  0.00	  0.00	 24.38	  0.00	  0.00	  0.00	  0.00	  0.00	  0.00	  0.00	  0.00	  0.00	  0.00	  0.00	  0.00	  0.00	  0.00	  0.00	  0.00	  0.00	  0.00	  0.00	  0.00	  0.00	  0.00	  0.00	  0.00	  0.00	  0.00	  0.00	  0.00	  0.00	  0.00	  0.00	  0.00	  0.00	  0.00	  0.00	  0.00	  0.00	  0.00	  0.00	  0.00	  0.00	  0.00	  0.00	  0.00	  0.00	  0.00	  0.00	  0.00	  0.00	  0.00	  0.00	  0.00	  0.00	  0.00	  0.00	  0.00	  0.00	  0.00	  0.00	  0.00	  0.00	  0.00	  0.00	  0.00	  0.00	  0.00	  0.00	  0.00	  0.00	  0.00	  0.00
NSD1 - ENSG00000165671	 8.00	TRUE	 TRUE	 42.04	 42.00	 39.41	 41.18	 39.80	 44.56	 40.77	 41.92	  0.00	  0.00	  0.00	  0.00	  0.00	  0.00	  0.00	  0.00	  0.00	  0.00	  0.00	  0.00	  0.00	  0.00	  0.00	  0.00	  0.00	  0.00	  0.00	  0.00	  0.00	  0.00	  0.00	  0.00	  0.00	  0.00	  0.00	  0.00	  0.00	  0.00	  0.00	  0.00	  0.00	  0.00	  0.00	  0.00	  0.00	  0.00	  0.00	  0.00	  0.00	  0.00	  0.00	  0.00	  0.00	  0.00	  0.00	  0.00	  0.00	  0.00	  0.00	  0.00	  0.00	  0.00	  0.00	  0.00	  0.00	  0.00	  0.00	  0.00	  0.00	  0.00	  0.00	  0.00	  0.00	  0.00	  0.00	  0.00	  0.00	  0.00	  0.00	  0.00	  0.00	  0.00	  0.00	  0.00	  0.00	  0.00	  0.00	  0.00	  0.00
CBL - ENSG00000110395	 7.00	TRUE	 TRUE	 47.30	 47.98	 53.47	 47.92	 49.26	  0.00	 50.43	 50.00	  0.00	  0.00	  0.00	  0.00	  0.00	  0.00	  0.00	  0.00	  0.00	  0.00	  0.00	  0.00	  0.00	  0.00	  0.00	  0.00	  0.00	  0.00	  0.00	  0.00	  0.00	  0.00	  0.00	  0.00	  0.00	  0.00	  0.00	  0.00	  0.00	  0.00	  0.00	  0.00	  0.00	  0.00	  0.00	  0.00	  0.00	  0.00	  0.00	  0.00	  0.00	  0.00	  0.00	  0.00	  0.00	  0.00	  0.00	  0.00	  0.00	  0.00	  0.00	  0.00	  0.00	  0.00	  0.00	  0.00	  0.00	  0.00	  0.00	  0.00	  0.00	  0.00	  0.00	  0.00	  0.00	  0.00	  0.00	  0.00	  0.00	  0.00	  0.00	  0.00	  0.00	  0.00	  0.00	  0.00	  0.00	  0.00	  0.00	  0.00	  0.00
PTPN6 - ENSG00000111679	 6.00	TRUE	FALSE	 25.40	 23.62	 30.94	 23.44	 19.14	  0.00	  0.00	 19.02	  0.00	  0.00	  0.00	  0.00	  0.00	  0.00	  0.00	  0.00	  0.00	  0.00	  0.00	  0.00	  0.00	  0.00	  0.00	  0.00	  0.00	  0.00	  0.00	  0.00	  0.00	  0.00	  0.00	  0.00	  0.00	  0.00	  0.00	  0.00	  0.00	  0.00	  0.00	  0.00	  0.00	  0.00	  0.00	  0.00	  0.00	  0.00	  0.00	  0.00	  0.00	  0.00	  0.00	  0.00	  0.00	  0.00	  0.00	  0.00	  0.00	  0.00	  0.00	  0.00	  0.00	  0.00	  0.00	  0.00	  0.00	  0.00	  0.00	  0.00	  0.00	  0.00	  0.00	  0.00	  0.00	  0.00	  0.00	  0.00	  0.00	  0.00	  0.00	  0.00	  0.00	  0.00	  0.00	  0.00	  0.00	  0.00	  0.00	  0.00	  0.00
CIITA - ENSG00000179583	 5.00	TRUE	FALSE	 32.13	 30.92	 31.82	 32.49	 32.29	  0.00	  0.00	  0.00	  0.00	  0.00	  0.00	  0.00	  0.00	  0.00	  0.00	  0.00	  0.00	  0.00	  0.00	  0.00	  0.00	  0.00	  0.00	  0.00	  0.00	  0.00	  0.00	  0.00	  0.00	  0.00	  0.00	  0.00	  0.00	  0.00	  0.00	  0.00	  0.00	  0.00	  0.00	  0.00	  0.00	  0.00	  0.00	  0.00	  0.00	  0.00	  0.00	  0.00	  0.00	  0.00	  0.00	  0.00	  0.00	  0.00	  0.00	  0.00	  0.00	  0.00	  0.00	  0.00	  0.00	  0.00	  0.00	  0.00	  0.00	  0.00	  0.00	  0.00	  0.00	  0.00	  0.00	  0.00	  0.00	  0.00	  0.00	  0.00	  0.00	  0.00	  0.00	  0.00	  0.00	  0.00	  0.00	  0.00	  0.00	  0.00	  0.00	  0.00	  0.00
FGFR3 - ENSG00000068078	 5.00	TRUE	 TRUE	 -8.91	 -7.55	 -1.70	 -6.36	 -2.84	  0.00	  0.00	  0.00	  0.00	  0.00	  0.00	  0.00	  0.00	  0.00	  0.00	  0.00	  0.00	  0.00	  0.00	  0.00	  0.00	  0.00	  0.00	  0.00	  0.00	  0.00	  0.00	  0.00	  0.00	  0.00	  0.00	  0.00	  0.00	  0.00	  0.00	  0.00	  0.00	  0.00	  0.00	  0.00	  0.00	  0.00	  0.00	  0.00	  0.00	  0.00	  0.00	  0.00	  0.00	  0.00	  0.00	  0.00	  0.00	  0.00	  0.00	  0.00	  0.00	  0.00	  0.00	  0.00	  0.00	  0.00	  0.00	  0.00	  0.00	  0.00	  0.00	  0.00	  0.00	  0.00	  0.00	  0.00	  0.00	  0.00	  0.00	  0.00	  0.00	  0.00	  0.00	  0.00	  0.00	  0.00	  0.00	  0.00	  0.00	  0.00	  0.00	  0.00	  0.00
MTOR - ENSG00000198793	 4.00	TRUE	 TRUE	 34.18	 34.19	 32.84	 31.56	  0.00	  0.00	  0.00	  0.00	  0.00	  0.00	  0.00	  0.00	  0.00	  0.00	  0.00	  0.00	  0.00	  0.00	  0.00	  0.00	  0.00	  0.00	  0.00	  0.00	  0.00	  0.00	  0.00	  0.00	  0.00	  0.00	  0.00	  0.00	  0.00	  0.00	  0.00	  0.00	  0.00	  0.00	  0.00	  0.00	  0.00	  0.00	  0.00	  0.00	  0.00	  0.00	  0.00	  0.00	  0.00	  0.00	  0.00	  0.00	  0.00	  0.00	  0.00	  0.00	  0.00	  0.00	  0.00	  0.00	  0.00	  0.00	  0.00	  0.00	  0.00	  0.00	  0.00	  0.00	  0.00	  0.00	  0.00	  0.00	  0.00	  0.00	  0.00	  0.00	  0.00	  0.00	  0.00	  0.00	  0.00	  0.00	  0.00	  0.00	  0.00	  0.00	  0.00	  0.00	  0.00
KMT2D - ENSG00000167548	 3.00	TRUE	 TRUE	 16.53	 18.01	 19.02	  0.00	  0.00	  0.00	  0.00	  0.00	  0.00	  0.00	  0.00	  0.00	  0.00	  0.00	  0.00	  0.00	  0.00	  0.00	  0.00	  0.00	  0.00	  0.00	  0.00	  0.00	  0.00	  0.00	  0.00	  0.00	  0.00	  0.00	  0.00	  0.00	  0.00	  0.00	  0.00	  0.00	  0.00	  0.00	  0.00	  0.00	  0.00	  0.00	  0.00	  0.00	  0.00	  0.00	  0.00	  0.00	  0.00	  0.00	  0.00	  0.00	  0.00	  0.00	  0.00	  0.00	  0.00	  0.00	  0.00	  0.00	  0.00	  0.00	  0.00	  0.00	  0.00	  0.00	  0.00	  0.00	  0.00	  0.00	  0.00	  0.00	  0.00	  0.00	  0.00	  0.00	  0.00	  0.00	  0.00	  0.00	  0.00	  0.00	  0.00	  0.00	  0.00	  0.00	  0.00	  0.00	  0.00
IL6ST - ENSG00000134352	 2.00	TRUE	FALSE	  0.00	 21.96	 23.06	  0.00	  0.00	  0.00	  0.00	  0.00	  0.00	  0.00	  0.00	  0.00	  0.00	  0.00	  0.00	  0.00	  0.00	  0.00	  0.00	  0.00	  0.00	  0.00	  0.00	  0.00	  0.00	  0.00	  0.00	  0.00	  0.00	  0.00	  0.00	  0.00	  0.00	  0.00	  0.00	  0.00	  0.00	  0.00	  0.00	  0.00	  0.00	  0.00	  0.00	  0.00	  0.00	  0.00	  0.00	  0.00	  0.00	  0.00	  0.00	  0.00	  0.00	  0.00	  0.00	  0.00	  0.00	  0.00	  0.00	  0.00	  0.00	  0.00	  0.00	  0.00	  0.00	  0.00	  0.00	  0.00	  0.00	  0.00	  0.00	  0.00	  0.00	  0.00	  0.00	  0.00	  0.00	  0.00	  0.00	  0.00	  0.00	  0.00	  0.00	  0.00	  0.00	  0.00	  0.00	  0.00	  0.00
ARHGEF10 - ENSG00000104728	 1.00	TRUE	FALSE	  0.00	  0.00	 83.67	  0.00	  0.00	  0.00	  0.00	  0.00	  0.00	  0.00	  0.00	  0.00	  0.00	  0.00	  0.00	  0.00	  0.00	  0.00	  0.00	  0.00	  0.00	  0.00	  0.00	  0.00	  0.00	  0.00	  0.00	  0.00	  0.00	  0.00	  0.00	  0.00	  0.00	  0.00	  0.00	  0.00	  0.00	  0.00	  0.00	  0.00	  0.00	  0.00	  0.00	  0.00	  0.00	  0.00	  0.00	  0.00	  0.00	  0.00	  0.00	  0.00	  0.00	  0.00	  0.00	  0.00	  0.00	  0.00	  0.00	  0.00	  0.00	  0.00	  0.00	  0.00	  0.00	  0.00	  0.00	  0.00	  0.00	  0.00	  0.00	  0.00	  0.00	  0.00	  0.00	  0.00	  0.00	  0.00	  0.00	  0.00	  0.00	  0.00	  0.00	  0.00	  0.00	  0.00	  0.00	  0.00	  0.00
TSC1 - ENSG00000165699	 1.00	TRUE	 TRUE	  0.00	  0.00	 25.23	  0.00	  0.00	  0.00	  0.00	  0.00	  0.00	  0.00	  0.00	  0.00	  0.00	  0.00	  0.00	  0.00	  0.00	  0.00	  0.00	  0.00	  0.00	  0.00	  0.00	  0.00	  0.00	  0.00	  0.00	  0.00	  0.00	  0.00	  0.00	  0.00	  0.00	  0.00	  0.00	  0.00	  0.00	  0.00	  0.00	  0.00	  0.00	  0.00	  0.00	  0.00	  0.00	  0.00	  0.00	  0.00	  0.00	  0.00	  0.00	  0.00	  0.00	  0.00	  0.00	  0.00	  0.00	  0.00	  0.00	  0.00	  0.00	  0.00	  0.00	  0.00	  0.00	  0.00	  0.00	  0.00	  0.00	  0.00	  0.00	  0.00	  0.00	  0.00	  0.00	  0.00	  0.00	  0.00	  0.00	  0.00	  0.00	  0.00	  0.00	  0.00	  0.00	  0.00	  0.00	  0.00	  0.00
