variable	min_all	max_all	median_all	model_28	model_27	model_25	model_24	model_18	model_23	model_22	model_19	model_20	model_15	model_17	model_14	model_16	model_21	model_11	model_12	model_13
length_pb	154058	239860	193241	239860	233959	227418	225682	188168	210766	199654	193241	195857	168080	181124	160590	169163	197122	154058	155675	159353
R2	0.98	0.99	0.99	0.99	0.99	0.99	0.99	0.99	0.99	0.99	0.99	0.99	0.99	0.99	0.99	0.99	0.99	0.98	0.98	0.98
Rsquared_1000optboot	0.98	0.99	0.99	0.99	0.99	0.99	0.99	0.99	0.99	0.99	0.99	0.99	0.98	0.98	0.98	0.98	0.99	0.98	0.98	0.98
Rsquared_externaltest	0.97	0.98	0.97	0.98	0.98	0.98	0.97	0.97	0.97	0.97	0.97	0.97	0.98	0.97	0.97	0.98	0.97	0.98	0.97	0.98
RSE	133	214	163	133	137	141	143	165	146	149	163	156	178	171	182	178	153	214	200	194
RMSE_1000optboot	167	247	196	167	171	174	177	196	180	179	196	185	209	206	210	214	182	247	229	222
RMSE_externaltest	882	1063	950	882	959	997	1033	935	1038	1048	986	1004	941	944	936	938	1063	892	930	950
variables_model	13	30	21	30	29	27	26	20	25	24	21	22	17	19	16	18	23	13	14	15
negative_variables	0	1	1	1	1	1	1	1	1	1	1	1	0	1	0	0	1	0	0	0
percent_training	76.34	82.26	77.96	82.26	82.26	82.26	81.72	77.96	80.11	80.11	77.96	77.96	77.96	77.96	76.34	77.96	80.11	76.34	76.34	76.34
percent_testing	67.65	85.29	70.59	85.29	85.29	82.35	82.35	70.59	82.35	82.35	70.59	70.59	70.59	70.59	67.65	70.59	79.41	67.65	67.65	67.65


hgnc_symbol	in_models	census	panel	model_28	model_27	model_25	model_24	model_18	model_23	model_22	model_19	model_20	model_15	model_17	model_14	model_16	model_21	model_11	model_12	model_13
Intercept	17.00	  NA	   NA	  54.02	  56.59	 52.21	 51.80	 77.22	  61.95	  64.63	 81.96	  78.49	 97.90	 89.71	107.55	 98.86	  66.77	105.53	103.69	104.91
BIRC6 - ENSG00000115760	17.00	TRUE	FALSE	 118.76	 123.36	120.78	120.38	157.38	 130.90	 141.28	140.57	 144.67	160.55	162.57	174.03	158.71	 130.82	160.84	167.83	161.24
CNTNAP2 - ENSG00000174469	17.00	TRUE	FALSE	 160.30	 164.24	161.05	171.38	216.35	 175.01	 183.41	206.92	 205.66	222.70	219.72	223.21	220.57	 185.22	243.35	233.19	228.02
FAM135B - ENSG00000147724	17.00	TRUE	FALSE	 119.50	 116.56	110.24	114.40	116.46	 118.90	 116.90	121.77	 114.34	125.89	119.66	126.15	120.93	 118.12	127.25	135.84	140.22
FAT3 - ENSG00000165323	17.00	TRUE	FALSE	 128.17	 126.07	132.43	133.10	102.17	 123.28	 112.66	107.43	 112.83	112.30	109.10	111.51	117.65	 115.96	118.31	115.28	115.53
FAT4 - ENSG00000196159	17.00	TRUE	FALSE	  89.89	  92.95	 95.42	 94.63	 95.16	  95.95	  98.19	 94.86	  92.64	107.52	108.74	110.34	107.08	  93.21	110.79	105.30	106.70
KMT2A - ENSG00000118058	17.00	TRUE	 TRUE	 113.87	 115.25	 98.91	118.16	149.98	 107.90	 118.43	136.55	 131.90	139.62	133.20	159.95	138.49	 108.86	199.24	169.33	174.60
MTOR - ENSG00000198793	17.00	TRUE	 TRUE	 120.68	 146.81	139.38	148.52	148.96	 154.09	 157.57	141.62	 154.94	141.05	134.84	135.30	132.28	 160.73	148.97	118.21	150.56
MUC16 - ENSG00000181143	17.00	TRUE	FALSE	  41.99	  40.93	 41.74	 40.50	 50.14	  41.54	  42.70	 48.28	  45.38	 52.69	 52.12	 53.67	 53.86	  43.21	 56.30	 55.68	 52.99
MUC4 - ENSG00000145113	17.00	TRUE	FALSE	  52.63	  56.35	 55.07	 54.45	 62.02	  58.15	  56.73	 61.20	  57.86	 54.87	 56.86	 51.17	 50.36	  58.11	 82.34	 69.00	 55.05
PPP2R1A - ENSG00000105568	17.00	TRUE	 TRUE	 372.86	 380.50	436.38	434.78	499.70	 454.84	 490.47	497.73	 485.60	484.07	475.80	501.83	500.88	 478.85	516.33	546.65	530.67
PTPRD - ENSG00000153707	17.00	TRUE	FALSE	  80.84	  79.77	 84.43	 78.68	 63.10	  78.23	  75.70	 61.66	  67.82	 64.47	 61.09	 58.97	 66.34	  69.38	 64.70	 70.22	 56.00
TRRAP - ENSG00000196367	17.00	TRUE	FALSE	  69.94	  64.78	 61.94	 52.50	120.43	  59.00	  77.27	103.37	  87.98	118.37	133.93	127.40	118.27	  74.36	145.63	128.85	117.43
ZNF521 - ENSG00000198795	17.00	TRUE	FALSE	  95.25	 102.72	114.96	105.99	112.77	 107.35	 117.36	109.61	 104.89	120.96	106.66	132.30	119.28	 106.55	133.26	165.79	147.51
IL21R - ENSG00000103522	16.00	TRUE	FALSE	 255.44	 250.30	266.14	311.30	332.54	 325.54	 324.02	372.98	 381.17	350.31	348.48	361.44	341.45	 378.32	  0.00	334.69	359.83
CTNND2 - ENSG00000169862	15.00	TRUE	FALSE	 112.67	 116.51	110.83	112.97	 87.95	 108.41	 112.72	 96.54	 115.30	 87.49	 86.73	 90.16	 86.26	 123.85	  0.00	  0.00	110.37
RAD51B - ENSG00000182185	14.00	TRUE	FALSE	 288.44	 290.58	233.21	214.31	258.70	 222.61	 220.24	231.60	 247.90	285.44	264.61	303.50	257.68	 248.42	  0.00	  0.00	  0.00
NOTCH2 - ENSG00000134250	13.00	TRUE	 TRUE	  49.30	  44.80	 52.56	 55.38	 59.99	  52.00	  51.21	 58.40	  56.69	 58.52	 59.90	  0.00	 58.36	  51.09	  0.00	  0.00	  0.00
CCR4 - ENSG00000183813	12.00	TRUE	FALSE	-108.47	-133.89	-71.70	-78.64	-83.26	-160.81	-191.54	-96.38	-180.93	  0.00	 -2.31	  0.00	103.85	-160.24	  0.00	  0.00	  0.00
AKAP9 - ENSG00000127914	11.00	TRUE	FALSE	  72.65	  78.22	 95.71	108.03	142.79	 120.20	 134.41	148.51	 157.31	  0.00	141.70	  0.00	  0.00	 134.86	  0.00	  0.00	  0.00
ROS1 - ENSG00000047936	10.00	TRUE	 TRUE	  33.39	  37.90	 37.31	 45.76	 60.83	  52.16	  57.00	 62.67	  60.37	  0.00	  0.00	  0.00	  0.00	  57.30	  0.00	  0.00	  0.00
KDM5A - ENSG00000073614	 9.00	TRUE	 TRUE	 157.50	 141.48	132.25	145.58	  0.00	 154.62	 135.79	113.18	 126.50	  0.00	  0.00	  0.00	  0.00	 153.09	  0.00	  0.00	  0.00
PRPF40B - ENSG00000110844	 8.00	TRUE	FALSE	 134.40	 145.95	156.87	155.11	  0.00	 145.77	 152.49	  0.00	 163.17	  0.00	  0.00	  0.00	  0.00	 168.41	  0.00	  0.00	  0.00
TP53 - ENSG00000141510	 7.00	TRUE	 TRUE	  34.78	  35.79	 41.09	 41.65	  0.00	  43.14	  39.99	  0.00	   0.00	  0.00	  0.00	  0.00	  0.00	  46.44	  0.00	  0.00	  0.00
AXIN2 - ENSG00000168646	 6.00	TRUE	FALSE	  64.14	  81.15	111.46	121.50	  0.00	 127.62	 130.12	  0.00	   0.00	  0.00	  0.00	  0.00	  0.00	   0.00	  0.00	  0.00	  0.00
ZFHX3 - ENSG00000140836	 5.00	TRUE	FALSE	  59.44	  49.53	 43.25	 45.68	  0.00	  48.27	   0.00	  0.00	   0.00	  0.00	  0.00	  0.00	  0.00	   0.00	  0.00	  0.00	  0.00
KMT2C - ENSG00000055609	 4.00	TRUE	 TRUE	  32.69	  34.35	 44.41	 42.06	  0.00	   0.00	   0.00	  0.00	   0.00	  0.00	  0.00	  0.00	  0.00	   0.00	  0.00	  0.00	  0.00
ZNF384 - ENSG00000126746	 3.00	TRUE	FALSE	 117.90	 128.60	128.43	  0.00	  0.00	   0.00	   0.00	  0.00	   0.00	  0.00	  0.00	  0.00	  0.00	   0.00	  0.00	  0.00	  0.00
LIFR - ENSG00000113594	 2.00	TRUE	FALSE	 103.93	  88.68	  0.00	  0.00	  0.00	   0.00	   0.00	  0.00	   0.00	  0.00	  0.00	  0.00	  0.00	   0.00	  0.00	  0.00	  0.00
SPECC1 - ENSG00000128487	 2.00	TRUE	FALSE	  77.46	  88.42	  0.00	  0.00	  0.00	   0.00	   0.00	  0.00	   0.00	  0.00	  0.00	  0.00	  0.00	   0.00	  0.00	  0.00	  0.00
SETD1B - ENSG00000139718	 1.00	TRUE	FALSE	  86.39	   0.00	  0.00	  0.00	  0.00	   0.00	   0.00	  0.00	   0.00	  0.00	  0.00	  0.00	  0.00	   0.00	  0.00	  0.00	  0.00
