variable	min_all	max_all	median_all	model_24	model_25	model_17	model_21	model_22	model_16	model_18	model_19	model_20	model_23
length_pb	122682	175999	151731.5	168288	175999	128337	153130	157308	122682	132408	142665	150333	164274
R2	0.98	0.99	0.99	0.99	0.99	0.98	0.99	0.99	0.98	0.99	0.99	0.99	0.99
Rsquared_1000optboot	0.98	0.98	0.98	0.98	0.98	0.98	0.98	0.98	0.98	0.98	0.98	0.98	0.98
Rsquared_externaltest	0.97	0.97	0.97	0.97	0.97	0.97	0.97	0.97	0.97	0.97	0.97	0.97	0.97
RSE	199	215	202.5	199	199	210	202	201	215	206	203	203	201
RMSE_1000optboot	237	249	243.5	245	249	239	243	244	244	238	237	240	247
RMSE_externaltest	869	998	950	924	919	922	948	952	869	977	998	983	961
variables_model	22	31	26.5	30	31	23	27	28	22	24	25	26	29
negative_variables	0	0	0	0	0	0	0	0	0	0	0	0	0
percent_training	79.04	82.04	80.84	82.04	82.04	79.04	80.84	81.44	79.04	79.64	79.64	80.84	82.04
percent_testing	67.65	76.47	76.47	76.47	76.47	67.65	76.47	76.47	67.65	67.65	67.65	76.47	76.47


hgnc_symbol	in_models	census	panel	model_24	model_25	model_17	model_21	model_22	model_16	model_18	model_19	model_20	model_23
Intercept	10.00	   NA	  NA	 84.65	 84.69	 94.11	 87.71	 86.69	 86.83	 93.82	 93.72	 87.54	 88.38
ADGRA2 - ENSG00000020181	10.00	FALSE	TRUE	148.94	149.09	134.14	142.07	135.12	156.59	147.56	139.07	134.95	144.33
AKT1 - ENSG00000142208	10.00	 TRUE	TRUE	454.23	446.31	470.73	464.55	433.99	448.58	413.15	463.84	461.22	431.45
ALK - ENSG00000171094	10.00	 TRUE	TRUE	265.43	266.28	308.77	278.66	272.50	338.48	310.27	296.96	294.42	274.44
CARD11 - ENSG00000198286	10.00	 TRUE	TRUE	175.53	175.97	164.40	166.90	171.02	172.39	160.66	162.69	169.84	172.32
CD79B - ENSG00000007312	10.00	 TRUE	TRUE	355.79	360.43	439.20	403.19	404.53	479.18	381.23	410.16	386.10	421.10
CREBBP - ENSG00000005339	10.00	 TRUE	TRUE	161.12	158.94	180.53	158.19	157.56	191.33	172.25	176.98	164.67	156.07
FLCN - ENSG00000154803	10.00	 TRUE	TRUE	688.37	692.19	731.48	697.85	681.31	706.78	757.92	721.23	708.67	685.01
GATA3 - ENSG00000107485	10.00	 TRUE	TRUE	300.11	300.69	310.47	290.38	264.95	304.39	274.85	286.67	302.15	278.26
GRIN2A - ENSG00000183454	10.00	 TRUE	TRUE	103.18	102.20	122.53	119.69	113.49	119.71	116.75	114.65	118.27	113.49
IGF1R - ENSG00000140443	10.00	FALSE	TRUE	113.25	113.89	173.29	137.81	137.45	182.85	159.01	151.89	145.17	129.68
KMT2A - ENSG00000118058	10.00	 TRUE	TRUE	211.33	209.48	249.34	220.38	213.58	233.68	260.72	241.61	234.41	211.34
KMT2D - ENSG00000167548	10.00	 TRUE	TRUE	166.37	166.67	165.10	162.68	165.34	170.70	157.41	159.35	161.10	163.21
LRP1B - ENSG00000168702	10.00	 TRUE	TRUE	 85.91	 86.46	 92.80	 83.22	 83.92	 95.19	 80.84	 81.35	 80.19	 83.34
MAGI2 - ENSG00000187391	10.00	FALSE	TRUE	 77.48	 76.55	 89.16	 73.07	 73.25	 95.26	 92.93	 86.88	 80.67	 73.88
PIK3C2B - ENSG00000133056	10.00	FALSE	TRUE	109.09	109.70	127.85	109.84	115.35	132.42	105.60	109.04	111.62	110.66
PIK3CG - ENSG00000105851	10.00	FALSE	TRUE	205.71	206.67	213.21	201.98	197.11	224.22	188.72	192.78	190.72	184.63
SPEN - ENSG00000065526	10.00	 TRUE	TRUE	129.92	129.71	136.65	129.83	131.99	143.01	155.12	146.10	137.63	133.46
SPTA1 - ENSG00000163554	10.00	FALSE	TRUE	112.01	111.39	124.60	123.69	119.78	129.45	123.69	124.57	125.47	119.12
STAT3 - ENSG00000168610	10.00	 TRUE	TRUE	391.98	387.45	496.33	472.40	461.61	457.10	510.87	480.54	470.46	429.53
TET2 - ENSG00000168769	10.00	 TRUE	TRUE	 91.69	 94.75	107.00	105.91	 94.45	105.52	107.04	 98.75	 95.03	 94.88
TOP1 - ENSG00000198900	10.00	 TRUE	TRUE	245.02	241.58	224.56	235.62	237.28	185.63	224.94	230.82	239.83	239.81
TOP2A - ENSG00000131747	10.00	FALSE	TRUE	199.08	194.52	200.46	195.07	213.53	210.50	214.90	227.01	219.11	197.22
BRCA1 - ENSG00000012048	 9.00	 TRUE	TRUE	116.68	114.61	153.79	153.82	146.69	  0.00	159.48	150.86	159.23	134.31
KDR - ENSG00000128052	 8.00	 TRUE	TRUE	 50.15	 49.20	  0.00	 65.55	 62.24	  0.00	 77.11	 64.39	 65.94	 60.17
BRCA2 - ENSG00000139618	 7.00	 TRUE	TRUE	 96.36	 96.72	  0.00	 99.57	 99.96	  0.00	  0.00	103.45	105.25	102.40
NOTCH1 - ENSG00000148400	 6.00	 TRUE	TRUE	 36.58	 36.47	  0.00	 35.42	 37.46	  0.00	  0.00	  0.00	 29.90	 29.39
FGFR1 - ENSG00000077782	 5.00	 TRUE	TRUE	163.47	168.19	  0.00	129.48	127.77	  0.00	  0.00	  0.00	  0.00	137.68
FLT1 - ENSG00000102755	 4.00	FALSE	TRUE	 39.37	 39.51	  0.00	  0.00	 56.88	  0.00	  0.00	  0.00	  0.00	 58.84
NOTCH3 - ENSG00000074181	 3.00	FALSE	TRUE	 46.70	 44.89	  0.00	  0.00	  0.00	  0.00	  0.00	  0.00	  0.00	 52.01
EMSY - ENSG00000158636	 2.00	FALSE	TRUE	132.77	135.06	  0.00	  0.00	  0.00	  0.00	  0.00	  0.00	  0.00	  0.00
SETD2 - ENSG00000181555	 1.00	 TRUE	TRUE	  0.00	 13.35	  0.00	  0.00	  0.00	  0.00	  0.00	  0.00	  0.00	  0.00
