variable	min_all	max_all	median_all	model_57	model_61	model_54	model_55	model_58	model_60	model_62	model_56	model_59	model_43	model_51	model_52	model_53	model_32	model_34	model_42	model_44	model_49	model_50	model_45	model_39	model_40	model_41	model_46	model_47	model_48
length_pb	231330	429223	347211.5	398423	423817	376821	380190	408358	419059	429223	383349	415786	301460	354669	358998	368937	231330	243943	298154	307094	344176	350247	309616	283640	287255	297512	312265	326887	330208
R2	0.82	0.85	0.84	0.85	0.85	0.85	0.85	0.85	0.85	0.85	0.85	0.85	0.84	0.84	0.84	0.84	0.82	0.82	0.83	0.84	0.84	0.84	0.84	0.83	0.83	0.83	0.84	0.84	0.84
Rsquared_1000optboot	0.76	0.79	0.78	0.77	0.76	0.78	0.78	0.77	0.76	0.76	0.77	0.76	0.79	0.78	0.78	0.78	0.79	0.79	0.79	0.79	0.78	0.78	0.79	0.79	0.79	0.79	0.78	0.78	0.78
Rsquared_externaltest	0.6	0.68	0.62	0.66	0.68	0.64	0.64	0.66	0.68	0.68	0.64	0.66	0.62	0.62	0.62	0.62	0.61	0.61	0.61	0.61	0.62	0.62	0.61	0.6	0.6	0.61	0.61	0.61	0.61
RSE	16	17	17	16	16	16	16	16	16	16	16	16	17	16	16	16	17	17	17	17	17	17	17	17	17	17	17	17	17
RMSE_1000optboot	18	20	19	19	20	19	19	20	20	20	19	20	19	19	19	19	18	18	18	19	19	19	19	18	19	19	19	19	19
RMSE_externaltest	48	53	52	49	48	51	51	49	49	49	51	49	52	52	52	52	51	51	52	52	52	52	53	53	52	53	53	53	53
variables_model	34	67	52.5	61	66	58	59	62	65	67	60	64	46	54	55	56	34	36	45	47	52	53	48	42	43	44	49	50	51
negative_variables	0	5	2	3	5	2	3	3	4	5	3	3	1	2	1	2	0	0	0	1	2	2	1	0	0	0	1	1	2
percent_training	79.49	81.85	80.67	81.46	81.85	81.07	81.26	81.46	81.85	81.85	81.46	81.85	80.28	80.87	80.87	80.87	79.49	79.68	80.28	80.47	80.67	80.67	80.47	80.28	80.28	80.28	80.47	80.47	80.67
percent_testing	52.54	55.93	55.08	55.08	55.93	55.08	55.08	55.08	55.93	55.93	55.08	55.08	55.08	55.08	55.08	55.08	52.54	54.24	55.08	55.08	55.08	55.08	55.08	55.08	55.08	55.08	55.08	55.08	55.08


hgnc_symbol	in_models	census	panel	model_57	model_61	model_54	model_55	model_58	model_60	model_62	model_56	model_59	model_43	model_51	model_52	model_53	model_32	model_34	model_42	model_44	model_49	model_50	model_45	model_39	model_40	model_41	model_46	model_47	model_48
Intercept	26.00	   NA	   NA	 12.37	 12.29	 12.47	 12.48	 12.37	 12.28	 12.24	 12.43	 12.34	 13.32	 12.73	 12.71	 12.68	 13.46	 13.26	 13.38	 13.07	 12.92	 12.91	 13.06	 13.42	 13.34	 13.36	 13.06	 13.12	 13.07
ALB - ENSG00000163631	26.00	FALSE	FALSE	 33.53	 34.00	 34.77	 34.75	 33.61	 33.56	 34.43	 33.68	 33.12	 46.00	 45.99	 34.51	 34.69	 44.05	 44.11	 46.10	 46.58	 46.07	 45.75	 47.16	 46.03	 46.04	 46.50	 47.18	 46.91	 46.57
ANKRD30A - ENSG00000148513	26.00	FALSE	FALSE	 24.38	 25.21	 24.95	 25.13	 24.56	 25.00	 24.64	 25.17	 24.46	 22.31	 24.89	 24.85	 24.81	 21.41	 21.81	 21.69	 22.26	 24.08	 24.08	 21.95	 21.77	 22.06	 21.16	 21.96	 22.24	 23.21
APOB - ENSG00000084674	26.00	FALSE	FALSE	 19.27	 18.71	 19.45	 19.43	 19.46	 18.78	 18.14	 19.26	 18.64	 18.14	 18.80	 18.64	 19.10	 17.29	 17.17	 17.92	 18.66	 18.58	 18.68	 19.00	 17.80	 17.57	 17.59	 19.09	 19.21	 19.23
COL15A1 - ENSG00000204291	26.00	FALSE	FALSE	 31.56	 28.34	 32.33	 32.41	 31.70	 28.12	 27.40	 32.52	 28.75	 35.64	 33.48	 33.22	 32.93	 37.40	 37.42	 35.76	 35.53	 33.68	 33.74	 35.82	 35.98	 35.96	 34.82	 35.79	 36.34	 36.39
DMXL2 - ENSG00000104093	26.00	FALSE	FALSE	 12.89	 13.01	 13.52	 13.31	 12.57	 13.13	 13.48	 13.37	 12.68	 16.97	 16.63	 16.08	 15.77	 18.05	 18.28	 16.38	 17.24	 16.21	 16.65	 16.82	 14.55	 14.87	 15.80	 17.01	 17.26	 17.78
EGFR - ENSG00000146648	26.00	 TRUE	 TRUE	 22.86	 20.50	 23.13	 23.18	 22.39	 20.09	 20.72	 23.15	 22.19	 25.45	 23.12	 22.97	 23.01	 25.30	 25.46	 25.17	 25.72	 25.20	 25.34	 26.14	 26.52	 26.29	 25.31	 26.19	 26.25	 24.71
FAM135B - ENSG00000147724	26.00	 TRUE	FALSE	 17.71	 16.26	 16.65	 16.58	 17.29	 16.35	 15.78	 16.70	 17.49	 17.37	 15.78	 15.76	 16.19	 17.80	 17.38	 17.64	 18.55	 15.18	 14.95	 14.10	 18.06	 18.48	 16.89	 14.12	 13.54	 14.31
FAT1 - ENSG00000083857	26.00	 TRUE	 TRUE	 18.25	 19.18	 17.13	 17.14	 18.38	 19.04	 18.98	 17.33	 18.51	 16.16	 16.11	 16.90	 16.66	 20.48	 19.96	 16.23	 15.85	 15.04	 15.75	 15.55	 15.64	 16.07	 15.82	 15.36	 14.67	 15.23
FBN1 - ENSG00000166147	26.00	FALSE	FALSE	 14.93	 10.68	 18.35	 18.27	 15.27	 10.87	 11.66	 18.16	 13.19	 27.67	 21.82	 18.66	 18.87	 36.16	 33.30	 25.28	 26.23	 20.76	 21.06	 18.28	 22.84	 23.38	 25.43	 17.59	 18.31	 20.41
FRAS1 - ENSG00000138759	26.00	FALSE	FALSE	 36.43	 35.21	 39.64	 39.57	 34.97	 35.21	 35.36	 39.43	 35.44	 36.80	 39.84	 40.21	 40.00	 39.81	 39.65	 37.15	 36.66	 38.61	 38.55	 37.57	 40.82	 40.97	 41.44	 37.72	 36.68	 37.60
GON4L - ENSG00000116580	26.00	FALSE	FALSE	 18.62	 19.30	 15.86	 15.93	 19.57	 19.48	 19.27	 15.86	 19.85	 24.91	 14.30	 14.75	 15.92	 25.48	 21.83	 25.53	 24.99	 19.15	 19.58	 22.34	 24.44	 25.18	 26.70	 21.99	 19.88	 18.98
GPR149 - ENSG00000174948	26.00	FALSE	FALSE	 19.72	 20.23	 18.37	 18.58	 19.85	 20.22	 20.14	 18.77	 19.81	 16.63	 18.33	 18.37	 18.22	 27.49	 25.81	 16.68	 16.38	 16.95	 17.46	 17.01	 19.65	 17.61	 15.89	 16.64	 17.43	 16.41
LRRK2 - ENSG00000188906	26.00	FALSE	FALSE	 21.79	 22.29	 20.44	 20.55	 21.79	 22.21	 21.95	 20.81	 21.81	 20.17	 21.21	 20.37	 20.55	 20.88	 20.13	 19.96	 20.93	 20.36	 20.45	 21.82	 19.85	 20.81	 20.79	 21.94	 21.31	 21.49
MAP2 - ENSG00000078018	26.00	FALSE	FALSE	 10.06	 11.06	 10.65	 10.94	 10.09	 11.05	 11.62	 10.97	 10.24	 11.65	 10.42	  9.87	 10.02	 11.98	 11.26	 11.34	 11.83	 10.48	 10.41	 11.06	 12.67	 12.89	 10.44	 10.90	 11.18	 11.39
MUC17 - ENSG00000169876	26.00	FALSE	FALSE	 19.32	 19.12	 19.86	 19.82	 19.06	 19.15	 19.06	 19.84	 19.07	 19.75	 19.96	 19.46	 19.67	 23.33	 22.55	 19.59	 19.96	 21.21	 20.94	 20.80	 21.50	 20.90	 18.97	 20.90	 21.50	 20.73
MXRA5 - ENSG00000101825	26.00	FALSE	FALSE	 30.42	 31.31	 30.76	 30.73	 29.90	 31.19	 31.40	 30.99	 29.98	 29.25	 32.68	 32.48	 31.51	 28.77	 30.06	 28.53	 30.12	 31.62	 31.74	 30.06	 28.63	 28.35	 28.50	 29.79	 30.13	 31.22
MYO3B - ENSG00000071909	26.00	FALSE	FALSE	 24.77	 26.14	 24.17	 24.33	 25.58	 26.15	 26.00	 24.40	 25.89	 23.67	 24.21	 24.67	 24.79	 35.65	 36.48	 23.72	 23.43	 23.85	 24.70	 23.81	 26.84	 25.71	 25.50	 23.78	 22.62	 22.51
NXPE4 - ENSG00000137634	26.00	FALSE	FALSE	 32.17	 27.56	 34.02	 33.96	 30.88	 27.50	 27.50	 33.92	 31.49	 44.89	 39.62	 38.97	 39.23	 50.19	 44.45	 44.33	 43.63	 42.51	 41.93	 46.14	 48.70	 44.15	 44.19	 46.15	 44.14	 43.77
OSTM1 - ENSG00000081087	26.00	FALSE	FALSE	106.34	104.64	111.49	111.49	104.79	104.97	105.30	111.51	102.99	131.15	109.25	108.62	108.05	130.25	134.58	131.63	133.07	117.06	117.11	131.59	140.85	130.76	129.85	131.45	126.84	126.21
PAK5 - ENSG00000101349	26.00	FALSE	FALSE	 21.94	 21.96	 21.51	 21.49	 21.67	 22.07	 21.62	 21.43	 21.27	 29.15	 20.46	 21.02	 21.28	 29.58	 28.09	 29.35	 29.36	 19.81	 20.60	 28.52	 29.01	 29.26	 29.13	 28.60	 20.39	 20.23
PALM2-AKAP2 - ENSG00000157654	26.00	FALSE	FALSE	 35.40	 36.09	 40.05	 40.04	 35.74	 35.87	 36.40	 40.12	 35.64	 40.34	 40.08	 40.15	 39.89	 44.40	 41.71	 39.98	 40.62	 39.77	 39.55	 39.88	 39.60	 40.07	 39.47	 40.03	 40.15	 39.67
PKD1L1 - ENSG00000158683	26.00	FALSE	FALSE	 19.18	 17.48	 18.97	 18.95	 19.34	 17.38	 17.38	 18.90	 19.34	 23.04	 19.05	 18.93	 18.86	 25.93	 23.92	 23.08	 22.96	 21.01	 20.05	 23.39	 25.18	 23.67	 23.09	 23.34	 23.25	 22.29
PKP4 - ENSG00000144283	26.00	FALSE	FALSE	 47.15	 46.06	 46.16	 46.19	 46.81	 46.08	 46.19	 46.25	 46.27	 49.63	 47.65	 48.01	 48.02	 49.75	 50.47	 49.91	 49.81	 46.88	 47.30	 46.86	 49.68	 49.49	 49.37	 46.90	 46.70	 46.84
RIMS1 - ENSG00000079841	26.00	FALSE	FALSE	 25.55	 26.22	 25.24	 25.21	 25.81	 26.14	 26.29	 25.15	 26.05	 25.27	 24.56	 24.46	 25.12	 24.20	 24.73	 25.35	 25.66	 24.41	 24.88	 25.63	 25.83	 26.23	 25.16	 25.69	 24.21	 24.70
RP1L1 - ENSG00000183638	26.00	FALSE	FALSE	 25.12	 25.29	 24.69	 24.71	 25.45	 25.30	 25.59	 24.74	 24.80	 23.44	 24.91	 25.01	 24.76	 29.23	 26.29	 23.73	 24.23	 24.65	 25.01	 24.21	 24.54	 24.36	 23.50	 24.20	 24.09	 24.15
RYR2 - ENSG00000198626	26.00	FALSE	FALSE	 30.18	 30.31	 30.66	 30.65	 30.41	 30.32	 30.19	 30.64	 30.35	 30.34	 30.99	 31.01	 31.13	 33.25	 33.44	 30.53	 30.25	 30.90	 31.11	 30.40	 32.64	 32.09	 31.22	 30.38	 30.82	 31.03
SCN8A - ENSG00000196876	26.00	FALSE	FALSE	 14.42	 13.93	 14.42	 14.39	 14.62	 13.97	 10.02	 14.36	 14.19	 17.81	 16.39	 16.42	 16.83	 19.74	 18.40	 17.83	 15.94	 16.35	 16.50	 16.46	 17.51	 17.53	 17.79	 16.52	 16.60	 16.30
TENM4 - ENSG00000149256	26.00	FALSE	FALSE	 24.97	 24.96	 24.40	 24.33	 24.89	 24.99	 24.47	 24.31	 24.90	 21.31	 23.26	 23.35	 24.48	 21.77	 22.57	 21.42	 21.41	 22.72	 23.07	 22.14	 21.79	 21.76	 22.45	 22.14	 22.60	 22.60
TLR4 - ENSG00000136869	26.00	FALSE	FALSE	 12.94	 12.47	 13.23	 13.20	 12.85	 12.75	 12.69	 13.43	 12.95	 22.67	 14.61	 14.24	 13.91	 25.86	 25.33	 22.49	 18.90	 17.53	 14.75	 19.77	 22.11	 21.65	 22.30	 19.74	 17.64	 17.38
TP53 - ENSG00000141510	26.00	 TRUE	 TRUE	 16.80	 16.72	 16.85	 16.85	 16.75	 16.72	 16.78	 16.88	 16.76	 16.87	 16.66	 16.60	 16.62	 18.10	 18.09	 16.82	 17.00	 16.72	 16.65	 16.91	 16.98	 17.04	 16.95	 16.90	 16.67	 16.66
USF3 - ENSG00000176542	26.00	FALSE	FALSE	 27.22	 25.62	 26.97	 26.92	 24.98	 25.59	 26.01	 27.07	 25.24	 27.33	 26.48	 26.52	 27.36	 30.14	 30.72	 26.52	 24.40	 26.21	 24.36	 24.45	 24.93	 26.28	 26.78	 24.54	 26.19	 26.67
USH2A - ENSG00000042781	26.00	FALSE	FALSE	 18.54	 18.77	 18.06	 18.12	 18.63	 18.82	 18.49	 18.18	 18.81	 19.53	 17.92	 18.55	 18.55	 20.43	 21.89	 19.18	 19.75	 19.12	 18.79	 20.13	 18.90	 18.63	 19.19	 20.04	 19.69	 19.91
USP34 - ENSG00000115464	26.00	FALSE	FALSE	 22.84	 21.99	 23.33	 23.33	 22.91	 22.11	 21.44	 23.44	 22.44	 21.64	 21.85	 23.33	 23.23	 24.81	 25.43	 21.72	 21.53	 22.10	 22.37	 20.98	 23.31	 23.27	 22.52	 21.02	 21.40	 21.73
ZFYVE26 - ENSG00000072121	26.00	FALSE	FALSE	 18.15	 17.38	 19.07	 19.12	 17.52	 17.37	 17.41	 19.12	 17.45	 20.14	 18.93	 19.10	 19.01	 23.18	 23.38	 20.35	 20.06	 18.94	 19.02	 21.30	 22.85	 22.76	 23.11	 21.25	 21.45	 19.52
NLRC5 - ENSG00000140853	25.00	FALSE	FALSE	 17.43	 17.58	 15.95	 15.99	 17.21	 17.69	 17.67	 16.25	 17.04	 17.50	 17.80	 16.09	 16.04	  0.00	 16.50	 16.94	 17.81	 16.83	 16.55	 19.39	 19.78	 17.45	 16.34	 19.31	 20.19	 17.91
PTPRZ1 - ENSG00000106278	25.00	FALSE	FALSE	 14.18	  8.58	 15.27	 15.34	 13.24	  8.41	  9.35	 15.49	 11.01	 11.91	 13.73	 14.03	 13.80	  0.00	 14.84	 12.59	 12.79	 12.58	 13.02	 11.47	 10.90	 12.04	 12.69	 11.61	 13.38	 13.20
CCDC88C - ENSG00000015133	24.00	FALSE	FALSE	 13.91	 13.18	 13.53	 13.85	 13.22	 13.10	 13.00	 13.59	 13.05	 14.02	 11.56	 11.32	 12.50	  0.00	  0.00	 14.19	 14.54	 12.88	 11.69	 14.74	 12.94	 12.90	 13.81	 14.78	 12.74	 12.65
DSCAM - ENSG00000171587	24.00	FALSE	FALSE	 12.36	 12.37	 11.77	 11.77	 12.26	 12.39	 12.50	 11.66	 12.74	 12.36	 12.59	 12.66	 13.02	  0.00	  0.00	 12.65	 12.60	 13.35	 12.38	 12.77	 13.11	 13.44	 13.68	 12.78	 13.06	 12.88
FAT3 - ENSG00000165323	24.00	 TRUE	FALSE	  9.17	  9.32	  8.86	  8.84	  9.40	  9.30	  9.53	  8.79	  9.10	 10.45	  9.21	  9.01	  9.05	  0.00	  0.00	 10.52	 10.47	  9.89	  8.90	  9.97	 10.36	 10.58	 10.74	  9.97	  9.98	 10.12
MYH13 - ENSG00000006788	24.00	FALSE	FALSE	 13.21	 13.69	 12.68	 12.65	 12.72	 13.72	 13.83	 12.72	 12.88	 13.99	 12.68	 12.85	 12.76	  0.00	  0.00	 13.85	 14.61	 12.27	 12.59	 13.86	 12.77	 12.79	 14.00	 13.99	 12.27	 12.11
OSCP1 - ENSG00000116885	24.00	FALSE	FALSE	 26.50	 25.48	 24.39	 24.32	 26.59	 25.64	 25.27	 23.84	 27.21	 17.47	 24.18	 24.49	 25.22	  0.00	  0.00	 14.55	 17.06	 23.26	 24.29	 20.77	 17.56	 17.66	 14.41	 20.04	 20.86	 23.17
SORL1 - ENSG00000137642	24.00	FALSE	FALSE	 19.01	 18.42	 19.54	 19.49	 18.86	 18.43	 18.56	 19.32	 18.99	 18.07	 19.89	 19.46	 19.42	  0.00	  0.00	 17.80	 18.67	 21.31	 18.85	 19.18	 19.40	 16.92	 17.48	 19.22	 21.34	 21.18
CCDC136 - ENSG00000128596	23.00	FALSE	FALSE	 11.90	 12.17	 12.72	 12.69	 12.25	 12.24	 12.40	 12.71	 11.84	 18.31	 12.10	 12.62	 12.86	  0.00	  0.00	 18.43	 18.11	 16.25	 16.85	 16.91	  0.00	 17.36	 18.58	 17.06	 15.19	 16.43
BRCA2 - ENSG00000139618	22.00	 TRUE	 TRUE	  5.27	  5.84	  6.12	  6.09	  5.21	  5.73	  6.30	  6.10	  5.44	 11.66	  6.28	  6.13	  5.89	  0.00	  0.00	 11.45	 11.61	  6.17	  5.96	  9.78	  0.00	  0.00	 12.08	  9.95	  9.62	  7.54
HIST1H1C - ENSG00000187837	21.00	FALSE	FALSE	  8.57	  6.87	 12.26	 12.33	  6.25	  6.78	  7.41	 12.40	  6.11	 14.61	 12.62	 11.95	 11.82	  0.00	  0.00	 13.55	 14.80	 13.73	 13.75	 12.19	  0.00	  0.00	  0.00	 12.22	 12.93	 13.89
DIAPH2 - ENSG00000147202	20.00	FALSE	FALSE	 -2.08	 -4.55	 -4.39	 -4.30	 -2.20	 -4.32	 -6.43	 -4.86	 -1.73	 -6.72	 -6.81	 -5.31	 -5.12	  0.00	  0.00	  0.00	 -7.67	 -6.84	 -6.22	 -4.98	  0.00	  0.00	  0.00	 -5.54	 -6.13	 -7.66
NAV1 - ENSG00000134369	19.00	FALSE	FALSE	 16.32	 16.68	 16.34	 16.35	 16.66	 16.65	 17.14	 16.14	 16.74	  0.00	 15.19	 15.30	 15.69	  0.00	  0.00	  0.00	 13.94	 14.51	 15.26	 14.03	  0.00	  0.00	  0.00	 13.95	 14.27	 14.47
NTRK1 - ENSG00000198400	18.00	 TRUE	 TRUE	 11.93	 11.11	 12.18	 12.17	 12.23	 11.04	 10.87	 12.13	 10.50	  0.00	 13.90	 14.76	 14.49	  0.00	  0.00	  0.00	  0.00	 15.63	 15.49	 15.22	  0.00	  0.00	  0.00	 15.46	 16.41	 15.54
SH3RF3 - ENSG00000172985	17.00	FALSE	FALSE	  1.34	 -2.92	  3.48	  3.53	  0.95	 -3.68	 -2.00	  2.50	  1.37	  0.00	 -0.72	  0.16	  3.07	  0.00	  0.00	  0.00	  0.00	 -1.23	 -1.60	  0.00	  0.00	  0.00	  0.00	  2.30	  2.51	 -0.88
RYR3 - ENSG00000198838	16.00	FALSE	FALSE	  8.69	  8.94	 10.04	 10.09	  9.18	  8.80	  9.30	 10.20	  9.25	  0.00	 10.65	 10.29	 10.03	  0.00	  0.00	  0.00	  0.00	 11.30	 10.43	  0.00	  0.00	  0.00	  0.00	  0.00	 10.53	 10.46
GLI1 - ENSG00000111087	15.00	 TRUE	 TRUE	 16.20	 17.48	 15.18	 15.20	 16.44	 17.62	 17.45	 15.32	 16.30	  0.00	 15.03	 15.43	 15.68	  0.00	  0.00	  0.00	  0.00	 13.78	 14.03	  0.00	  0.00	  0.00	  0.00	  0.00	  0.00	 12.89
LRP2 - ENSG00000081479	14.00	FALSE	FALSE	  9.68	 10.03	  9.13	  9.08	  9.63	  9.95	  9.62	  8.95	 10.24	  0.00	  8.77	  9.69	  9.93	  0.00	  0.00	  0.00	  0.00	  7.63	  7.90	  0.00	  0.00	  0.00	  0.00	  0.00	  0.00	  0.00
ARHGAP21 - ENSG00000107863	13.00	FALSE	FALSE	 12.20	 12.04	 12.01	 11.97	 11.61	 12.15	 12.16	 12.25	 11.54	  0.00	 11.00	 11.19	 11.71	  0.00	  0.00	  0.00	  0.00	  0.00	 11.15	  0.00	  0.00	  0.00	  0.00	  0.00	  0.00	  0.00
CD163L1 - ENSG00000177675	12.00	FALSE	FALSE	 15.11	 16.53	 15.24	 15.21	 15.47	 16.36	 16.62	 15.23	 15.71	  0.00	 15.17	 14.91	 14.72	  0.00	  0.00	  0.00	  0.00	  0.00	  0.00	  0.00	  0.00	  0.00	  0.00	  0.00	  0.00	  0.00
UHRF1BP1 - ENSG00000065060	11.00	FALSE	FALSE	 12.87	 14.73	 12.96	 12.94	 13.17	 14.19	 13.70	 11.82	 13.08	  0.00	  0.00	 13.11	 12.93	  0.00	  0.00	  0.00	  0.00	  0.00	  0.00	  0.00	  0.00	  0.00	  0.00	  0.00	  0.00	  0.00
CELSR3 - ENSG00000008300	10.00	FALSE	FALSE	 -6.08	 -6.26	 -4.79	 -4.82	 -6.23	 -6.23	 -6.40	 -4.76	 -6.11	  0.00	  0.00	  0.00	 -5.24	  0.00	  0.00	  0.00	  0.00	  0.00	  0.00	  0.00	  0.00	  0.00	  0.00	  0.00	  0.00	  0.00
DSCAML1 - ENSG00000177103	 9.00	FALSE	FALSE	 11.30	 11.84	 10.86	 10.91	 11.40	 11.84	 12.02	 10.93	 11.12	  0.00	  0.00	  0.00	  0.00	  0.00	  0.00	  0.00	  0.00	  0.00	  0.00	  0.00	  0.00	  0.00	  0.00	  0.00	  0.00	  0.00
VNN1 - ENSG00000112299	 9.00	FALSE	FALSE	  1.42	  3.82	  2.53	  2.52	  2.33	  3.73	  3.31	  2.42	  2.84	  0.00	  0.00	  0.00	  0.00	  0.00	  0.00	  0.00	  0.00	  0.00	  0.00	  0.00	  0.00	  0.00	  0.00	  0.00	  0.00	  0.00
PPP1R3A - ENSG00000154415	 8.00	FALSE	FALSE	 -2.11	 -1.54	  0.00	 -0.91	 -1.67	 -1.40	 -2.09	 -0.88	 -1.69	  0.00	  0.00	  0.00	  0.00	  0.00	  0.00	  0.00	  0.00	  0.00	  0.00	  0.00	  0.00	  0.00	  0.00	  0.00	  0.00	  0.00
RIMBP2 - ENSG00000060709	 7.00	FALSE	FALSE	  2.53	  1.61	  0.00	  0.00	  2.51	  1.24	  1.66	  2.46	  2.57	  0.00	  0.00	  0.00	  0.00	  0.00	  0.00	  0.00	  0.00	  0.00	  0.00	  0.00	  0.00	  0.00	  0.00	  0.00	  0.00	  0.00
FAT4 - ENSG00000196159	 6.00	 TRUE	FALSE	  9.93	  9.71	  0.00	  0.00	  9.47	  9.82	  9.54	  0.00	  9.40	  0.00	  0.00	  0.00	  0.00	  0.00	  0.00	  0.00	  0.00	  0.00	  0.00	  0.00	  0.00	  0.00	  0.00	  0.00	  0.00	  0.00
RP1 - ENSG00000104237	 5.00	FALSE	FALSE	  0.00	  5.39	  0.00	  0.00	  6.31	  5.37	  5.20	  0.00	  6.37	  0.00	  0.00	  0.00	  0.00	  0.00	  0.00	  0.00	  0.00	  0.00	  0.00	  0.00	  0.00	  0.00	  0.00	  0.00	  0.00	  0.00
INSR - ENSG00000171105	 4.00	FALSE	FALSE	  0.00	  9.92	  0.00	  0.00	  0.00	  9.92	  9.48	  0.00	  8.66	  0.00	  0.00	  0.00	  0.00	  0.00	  0.00	  0.00	  0.00	  0.00	  0.00	  0.00	  0.00	  0.00	  0.00	  0.00	  0.00	  0.00
WWC3 - ENSG00000047644	 4.00	FALSE	FALSE	  0.00	  0.84	  0.00	  0.00	  0.00	  0.86	  1.09	  0.00	  1.41	  0.00	  0.00	  0.00	  0.00	  0.00	  0.00	  0.00	  0.00	  0.00	  0.00	  0.00	  0.00	  0.00	  0.00	  0.00	  0.00	  0.00
ACAD10 - ENSG00000111271	 3.00	FALSE	FALSE	  0.00	 13.26	  0.00	  0.00	  0.00	 13.58	 13.44	  0.00	  0.00	  0.00	  0.00	  0.00	  0.00	  0.00	  0.00	  0.00	  0.00	  0.00	  0.00	  0.00	  0.00	  0.00	  0.00	  0.00	  0.00	  0.00
ADGRB2 - ENSG00000121753	 2.00	FALSE	FALSE	  0.00	 -1.44	  0.00	  0.00	  0.00	  0.00	 -1.65	  0.00	  0.00	  0.00	  0.00	  0.00	  0.00	  0.00	  0.00	  0.00	  0.00	  0.00	  0.00	  0.00	  0.00	  0.00	  0.00	  0.00	  0.00	  0.00
FOCAD - ENSG00000188352	 1.00	FALSE	FALSE	  0.00	  0.00	  0.00	  0.00	  0.00	  0.00	  7.89	  0.00	  0.00	  0.00	  0.00	  0.00	  0.00	  0.00	  0.00	  0.00	  0.00	  0.00	  0.00	  0.00	  0.00	  0.00	  0.00	  0.00	  0.00	  0.00
