variable	min_all	max_all	median_all	model_39	model_40	model_37	model_38	model_33	model_34	model_36	model_32	model_35	model_30	model_31	model_29	model_28	model_27	model_26	model_25	model_24	model_23	model_22	model_21	model_20	model_18	model_19
length_pb	125845	284119	195254	276952	284119	257083	264697	223048	228068	246232	217426	230264	198956	211216	195254	183674	180848	177467	175232	172313	169370	162569	148892	133241	125845	129965
R2	0.94	0.97	0.96	0.97	0.97	0.97	0.97	0.97	0.97	0.97	0.97	0.97	0.97	0.97	0.96	0.96	0.96	0.96	0.96	0.95	0.95	0.95	0.95	0.95	0.94	0.94
Rsquared_1000optboot	0.93	0.95	0.95	0.95	0.95	0.95	0.95	0.95	0.95	0.95	0.95	0.95	0.95	0.95	0.95	0.95	0.95	0.95	0.94	0.95	0.94	0.94	0.94	0.94	0.93	0.93
Rsquared_externaltest	0.6	0.73	0.69	0.73	0.73	0.71	0.71	0.7	0.7	0.7	0.7	0.7	0.69	0.69	0.69	0.69	0.68	0.68	0.68	0.67	0.67	0.65	0.64	0.63	0.61	0.6
RSE	32	45	35	32	32	33	33	34	33	33	34	33	34	34	35	35	36	37	38	39	40	41	42	42	45	44
RMSE_1000optboot	38	48	40	40	40	39	40	39	39	39	39	39	38	38	39	39	40	40	42	42	44	44	45	45	48	46
RMSE_externaltest	237	260	246	237	237	244	242	244	245	245	245	246	246	246	245	247	247	247	247	249	247	251	254	254	259	260
variables_model	19	41	30	40	41	38	39	34	35	37	33	36	31	32	30	29	28	27	26	25	24	23	22	21	19	20
negative_variables	0	1	0	0	0	1	0	1	1	1	1	1	0	0	0	0	0	0	0	0	0	0	0	0	0	0
percent_training	43.54	58.3	52.03	58.3	58.3	57.2	58.3	53.87	54.24	56.46	53.51	54.24	52.77	52.77	52.03	51.29	50.92	50.55	50.18	49.82	49.82	49.08	48.34	46.13	43.54	44.28
percent_testing	62.69	78.36	69.78	78.36	78.36	75.37	76.87	72.76	73.13	73.88	72.39	73.13	69.78	70.52	69.78	66.04	65.67	65.67	64.93	64.55	64.18	63.81	63.43	63.06	62.69	62.69


hgnc_symbol	in_models	census	panel	model_39	model_40	model_37	model_38	model_33	model_34	model_36	model_32	model_35	model_30	model_31	model_29	model_28	model_27	model_26	model_25	model_24	model_23	model_22	model_21	model_20	model_18	model_19
Intercept	23.00	   NA	   NA	 41.54	 41.54	 42.60	 42.254	 43.23	 43.04	 42.70	 43.19	 43.28	 43.43	 43.43	 43.97	 44.73	 45.44	 45.90	 46.87	 47.45	 47.94	 48.05	 49.03	 50.17	 52.50	 51.90
ABCC12 - ENSG00000140798	23.00	FALSE	FALSE	 67.07	 67.08	 60.31	 60.591	 73.59	 60.27	 60.80	 76.74	 59.54	 85.04	 85.05	 87.70	 95.80	 99.86	 99.55	107.65	112.94	109.95	113.70	120.23	121.94	124.90	118.63
ACAN - ENSG00000157766	23.00	FALSE	FALSE	104.36	104.35	107.45	104.440	108.85	106.77	107.77	117.40	106.42	113.90	113.93	111.78	111.65	120.21	120.74	130.56	129.26	130.35	130.05	129.18	134.97	135.93	135.64
ANKHD1 - ENSG00000131503	23.00	FALSE	FALSE	 71.24	 71.20	 73.79	 74.462	 72.33	 71.17	 75.11	 77.60	 74.30	 79.98	 79.91	 80.65	 85.04	 88.24	 90.21	 92.11	 92.78	 92.87	 93.93	 89.67	 88.62	107.79	 99.25
CRNKL1 - ENSG00000101343	23.00	 TRUE	FALSE	 63.92	 63.92	 65.45	 66.016	 64.26	 63.26	 65.44	 65.34	 64.99	 65.66	 65.63	 64.50	 65.76	 66.63	 65.64	 68.77	 69.23	 65.42	 74.69	 71.48	 69.54	 70.73	 66.39
DSCAM - ENSG00000171587	23.00	FALSE	FALSE	 88.97	 88.97	 85.87	 85.580	 91.17	 87.63	 86.00	 92.83	 86.59	 93.18	 93.20	 91.93	 94.87	 95.51	 92.49	 91.12	 95.95	 87.08	 87.06	 89.26	 88.71	 97.31	 91.52
ERCC2 - ENSG00000104884	23.00	 TRUE	FALSE	 81.66	 81.68	 80.48	 81.689	 82.39	 81.40	 80.47	 81.47	 82.37	 81.93	 81.93	 80.26	 79.38	 80.72	 79.64	 81.54	 84.17	 90.87	 88.95	 91.52	 95.70	 94.79	 97.17
FAM208A - ENSG00000163946	23.00	FALSE	FALSE	113.07	113.07	114.51	113.891	109.12	112.08	114.03	115.26	112.30	112.01	111.97	112.20	106.71	106.31	109.54	125.51	118.05	121.52	116.94	118.18	122.60	129.81	124.08
HIVEP3 - ENSG00000127124	23.00	FALSE	FALSE	 29.34	 29.36	 27.00	 28.170	 41.67	 25.66	 26.94	 41.45	 25.12	 40.99	 41.00	 41.76	 49.27	 47.89	 46.18	 43.33	 39.87	 52.99	 54.57	 64.26	 65.43	 59.86	 62.14
HMCN1 - ENSG00000143341	23.00	FALSE	FALSE	 44.95	 44.96	 44.78	 45.455	 46.35	 45.74	 44.71	 45.40	 45.54	 44.63	 44.64	 43.47	 41.66	 37.73	 38.46	 38.30	 37.26	 42.06	 41.79	 40.79	 38.13	 40.76	 37.23
KALRN - ENSG00000160145	23.00	FALSE	FALSE	112.67	112.68	110.57	111.346	108.58	107.71	109.89	109.49	108.87	113.79	113.77	116.69	119.59	120.24	122.85	118.94	121.92	119.97	119.64	122.19	121.28	121.46	121.53
KIF21B - ENSG00000116852	23.00	FALSE	FALSE	 46.43	 46.44	 51.14	 49.416	 57.86	 52.74	 52.27	 62.51	 51.73	 62.92	 62.87	 66.13	 68.47	 67.15	 69.86	 79.39	 77.83	 83.86	 86.30	 89.68	 93.04	 87.06	 94.32
LAMB1 - ENSG00000091136	23.00	FALSE	FALSE	232.23	232.26	242.42	245.156	242.74	248.12	241.81	242.65	242.39	242.41	242.45	245.42	242.52	234.88	231.73	224.45	217.58	259.93	266.51	271.93	274.60	280.39	274.01
MORC3 - ENSG00000159256	23.00	FALSE	FALSE	112.91	112.92	109.53	111.871	109.99	105.08	110.86	116.06	112.05	113.93	113.96	112.68	121.33	120.80	127.76	123.54	122.82	134.50	136.35	131.72	130.65	145.47	144.40
MYH1 - ENSG00000109061	23.00	FALSE	FALSE	 74.34	 74.35	 81.40	 82.844	 82.12	 81.68	 82.28	 85.53	 82.28	 86.32	 86.30	 85.79	 88.10	 86.68	 83.92	 84.25	 95.73	101.51	102.87	106.52	105.67	110.62	111.59
MYH9 - ENSG00000100345	23.00	 TRUE	FALSE	 43.00	 43.00	 46.90	 47.300	 54.26	 54.67	 49.94	 56.96	 50.75	 58.93	 58.90	 59.74	 62.40	 61.19	 59.03	 57.45	 70.91	 67.50	 71.42	 67.77	 72.40	 74.14	 74.85
NAV2 - ENSG00000166833	23.00	FALSE	FALSE	 80.14	 80.11	 77.87	 78.327	 75.51	 75.77	 78.11	 76.93	 76.93	 75.48	 75.48	 72.59	 73.81	 90.76	 88.86	 86.53	 86.94	 85.34	 85.91	 92.19	 92.31	104.03	 97.49
NUP155 - ENSG00000113569	23.00	FALSE	FALSE	 41.88	 41.90	 38.08	 41.826	 46.45	 38.97	 37.05	 48.71	 34.19	 50.60	 50.57	 48.73	 57.33	 52.01	 46.43	 60.30	 71.24	 78.95	 85.32	 79.89	 81.37	 85.49	 84.41
PKHD1L1 - ENSG00000205038	23.00	FALSE	FALSE	 70.93	 70.91	 73.62	 73.498	 76.80	 78.59	 75.83	 81.83	 75.73	 85.34	 85.34	 89.21	 96.34	100.99	100.78	100.48	 97.94	 94.17	 98.02	 97.08	106.66	101.75	101.22
TENM3 - ENSG00000218336	23.00	FALSE	FALSE	134.57	134.59	136.71	134.387	128.36	132.60	136.28	123.49	134.31	123.17	123.16	126.58	123.96	129.86	128.76	136.75	132.34	133.14	136.98	144.04	140.08	132.23	138.31
ACE - ENSG00000159640	22.00	FALSE	FALSE	 53.35	 53.34	 58.65	 58.273	 61.61	 60.64	 58.35	 61.91	 59.41	 63.35	 63.35	 69.32	 68.11	 68.08	 66.18	 63.70	 62.22	 63.59	 59.70	 61.13	 67.93	  0.00	 64.84
ADCY2 - ENSG00000078295	21.00	FALSE	FALSE	 60.01	 60.01	 59.99	 59.921	 64.07	 65.06	 60.89	 62.47	 63.54	 60.24	 60.20	 59.45	 58.64	 57.08	 60.38	 54.44	 48.71	 51.04	 49.17	 53.12	 53.07	  0.00	  0.00
HYDIN - ENSG00000157423	20.00	FALSE	FALSE	 38.89	 38.87	 39.02	 38.336	 38.27	 40.21	 38.81	 38.54	 38.45	 38.97	 38.97	 41.22	 38.05	 36.88	 36.28	 32.88	 30.96	 25.27	 27.07	 26.03	  0.00	  0.00	  0.00
LRP1 - ENSG00000123384	19.00	FALSE	FALSE	 39.14	 39.11	 37.03	 38.068	 38.32	 39.80	 37.96	 37.72	 38.87	 38.31	 38.31	 39.59	 40.51	 37.22	 36.98	 39.03	 37.21	 36.55	 34.87	  0.00	  0.00	  0.00	  0.00
ICE1 - ENSG00000164151	18.00	FALSE	FALSE	 71.82	 71.80	 70.99	 68.859	 76.90	 76.12	 71.45	 82.99	 73.05	 80.87	 80.81	 77.03	 68.78	 68.27	 68.81	 62.15	 65.51	 51.01	  0.00	  0.00	  0.00	  0.00	  0.00
IPO13 - ENSG00000117408	17.00	FALSE	FALSE	 38.80	 38.76	 45.33	 42.197	 45.06	 44.20	 46.24	 45.67	 49.29	 46.07	 46.02	 43.26	 45.10	 55.58	 61.84	 65.60	 73.35	  0.00	  0.00	  0.00	  0.00	  0.00	  0.00
NAA25 - ENSG00000111300	16.00	FALSE	FALSE	 60.08	 60.06	 62.65	 61.682	 59.84	 64.58	 63.13	 58.50	 65.34	 58.79	 58.74	 59.66	 53.47	 54.44	 67.60	 62.47	  0.00	  0.00	  0.00	  0.00	  0.00	  0.00	  0.00
ACSS1 - ENSG00000154930	15.00	FALSE	FALSE	 56.72	 56.66	 62.58	 56.564	 58.63	 64.17	 63.16	 57.01	 66.15	 52.90	 52.89	 57.61	 59.64	 64.81	 69.23	  0.00	  0.00	  0.00	  0.00	  0.00	  0.00	  0.00	  0.00
HDAC4 - ENSG00000068024	14.00	FALSE	FALSE	 41.47	 41.50	 37.72	 37.576	 50.63	 53.66	 38.60	 48.87	 39.32	 53.69	 53.70	 52.28	 46.70	 39.25	  0.00	  0.00	  0.00	  0.00	  0.00	  0.00	  0.00	  0.00	  0.00
BBX - ENSG00000114439	13.00	FALSE	FALSE	 39.38	 39.44	 43.70	 40.245	 53.54	 49.75	 44.48	 55.54	 47.01	 58.74	 58.74	 65.16	 63.10	  0.00	  0.00	  0.00	  0.00	  0.00	  0.00	  0.00	  0.00	  0.00	  0.00
TRRAP - ENSG00000196367	12.00	 TRUE	FALSE	 42.93	 42.94	 43.11	 42.783	 42.82	 46.08	 42.28	 42.32	 44.27	 40.56	 40.57	 37.78	  0.00	  0.00	  0.00	  0.00	  0.00	  0.00	  0.00	  0.00	  0.00	  0.00	  0.00
KIAA1211 - ENSG00000109265	11.00	FALSE	FALSE	 48.82	 48.81	 44.45	 42.409	 43.80	 43.57	 43.01	 39.34	 42.34	 42.58	 42.58	  0.00	  0.00	  0.00	  0.00	  0.00	  0.00	  0.00	  0.00	  0.00	  0.00	  0.00	  0.00
PKHD1 - ENSG00000170927	10.00	FALSE	FALSE	  4.00	  4.00	 -0.25	  0.033	 -0.39	 -1.30	 -0.84	 -4.09	 -0.34	  0.00	  0.16	  0.00	  0.00	  0.00	  0.00	  0.00	  0.00	  0.00	  0.00	  0.00	  0.00	  0.00	  0.00
CIT - ENSG00000122966	 9.00	FALSE	FALSE	 37.68	 37.68	 38.52	 39.260	 32.47	 36.90	 37.97	 27.79	 37.94	  0.00	  0.00	  0.00	  0.00	  0.00	  0.00	  0.00	  0.00	  0.00	  0.00	  0.00	  0.00	  0.00	  0.00
CACNA1S - ENSG00000081248	 8.00	FALSE	FALSE	 15.14	 15.11	 15.47	 10.364	 22.30	 18.35	 15.73	  0.00	 15.62	  0.00	  0.00	  0.00	  0.00	  0.00	  0.00	  0.00	  0.00	  0.00	  0.00	  0.00	  0.00	  0.00	  0.00
ROBO1 - ENSG00000169855	 7.00	FALSE	FALSE	 46.90	 46.89	 53.28	 52.108	  0.00	 52.31	 52.38	  0.00	 53.17	  0.00	  0.00	  0.00	  0.00	  0.00	  0.00	  0.00	  0.00	  0.00	  0.00	  0.00	  0.00	  0.00	  0.00
GNL2 - ENSG00000134697	 6.00	FALSE	FALSE	 17.04	 17.01	 20.13	 17.312	  0.00	  0.00	 20.87	  0.00	 21.52	  0.00	  0.00	  0.00	  0.00	  0.00	  0.00	  0.00	  0.00	  0.00	  0.00	  0.00	  0.00	  0.00	  0.00
UBR4 - ENSG00000127481	 5.00	FALSE	FALSE	  8.86	  8.85	  9.19	  9.621	  0.00	  0.00	  8.75	  0.00	  0.00	  0.00	  0.00	  0.00	  0.00	  0.00	  0.00	  0.00	  0.00	  0.00	  0.00	  0.00	  0.00	  0.00	  0.00
ZFHX4 - ENSG00000091656	 4.00	FALSE	FALSE	  2.89	  2.87	  6.54	  4.388	  0.00	  0.00	  0.00	  0.00	  0.00	  0.00	  0.00	  0.00	  0.00	  0.00	  0.00	  0.00	  0.00	  0.00	  0.00	  0.00	  0.00	  0.00	  0.00
CEP192 - ENSG00000101639	 3.00	FALSE	FALSE	 18.13	 18.12	  0.00	 30.230	  0.00	  0.00	  0.00	  0.00	  0.00	  0.00	  0.00	  0.00	  0.00	  0.00	  0.00	  0.00	  0.00	  0.00	  0.00	  0.00	  0.00	  0.00	  0.00
VPS13B - ENSG00000132549	 2.00	FALSE	FALSE	 25.57	 25.57	  0.00	  0.000	  0.00	  0.00	  0.00	  0.00	  0.00	  0.00	  0.00	  0.00	  0.00	  0.00	  0.00	  0.00	  0.00	  0.00	  0.00	  0.00	  0.00	  0.00	  0.00
ABCA1 - ENSG00000165029	 1.00	FALSE	FALSE	  0.00	  0.24	  0.00	  0.000	  0.00	  0.00	  0.00	  0.00	  0.00	  0.00	  0.00	  0.00	  0.00	  0.00	  0.00	  0.00	  0.00	  0.00	  0.00	  0.00	  0.00	  0.00	  0.00
