Primary.site	Primary.histology	Histology.subtype.1
autonomic_ganglia	neuroblastoma	NS
biliary_tract	carcinoma	NS
biliary_tract	carcinoma	adenocarcinoma
breast	carcinoma	NS
breast	carcinoma	metaplastic_carcinoma
breast	carcinoma_in_situ	ductal_carcinoma_in_situ
central_nervous_system	glioma	NS
central_nervous_system	glioma	astrocytoma_Grade_I
central_nervous_system	glioma	astrocytoma_Grade_II
central_nervous_system	glioma	astrocytoma_Grade_III
central_nervous_system	glioma	astrocytoma_Grade_IV
central_nervous_system	glioma	ependymoma
central_nervous_system	glioma	oligodendroglioma_Grade_II
central_nervous_system	glioma	oligodendroglioma_Grade_III
central_nervous_system	other	desmoplastic_infantile_ganglioglioma
central_nervous_system	other	ganglioglioma
central_nervous_system	primitive_neuroectodermal_tumour-medulloblastoma	NS
endometrium	carcinoma	carcinosarcoma-malignant_mesodermal_mixed_tumour
endometrium	carcinoma	clear_cell_carcinoma
endometrium	carcinoma	endometrioid_carcinoma
endometrium	carcinoma	mixed_endometrioid_and_clear_cell_carcinoma
endometrium	carcinoma	mixed_serous_and_clear_cell_carcinoma
haematopoietic_and_lymphoid_tissue	haematopoietic_neoplasm	acute_leukaemia_of_ambiguous_lineage
haematopoietic_and_lymphoid_tissue	haematopoietic_neoplasm	acute_lymphoblastic_leukaemia
haematopoietic_and_lymphoid_tissue	haematopoietic_neoplasm	acute_myeloid_leukaemia
haematopoietic_and_lymphoid_tissue	haematopoietic_neoplasm	acute_myeloid_leukaemia_therapy_related
haematopoietic_and_lymphoid_tissue	haematopoietic_neoplasm	myelodysplastic_syndrome
haematopoietic_and_lymphoid_tissue	haematopoietic_neoplasm	myelodysplastic_syndrome_therapy_related
haematopoietic_and_lymphoid_tissue	haematopoietic_neoplasm	myeloproliferative_neoplasm
haematopoietic_and_lymphoid_tissue	lymphoid_neoplasm	NK-T_cell_lymphoma
haematopoietic_and_lymphoid_tissue	lymphoid_neoplasm	NS
haematopoietic_and_lymphoid_tissue	lymphoid_neoplasm	acute_lymphoblastic_T_cell_leukaemia
haematopoietic_and_lymphoid_tissue	lymphoid_neoplasm	acute_lymphoblastic_leukaemia
haematopoietic_and_lymphoid_tissue	lymphoid_neoplasm	chronic_lymphocytic_leukaemia-small_lymphocytic_lymphoma
kidney	Wilms_tumour	NS
kidney	carcinoma	clear_cell_renal_cell_carcinoma
kidney	carcinoma	renal_cell_carcinoma_unclassified
large_intestine	carcinoma	adenocarcinoma
liver	carcinoma	NS
liver	carcinoma	hepatocellular_carcinoma
liver	other	neoplasm
lung	carcinoid-endocrine_tumour	NS
lung	carcinoma	NS
lung	carcinoma	adenocarcinoma
lung	carcinoma	bronchioloalveolar_adenocarcinoma
lung	carcinoma	large_cell_carcinoma
lung	carcinoma	mixed_adenosquamous_carcinoma
lung	carcinoma	mucoepidermoid_carcinoma
lung	carcinoma	non_small_cell_carcinoma
lung	carcinoma	small_cell_carcinoma
lung	carcinoma	squamous_cell_carcinoma
lung	other	pneumocytoma_sclerosing_haemangioma
oesophagus	carcinoma	NS
oesophagus	carcinoma	adenocarcinoma
oesophagus	carcinoma	squamous_cell_carcinoma
ovary	carcinoma	NS
pancreas	carcinoid-endocrine_tumour	NS
pancreas	carcinoma	NS
pancreas	carcinoma	ductal_carcinoma
pleura	mesothelioma	NS
prostate	carcinoma	NS
prostate	carcinoma	adenocarcinoma
salivary_gland	carcinoma	mucoepidermoid_carcinoma
skin	carcinoma	NS
skin	malignant_melanoma	NS
skin	other	melanosis
skin	other	seborrhoeic_keratosis
small_intestine	carcinoid-endocrine_tumour	NS
soft_tissue	gastrointestinal_stromal_tumour	NS
soft_tissue	rhabdomyosarcoma	embryonal
thyroid	carcinoma	NS
upper_aerodigestive_tract	carcinoma	NS
upper_aerodigestive_tract	carcinoma	squamous_cell_carcinoma
urinary_tract	carcinoma	NS
urinary_tract	carcinoma	transitional_cell_carcinoma
