cancer_type	samples
CNS_glioma	267
CNS_medulloblastoma	119
adrenal_gland	50
autonomic_ganglia	311
biliary_tract	125
bone	107
breast	619
cervix	133
endometrium	73
genital-testis_germ_cell_tumour	69
haematopoietic_neoplasm	366
kidney_clear_renal_cell	386
kidney_papilary_renal_cell	7
kidney_renal_cell_mix	43
kidney_wilms_tumour	100
large_intestine	545
liver	550
lung_non_small_cell_carcinoma	719
lung_small_cell_carcinoma	100
lymphoid_neoplasm	591
meninges	41
oesophagus_adenocarcinoma	60
oesophagus_other_NS	104
oesophagus_squamous_cell_carcinoma	271
ovary_other_carcinoma	41
ovary_serous_carcinoma	118
pancreas_carcinoid-endocrine_tumour	25
pancreas_carcinoma	121
pleura	21
prostate	437
salivary_gland	18
skin-eye_malignant_melanoma	268
skin_carcinoma	34
small_intestine	14
soft_tissue	58
stomach	229
thyroid	192
upper_aerodigestive_tract	161
urinary_tract_other_NS	268
urinary_tract_transitional_cell_carcinoma	156
