sample	cancer_type	pubmed	cromosoma_hg19	start_hg19	end_hg19	ref	alt	cromosoma	start	end
ZH12	oesophagus_squamous_cell_carcinoma	30012096	5	176639217	176639218	-	A	chr5	177212216	177212217
ZH12	oesophagus_squamous_cell_carcinoma	30012096	17	4848325	4848326	-	T	chr17	4945030	4945031
ZH12	oesophagus_squamous_cell_carcinoma	30012096	22	17160215	17160216	-	CTAA	chr22	16679325	16679326
ZH12	oesophagus_squamous_cell_carcinoma	30012096	1	154997015	154997015	G	C	chr1	155024539	155024539
ZH12	oesophagus_squamous_cell_carcinoma	30012096	2	178634068	178634068	C	A	chr2	177769340	177769340
ZH12	oesophagus_squamous_cell_carcinoma	30012096	5	180055873	180055873	G	T	chr5	180628873	180628873
ZH12	oesophagus_squamous_cell_carcinoma	30012096	11	4945509	4945509	C	T	chr11	4924279	4924279
ZH12	oesophagus_squamous_cell_carcinoma	30012096	11	85435792	85435792	G	A	chr11	85724749	85724749
ZH12	oesophagus_squamous_cell_carcinoma	30012096	17	4686414	4686414	A	C	chr17	4783119	4783119
ZH16	oesophagus_squamous_cell_carcinoma	30012096	3	143185959	143185977	GGTAAACATCATTTGTTTG	-	chr3	143467117	143467135
ZH16	oesophagus_squamous_cell_carcinoma	30012096	6	70916831	70916831	T	-	chr6	70207127	70207127
ZH16	oesophagus_squamous_cell_carcinoma	30012096	11	73984658	73984658	A	-	chr11	74273613	74273613
ZH16	oesophagus_squamous_cell_carcinoma	30012096	14	105518104	105518106	AGA	-	chr14	105051767	105051769
ZH16	oesophagus_squamous_cell_carcinoma	30012096	17	71257140	71257140	A	-	chr17	73261001	73261001
ZH16	oesophagus_squamous_cell_carcinoma	30012096	1	19670901	19670901	G	A	chr1	19344407	19344407
ZH16	oesophagus_squamous_cell_carcinoma	30012096	1	45166753	45166753	G	A	chr1	44701081	44701081
ZH16	oesophagus_squamous_cell_carcinoma	30012096	1	111434999	111434999	C	G	chr1	110892377	110892377
ZH16	oesophagus_squamous_cell_carcinoma	30012096	1	144880864	144880864	T	A	chr1	149003608	149003608
ZH16	oesophagus_squamous_cell_carcinoma	30012096	1	172390047	172390047	G	A	chr1	172420907	172420907
ZH16	oesophagus_squamous_cell_carcinoma	30012096	2	24469008	24469008	T	G	chr2	24246139	24246139
ZH16	oesophagus_squamous_cell_carcinoma	30012096	2	36706743	36706743	C	T	chr2	36479600	36479600
ZH16	oesophagus_squamous_cell_carcinoma	30012096	2	55874560	55874560	G	A	chr2	55647425	55647425
ZH16	oesophagus_squamous_cell_carcinoma	30012096	2	74688919	74688919	G	A	chr2	74461792	74461792
ZH16	oesophagus_squamous_cell_carcinoma	30012096	2	99013045	99013045	A	G	chr2	98396582	98396582
ZH16	oesophagus_squamous_cell_carcinoma	30012096	2	141130754	141130754	C	A	chr2	140373185	140373185
ZH16	oesophagus_squamous_cell_carcinoma	30012096	2	179584419	179584419	T	A	chr2	178719692	178719692
ZH16	oesophagus_squamous_cell_carcinoma	30012096	2	218954731	218954731	G	A	chr2	218090008	218090008
ZH16	oesophagus_squamous_cell_carcinoma	30012096	2	224463099	224463099	T	C	chr2	223598381	223598381
ZH16	oesophagus_squamous_cell_carcinoma	30012096	2	234622294	234622294	C	T	chr2	233713648	233713648
ZH16	oesophagus_squamous_cell_carcinoma	30012096	3	47951099	47951099	T	C	chr3	47909609	47909609
ZH16	oesophagus_squamous_cell_carcinoma	30012096	4	37440519	37440519	G	A	chr4	37438897	37438897
ZH16	oesophagus_squamous_cell_carcinoma	30012096	4	80899287	80899287	C	T	chr4	79978133	79978133
ZH16	oesophagus_squamous_cell_carcinoma	30012096	4	110667378	110667378	C	G	chr4	109746222	109746222
ZH16	oesophagus_squamous_cell_carcinoma	30012096	5	1238137	1238137	G	C	chr5	1238022	1238022
ZH16	oesophagus_squamous_cell_carcinoma	30012096	5	15616173	15616173	C	T	chr5	15616064	15616064
ZH16	oesophagus_squamous_cell_carcinoma	30012096	5	72469205	72469205	C	G	chr5	73173378	73173378
ZH16	oesophagus_squamous_cell_carcinoma	30012096	5	140870214	140870214	G	A	chr5	141490647	141490647
ZH16	oesophagus_squamous_cell_carcinoma	30012096	6	31911276	31911276	C	T	chr6	31943499	31943499
ZH16	oesophagus_squamous_cell_carcinoma	30012096	6	32629955	32629955	C	T	chr6	32662178	32662178
ZH16	oesophagus_squamous_cell_carcinoma	30012096	6	126080496	126080496	G	A	chr6	125759350	125759350
ZH16	oesophagus_squamous_cell_carcinoma	30012096	7	21639474	21639474	G	A	chr7	21599856	21599856
ZH16	oesophagus_squamous_cell_carcinoma	30012096	7	21639496	21639496	T	G	chr7	21599878	21599878
ZH16	oesophagus_squamous_cell_carcinoma	30012096	7	117400765	117400765	C	T	chr7	117760711	117760711
ZH16	oesophagus_squamous_cell_carcinoma	30012096	7	150174417	150174417	G	A	chr7	150477329	150477329
ZH16	oesophagus_squamous_cell_carcinoma	30012096	8	2887001	2887001	T	A	chr8	3029479	3029479
ZH16	oesophagus_squamous_cell_carcinoma	30012096	11	27406807	27406807	C	A	chr11	27385260	27385260
ZH16	oesophagus_squamous_cell_carcinoma	30012096	11	102479698	102479698	C	T	chr11	102608967	102608967
ZH16	oesophagus_squamous_cell_carcinoma	30012096	12	13526259	13526259	C	A	chr12	13373325	13373325
ZH16	oesophagus_squamous_cell_carcinoma	30012096	12	40687433	40687433	T	A	chr12	40293631	40293631
ZH16	oesophagus_squamous_cell_carcinoma	30012096	12	40951308	40951308	G	C	chr12	40557506	40557506
ZH16	oesophagus_squamous_cell_carcinoma	30012096	12	43833703	43833703	C	T	chr12	43439900	43439900
ZH16	oesophagus_squamous_cell_carcinoma	30012096	12	108034123	108034123	G	A	chr12	107640346	107640346
ZH16	oesophagus_squamous_cell_carcinoma	30012096	12	129178515	129178515	G	A	chr12	128693970	128693970
ZH16	oesophagus_squamous_cell_carcinoma	30012096	13	111120533	111120533	G	A	chr13	110468186	110468186
ZH16	oesophagus_squamous_cell_carcinoma	30012096	14	23058056	23058056	G	A	chr14	22589150	22589150
ZH16	oesophagus_squamous_cell_carcinoma	30012096	14	76173965	76173965	G	T	chr14	75707622	75707622
ZH16	oesophagus_squamous_cell_carcinoma	30012096	16	50783987	50783987	C	T	chr16	50750076	50750076
ZH16	oesophagus_squamous_cell_carcinoma	30012096	16	56362717	56362717	C	G	chr16	56328805	56328805
ZH16	oesophagus_squamous_cell_carcinoma	30012096	16	79245961	79245961	T	C	chr16	79212064	79212064
ZH16	oesophagus_squamous_cell_carcinoma	30012096	17	10397688	10397688	T	G	chr17	10494371	10494371
ZH16	oesophagus_squamous_cell_carcinoma	30012096	17	21205606	21205606	G	C	chr17	21302294	21302294
ZH16	oesophagus_squamous_cell_carcinoma	30012096	17	27936047	27936047	G	A	chr17	29609029	29609029
ZH16	oesophagus_squamous_cell_carcinoma	30012096	18	44268776	44268776	A	G	chr18	46688813	46688813
ZH16	oesophagus_squamous_cell_carcinoma	30012096	19	736013	736013	G	T	chr19	736013	736013
ZH16	oesophagus_squamous_cell_carcinoma	30012096	19	11233820	11233820	C	G	chr19	11123144	11123144
ZH16	oesophagus_squamous_cell_carcinoma	30012096	19	15550316	15550316	C	T	chr19	15439505	15439505
ZH16	oesophagus_squamous_cell_carcinoma	30012096	19	38903546	38903546	G	T	chr19	38412906	38412906
ZH16	oesophagus_squamous_cell_carcinoma	30012096	19	51192609	51192609	C	T	chr19	50689352	50689352
ZH16	oesophagus_squamous_cell_carcinoma	30012096	19	52196130	52196130	C	T	chr19	51692877	51692877
ZH16	oesophagus_squamous_cell_carcinoma	30012096	X	34962556	34962556	G	A	chrX	34944439	34944439
ZH16	oesophagus_squamous_cell_carcinoma	30012096	X	47836266	47836266	C	T	chrX	47976867	47976867
ZH16	oesophagus_squamous_cell_carcinoma	30012096	X	49851214	49851214	G	A	chrX	50086557	50086557
ZH16	oesophagus_squamous_cell_carcinoma	30012096	X	51151368	51151368	G	A	chrX	51408516	51408516
ZH16	oesophagus_squamous_cell_carcinoma	30012096	X	55172708	55172708	T	G	chrX	55146275	55146275
ZH16	oesophagus_squamous_cell_carcinoma	30012096	X	73963371	73963371	C	T	chrX	74743536	74743536
ZH16	oesophagus_squamous_cell_carcinoma	30012096	X	111195605	111195605	C	A	chrX	111952377	111952377
ZH16	oesophagus_squamous_cell_carcinoma	30012096	X	153593057	153593057	T	G	chrX	154364689	154364689
ZH16	oesophagus_squamous_cell_carcinoma	30012096	X	153694254	153694254	C	G	chrX	154465911	154465911
ZH16	oesophagus_squamous_cell_carcinoma	30012096	X	154344977	154344977	A	G	chrX	155116702	155116702
ZH17	oesophagus_squamous_cell_carcinoma	30012096	5	52211273	52211274	-	T	chr5	52915443	52915444
ZH17	oesophagus_squamous_cell_carcinoma	30012096	13	111932587	111932587	T	-	chr13	111280240	111280240
ZH17	oesophagus_squamous_cell_carcinoma	30012096	18	19021347	19021347	T	-	chr18	21441386	21441386
ZH17	oesophagus_squamous_cell_carcinoma	30012096	1	12557700	12557700	G	A	chr1	12497646	12497646
ZH17	oesophagus_squamous_cell_carcinoma	30012096	1	97915814	97915814	G	T	chr1	97450258	97450258
ZH17	oesophagus_squamous_cell_carcinoma	30012096	1	107867059	107867059	C	T	chr1	107324437	107324437
ZH17	oesophagus_squamous_cell_carcinoma	30012096	1	110562266	110562266	G	A	chr1	110019644	110019644
ZH17	oesophagus_squamous_cell_carcinoma	30012096	1	143767407	143767407	T	C	chr1	148482811	148482811
ZH17	oesophagus_squamous_cell_carcinoma	30012096	1	152327667	152327667	C	T	chr1	152355191	152355191
ZH17	oesophagus_squamous_cell_carcinoma	30012096	1	196797357	196797357	A	G	chr1	196828227	196828227
ZH17	oesophagus_squamous_cell_carcinoma	30012096	1	205156711	205156711	G	C	chr1	205187583	205187583
ZH17	oesophagus_squamous_cell_carcinoma	30012096	1	241837914	241837914	G	A	chr1	241674612	241674612
ZH17	oesophagus_squamous_cell_carcinoma	30012096	2	73678798	73678798	G	A	chr2	73451671	73451671
ZH17	oesophagus_squamous_cell_carcinoma	30012096	2	148653940	148653940	C	T	chr2	147896371	147896371
ZH17	oesophagus_squamous_cell_carcinoma	30012096	2	183867711	183867711	G	C	chr2	183002983	183002983
ZH17	oesophagus_squamous_cell_carcinoma	30012096	2	186673889	186673889	G	A	chr2	185809162	185809162
ZH17	oesophagus_squamous_cell_carcinoma	30012096	2	190334072	190334072	G	C	chr2	189469346	189469346
ZH17	oesophagus_squamous_cell_carcinoma	30012096	2	242009636	242009636	C	T	chr2	241070221	241070221
ZH17	oesophagus_squamous_cell_carcinoma	30012096	3	1262467	1262467	C	A	chr3	1220783	1220783
ZH17	oesophagus_squamous_cell_carcinoma	30012096	3	2928865	2928865	T	C	chr3	2887181	2887181
ZH17	oesophagus_squamous_cell_carcinoma	30012096	3	7782010	7782010	T	A	chr3	7740323	7740323
ZH17	oesophagus_squamous_cell_carcinoma	30012096	3	52257228	52257228	C	G	chr3	52223212	52223212
ZH17	oesophagus_squamous_cell_carcinoma	30012096	3	105495379	105495379	G	C	chr3	105776535	105776535
ZH17	oesophagus_squamous_cell_carcinoma	30012096	4	2097672	2097672	G	A	chr4	2095945	2095945
ZH17	oesophagus_squamous_cell_carcinoma	30012096	4	68784857	68784857	C	G	chr4	67919139	67919139
ZH17	oesophagus_squamous_cell_carcinoma	30012096	4	69817185	69817185	C	A	chr4	68951467	68951467
ZH17	oesophagus_squamous_cell_carcinoma	30012096	4	79321978	79321978	G	A	chr4	78400824	78400824
ZH17	oesophagus_squamous_cell_carcinoma	30012096	4	134071689	134071689	T	A	chr4	133150534	133150534
ZH17	oesophagus_squamous_cell_carcinoma	30012096	5	1474677	1474677	G	A	chr5	1474562	1474562
ZH17	oesophagus_squamous_cell_carcinoma	30012096	5	79351771	79351771	C	G	chr5	80055948	80055948
ZH17	oesophagus_squamous_cell_carcinoma	30012096	6	2959368	2959368	A	T	chr6	2959134	2959134
ZH17	oesophagus_squamous_cell_carcinoma	30012096	6	31760760	31760760	C	T	chr6	31792983	31792983
ZH17	oesophagus_squamous_cell_carcinoma	30012096	6	31864592	31864592	G	A	chr6	31896815	31896815
ZH17	oesophagus_squamous_cell_carcinoma	30012096	6	36653478	36653478	G	A	chr6	36685701	36685701
ZH17	oesophagus_squamous_cell_carcinoma	30012096	6	42932859	42932859	C	T	chr6	42965121	42965121
ZH17	oesophagus_squamous_cell_carcinoma	30012096	6	132068044	132068044	C	T	chr6	131746904	131746904
ZH17	oesophagus_squamous_cell_carcinoma	30012096	7	2403419	2403419	G	T	chr7	2363784	2363784
ZH17	oesophagus_squamous_cell_carcinoma	30012096	7	34977609	34977609	G	T	chr7	34937997	34937997
ZH17	oesophagus_squamous_cell_carcinoma	30012096	7	94056362	94056362	G	T	chr7	94427050	94427050
ZH17	oesophagus_squamous_cell_carcinoma	30012096	7	100865964	100865964	C	T	chr7	101222683	101222683
ZH17	oesophagus_squamous_cell_carcinoma	30012096	7	128657020	128657020	C	A	chr7	129016966	129016966
ZH17	oesophagus_squamous_cell_carcinoma	30012096	9	130496617	130496617	G	A	chr9	127734338	127734338
ZH17	oesophagus_squamous_cell_carcinoma	30012096	9	132566512	132566512	A	G	chr9	129804233	129804233
ZH17	oesophagus_squamous_cell_carcinoma	30012096	10	101163426	101163426	G	A	chr10	99403669	99403669
ZH17	oesophagus_squamous_cell_carcinoma	30012096	10	104678579	104678579	G	A	chr10	102918822	102918822
ZH17	oesophagus_squamous_cell_carcinoma	30012096	10	124172593	124172593	T	A	chr10	122413077	122413077
ZH17	oesophagus_squamous_cell_carcinoma	30012096	10	129906404	129906404	G	A	chr10	128108140	128108140
ZH17	oesophagus_squamous_cell_carcinoma	30012096	11	609332	609332	C	T	chr11	609332	609332
ZH17	oesophagus_squamous_cell_carcinoma	30012096	11	618081	618081	G	A	chr11	618081	618081
ZH17	oesophagus_squamous_cell_carcinoma	30012096	11	3022410	3022410	G	T	chr11	3001180	3001180
ZH17	oesophagus_squamous_cell_carcinoma	30012096	11	7689765	7689765	G	T	chr11	7668534	7668534
ZH17	oesophagus_squamous_cell_carcinoma	30012096	11	17191047	17191047	G	C	chr11	17169500	17169500
ZH17	oesophagus_squamous_cell_carcinoma	30012096	11	49053188	49053188	C	A	chr11	49031636	49031636
ZH17	oesophagus_squamous_cell_carcinoma	30012096	11	51411933	51411933	C	T	chr11	54707347	54707347
ZH17	oesophagus_squamous_cell_carcinoma	30012096	11	55563736	55563736	G	T	chr11	55796260	55796260
ZH17	oesophagus_squamous_cell_carcinoma	30012096	11	76912490	76912490	C	T	chr11	77201445	77201445
ZH17	oesophagus_squamous_cell_carcinoma	30012096	11	113857463	113857463	C	T	chr11	113986741	113986741
ZH17	oesophagus_squamous_cell_carcinoma	30012096	11	116706952	116706952	C	A	chr11	116836236	116836236
ZH17	oesophagus_squamous_cell_carcinoma	30012096	12	6710854	6710854	G	A	chr12	6601688	6601688
ZH17	oesophagus_squamous_cell_carcinoma	30012096	12	8757858	8757858	C	T	chr12	8605262	8605262
ZH17	oesophagus_squamous_cell_carcinoma	30012096	12	57548306	57548306	G	A	chr12	57154523	57154523
ZH17	oesophagus_squamous_cell_carcinoma	30012096	12	57677627	57677627	G	A	chr12	57283844	57283844
ZH17	oesophagus_squamous_cell_carcinoma	30012096	12	111801107	111801107	C	T	chr12	111363303	111363303
ZH17	oesophagus_squamous_cell_carcinoma	30012096	12	133372385	133372385	C	T	chr12	132795799	132795799
ZH17	oesophagus_squamous_cell_carcinoma	30012096	13	28601321	28601321	C	T	chr13	28027184	28027184
ZH17	oesophagus_squamous_cell_carcinoma	30012096	13	52951816	52951816	C	T	chr13	52377681	52377681
ZH17	oesophagus_squamous_cell_carcinoma	30012096	13	58208735	58208735	C	T	chr13	57634601	57634601
ZH17	oesophagus_squamous_cell_carcinoma	30012096	14	23818481	23818481	G	A	chr14	23349272	23349272
ZH17	oesophagus_squamous_cell_carcinoma	30012096	14	77336433	77336433	G	A	chr14	76870090	76870090
ZH17	oesophagus_squamous_cell_carcinoma	30012096	14	103416794	103416794	G	A	chr14	102950457	102950457
ZH17	oesophagus_squamous_cell_carcinoma	30012096	14	106539220	106539220	C	T	NA	NA	NA
ZH17	oesophagus_squamous_cell_carcinoma	30012096	15	63421823	63421823	C	T	chr15	63129624	63129624
ZH17	oesophagus_squamous_cell_carcinoma	30012096	15	63555745	63555745	G	C	chr15	63263546	63263546
ZH17	oesophagus_squamous_cell_carcinoma	30012096	15	73879902	73879902	G	C	chr15	73587561	73587561
ZH17	oesophagus_squamous_cell_carcinoma	30012096	15	90118998	90118998	C	G	chr15	89575767	89575767
ZH17	oesophagus_squamous_cell_carcinoma	30012096	17	7577120	7577120	C	T	chr17	7673802	7673802
ZH17	oesophagus_squamous_cell_carcinoma	30012096	17	42390578	42390578	C	T	chr17	44313210	44313210
ZH17	oesophagus_squamous_cell_carcinoma	30012096	19	2757720	2757720	C	A	chr19	2757722	2757722
ZH17	oesophagus_squamous_cell_carcinoma	30012096	19	4318426	4318426	G	A	chr19	4318429	4318429
ZH17	oesophagus_squamous_cell_carcinoma	30012096	19	5923255	5923255	C	G	chr19	5923244	5923244
ZH17	oesophagus_squamous_cell_carcinoma	30012096	19	12016647	12016647	A	T	chr19	11905832	11905832
ZH17	oesophagus_squamous_cell_carcinoma	30012096	19	19241073	19241073	C	T	chr19	19130264	19130264
ZH17	oesophagus_squamous_cell_carcinoma	30012096	19	46973645	46973645	G	T	chr19	46470388	46470388
ZH17	oesophagus_squamous_cell_carcinoma	30012096	19	56320437	56320437	G	A	chr19	55809071	55809071
ZH17	oesophagus_squamous_cell_carcinoma	30012096	19	58773446	58773446	T	G	chr19	58262080	58262080
ZH17	oesophagus_squamous_cell_carcinoma	30012096	20	23531104	23531104	G	T	chr20	23550467	23550467
ZH17	oesophagus_squamous_cell_carcinoma	30012096	20	35434390	35434390	G	A	chr20	36805987	36805987
ZH17	oesophagus_squamous_cell_carcinoma	30012096	X	21613079	21613079	C	A	chrX	21594961	21594961
ZH17	oesophagus_squamous_cell_carcinoma	30012096	X	34962013	34962013	G	A	chrX	34943896	34943896
ZH17	oesophagus_squamous_cell_carcinoma	30012096	X	63445521	63445521	C	G	chrX	64225641	64225641
ZH19	oesophagus_squamous_cell_carcinoma	30012096	1	16262701	16262704	CACT	-	chr1	15936206	15936209
ZH19	oesophagus_squamous_cell_carcinoma	30012096	4	13604347	13604347	C	-	chr4	13602723	13602723
ZH19	oesophagus_squamous_cell_carcinoma	30012096	5	158204598	158204599	CA	-	chr5	158777590	158777591
ZH19	oesophagus_squamous_cell_carcinoma	30012096	7	45121209	45121211	CTT	-	chr7	45081610	45081612
ZH19	oesophagus_squamous_cell_carcinoma	30012096	9	21971202	21971203	-	A	chr9	21971203	21971204
ZH19	oesophagus_squamous_cell_carcinoma	30012096	12	49445853	49445853	G	-	chr12	49052070	49052070
ZH19	oesophagus_squamous_cell_carcinoma	30012096	18	61569820	61569834	TTAAGTTTCTGGGGC	-	chr18	63902586	63902600
ZH19	oesophagus_squamous_cell_carcinoma	30012096	1	11082491	11082491	G	A	chr1	11022434	11022434
ZH19	oesophagus_squamous_cell_carcinoma	30012096	1	11854027	11854027	G	A	chr1	11793970	11793970
ZH19	oesophagus_squamous_cell_carcinoma	30012096	1	27876631	27876631	G	A	chr1	27550120	27550120
ZH19	oesophagus_squamous_cell_carcinoma	30012096	1	38022567	38022567	G	T	chr1	37556966	37556966
ZH19	oesophagus_squamous_cell_carcinoma	30012096	1	38022568	38022568	C	T	chr1	37556967	37556967
ZH19	oesophagus_squamous_cell_carcinoma	30012096	1	93070965	93070965	G	A	chr1	92605408	92605408
ZH19	oesophagus_squamous_cell_carcinoma	30012096	1	153409588	153409588	T	C	chr1	153437112	153437112
ZH19	oesophagus_squamous_cell_carcinoma	30012096	1	157566185	157566185	G	A	chr1	157596395	157596395
ZH19	oesophagus_squamous_cell_carcinoma	30012096	2	17696997	17696997	C	T	chr2	17515730	17515730
ZH19	oesophagus_squamous_cell_carcinoma	30012096	2	21230912	21230912	T	A	chr2	21008040	21008040
ZH19	oesophagus_squamous_cell_carcinoma	30012096	2	103090239	103090239	G	C	chr2	102473780	102473780
ZH19	oesophagus_squamous_cell_carcinoma	30012096	2	114035975	114035975	C	T	chr2	113278398	113278398
ZH19	oesophagus_squamous_cell_carcinoma	30012096	2	130930117	130930117	C	T	chr2	130172544	130172544
ZH19	oesophagus_squamous_cell_carcinoma	30012096	2	152308195	152308195	A	G	chr2	151451681	151451681
ZH19	oesophagus_squamous_cell_carcinoma	30012096	2	165947775	165947775	G	A	chr2	165091265	165091265
ZH19	oesophagus_squamous_cell_carcinoma	30012096	2	166780997	166780997	T	C	chr2	165924487	165924487
ZH19	oesophagus_squamous_cell_carcinoma	30012096	2	204161622	204161622	G	C	chr2	203296899	203296899
ZH19	oesophagus_squamous_cell_carcinoma	30012096	3	20042868	20042868	G	A	chr3	20001376	20001376
ZH19	oesophagus_squamous_cell_carcinoma	30012096	3	51978248	51978248	T	A	chr3	51944232	51944232
ZH19	oesophagus_squamous_cell_carcinoma	30012096	3	98189039	98189039	C	G	chr3	98470195	98470195
ZH19	oesophagus_squamous_cell_carcinoma	30012096	3	107770714	107770714	C	G	chr3	108051867	108051867
ZH19	oesophagus_squamous_cell_carcinoma	30012096	3	119328368	119328368	C	T	chr3	119609521	119609521
ZH19	oesophagus_squamous_cell_carcinoma	30012096	3	143271267	143271267	T	A	chr3	143552425	143552425
ZH19	oesophagus_squamous_cell_carcinoma	30012096	4	2829012	2829012	A	G	chr4	2827285	2827285
ZH19	oesophagus_squamous_cell_carcinoma	30012096	4	3319514	3319514	G	A	chr4	3317787	3317787
ZH19	oesophagus_squamous_cell_carcinoma	30012096	4	85676435	85676435	C	T	chr4	84755282	84755282
ZH19	oesophagus_squamous_cell_carcinoma	30012096	5	88056862	88056862	T	G	chr5	88761045	88761045
ZH19	oesophagus_squamous_cell_carcinoma	30012096	6	30679846	30679846	C	A	chr6	30712069	30712069
ZH19	oesophagus_squamous_cell_carcinoma	30012096	6	34835172	34835172	T	G	chr6	34867395	34867395
ZH19	oesophagus_squamous_cell_carcinoma	30012096	6	35965610	35965610	C	T	chr6	35997833	35997833
ZH19	oesophagus_squamous_cell_carcinoma	30012096	6	54191915	54191915	C	G	chr6	54327117	54327117
ZH19	oesophagus_squamous_cell_carcinoma	30012096	7	45725592	45725592	A	G	chr7	45685993	45685993
ZH19	oesophagus_squamous_cell_carcinoma	30012096	7	83590805	83590805	C	T	chr7	83961489	83961489
ZH19	oesophagus_squamous_cell_carcinoma	30012096	7	94917960	94917960	A	G	chr7	95288648	95288648
ZH19	oesophagus_squamous_cell_carcinoma	30012096	7	123594436	123594436	C	A	chr7	123954382	123954382
ZH19	oesophagus_squamous_cell_carcinoma	30012096	7	147675053	147675053	C	T	chr7	147977961	147977961
ZH19	oesophagus_squamous_cell_carcinoma	30012096	8	39627114	39627114	C	G	chr8	39769595	39769595
ZH19	oesophagus_squamous_cell_carcinoma	30012096	8	131130795	131130795	T	C	chr8	130118549	130118549
ZH19	oesophagus_squamous_cell_carcinoma	30012096	9	114246677	114246677	C	G	chr9	111484397	111484397
ZH19	oesophagus_squamous_cell_carcinoma	30012096	10	72083612	72083612	C	T	chr10	70323856	70323856
ZH19	oesophagus_squamous_cell_carcinoma	30012096	10	77167464	77167464	A	G	chr10	75407706	75407706
ZH19	oesophagus_squamous_cell_carcinoma	30012096	10	102753223	102753223	G	T	chr10	100993466	100993466
ZH19	oesophagus_squamous_cell_carcinoma	30012096	10	105815625	105815625	G	A	chr10	104055867	104055867
ZH19	oesophagus_squamous_cell_carcinoma	30012096	11	21592333	21592333	G	A	chr11	21570787	21570787
ZH19	oesophagus_squamous_cell_carcinoma	30012096	11	21592335	21592335	C	A	chr11	21570789	21570789
ZH19	oesophagus_squamous_cell_carcinoma	30012096	11	49329547	49329547	A	T	chr11	49307995	49307995
ZH19	oesophagus_squamous_cell_carcinoma	30012096	11	62951171	62951171	T	C	chr11	63183699	63183699
ZH19	oesophagus_squamous_cell_carcinoma	30012096	12	6579642	6579642	T	C	chr12	6470476	6470476
ZH19	oesophagus_squamous_cell_carcinoma	30012096	12	7293868	7293868	C	T	chr12	7141272	7141272
ZH19	oesophagus_squamous_cell_carcinoma	30012096	12	10658533	10658533	G	A	chr12	10505934	10505934
ZH19	oesophagus_squamous_cell_carcinoma	30012096	12	111748316	111748316	G	C	chr12	111310512	111310512
ZH19	oesophagus_squamous_cell_carcinoma	30012096	14	75378067	75378067	T	C	chr14	74911364	74911364
ZH19	oesophagus_squamous_cell_carcinoma	30012096	14	88963607	88963607	G	T	chr14	88497263	88497263
ZH19	oesophagus_squamous_cell_carcinoma	30012096	14	102732227	102732227	G	A	chr14	102265890	102265890
ZH19	oesophagus_squamous_cell_carcinoma	30012096	14	103410295	103410295	G	A	chr14	102943958	102943958
ZH19	oesophagus_squamous_cell_carcinoma	30012096	16	784188	784188	C	T	chr16	734188	734188
ZH19	oesophagus_squamous_cell_carcinoma	30012096	16	3788651	3788651	C	A	chr16	3738650	3738650
ZH19	oesophagus_squamous_cell_carcinoma	30012096	16	8906964	8906964	G	A	chr16	8813107	8813107
ZH19	oesophagus_squamous_cell_carcinoma	30012096	16	75579367	75579367	G	T	chr16	75545469	75545469
ZH19	oesophagus_squamous_cell_carcinoma	30012096	16	81094884	81094884	T	C	chr16	81061279	81061279
ZH19	oesophagus_squamous_cell_carcinoma	30012096	17	3435999	3435999	G	A	chr17	3532705	3532705
ZH19	oesophagus_squamous_cell_carcinoma	30012096	17	7577094	7577094	G	A	chr17	7673776	7673776
ZH19	oesophagus_squamous_cell_carcinoma	30012096	17	7577559	7577559	G	T	chr17	7674241	7674241
ZH19	oesophagus_squamous_cell_carcinoma	30012096	17	10419248	10419248	A	T	chr17	10515931	10515931
ZH19	oesophagus_squamous_cell_carcinoma	30012096	17	58009058	58009058	G	A	chr17	59931697	59931697
ZH19	oesophagus_squamous_cell_carcinoma	30012096	17	61562341	61562341	C	T	chr17	63484980	63484980
ZH19	oesophagus_squamous_cell_carcinoma	30012096	18	30847201	30847201	G	T	chr18	33267237	33267237
ZH19	oesophagus_squamous_cell_carcinoma	30012096	18	50450187	50450187	A	C	chr18	52923817	52923817
ZH19	oesophagus_squamous_cell_carcinoma	30012096	18	63511291	63511291	A	G	chr18	65844055	65844055
ZH19	oesophagus_squamous_cell_carcinoma	30012096	18	63511309	63511309	C	G	chr18	65844073	65844073
ZH19	oesophagus_squamous_cell_carcinoma	30012096	19	1010460	1010460	G	C	chr19	1010461	1010461
ZH19	oesophagus_squamous_cell_carcinoma	30012096	19	10106718	10106718	C	G	chr19	9996042	9996042
ZH19	oesophagus_squamous_cell_carcinoma	30012096	19	10444683	10444683	G	T	chr19	10334007	10334007
ZH19	oesophagus_squamous_cell_carcinoma	30012096	19	11532460	11532460	G	C	chr19	11421792	11421792
ZH19	oesophagus_squamous_cell_carcinoma	30012096	19	11532461	11532461	C	T	chr19	11421793	11421793
ZH19	oesophagus_squamous_cell_carcinoma	30012096	19	19136735	19136735	C	T	chr19	19025926	19025926
ZH19	oesophagus_squamous_cell_carcinoma	30012096	19	52443507	52443507	G	T	chr19	51940254	51940254
ZH19	oesophagus_squamous_cell_carcinoma	30012096	20	17585284	17585284	C	G	chr20	17604639	17604639
ZH19	oesophagus_squamous_cell_carcinoma	30012096	20	32194808	32194808	A	G	chr20	33607002	33607002
ZH19	oesophagus_squamous_cell_carcinoma	30012096	20	48770088	48770088	G	T	chr20	50153551	50153551
ZH19	oesophagus_squamous_cell_carcinoma	30012096	20	61588314	61588314	G	A	chr20	62956962	62956962
ZH19	oesophagus_squamous_cell_carcinoma	30012096	21	17150364	17150364	A	G	chr21	15778045	15778045
ZH19	oesophagus_squamous_cell_carcinoma	30012096	22	29754713	29754713	A	G	chr22	29358724	29358724
ZH19	oesophagus_squamous_cell_carcinoma	30012096	22	50658367	50658367	C	A	chr22	50219938	50219938
ZH19	oesophagus_squamous_cell_carcinoma	30012096	X	135593616	135593616	A	G	chrX	136511457	136511457
ZH22	oesophagus_squamous_cell_carcinoma	30012096	19	18675854	18675855	-	GGC	chr19	18565044	18565045
ZH22	oesophagus_squamous_cell_carcinoma	30012096	22	29885859	29885876	GCTAAGTCCCCAGAGAAG	-	chr22	29489870	29489887
ZH22	oesophagus_squamous_cell_carcinoma	30012096	7	86415836	86415836	C	T	chr7	86786520	86786520
ZH23	oesophagus_squamous_cell_carcinoma	30012096	1	12383790	12383791	-	GGGA	chr1	12323733	12323734
ZH23	oesophagus_squamous_cell_carcinoma	30012096	2	141272360	141272361	-	A	chr2	140514791	140514792
ZH23	oesophagus_squamous_cell_carcinoma	30012096	9	140139240	140139241	GG	-	chr9	137244788	137244789
ZH23	oesophagus_squamous_cell_carcinoma	30012096	10	17279211	17279212	-	T	chr10	17237212	17237213
ZH23	oesophagus_squamous_cell_carcinoma	30012096	14	24032705	24032712	TGCCCGCC	-	chr14	23563496	23563503
ZH23	oesophagus_squamous_cell_carcinoma	30012096	14	29261309	29261310	-	AAC	chr14	28792103	28792104
ZH23	oesophagus_squamous_cell_carcinoma	30012096	14	97411730	97411731	-	A	chr14	96945393	96945394
ZH23	oesophagus_squamous_cell_carcinoma	30012096	15	78310306	78310307	-	A	chr15	78017964	78017965
ZH23	oesophagus_squamous_cell_carcinoma	30012096	18	64221783	64221791	AAATTAAGA	-	chr18	66554546	66554554
ZH23	oesophagus_squamous_cell_carcinoma	30012096	20	54824111	54824111	C	-	chr20	56249055	56249055
ZH23	oesophagus_squamous_cell_carcinoma	30012096	1	16258136	16258136	G	A	chr1	15931641	15931641
ZH23	oesophagus_squamous_cell_carcinoma	30012096	1	20140931	20140931	G	T	chr1	19814438	19814438
ZH23	oesophagus_squamous_cell_carcinoma	30012096	1	43739015	43739015	C	T	chr1	43273344	43273344
ZH23	oesophagus_squamous_cell_carcinoma	30012096	1	85397153	85397153	C	T	chr1	84931470	84931470
ZH23	oesophagus_squamous_cell_carcinoma	30012096	1	103405860	103405860	T	A	chr1	102940304	102940304
ZH23	oesophagus_squamous_cell_carcinoma	30012096	1	117146465	117146465	C	T	chr1	116603843	116603843
ZH23	oesophagus_squamous_cell_carcinoma	30012096	1	153609060	153609060	C	T	chr1	153636584	153636584
ZH23	oesophagus_squamous_cell_carcinoma	30012096	1	176999920	176999920	C	T	chr1	177030784	177030784
ZH23	oesophagus_squamous_cell_carcinoma	30012096	1	202092707	202092707	G	A	chr1	202123579	202123579
ZH23	oesophagus_squamous_cell_carcinoma	30012096	1	207110469	207110469	A	G	chr1	206937124	206937124
ZH23	oesophagus_squamous_cell_carcinoma	30012096	1	228557749	228557749	G	A	chr1	228370048	228370048
ZH23	oesophagus_squamous_cell_carcinoma	30012096	2	63272636	63272636	C	T	chr2	63045501	63045501
ZH23	oesophagus_squamous_cell_carcinoma	30012096	2	80529367	80529367	C	T	chr2	80302242	80302242
ZH23	oesophagus_squamous_cell_carcinoma	30012096	2	88895118	88895118	G	A	chr2	88595600	88595600
ZH23	oesophagus_squamous_cell_carcinoma	30012096	2	91955330	91955330	G	A	chr2	91767304	91767304
ZH23	oesophagus_squamous_cell_carcinoma	30012096	2	106498445	106498445	G	A	chr2	105881989	105881989
ZH23	oesophagus_squamous_cell_carcinoma	30012096	2	141272306	141272306	C	T	chr2	140514737	140514737
ZH23	oesophagus_squamous_cell_carcinoma	30012096	2	152474871	152474871	C	T	chr2	151618357	151618357
ZH23	oesophagus_squamous_cell_carcinoma	30012096	2	166908416	166908416	G	A	chr2	166051906	166051906
ZH23	oesophagus_squamous_cell_carcinoma	30012096	2	178098973	178098973	C	G	chr2	177234245	177234245
ZH23	oesophagus_squamous_cell_carcinoma	30012096	2	202149989	202149989	G	T	chr2	201285266	201285266
ZH23	oesophagus_squamous_cell_carcinoma	30012096	3	97869038	97869038	A	G	chr3	98150194	98150194
ZH23	oesophagus_squamous_cell_carcinoma	30012096	3	111794329	111794329	C	T	chr3	112075482	112075482
ZH23	oesophagus_squamous_cell_carcinoma	30012096	3	119084226	119084226	A	G	chr3	119365379	119365379
ZH23	oesophagus_squamous_cell_carcinoma	30012096	3	128618328	128618328	G	A	chr3	128899485	128899485
ZH23	oesophagus_squamous_cell_carcinoma	30012096	3	169656082	169656082	A	G	chr3	169938294	169938294
ZH23	oesophagus_squamous_cell_carcinoma	30012096	3	170184906	170184906	G	T	chr3	170467118	170467118
ZH23	oesophagus_squamous_cell_carcinoma	30012096	3	183007015	183007015	G	A	chr3	183289227	183289227
ZH23	oesophagus_squamous_cell_carcinoma	30012096	3	183753889	183753889	G	A	chr3	184036101	184036101
ZH23	oesophagus_squamous_cell_carcinoma	30012096	3	186510442	186510442	A	T	chr3	186792653	186792653
ZH23	oesophagus_squamous_cell_carcinoma	30012096	4	6304117	6304117	C	T	chr4	6302390	6302390
ZH23	oesophagus_squamous_cell_carcinoma	30012096	4	25125825	25125825	G	T	chr4	25124203	25124203
ZH23	oesophagus_squamous_cell_carcinoma	30012096	5	1243857	1243857	C	T	chr5	1243742	1243742
ZH23	oesophagus_squamous_cell_carcinoma	30012096	5	23523404	23523404	C	G	chr5	23523295	23523295
ZH23	oesophagus_squamous_cell_carcinoma	30012096	5	134245885	134245885	T	A	chr5	134910195	134910195
ZH23	oesophagus_squamous_cell_carcinoma	30012096	5	140712403	140712403	C	T	chr5	141332836	141332836
ZH23	oesophagus_squamous_cell_carcinoma	30012096	5	172590799	172590799	C	T	chr5	173163796	173163796
ZH23	oesophagus_squamous_cell_carcinoma	30012096	6	3154871	3154871	A	C	chr6	3154637	3154637
ZH23	oesophagus_squamous_cell_carcinoma	30012096	6	29913067	29913067	T	C	chr6	29945290	29945290
ZH23	oesophagus_squamous_cell_carcinoma	30012096	6	39330215	39330215	C	G	chr6	39362439	39362439
ZH23	oesophagus_squamous_cell_carcinoma	30012096	6	46656366	46656366	C	T	chr6	46688629	46688629
ZH23	oesophagus_squamous_cell_carcinoma	30012096	6	66547306	66547306	A	G	chr6	65837413	65837413
ZH23	oesophagus_squamous_cell_carcinoma	30012096	6	152763305	152763305	C	T	chr6	152442170	152442170
ZH23	oesophagus_squamous_cell_carcinoma	30012096	6	154360752	154360752	G	A	chr6	154039617	154039617
ZH23	oesophagus_squamous_cell_carcinoma	30012096	6	167754020	167754020	G	T	chr6	167340532	167340532
ZH23	oesophagus_squamous_cell_carcinoma	30012096	7	20199716	20199716	T	C	chr7	20160093	20160093
ZH23	oesophagus_squamous_cell_carcinoma	30012096	7	27687337	27687337	G	A	chr7	27647718	27647718
ZH23	oesophagus_squamous_cell_carcinoma	30012096	7	35029466	35029466	T	A	chr7	34989854	34989854
ZH23	oesophagus_squamous_cell_carcinoma	30012096	7	103029509	103029509	C	A	chr7	103389062	103389062
ZH23	oesophagus_squamous_cell_carcinoma	30012096	7	123143029	123143029	T	C	chr7	123502975	123502975
ZH23	oesophagus_squamous_cell_carcinoma	30012096	7	141896099	141896099	C	T	chr7	142196299	142196299
ZH23	oesophagus_squamous_cell_carcinoma	30012096	7	158684012	158684012	C	T	chr7	158891321	158891321
ZH23	oesophagus_squamous_cell_carcinoma	30012096	8	28651298	28651298	A	C	chr8	28793781	28793781
ZH23	oesophagus_squamous_cell_carcinoma	30012096	8	113599308	113599308	C	G	chr8	112587079	112587079
ZH23	oesophagus_squamous_cell_carcinoma	30012096	8	146067590	146067590	G	A	chr8	144842205	144842205
ZH23	oesophagus_squamous_cell_carcinoma	30012096	9	35801680	35801680	C	T	chr9	35801683	35801683
ZH23	oesophagus_squamous_cell_carcinoma	30012096	9	100760841	100760841	G	C	chr9	97998559	97998559
ZH23	oesophagus_squamous_cell_carcinoma	30012096	9	134319687	134319687	T	C	chr9	131444300	131444300
ZH23	oesophagus_squamous_cell_carcinoma	30012096	10	25010831	25010831	C	T	chr10	24721902	24721902
ZH23	oesophagus_squamous_cell_carcinoma	30012096	10	35625977	35625977	C	A	chr10	35337049	35337049
ZH23	oesophagus_squamous_cell_carcinoma	30012096	10	55582934	55582934	C	G	chr10	53823174	53823174
ZH23	oesophagus_squamous_cell_carcinoma	30012096	10	64239622	64239622	C	A	chr10	62479863	62479863
ZH23	oesophagus_squamous_cell_carcinoma	30012096	10	105344913	105344913	G	A	chr10	103585156	103585156
ZH23	oesophagus_squamous_cell_carcinoma	30012096	10	114925317	114925317	A	G	chr10	113165558	113165558
ZH23	oesophagus_squamous_cell_carcinoma	30012096	10	134726286	134726286	G	A	chr10	132912782	132912782
ZH23	oesophagus_squamous_cell_carcinoma	30012096	11	722756	722756	A	G	chr11	722756	722756
ZH23	oesophagus_squamous_cell_carcinoma	30012096	11	44193210	44193210	T	C	chr11	44171660	44171660
ZH23	oesophagus_squamous_cell_carcinoma	30012096	11	55419224	55419224	C	T	chr11	55651748	55651748
ZH23	oesophagus_squamous_cell_carcinoma	30012096	11	65387175	65387175	G	A	chr11	65619704	65619704
ZH23	oesophagus_squamous_cell_carcinoma	30012096	11	84997223	84997223	T	A	chr11	85286179	85286179
ZH23	oesophagus_squamous_cell_carcinoma	30012096	11	103194693	103194693	C	T	chr11	103323965	103323965
ZH23	oesophagus_squamous_cell_carcinoma	30012096	11	123813558	123813558	C	T	chr11	123942851	123942851
ZH23	oesophagus_squamous_cell_carcinoma	30012096	11	126137236	126137236	C	A	chr11	126267341	126267341
ZH23	oesophagus_squamous_cell_carcinoma	30012096	11	134038506	134038506	G	A	chr11	134168611	134168611
ZH23	oesophagus_squamous_cell_carcinoma	30012096	12	12318022	12318022	G	A	chr12	12165088	12165088
ZH23	oesophagus_squamous_cell_carcinoma	30012096	12	26731670	26731670	A	C	chr12	26578737	26578737
ZH23	oesophagus_squamous_cell_carcinoma	30012096	12	49484168	49484168	C	T	chr12	49090385	49090385
ZH23	oesophagus_squamous_cell_carcinoma	30012096	12	125436979	125436979	C	T	chr12	124952433	124952433
ZH23	oesophagus_squamous_cell_carcinoma	30012096	13	31195920	31195920	T	A	chr13	30621783	30621783
ZH23	oesophagus_squamous_cell_carcinoma	30012096	13	46924289	46924289	G	A	chr13	46350154	46350154
ZH23	oesophagus_squamous_cell_carcinoma	30012096	13	113622908	113622908	C	A	chr13	112968594	112968594
ZH23	oesophagus_squamous_cell_carcinoma	30012096	14	21560233	21560233	C	T	chr14	21092074	21092074
ZH23	oesophagus_squamous_cell_carcinoma	30012096	14	22476134	22476134	C	A	chr14	22007895	22007895
ZH23	oesophagus_squamous_cell_carcinoma	30012096	14	24800317	24800317	G	A	chr14	24331111	24331111
ZH23	oesophagus_squamous_cell_carcinoma	30012096	14	100191791	100191791	G	A	chr14	99725454	99725454
ZH23	oesophagus_squamous_cell_carcinoma	30012096	14	101521706	101521706	C	T	chr14	101055369	101055369
ZH23	oesophagus_squamous_cell_carcinoma	30012096	14	106967495	106967495	T	G	chr14	106511563	106511563
ZH23	oesophagus_squamous_cell_carcinoma	30012096	15	34544507	34544507	C	T	chr15	34252306	34252306
ZH23	oesophagus_squamous_cell_carcinoma	30012096	15	35226761	35226761	A	G	chr15	34934560	34934560
ZH23	oesophagus_squamous_cell_carcinoma	30012096	15	37385763	37385763	T	G	chr15	37093562	37093562
ZH23	oesophagus_squamous_cell_carcinoma	30012096	15	56981559	56981559	T	C	chr15	56689361	56689361
ZH23	oesophagus_squamous_cell_carcinoma	30012096	16	2358605	2358605	G	A	chr16	2308604	2308604
ZH23	oesophagus_squamous_cell_carcinoma	30012096	16	24192130	24192130	G	A	chr16	24180809	24180809
ZH23	oesophagus_squamous_cell_carcinoma	30012096	17	7577120	7577120	C	T	chr17	7673802	7673802
ZH23	oesophagus_squamous_cell_carcinoma	30012096	17	7577575	7577575	A	G	chr17	7674257	7674257
ZH23	oesophagus_squamous_cell_carcinoma	30012096	17	36482604	36482604	A	G	chr17	38326721	38326721
ZH23	oesophagus_squamous_cell_carcinoma	30012096	17	51064104	51064104	C	A	chr17	52986744	52986744
ZH23	oesophagus_squamous_cell_carcinoma	30012096	17	56083280	56083280	C	T	chr17	58005919	58005919
ZH23	oesophagus_squamous_cell_carcinoma	30012096	17	65027124	65027124	G	A	chr17	67031008	67031008
ZH23	oesophagus_squamous_cell_carcinoma	30012096	18	66541992	66541992	A	T	chr18	68874755	68874755
ZH23	oesophagus_squamous_cell_carcinoma	30012096	19	40411896	40411896	A	G	NA	NA	NA
ZH23	oesophagus_squamous_cell_carcinoma	30012096	19	45543538	45543538	C	T	chr19	45040280	45040280
ZH23	oesophagus_squamous_cell_carcinoma	30012096	19	47258843	47258843	G	A	chr19	46755586	46755586
ZH23	oesophagus_squamous_cell_carcinoma	30012096	19	50881836	50881836	C	T	chr19	50378579	50378579
ZH23	oesophagus_squamous_cell_carcinoma	30012096	19	51483032	51483032	G	C	chr19	50979776	50979776
ZH23	oesophagus_squamous_cell_carcinoma	30012096	19	56388542	56388542	G	T	chr19	55877176	55877176
ZH23	oesophagus_squamous_cell_carcinoma	30012096	20	21687479	21687479	G	A	chr20	21706841	21706841
ZH23	oesophagus_squamous_cell_carcinoma	30012096	20	54824101	54824101	A	T	chr20	56249045	56249045
ZH23	oesophagus_squamous_cell_carcinoma	30012096	20	61430833	61430833	G	A	chr20	62799481	62799481
ZH23	oesophagus_squamous_cell_carcinoma	30012096	20	61456384	61456384	C	G	chr20	62825032	62825032
ZH23	oesophagus_squamous_cell_carcinoma	30012096	21	45152535	45152535	A	C	chr21	43732654	43732654
ZH23	oesophagus_squamous_cell_carcinoma	30012096	22	29884873	29884873	T	C	chr22	29488884	29488884
ZH23	oesophagus_squamous_cell_carcinoma	30012096	22	37325775	37325775	G	A	chr22	36929733	36929733
ZH23	oesophagus_squamous_cell_carcinoma	30012096	X	21670445	21670445	A	G	chrX	21652327	21652327
ZH23	oesophagus_squamous_cell_carcinoma	30012096	X	22291514	22291514	C	T	chrX	22273397	22273397
ZH23	oesophagus_squamous_cell_carcinoma	30012096	X	47035958	47035958	G	A	chrX	47176559	47176559
ZH23	oesophagus_squamous_cell_carcinoma	30012096	X	63410908	63410908	A	G	chrX	64191028	64191028
ZH23	oesophagus_squamous_cell_carcinoma	30012096	X	64738205	64738205	T	C	chrX	65518325	65518325
ZH23	oesophagus_squamous_cell_carcinoma	30012096	X	73815754	73815754	C	G	chrX	74595919	74595919
ZH23	oesophagus_squamous_cell_carcinoma	30012096	X	74641693	74641693	A	G	chrX	75421858	75421858
ZH24	oesophagus_squamous_cell_carcinoma	30012096	2	178682558	178682559	-	TATAAAC	chr2	177817831	177817832
ZH24	oesophagus_squamous_cell_carcinoma	30012096	3	140678385	140678385	A	-	chr3	140959543	140959543
ZH24	oesophagus_squamous_cell_carcinoma	30012096	14	20528449	20528467	CATAGATTTGCTCACTGAC	-	chr14	20060290	20060308
ZH24	oesophagus_squamous_cell_carcinoma	30012096	18	42456670	42456671	-	TCTT	chr18	44876705	44876706
ZH24	oesophagus_squamous_cell_carcinoma	30012096	19	48282077	48282078	-	GCAGCGG	chr19	47778820	47778821
ZH24	oesophagus_squamous_cell_carcinoma	30012096	1	21755345	21755345	T	C	chr1	21428852	21428852
ZH24	oesophagus_squamous_cell_carcinoma	30012096	12	49730135	49730135	G	C	chr12	49336352	49336352
ZH24	oesophagus_squamous_cell_carcinoma	30012096	17	21217547	21217547	T	C	chr17	21314235	21314235
ZH25	oesophagus_squamous_cell_carcinoma	30012096	1	17034456	17034463	GCGCGCGT	-	chr1	16707961	16707968
ZH25	oesophagus_squamous_cell_carcinoma	30012096	1	247486506	247486506	C	-	chr1	247323204	247323204
ZH25	oesophagus_squamous_cell_carcinoma	30012096	2	141272361	141272361	A	-	chr2	140514792	140514792
ZH25	oesophagus_squamous_cell_carcinoma	30012096	2	178540378	178540378	G	-	chr2	177675650	177675650
ZH25	oesophagus_squamous_cell_carcinoma	30012096	6	129796505	129796506	-	T	chr6	129475360	129475361
ZH25	oesophagus_squamous_cell_carcinoma	30012096	8	72967687	72967688	-	T	chr8	72055452	72055453
ZH25	oesophagus_squamous_cell_carcinoma	30012096	9	139617782	139617792	GCTCTTCCACG	-	chr9	136723330	136723340
ZH25	oesophagus_squamous_cell_carcinoma	30012096	12	123246766	123246767	-	T	chr12	122762219	122762220
ZH25	oesophagus_squamous_cell_carcinoma	30012096	15	42144968	42144968	G	-	chr15	41852770	41852770
ZH25	oesophagus_squamous_cell_carcinoma	30012096	18	21478792	21478799	TTTGAGAC	-	chr18	23898828	23898835
ZH25	oesophagus_squamous_cell_carcinoma	30012096	19	46124695	46124695	G	-	chr19	45621437	45621437
ZH25	oesophagus_squamous_cell_carcinoma	30012096	20	34542230	34542231	TT	-	chr20	35954308	35954309
ZH25	oesophagus_squamous_cell_carcinoma	30012096	X	74651359	74651360	-	A	chrX	75431524	75431525
ZH25	oesophagus_squamous_cell_carcinoma	30012096	1	1191455	1191455	G	C	chr1	1256075	1256075
ZH25	oesophagus_squamous_cell_carcinoma	30012096	1	8420355	8420355	G	C	chr1	8360295	8360295
ZH25	oesophagus_squamous_cell_carcinoma	30012096	1	10221306	10221306	G	C	chr1	10161248	10161248
ZH25	oesophagus_squamous_cell_carcinoma	30012096	1	10363216	10363216	C	T	chr1	10303158	10303158
ZH25	oesophagus_squamous_cell_carcinoma	30012096	1	21268692	21268692	G	T	chr1	20942199	20942199
ZH25	oesophagus_squamous_cell_carcinoma	30012096	1	26900679	26900679	C	T	chr1	26574188	26574188
ZH25	oesophagus_squamous_cell_carcinoma	30012096	1	29029069	29029069	G	C	chr1	28702557	28702557
ZH25	oesophagus_squamous_cell_carcinoma	30012096	1	32085289	32085289	G	A	chr1	31619688	31619688
ZH25	oesophagus_squamous_cell_carcinoma	30012096	1	32745834	32745834	G	A	chr1	32280233	32280233
ZH25	oesophagus_squamous_cell_carcinoma	30012096	1	38482040	38482040	C	T	chr1	38016368	38016368
ZH25	oesophagus_squamous_cell_carcinoma	30012096	1	44426637	44426637	G	C	chr1	43960965	43960965
ZH25	oesophagus_squamous_cell_carcinoma	30012096	1	46876455	46876455	G	C	chr1	46410783	46410783
ZH25	oesophagus_squamous_cell_carcinoma	30012096	1	46876470	46876470	C	T	chr1	46410798	46410798
ZH25	oesophagus_squamous_cell_carcinoma	30012096	1	50610417	50610417	C	G	chr1	50144745	50144745
ZH25	oesophagus_squamous_cell_carcinoma	30012096	1	94466368	94466368	G	A	chr1	94000812	94000812
ZH25	oesophagus_squamous_cell_carcinoma	30012096	1	94639778	94639778	C	A	chr1	94174222	94174222
ZH25	oesophagus_squamous_cell_carcinoma	30012096	1	149884849	149884849	C	G	chr1	149913297	149913297
ZH25	oesophagus_squamous_cell_carcinoma	30012096	1	153745171	153745171	G	A	chr1	153772695	153772695
ZH25	oesophagus_squamous_cell_carcinoma	30012096	1	153945520	153945520	C	T	chr1	153973044	153973044
ZH25	oesophagus_squamous_cell_carcinoma	30012096	1	156018385	156018385	C	T	chr1	156048594	156048594
ZH25	oesophagus_squamous_cell_carcinoma	30012096	1	156814392	156814392	G	A	chr1	156844600	156844600
ZH25	oesophagus_squamous_cell_carcinoma	30012096	1	157803080	157803080	C	T	chr1	157833290	157833290
ZH25	oesophagus_squamous_cell_carcinoma	30012096	1	160793466	160793466	C	T	chr1	160823676	160823676
ZH25	oesophagus_squamous_cell_carcinoma	30012096	1	169391376	169391376	G	A	chr1	169422138	169422138
ZH25	oesophagus_squamous_cell_carcinoma	30012096	1	180003185	180003185	G	A	chr1	180034050	180034050
ZH25	oesophagus_squamous_cell_carcinoma	30012096	1	183253144	183253144	C	T	chr1	183284009	183284009
ZH25	oesophagus_squamous_cell_carcinoma	30012096	1	200818862	200818862	A	G	chr1	200849734	200849734
ZH25	oesophagus_squamous_cell_carcinoma	30012096	1	201869457	201869457	C	T	chr1	201900329	201900329
ZH25	oesophagus_squamous_cell_carcinoma	30012096	1	203140510	203140510	C	A	chr1	203171382	203171382
ZH25	oesophagus_squamous_cell_carcinoma	30012096	1	204170926	204170926	G	A	chr1	204201798	204201798
ZH25	oesophagus_squamous_cell_carcinoma	30012096	1	204587460	204587460	G	A	chr1	204618332	204618332
ZH25	oesophagus_squamous_cell_carcinoma	30012096	1	205272602	205272602	C	T	chr1	205303474	205303474
ZH25	oesophagus_squamous_cell_carcinoma	30012096	1	205764057	205764057	C	T	chr1	205794929	205794929
ZH25	oesophagus_squamous_cell_carcinoma	30012096	1	216270418	216270418	C	T	chr1	216097076	216097076
ZH25	oesophagus_squamous_cell_carcinoma	30012096	1	220331238	220331238	G	A	chr1	220157896	220157896
ZH25	oesophagus_squamous_cell_carcinoma	30012096	1	235971734	235971734	G	A	chr1	235808434	235808434
ZH25	oesophagus_squamous_cell_carcinoma	30012096	1	236577633	236577633	G	C	chr1	236414333	236414333
ZH25	oesophagus_squamous_cell_carcinoma	30012096	2	23859851	23859851	T	C	chr2	23636981	23636981
ZH25	oesophagus_squamous_cell_carcinoma	30012096	2	27802320	27802320	C	G	chr2	27579453	27579453
ZH25	oesophagus_squamous_cell_carcinoma	30012096	2	36706767	36706767	T	C	chr2	36479624	36479624
ZH25	oesophagus_squamous_cell_carcinoma	30012096	2	61391653	61391653	G	C	chr2	61164518	61164518
ZH25	oesophagus_squamous_cell_carcinoma	30012096	2	64682737	64682737	T	C	chr2	64455603	64455603
ZH25	oesophagus_squamous_cell_carcinoma	30012096	2	86325794	86325794	C	G	chr2	86098671	86098671
ZH25	oesophagus_squamous_cell_carcinoma	30012096	2	97033132	97033132	C	T	chr2	96367394	96367394
ZH25	oesophagus_squamous_cell_carcinoma	30012096	2	109067546	109067546	G	A	chr2	108451090	108451090
ZH25	oesophagus_squamous_cell_carcinoma	30012096	2	113286340	113286340	C	G	chr2	112528763	112528763
ZH25	oesophagus_squamous_cell_carcinoma	30012096	2	127864520	127864520	C	G	chr2	127106944	127106944
ZH25	oesophagus_squamous_cell_carcinoma	30012096	2	128467130	128467130	G	C	chr2	127709556	127709556
ZH25	oesophagus_squamous_cell_carcinoma	30012096	2	158395228	158395228	T	C	chr2	157538716	157538716
ZH25	oesophagus_squamous_cell_carcinoma	30012096	2	166535950	166535950	G	A	chr2	165679440	165679440
ZH25	oesophagus_squamous_cell_carcinoma	30012096	2	168869194	168869194	G	C	chr2	168012684	168012684
ZH25	oesophagus_squamous_cell_carcinoma	30012096	2	174224171	174224171	C	T	chr2	173359443	173359443
ZH25	oesophagus_squamous_cell_carcinoma	30012096	2	178326699	178326699	C	T	chr2	177461971	177461971
ZH25	oesophagus_squamous_cell_carcinoma	30012096	2	179421845	179421845	C	T	chr2	178557118	178557118
ZH25	oesophagus_squamous_cell_carcinoma	30012096	2	179560928	179560928	C	T	chr2	178696201	178696201
ZH25	oesophagus_squamous_cell_carcinoma	30012096	2	189858924	189858924	A	C	chr2	188994198	188994198
ZH25	oesophagus_squamous_cell_carcinoma	30012096	2	227920759	227920759	C	A	chr2	227056043	227056043
ZH25	oesophagus_squamous_cell_carcinoma	30012096	2	230377507	230377507	C	A	chr2	229512791	229512791
ZH25	oesophagus_squamous_cell_carcinoma	30012096	2	234621953	234621953	C	T	chr2	233713307	233713307
ZH25	oesophagus_squamous_cell_carcinoma	30012096	2	242179412	242179412	C	T	chr2	241239997	241239997
ZH25	oesophagus_squamous_cell_carcinoma	30012096	3	3888249	3888249	G	A	chr3	3846565	3846565
ZH25	oesophagus_squamous_cell_carcinoma	30012096	3	9757206	9757206	G	A	chr3	9715522	9715522
ZH25	oesophagus_squamous_cell_carcinoma	30012096	3	37458952	37458952	C	G	chr3	37417461	37417461
ZH25	oesophagus_squamous_cell_carcinoma	30012096	3	37459056	37459056	C	T	chr3	37417565	37417565
ZH25	oesophagus_squamous_cell_carcinoma	30012096	3	46875122	46875122	C	G	chr3	46833632	46833632
ZH25	oesophagus_squamous_cell_carcinoma	30012096	3	49698102	49698102	C	A	chr3	49660669	49660669
ZH25	oesophagus_squamous_cell_carcinoma	30012096	3	49755591	49755591	G	C	chr3	49718158	49718158
ZH25	oesophagus_squamous_cell_carcinoma	30012096	3	58154288	58154288	C	T	chr3	58168561	58168561
ZH25	oesophagus_squamous_cell_carcinoma	30012096	3	64526937	64526937	G	A	chr3	64541261	64541261
ZH25	oesophagus_squamous_cell_carcinoma	30012096	3	81691953	81691953	C	A	chr3	81642802	81642802
ZH25	oesophagus_squamous_cell_carcinoma	30012096	3	98519390	98519390	C	G	chr3	98800546	98800546
ZH25	oesophagus_squamous_cell_carcinoma	30012096	3	111799905	111799905	C	G	chr3	112081058	112081058
ZH25	oesophagus_squamous_cell_carcinoma	30012096	3	120050042	120050042	C	G	chr3	120331195	120331195
ZH25	oesophagus_squamous_cell_carcinoma	30012096	3	121192368	121192368	G	A	chr3	121473521	121473521
ZH25	oesophagus_squamous_cell_carcinoma	30012096	3	124380737	124380737	A	G	chr3	124661890	124661890
ZH25	oesophagus_squamous_cell_carcinoma	30012096	3	129284367	129284367	G	A	chr3	129565524	129565524
ZH25	oesophagus_squamous_cell_carcinoma	30012096	3	142757711	142757711	A	G	chr3	143038869	143038869
ZH25	oesophagus_squamous_cell_carcinoma	30012096	3	145822088	145822088	G	A	chr3	146104301	146104301
ZH25	oesophagus_squamous_cell_carcinoma	30012096	3	178952085	178952085	A	G	chr3	179234297	179234297
ZH25	oesophagus_squamous_cell_carcinoma	30012096	4	2307118	2307118	C	A	chr4	2305391	2305391
ZH25	oesophagus_squamous_cell_carcinoma	30012096	4	2695623	2695623	G	A	chr4	2693896	2693896
ZH25	oesophagus_squamous_cell_carcinoma	30012096	4	2696749	2696749	G	C	chr4	2695022	2695022
ZH25	oesophagus_squamous_cell_carcinoma	30012096	4	2696786	2696786	C	T	chr4	2695059	2695059
ZH25	oesophagus_squamous_cell_carcinoma	30012096	4	2701742	2701742	G	C	chr4	2700015	2700015
ZH25	oesophagus_squamous_cell_carcinoma	30012096	4	48592691	48592691	C	T	chr4	48590674	48590674
ZH25	oesophagus_squamous_cell_carcinoma	30012096	4	68610406	68610406	G	A	chr4	67744688	67744688
ZH25	oesophagus_squamous_cell_carcinoma	30012096	4	76804081	76804081	T	C	chr4	75882928	75882928
ZH25	oesophagus_squamous_cell_carcinoma	30012096	4	88813046	88813046	C	G	chr4	87891894	87891894
ZH25	oesophagus_squamous_cell_carcinoma	30012096	4	105412131	105412131	G	C	chr4	104490974	104490974
ZH25	oesophagus_squamous_cell_carcinoma	30012096	4	107249254	107249254	C	G	chr4	106328097	106328097
ZH25	oesophagus_squamous_cell_carcinoma	30012096	4	119259411	119259411	T	C	chr4	118338256	118338256
ZH25	oesophagus_squamous_cell_carcinoma	30012096	4	134085079	134085079	G	C	chr4	133163924	133163924
ZH25	oesophagus_squamous_cell_carcinoma	30012096	5	7878480	7878480	A	T	chr5	7878367	7878367
ZH25	oesophagus_squamous_cell_carcinoma	30012096	5	13736035	13736035	G	A	chr5	13735926	13735926
ZH25	oesophagus_squamous_cell_carcinoma	30012096	5	16758239	16758239	G	A	chr5	16758130	16758130
ZH25	oesophagus_squamous_cell_carcinoma	30012096	5	24498527	24498527	C	G	chr5	24498418	24498418
ZH25	oesophagus_squamous_cell_carcinoma	30012096	5	24498591	24498591	C	A	chr5	24498482	24498482
ZH25	oesophagus_squamous_cell_carcinoma	30012096	5	37371053	37371053	C	T	chr5	37370951	37370951
ZH25	oesophagus_squamous_cell_carcinoma	30012096	5	37392167	37392167	G	C	chr5	37392065	37392065
ZH25	oesophagus_squamous_cell_carcinoma	30012096	5	38463987	38463987	G	A	chr5	38463885	38463885
ZH25	oesophagus_squamous_cell_carcinoma	30012096	5	40843414	40843414	C	T	chr5	40843312	40843312
ZH25	oesophagus_squamous_cell_carcinoma	30012096	5	76621472	76621472	G	C	chr5	77325647	77325647
ZH25	oesophagus_squamous_cell_carcinoma	30012096	5	93807373	93807373	C	T	chr5	94471668	94471668
ZH25	oesophagus_squamous_cell_carcinoma	30012096	5	134688733	134688733	C	T	chr5	135353043	135353043
ZH25	oesophagus_squamous_cell_carcinoma	30012096	5	140723899	140723899	C	T	chr5	141344332	141344332
ZH25	oesophagus_squamous_cell_carcinoma	30012096	5	140794696	140794696	G	A	chr5	141415129	141415129
ZH25	oesophagus_squamous_cell_carcinoma	30012096	5	151183490	151183490	G	A	chr5	151803929	151803929
ZH25	oesophagus_squamous_cell_carcinoma	30012096	5	158753751	158753751	C	A	chr5	159326743	159326743
ZH25	oesophagus_squamous_cell_carcinoma	30012096	6	32411574	32411574	G	A	chr6	32443797	32443797
ZH25	oesophagus_squamous_cell_carcinoma	30012096	6	33287415	33287415	C	T	chr6	33319638	33319638
ZH25	oesophagus_squamous_cell_carcinoma	30012096	6	36765998	36765998	G	C	chr6	36798221	36798221
ZH25	oesophagus_squamous_cell_carcinoma	30012096	6	41908122	41908122	G	A	chr6	41940384	41940384
ZH25	oesophagus_squamous_cell_carcinoma	30012096	6	49668349	49668349	C	G	chr6	49700636	49700636
ZH25	oesophagus_squamous_cell_carcinoma	30012096	6	49819680	49819680	T	C	chr6	49851967	49851967
ZH25	oesophagus_squamous_cell_carcinoma	30012096	6	51524369	51524369	G	A	chr6	51659571	51659571
ZH25	oesophagus_squamous_cell_carcinoma	30012096	6	64394490	64394490	A	T	chr6	63684589	63684589
ZH25	oesophagus_squamous_cell_carcinoma	30012096	6	88273853	88273853	C	G	chr6	87564135	87564135
ZH25	oesophagus_squamous_cell_carcinoma	30012096	6	96651581	96651581	A	C	chr6	96203705	96203705
ZH25	oesophagus_squamous_cell_carcinoma	30012096	6	112025271	112025271	C	G	chr6	111704068	111704068
ZH25	oesophagus_squamous_cell_carcinoma	30012096	6	127901579	127901579	G	C	chr6	127580434	127580434
ZH25	oesophagus_squamous_cell_carcinoma	30012096	6	132938849	132938849	G	C	chr6	132617710	132617710
ZH25	oesophagus_squamous_cell_carcinoma	30012096	6	144508575	144508575	G	C	chr6	144187438	144187438
ZH25	oesophagus_squamous_cell_carcinoma	30012096	6	151152558	151152558	C	A	chr6	150831422	150831422
ZH25	oesophagus_squamous_cell_carcinoma	30012096	6	153043223	153043223	G	C	chr6	152722088	152722088
ZH25	oesophagus_squamous_cell_carcinoma	30012096	6	170173406	170173406	C	T	chr6	169773310	169773310
ZH25	oesophagus_squamous_cell_carcinoma	30012096	7	6550313	6550313	G	A	chr7	6510682	6510682
ZH25	oesophagus_squamous_cell_carcinoma	30012096	7	16839356	16839356	A	G	chr7	16799732	16799732
ZH25	oesophagus_squamous_cell_carcinoma	30012096	7	18669079	18669079	C	G	chr7	18629456	18629456
ZH25	oesophagus_squamous_cell_carcinoma	30012096	7	24892155	24892155	G	C	chr7	24852536	24852536
ZH25	oesophagus_squamous_cell_carcinoma	30012096	7	28527799	28527799	G	C	chr7	28488181	28488181
ZH25	oesophagus_squamous_cell_carcinoma	30012096	7	33075561	33075561	G	A	chr7	33035949	33035949
ZH25	oesophagus_squamous_cell_carcinoma	30012096	7	36561742	36561742	G	A	chr7	36522136	36522136
ZH25	oesophagus_squamous_cell_carcinoma	30012096	7	45113823	45113823	C	T	chr7	45074224	45074224
ZH25	oesophagus_squamous_cell_carcinoma	30012096	7	70227940	70227940	G	T	chr7	70762954	70762954
ZH25	oesophagus_squamous_cell_carcinoma	30012096	7	73752802	73752802	C	G	chr7	74338472	74338472
ZH25	oesophagus_squamous_cell_carcinoma	30012096	7	76959716	76959716	G	A	chr7	77330399	77330399
ZH25	oesophagus_squamous_cell_carcinoma	30012096	7	87180040	87180040	C	T	chr7	87550724	87550724
ZH25	oesophagus_squamous_cell_carcinoma	30012096	7	93516756	93516756	G	T	chr7	93887444	93887444
ZH25	oesophagus_squamous_cell_carcinoma	30012096	7	99661902	99661902	T	A	chr7	100064279	100064279
ZH25	oesophagus_squamous_cell_carcinoma	30012096	7	102760081	102760081	C	T	chr7	103119634	103119634
ZH25	oesophagus_squamous_cell_carcinoma	30012096	7	105903852	105903852	C	G	chr7	106263406	106263406
ZH25	oesophagus_squamous_cell_carcinoma	30012096	7	105909610	105909610	G	C	chr7	106269164	106269164
ZH25	oesophagus_squamous_cell_carcinoma	30012096	7	120607633	120607633	G	A	chr7	120967579	120967579
ZH25	oesophagus_squamous_cell_carcinoma	30012096	7	130038850	130038850	C	T	chr7	130399009	130399009
ZH25	oesophagus_squamous_cell_carcinoma	30012096	7	135047586	135047586	G	A	chr7	135362834	135362834
ZH25	oesophagus_squamous_cell_carcinoma	30012096	7	139299088	139299088	C	A	chr7	139614342	139614342
ZH25	oesophagus_squamous_cell_carcinoma	30012096	7	148484189	148484189	G	C	chr7	148787097	148787097
ZH25	oesophagus_squamous_cell_carcinoma	30012096	7	148709118	148709118	G	C	chr7	149012026	149012026
ZH25	oesophagus_squamous_cell_carcinoma	30012096	8	17409379	17409379	G	A	chr8	17551870	17551870
ZH25	oesophagus_squamous_cell_carcinoma	30012096	8	25178500	25178500	C	T	chr8	25320984	25320984
ZH25	oesophagus_squamous_cell_carcinoma	30012096	8	38948771	38948771	C	G	chr8	39091252	39091252
ZH25	oesophagus_squamous_cell_carcinoma	30012096	8	42040415	42040415	G	A	chr8	42182897	42182897
ZH25	oesophagus_squamous_cell_carcinoma	30012096	8	90967488	90967488	G	C	chr8	89955260	89955260
ZH25	oesophagus_squamous_cell_carcinoma	30012096	8	113668440	113668440	G	A	chr8	112656211	112656211
ZH25	oesophagus_squamous_cell_carcinoma	30012096	8	143396352	143396352	C	T	chr8	142314991	142314991
ZH25	oesophagus_squamous_cell_carcinoma	30012096	8	144644117	144644117	C	T	chr8	143561947	143561947
ZH25	oesophagus_squamous_cell_carcinoma	30012096	8	144919465	144919465	C	T	chr8	143837293	143837293
ZH25	oesophagus_squamous_cell_carcinoma	30012096	9	32784466	32784466	G	A	chr9	32784468	32784468
ZH25	oesophagus_squamous_cell_carcinoma	30012096	9	86585790	86585790	C	G	chr9	83970875	83970875
ZH25	oesophagus_squamous_cell_carcinoma	30012096	9	95077718	95077718	T	A	chr9	92315436	92315436
ZH25	oesophagus_squamous_cell_carcinoma	30012096	9	95846829	95846829	G	C	chr9	93084547	93084547
ZH25	oesophagus_squamous_cell_carcinoma	30012096	9	97218557	97218557	C	T	chr9	94456275	94456275
ZH25	oesophagus_squamous_cell_carcinoma	30012096	9	104433134	104433134	C	T	chr9	101670852	101670852
ZH25	oesophagus_squamous_cell_carcinoma	30012096	9	113218033	113218033	G	A	chr9	110455753	110455753
ZH25	oesophagus_squamous_cell_carcinoma	30012096	9	116053903	116053903	C	G	chr9	113291623	113291623
ZH25	oesophagus_squamous_cell_carcinoma	30012096	9	123334284	123334284	C	T	chr9	120572006	120572006
ZH25	oesophagus_squamous_cell_carcinoma	30012096	9	123782448	123782448	C	G	chr9	121020170	121020170
ZH25	oesophagus_squamous_cell_carcinoma	30012096	9	123919763	123919763	G	A	chr9	121157485	121157485
ZH25	oesophagus_squamous_cell_carcinoma	30012096	9	123919775	123919775	G	A	chr9	121157497	121157497
ZH25	oesophagus_squamous_cell_carcinoma	30012096	9	130996372	130996372	C	T	chr9	128234093	128234093
ZH25	oesophagus_squamous_cell_carcinoma	30012096	9	135206528	135206528	T	A	chr9	132331141	132331141
ZH25	oesophagus_squamous_cell_carcinoma	30012096	9	139324234	139324234	C	G	chr9	136429782	136429782
ZH25	oesophagus_squamous_cell_carcinoma	30012096	9	139925109	139925109	G	A	chr9	137030657	137030657
ZH25	oesophagus_squamous_cell_carcinoma	30012096	9	140007742	140007742	G	A	chr9	137113290	137113290
ZH25	oesophagus_squamous_cell_carcinoma	30012096	9	140099867	140099867	C	T	chr9	137205415	137205415
ZH25	oesophagus_squamous_cell_carcinoma	30012096	9	140901168	140901168	G	C	chr9	138006716	138006716
ZH25	oesophagus_squamous_cell_carcinoma	30012096	10	50533932	50533932	C	A	chr10	49325887	49325887
ZH25	oesophagus_squamous_cell_carcinoma	30012096	10	94230032	94230032	G	A	chr10	92470275	92470275
ZH25	oesophagus_squamous_cell_carcinoma	30012096	10	104120822	104120822	G	A	chr10	102361065	102361065
ZH25	oesophagus_squamous_cell_carcinoma	30012096	10	105792051	105792051	G	A	chr10	104032293	104032293
ZH25	oesophagus_squamous_cell_carcinoma	30012096	10	105831826	105831826	G	C	chr10	104072068	104072068
ZH25	oesophagus_squamous_cell_carcinoma	30012096	10	117061376	117061376	C	G	chr10	115301866	115301866
ZH25	oesophagus_squamous_cell_carcinoma	30012096	10	127417506	127417506	C	G	chr10	125728937	125728937
ZH25	oesophagus_squamous_cell_carcinoma	30012096	11	2436489	2436489	G	T	chr11	2415259	2415259
ZH25	oesophagus_squamous_cell_carcinoma	30012096	11	3681406	3681406	C	T	chr11	3660176	3660176
ZH25	oesophagus_squamous_cell_carcinoma	30012096	11	5424757	5424757	G	C	chr11	5403527	5403527
ZH25	oesophagus_squamous_cell_carcinoma	30012096	11	5968968	5968968	G	T	chr11	5947738	5947738
ZH25	oesophagus_squamous_cell_carcinoma	30012096	11	6913194	6913194	C	A	chr11	6891963	6891963
ZH25	oesophagus_squamous_cell_carcinoma	30012096	11	9598850	9598850	G	A	chr11	9577303	9577303
ZH25	oesophagus_squamous_cell_carcinoma	30012096	11	12264184	12264184	C	G	chr11	12242637	12242637
ZH25	oesophagus_squamous_cell_carcinoma	30012096	11	17742857	17742857	C	T	chr11	17721310	17721310
ZH25	oesophagus_squamous_cell_carcinoma	30012096	11	49175488	49175488	G	C	chr11	49153936	49153936
ZH25	oesophagus_squamous_cell_carcinoma	30012096	11	55587522	55587522	G	C	chr11	55820046	55820046
ZH25	oesophagus_squamous_cell_carcinoma	30012096	11	55735638	55735638	G	A	chr11	55968162	55968162
ZH25	oesophagus_squamous_cell_carcinoma	30012096	11	57456106	57456106	C	T	chr11	57688634	57688634
ZH25	oesophagus_squamous_cell_carcinoma	30012096	11	62556630	62556630	C	T	chr11	62789158	62789158
ZH25	oesophagus_squamous_cell_carcinoma	30012096	11	62556946	62556946	C	G	chr11	62789474	62789474
ZH25	oesophagus_squamous_cell_carcinoma	30012096	11	64032692	64032692	C	A	chr11	64265220	64265220
ZH25	oesophagus_squamous_cell_carcinoma	30012096	11	65315407	65315407	C	T	chr11	65547936	65547936
ZH25	oesophagus_squamous_cell_carcinoma	30012096	11	65362990	65362990	G	C	chr11	65595519	65595519
ZH25	oesophagus_squamous_cell_carcinoma	30012096	11	65413340	65413340	C	T	chr11	65645869	65645869
ZH25	oesophagus_squamous_cell_carcinoma	30012096	11	66581411	66581411	G	C	chr11	66813940	66813940
ZH25	oesophagus_squamous_cell_carcinoma	30012096	11	67017975	67017975	C	G	chr11	67250504	67250504
ZH25	oesophagus_squamous_cell_carcinoma	30012096	11	72794799	72794799	G	C	chr11	73083754	73083754
ZH25	oesophagus_squamous_cell_carcinoma	30012096	11	102221637	102221637	G	C	chr11	102350906	102350906
ZH25	oesophagus_squamous_cell_carcinoma	30012096	11	113270593	113270593	A	G	chr11	113399871	113399871
ZH25	oesophagus_squamous_cell_carcinoma	30012096	11	123777933	123777933	C	A	chr11	123907226	123907226
ZH25	oesophagus_squamous_cell_carcinoma	30012096	12	10205299	10205299	G	A	chr12	10052700	10052700
ZH25	oesophagus_squamous_cell_carcinoma	30012096	12	21919258	21919258	A	G	chr12	21766324	21766324
ZH25	oesophagus_squamous_cell_carcinoma	30012096	12	56536194	56536194	G	C	chr12	56142410	56142410
ZH25	oesophagus_squamous_cell_carcinoma	30012096	12	57603909	57603909	C	T	chr12	57210126	57210126
ZH25	oesophagus_squamous_cell_carcinoma	30012096	12	80665508	80665508	G	A	chr12	80271728	80271728
ZH25	oesophagus_squamous_cell_carcinoma	30012096	12	97137917	97137917	G	C	chr12	96744139	96744139
ZH25	oesophagus_squamous_cell_carcinoma	30012096	12	110342601	110342601	G	A	chr12	109904796	109904796
ZH25	oesophagus_squamous_cell_carcinoma	30012096	12	112369540	112369540	C	T	chr12	111931736	111931736
ZH25	oesophagus_squamous_cell_carcinoma	30012096	12	120128183	120128183	C	T	chr12	119690378	119690378
ZH25	oesophagus_squamous_cell_carcinoma	30012096	12	133659758	133659758	C	G	chr12	133083172	133083172
ZH25	oesophagus_squamous_cell_carcinoma	30012096	13	36245130	36245130	G	C	chr13	35670993	35670993
ZH25	oesophagus_squamous_cell_carcinoma	30012096	13	39343942	39343942	G	C	chr13	38769805	38769805
ZH25	oesophagus_squamous_cell_carcinoma	30012096	13	39587532	39587532	G	C	chr13	39013395	39013395
ZH25	oesophagus_squamous_cell_carcinoma	30012096	13	43597830	43597830	C	T	chr13	43023694	43023694
ZH25	oesophagus_squamous_cell_carcinoma	30012096	13	46725052	46725052	C	G	chr13	46150917	46150917
ZH25	oesophagus_squamous_cell_carcinoma	30012096	13	76393601	76393601	G	A	chr13	75819465	75819465
ZH25	oesophagus_squamous_cell_carcinoma	30012096	13	76412281	76412281	G	C	chr13	75838145	75838145
ZH25	oesophagus_squamous_cell_carcinoma	30012096	13	113496658	113496658	G	A	chr13	112842344	112842344
ZH25	oesophagus_squamous_cell_carcinoma	30012096	14	24648055	24648055	G	A	chr14	24178849	24178849
ZH25	oesophagus_squamous_cell_carcinoma	30012096	14	35579108	35579108	C	T	chr14	35109902	35109902
ZH25	oesophagus_squamous_cell_carcinoma	30012096	14	100593003	100593003	G	A	chr14	100126666	100126666
ZH25	oesophagus_squamous_cell_carcinoma	30012096	14	105415131	105415131	C	T	chr14	104948794	104948794
ZH25	oesophagus_squamous_cell_carcinoma	30012096	14	105618594	105618594	C	T	chr14	105152257	105152257
ZH25	oesophagus_squamous_cell_carcinoma	30012096	14	105642940	105642940	C	T	chr14	105176603	105176603
ZH25	oesophagus_squamous_cell_carcinoma	30012096	15	25223412	25223412	C	T	chr15	24978265	24978265
ZH25	oesophagus_squamous_cell_carcinoma	30012096	15	35234298	35234298	G	C	chr15	34942097	34942097
ZH25	oesophagus_squamous_cell_carcinoma	30012096	15	40662409	40662409	C	T	chr15	40370208	40370208
ZH25	oesophagus_squamous_cell_carcinoma	30012096	15	41364150	41364150	G	C	chr15	41071952	41071952
ZH25	oesophagus_squamous_cell_carcinoma	30012096	15	41853322	41853322	C	G	chr15	41561124	41561124
ZH25	oesophagus_squamous_cell_carcinoma	30012096	15	42139643	42139643	G	C	chr15	41847445	41847445
ZH25	oesophagus_squamous_cell_carcinoma	30012096	15	42287535	42287535	G	C	chr15	41995337	41995337
ZH25	oesophagus_squamous_cell_carcinoma	30012096	15	43941036	43941036	G	C	chr15	43648838	43648838
ZH25	oesophagus_squamous_cell_carcinoma	30012096	15	48513186	48513186	T	C	chr15	48220989	48220989
ZH25	oesophagus_squamous_cell_carcinoma	30012096	15	83793481	83793481	G	A	chr15	83124729	83124729
ZH25	oesophagus_squamous_cell_carcinoma	30012096	15	91423048	91423048	G	T	chr15	90879818	90879818
ZH25	oesophagus_squamous_cell_carcinoma	30012096	15	91423354	91423354	G	C	chr15	90880124	90880124
ZH25	oesophagus_squamous_cell_carcinoma	30012096	15	99670761	99670761	C	T	chr15	99130556	99130556
ZH25	oesophagus_squamous_cell_carcinoma	30012096	16	615070	615070	G	C	chr16	565070	565070
ZH25	oesophagus_squamous_cell_carcinoma	30012096	16	684803	684803	G	C	chr16	634803	634803
ZH25	oesophagus_squamous_cell_carcinoma	30012096	16	721767	721767	G	C	chr16	671767	671767
ZH25	oesophagus_squamous_cell_carcinoma	30012096	16	2086342	2086342	G	C	chr16	2036341	2036341
ZH25	oesophagus_squamous_cell_carcinoma	30012096	16	2304056	2304056	G	T	chr16	2254055	2254055
ZH25	oesophagus_squamous_cell_carcinoma	30012096	16	4910732	4910732	G	C	chr16	4860731	4860731
ZH25	oesophagus_squamous_cell_carcinoma	30012096	16	30393245	30393245	G	C	chr16	30381924	30381924
ZH25	oesophagus_squamous_cell_carcinoma	30012096	16	57945814	57945814	G	A	chr16	57911910	57911910
ZH25	oesophagus_squamous_cell_carcinoma	30012096	16	67578872	67578872	G	A	chr16	67544969	67544969
ZH25	oesophagus_squamous_cell_carcinoma	30012096	16	71096054	71096054	C	T	chr16	71062151	71062151
ZH25	oesophagus_squamous_cell_carcinoma	30012096	16	88810006	88810006	G	C	chr16	88743598	88743598
ZH25	oesophagus_squamous_cell_carcinoma	30012096	17	4455166	4455166	A	G	chr17	4551871	4551871
ZH25	oesophagus_squamous_cell_carcinoma	30012096	17	4883854	4883854	C	T	chr17	4980559	4980559
ZH25	oesophagus_squamous_cell_carcinoma	30012096	17	7577120	7577120	C	A	chr17	7673802	7673802
ZH25	oesophagus_squamous_cell_carcinoma	30012096	17	10408541	10408541	T	C	chr17	10505224	10505224
ZH25	oesophagus_squamous_cell_carcinoma	30012096	17	38519811	38519811	G	C	chr17	40363559	40363559
ZH25	oesophagus_squamous_cell_carcinoma	30012096	17	38600337	38600337	G	A	chr17	40444085	40444085
ZH25	oesophagus_squamous_cell_carcinoma	30012096	17	45727733	45727733	C	T	chr17	47650367	47650367
ZH25	oesophagus_squamous_cell_carcinoma	30012096	17	46874500	46874500	G	C	chr17	48797138	48797138
ZH25	oesophagus_squamous_cell_carcinoma	30012096	17	49302453	49302453	C	G	chr17	51225092	51225092
ZH25	oesophagus_squamous_cell_carcinoma	30012096	17	60679576	60679576	G	C	chr17	62602215	62602215
ZH25	oesophagus_squamous_cell_carcinoma	30012096	17	62788547	62788547	C	T	chr17	64792429	64792429
ZH25	oesophagus_squamous_cell_carcinoma	30012096	17	72916071	72916071	G	A	chr17	74919976	74919976
ZH25	oesophagus_squamous_cell_carcinoma	30012096	17	73699348	73699348	G	A	chr17	75703268	75703268
ZH25	oesophagus_squamous_cell_carcinoma	30012096	17	74014315	74014315	C	T	chr17	76018234	76018234
ZH25	oesophagus_squamous_cell_carcinoma	30012096	17	79966940	79966940	G	A	chr17	82009064	82009064
ZH25	oesophagus_squamous_cell_carcinoma	30012096	17	79967006	79967006	G	A	chr17	82009130	82009130
ZH25	oesophagus_squamous_cell_carcinoma	30012096	17	79967372	79967372	G	A	chr17	82009496	82009496
ZH25	oesophagus_squamous_cell_carcinoma	30012096	18	580399	580399	G	C	chr18	580399	580399
ZH25	oesophagus_squamous_cell_carcinoma	30012096	18	9257210	9257210	C	G	chr18	9257212	9257212
ZH25	oesophagus_squamous_cell_carcinoma	30012096	18	21519248	21519248	C	G	chr18	23939284	23939284
ZH25	oesophagus_squamous_cell_carcinoma	30012096	18	76753176	76753176	G	T	chr18	78993176	78993176
ZH25	oesophagus_squamous_cell_carcinoma	30012096	19	5824263	5824263	C	G	chr19	5824252	5824252
ZH25	oesophagus_squamous_cell_carcinoma	30012096	19	7684484	7684484	C	G	chr19	7619598	7619598
ZH25	oesophagus_squamous_cell_carcinoma	30012096	19	9009762	9009762	G	C	chr19	8899086	8899086
ZH25	oesophagus_squamous_cell_carcinoma	30012096	19	10798339	10798339	C	A	chr19	10687663	10687663
ZH25	oesophagus_squamous_cell_carcinoma	30012096	19	15648289	15648289	C	T	chr19	15537478	15537478
ZH25	oesophagus_squamous_cell_carcinoma	30012096	19	16860014	16860014	C	G	chr19	16749203	16749203
ZH25	oesophagus_squamous_cell_carcinoma	30012096	19	17441570	17441570	C	T	chr19	17330761	17330761
ZH25	oesophagus_squamous_cell_carcinoma	30012096	19	18541636	18541636	C	T	chr19	18430826	18430826
ZH25	oesophagus_squamous_cell_carcinoma	30012096	19	19643446	19643446	C	T	chr19	19532637	19532637
ZH25	oesophagus_squamous_cell_carcinoma	30012096	19	35718846	35718846	G	A	chr19	35227943	35227943
ZH25	oesophagus_squamous_cell_carcinoma	30012096	19	36322061	36322061	C	T	chr19	35831159	35831159
ZH25	oesophagus_squamous_cell_carcinoma	30012096	19	38161061	38161061	T	C	chr19	37670160	37670160
ZH25	oesophagus_squamous_cell_carcinoma	30012096	19	39208614	39208614	C	T	chr19	38717974	38717974
ZH25	oesophagus_squamous_cell_carcinoma	30012096	19	41111586	41111586	C	G	chr19	40605680	40605680
ZH25	oesophagus_squamous_cell_carcinoma	30012096	19	45867187	45867187	C	G	chr19	45363929	45363929
ZH25	oesophagus_squamous_cell_carcinoma	30012096	19	45992788	45992788	C	T	chr19	45489530	45489530
ZH25	oesophagus_squamous_cell_carcinoma	30012096	19	48965257	48965257	C	T	chr19	48462000	48462000
ZH25	oesophagus_squamous_cell_carcinoma	30012096	19	51159588	51159588	C	G	chr19	50656331	50656331
ZH25	oesophagus_squamous_cell_carcinoma	30012096	19	51503286	51503286	G	A	chr19	51000030	51000030
ZH25	oesophagus_squamous_cell_carcinoma	30012096	19	51995097	51995097	G	C	chr19	51491843	51491843
ZH25	oesophagus_squamous_cell_carcinoma	30012096	19	53667878	53667878	C	G	chr19	53164625	53164625
ZH25	oesophagus_squamous_cell_carcinoma	30012096	19	58198613	58198613	C	T	chr19	57687245	57687245
ZH25	oesophagus_squamous_cell_carcinoma	30012096	19	58491390	58491390	T	G	chr19	57980022	57980022
ZH25	oesophagus_squamous_cell_carcinoma	30012096	20	2774985	2774985	G	A	chr20	2794339	2794339
ZH25	oesophagus_squamous_cell_carcinoma	30012096	20	9561454	9561454	G	A	chr20	9580807	9580807
ZH25	oesophagus_squamous_cell_carcinoma	30012096	20	20149920	20149920	A	T	chr20	20169276	20169276
ZH25	oesophagus_squamous_cell_carcinoma	30012096	20	21142497	21142497	C	G	chr20	21161856	21161856
ZH25	oesophagus_squamous_cell_carcinoma	30012096	20	31023074	31023074	G	A	chr20	32435271	32435271
ZH25	oesophagus_squamous_cell_carcinoma	30012096	20	44176000	44176000	G	A	chr20	45547361	45547361
ZH25	oesophagus_squamous_cell_carcinoma	30012096	20	44538279	44538279	C	G	chr20	45909640	45909640
ZH25	oesophagus_squamous_cell_carcinoma	30012096	20	46254193	46254193	G	C	chr20	47625449	47625449
ZH25	oesophagus_squamous_cell_carcinoma	30012096	20	48741703	48741703	G	T	chr20	50125166	50125166
ZH25	oesophagus_squamous_cell_carcinoma	30012096	20	57415626	57415626	C	T	chr20	58840571	58840571
ZH25	oesophagus_squamous_cell_carcinoma	30012096	20	58645711	58645711	C	T	chr20	60070656	60070656
ZH25	oesophagus_squamous_cell_carcinoma	30012096	20	61537316	61537316	G	A	chr20	62905964	62905964
ZH25	oesophagus_squamous_cell_carcinoma	30012096	21	37652617	37652617	G	T	chr21	36280319	36280319
ZH25	oesophagus_squamous_cell_carcinoma	30012096	21	44195444	44195444	C	T	chr21	42775334	42775334
ZH25	oesophagus_squamous_cell_carcinoma	30012096	21	45945689	45945689	C	G	chr21	44525806	44525806
ZH25	oesophagus_squamous_cell_carcinoma	30012096	21	45947333	45947333	C	G	chr21	44527450	44527450
ZH25	oesophagus_squamous_cell_carcinoma	30012096	21	47570223	47570223	G	A	chr21	46150309	46150309
ZH25	oesophagus_squamous_cell_carcinoma	30012096	22	18363991	18363991	G	A	chr22	17881225	17881225
ZH25	oesophagus_squamous_cell_carcinoma	30012096	22	19164667	19164667	G	A	chr22	19177154	19177154
ZH25	oesophagus_squamous_cell_carcinoma	30012096	22	20229415	20229415	C	T	chr22	20241892	20241892
ZH25	oesophagus_squamous_cell_carcinoma	30012096	22	25150111	25150111	C	T	chr22	24754144	24754144
ZH25	oesophagus_squamous_cell_carcinoma	30012096	22	26224828	26224828	G	C	chr22	25828861	25828861
ZH25	oesophagus_squamous_cell_carcinoma	30012096	22	32009662	32009662	G	A	chr22	31613676	31613676
ZH25	oesophagus_squamous_cell_carcinoma	30012096	22	32009711	32009711	G	C	chr22	31613725	31613725
ZH25	oesophagus_squamous_cell_carcinoma	30012096	22	37891807	37891807	G	A	chr22	37495800	37495800
ZH25	oesophagus_squamous_cell_carcinoma	30012096	22	41556665	41556665	T	C	chr22	41160661	41160661
ZH25	oesophagus_squamous_cell_carcinoma	30012096	22	41907933	41907933	C	T	chr22	41511929	41511929
ZH25	oesophagus_squamous_cell_carcinoma	30012096	22	42377836	42377836	C	T	chr22	41981832	41981832
ZH25	oesophagus_squamous_cell_carcinoma	30012096	22	46627781	46627781	G	A	chr22	46231884	46231884
ZH25	oesophagus_squamous_cell_carcinoma	30012096	22	50728197	50728197	C	T	chr22	50289768	50289768
ZH25	oesophagus_squamous_cell_carcinoma	30012096	X	24082495	24082495	C	G	chrX	24064378	24064378
ZH25	oesophagus_squamous_cell_carcinoma	30012096	X	26157996	26157996	C	T	chrX	26139879	26139879
ZH25	oesophagus_squamous_cell_carcinoma	30012096	X	40556438	40556438	G	A	chrX	40697186	40697186
ZH25	oesophagus_squamous_cell_carcinoma	30012096	X	48159090	48159090	G	C	chrX	48299655	48299655
ZH25	oesophagus_squamous_cell_carcinoma	30012096	X	68060377	68060377	G	A	chrX	68840534	68840534
ZH25	oesophagus_squamous_cell_carcinoma	30012096	X	91134204	91134204	T	A	chrX	91879205	91879205
ZH25	oesophagus_squamous_cell_carcinoma	30012096	X	110388145	110388145	A	T	chrX	111144917	111144917
ZH25	oesophagus_squamous_cell_carcinoma	30012096	X	135431373	135431373	T	C	chrX	136349214	136349214
ZH26	oesophagus_squamous_cell_carcinoma	30012096	2	99721805	99721805	T	-	chr2	99105342	99105342
ZH26	oesophagus_squamous_cell_carcinoma	30012096	2	178682558	178682559	-	TATAAAC	chr2	177817831	177817832
ZH26	oesophagus_squamous_cell_carcinoma	30012096	3	196088810	196088810	A	-	chr3	196361939	196361939
ZH26	oesophagus_squamous_cell_carcinoma	30012096	7	26224868	26224886	CTGGGAAGTCACAGAAGAT	-	chr7	26185248	26185266
ZH26	oesophagus_squamous_cell_carcinoma	30012096	X	50112027	50112028	-	A	chrX	50369028	50369029
ZH26	oesophagus_squamous_cell_carcinoma	30012096	1	14068460	14068460	C	G	chr1	13741965	13741965
ZH26	oesophagus_squamous_cell_carcinoma	30012096	1	32658914	32658914	C	T	chr1	32193313	32193313
ZH26	oesophagus_squamous_cell_carcinoma	30012096	1	36754830	36754830	C	T	chr1	36289229	36289229
ZH26	oesophagus_squamous_cell_carcinoma	30012096	1	151263496	151263496	G	A	chr1	151291020	151291020
ZH26	oesophagus_squamous_cell_carcinoma	30012096	1	152328182	152328182	C	T	chr1	152355706	152355706
ZH26	oesophagus_squamous_cell_carcinoma	30012096	1	154999078	154999078	G	A	chr1	155026602	155026602
ZH26	oesophagus_squamous_cell_carcinoma	30012096	1	202549560	202549560	C	A	chr1	202580432	202580432
ZH26	oesophagus_squamous_cell_carcinoma	30012096	1	204971794	204971794	C	T	chr1	205002666	205002666
ZH26	oesophagus_squamous_cell_carcinoma	30012096	1	216497671	216497671	G	T	chr1	216324329	216324329
ZH26	oesophagus_squamous_cell_carcinoma	30012096	1	248224489	248224489	A	G	chr1	248061187	248061187
ZH26	oesophagus_squamous_cell_carcinoma	30012096	1	248637363	248637363	G	A	chr1	248474062	248474062
ZH26	oesophagus_squamous_cell_carcinoma	30012096	2	43924397	43924397	T	C	chr2	43697258	43697258
ZH26	oesophagus_squamous_cell_carcinoma	30012096	2	47797333	47797333	G	C	chr2	47570194	47570194
ZH26	oesophagus_squamous_cell_carcinoma	30012096	2	55276743	55276743	G	C	chr2	55049607	55049607
ZH26	oesophagus_squamous_cell_carcinoma	30012096	2	69240672	69240672	A	G	chr2	69013540	69013540
ZH26	oesophagus_squamous_cell_carcinoma	30012096	2	80816632	80816632	C	A	chr2	80589507	80589507
ZH26	oesophagus_squamous_cell_carcinoma	30012096	2	178098800	178098800	T	C	chr2	177234072	177234072
ZH26	oesophagus_squamous_cell_carcinoma	30012096	2	204016317	204016317	G	T	chr2	203151594	203151594
ZH26	oesophagus_squamous_cell_carcinoma	30012096	2	233345859	233345859	C	T	chr2	232481149	232481149
ZH26	oesophagus_squamous_cell_carcinoma	30012096	3	57875726	57875726	C	A	chr3	57889999	57889999
ZH26	oesophagus_squamous_cell_carcinoma	30012096	5	1442974	1442974	C	A	chr5	1442859	1442859
ZH26	oesophagus_squamous_cell_carcinoma	30012096	5	109026096	109026096	T	C	chr5	109690395	109690395
ZH26	oesophagus_squamous_cell_carcinoma	30012096	5	129072844	129072844	G	A	chr5	129737151	129737151
ZH26	oesophagus_squamous_cell_carcinoma	30012096	6	12161819	12161819	G	A	chr6	12161586	12161586
ZH26	oesophagus_squamous_cell_carcinoma	30012096	6	38998164	38998164	A	T	chr6	39030388	39030388
ZH26	oesophagus_squamous_cell_carcinoma	30012096	6	41196251	41196251	A	T	chr6	41228513	41228513
ZH26	oesophagus_squamous_cell_carcinoma	30012096	6	43324947	43324947	G	A	chr6	43357209	43357209
ZH26	oesophagus_squamous_cell_carcinoma	30012096	6	168264932	168264932	G	A	chr6	167864252	167864252
ZH26	oesophagus_squamous_cell_carcinoma	30012096	7	4051865	4051865	C	T	chr7	4012233	4012233
ZH26	oesophagus_squamous_cell_carcinoma	30012096	7	16503997	16503997	G	C	chr7	16464372	16464372
ZH26	oesophagus_squamous_cell_carcinoma	30012096	7	30538377	30538377	G	A	chr7	30498761	30498761
ZH26	oesophagus_squamous_cell_carcinoma	30012096	7	138552725	138552725	C	A	chr7	138867979	138867979
ZH26	oesophagus_squamous_cell_carcinoma	30012096	8	8235052	8235052	C	T	chr8	8377542	8377542
ZH26	oesophagus_squamous_cell_carcinoma	30012096	8	16948028	16948028	C	T	chr8	17090519	17090519
ZH26	oesophagus_squamous_cell_carcinoma	30012096	8	37690667	37690667	G	A	chr8	37833149	37833149
ZH26	oesophagus_squamous_cell_carcinoma	30012096	8	102731579	102731579	C	T	chr8	101719351	101719351
ZH26	oesophagus_squamous_cell_carcinoma	30012096	9	130653053	130653053	C	A	chr9	127890774	127890774
ZH26	oesophagus_squamous_cell_carcinoma	30012096	11	85416084	85416084	G	C	chr11	85705041	85705041
ZH26	oesophagus_squamous_cell_carcinoma	30012096	12	6664905	6664905	C	G	chr12	6555739	6555739
ZH26	oesophagus_squamous_cell_carcinoma	30012096	12	41961553	41961553	A	T	chr12	41567751	41567751
ZH26	oesophagus_squamous_cell_carcinoma	30012096	12	52911696	52911696	C	G	chr12	52517912	52517912
ZH26	oesophagus_squamous_cell_carcinoma	30012096	14	19585327	19585327	G	A	chr14	18999397	18999397
ZH26	oesophagus_squamous_cell_carcinoma	30012096	14	69787623	69787623	G	A	chr14	69320906	69320906
ZH26	oesophagus_squamous_cell_carcinoma	30012096	17	6981396	6981396	C	T	chr17	7078077	7078077
ZH26	oesophagus_squamous_cell_carcinoma	30012096	17	7578550	7578550	G	T	chr17	7675232	7675232
ZH26	oesophagus_squamous_cell_carcinoma	30012096	17	51063796	51063796	C	A	chr17	52986436	52986436
ZH26	oesophagus_squamous_cell_carcinoma	30012096	19	19672896	19672896	G	T	chr19	19562087	19562087
ZH26	oesophagus_squamous_cell_carcinoma	30012096	22	37770821	37770821	C	A	chr22	37374781	37374781
ZH26	oesophagus_squamous_cell_carcinoma	30012096	X	3002420	3002420	G	A	chrX	3084379	3084379
ZH26	oesophagus_squamous_cell_carcinoma	30012096	X	105570920	105570920	C	T	chrX	106327693	106327693
ZH26	oesophagus_squamous_cell_carcinoma	30012096	X	128641944	128641944	G	C	chrX	129507967	129507967
ZH26	oesophagus_squamous_cell_carcinoma	30012096	X	133700602	133700602	G	A	chrX	134566572	134566572
ZH26	oesophagus_squamous_cell_carcinoma	30012096	X	153129840	153129840	C	T	chrX	153864385	153864385
ZH26	oesophagus_squamous_cell_carcinoma	30012096	X	154158957	154158957	G	T	chrX	154930682	154930682
ZH26	oesophagus_squamous_cell_carcinoma	30012096	X	154189364	154189364	C	A	chrX	154961089	154961089
